/*
WARNING: Do NOT edit the input and output ports in this file in a text
editor if you plan to continue editing the block that represents it in
the Block Editor! File corruption is VERY likely to occur.
*/
/*
Copyright (C) 1991-2010 Altera Corporation
Your use of Altera Corporation's design tools, logic functions 
and other software and tools, and its AMPP partner logic 
functions, and any output files from any of the foregoing 
(including device programming or simulation files), and any 
associated documentation or information are expressly subject 
to the terms and conditions of the Altera Program License 
Subscription Agreement, Altera MegaCore Function License 
Agreement, or other applicable license agreement, including, 
without limitation, that your use is for the sole purpose of 
programming logic devices manufactured by Altera and sold by 
Altera or its authorized distributors.  Please refer to the 
applicable agreement for further details.
*/
//#pragma file_not_in_maxplusii_format
(header "graphic" (version "1.3"))
(pin
	(input)
	(rect -112 2248 56 2264)
	(text "INPUT" (rect 133 0 161 10)(font "Arial" (font_size 6)))
	(text "input" (rect 5 0 28 12)(font "Arial" ))
	(pt 168 8)
	(drawing
		(line (pt 92 12)(pt 117 12)(line_width 1))
		(line (pt 92 4)(pt 117 4)(line_width 1))
		(line (pt 121 8)(pt 168 8)(line_width 1))
		(line (pt 92 12)(pt 92 4)(line_width 1))
		(line (pt 117 4)(pt 121 8)(line_width 1))
		(line (pt 117 12)(pt 121 8)(line_width 1))
	)
	(text "VCC" (rect 136 7 156 17)(font "Arial" (font_size 6)))
)
(pin
	(input)
	(rect -96 2552 72 2568)
	(text "INPUT" (rect 133 0 161 10)(font "Arial" (font_size 6)))
	(text "align_active" (rect 5 0 64 12)(font "Arial" ))
	(pt 168 8)
	(drawing
		(line (pt 92 12)(pt 117 12)(line_width 1))
		(line (pt 92 4)(pt 117 4)(line_width 1))
		(line (pt 121 8)(pt 168 8)(line_width 1))
		(line (pt 92 12)(pt 92 4)(line_width 1))
		(line (pt 117 4)(pt 121 8)(line_width 1))
		(line (pt 117 12)(pt 121 8)(line_width 1))
	)
	(text "VCC" (rect 136 7 156 17)(font "Arial" (font_size 6)))
)
(pin
	(input)
	(rect -112 2488 64 2504)
	(text "INPUT" (rect 141 0 169 10)(font "Arial" (font_size 6)))
	(text "AlignWord[15..0]" (rect 5 0 86 12)(font "Arial" ))
	(pt 176 8)
	(drawing
		(line (pt 100 12)(pt 125 12)(line_width 1))
		(line (pt 100 4)(pt 125 4)(line_width 1))
		(line (pt 129 8)(pt 176 8)(line_width 1))
		(line (pt 100 12)(pt 100 4)(line_width 1))
		(line (pt 125 4)(pt 129 8)(line_width 1))
		(line (pt 125 12)(pt 129 8)(line_width 1))
	)
	(text "VCC" (rect 144 7 164 17)(font "Arial" (font_size 6)))
)
(pin
	(input)
	(rect -112 2264 56 2280)
	(text "INPUT" (rect 133 0 161 10)(font "Arial" (font_size 6)))
	(text "rx_inclock" (rect 5 0 54 12)(font "Arial" ))
	(pt 168 8)
	(drawing
		(line (pt 92 12)(pt 117 12)(line_width 1))
		(line (pt 92 4)(pt 117 4)(line_width 1))
		(line (pt 121 8)(pt 168 8)(line_width 1))
		(line (pt 92 12)(pt 92 4)(line_width 1))
		(line (pt 117 4)(pt 121 8)(line_width 1))
		(line (pt 117 12)(pt 121 8)(line_width 1))
	)
	(text "VCC" (rect 136 7 156 17)(font "Arial" (font_size 6)))
)
(pin
	(output)
	(rect 896 2248 1072 2264)
	(text "OUTPUT" (rect 1 0 39 10)(font "Arial" (font_size 6)))
	(text "out[15..0]" (rect 90 0 137 12)(font "Arial" ))
	(pt 0 8)
	(drawing
		(line (pt 0 8)(pt 52 8)(line_width 1))
		(line (pt 52 4)(pt 78 4)(line_width 1))
		(line (pt 52 12)(pt 78 12)(line_width 1))
		(line (pt 52 12)(pt 52 4)(line_width 1))
		(line (pt 78 4)(pt 82 8)(line_width 1))
		(line (pt 82 8)(pt 78 12)(line_width 1))
		(line (pt 78 12)(pt 82 8)(line_width 1))
	)
)
(pin
	(output)
	(rect 896 2264 1072 2280)
	(text "OUTPUT" (rect 1 0 39 10)(font "Arial" (font_size 6)))
	(text "outclock" (rect 90 0 131 12)(font "Arial" ))
	(pt 0 8)
	(drawing
		(line (pt 0 8)(pt 52 8)(line_width 1))
		(line (pt 52 4)(pt 78 4)(line_width 1))
		(line (pt 52 12)(pt 78 12)(line_width 1))
		(line (pt 52 12)(pt 52 4)(line_width 1))
		(line (pt 78 4)(pt 82 8)(line_width 1))
		(line (pt 82 8)(pt 78 12)(line_width 1))
		(line (pt 78 12)(pt 82 8)(line_width 1))
	)
)
(symbol
	(rect 640 2432 768 2528)
	(text "CL_comp16" (rect 30 1 111 17)(font "Arial" (font_size 10)))
	(text "inst53" (rect 8 80 37 92)(font "Arial" ))
	(port
		(pt 0 48)
		(input)
		(text "dataa[15..0]" (rect 0 0 67 14)(font "Arial" (font_size 8)))
		(text "dataa[15..0]" (rect 20 42 87 56)(font "Arial" (font_size 8)))
		(line (pt 0 48)(pt 16 48)(line_width 3))
	)
	(port
		(pt 0 64)
		(input)
		(text "datab[15..0]" (rect 0 0 67 14)(font "Arial" (font_size 8)))
		(text "datab[15..0]" (rect 20 58 87 72)(font "Arial" (font_size 8)))
		(line (pt 0 64)(pt 16 64)(line_width 3))
	)
	(port
		(pt 128 56)
		(output)
		(text "aneb" (rect 0 0 28 14)(font "Arial" (font_size 8)))
		(text "aneb" (rect 85 50 113 64)(font "Arial" (font_size 8)))
		(line (pt 128 56)(pt 112 56)(line_width 1))
	)
	(drawing
		(text "compare" (rect 76 17 118 29)(font "Arial" ))
		(line (pt 16 16)(pt 112 16)(line_width 1))
		(line (pt 112 16)(pt 112 80)(line_width 1))
		(line (pt 112 80)(pt 16 80)(line_width 1))
		(line (pt 16 80)(pt 16 16)(line_width 1))
	)
)
(symbol
	(rect 312 2224 600 2384)
	(text "CL_lvds_rx1" (rect 109 1 191 17)(font "Arial" (font_size 10)))
	(text "inst55" (rect 8 144 37 156)(font "Arial" ))
	(port
		(pt 0 32)
		(input)
		(text "rx_in[0]" (rect 0 0 42 14)(font "Arial" (font_size 8)))
		(text "rx_in[0]" (rect 4 19 46 33)(font "Arial" (font_size 8)))
		(line (pt 0 32)(pt 100 32)(line_width 1))
	)
	(port
		(pt 0 48)
		(input)
		(text "rx_inclock" (rect 0 0 57 14)(font "Arial" (font_size 8)))
		(text "rx_inclock" (rect 4 35 61 49)(font "Arial" (font_size 8)))
		(line (pt 0 48)(pt 100 48)(line_width 1))
	)
	(port
		(pt 0 64)
		(input)
		(text "rx_data_align" (rect 0 0 76 14)(font "Arial" (font_size 8)))
		(text "rx_data_align" (rect 4 51 80 65)(font "Arial" (font_size 8)))
		(line (pt 0 64)(pt 100 64)(line_width 1))
	)
	(port
		(pt 288 32)
		(output)
		(text "rx_out[15..0]" (rect 0 0 71 14)(font "Arial" (font_size 8)))
		(text "rx_out[15..0]" (rect 224 19 295 33)(font "Arial" (font_size 8)))
		(line (pt 288 32)(pt 216 32)(line_width 3))
	)
	(port
		(pt 288 48)
		(output)
		(text "rx_outclock" (rect 0 0 66 14)(font "Arial" (font_size 8)))
		(text "rx_outclock" (rect 229 35 295 49)(font "Arial" (font_size 8)))
		(line (pt 288 48)(pt 192 48)(line_width 1))
	)
	(drawing
		(text "LVDS Receiver" (rect 114 38 190 50)(font "Arial" ))
		(text "single channel, x16" (rect 106 54 200 66)(font "Arial" ))
		(text "32.000 ns" (rect 126 70 174 82)(font "Arial" ))
		(text "I/P data rate=500.00" (rect 104 86 204 98)(font "Arial" ))
		(text "Outclk Freq = 31.25" (rect 105 102 202 114)(font "Arial" ))
		(text "Stratix II" (rect 244 146 286 158)(font "Arial" ))
		(line (pt 100 24)(pt 192 24)(line_width 1))
		(line (pt 192 24)(pt 192 128)(line_width 1))
		(line (pt 192 128)(pt 100 128)(line_width 1))
		(line (pt 100 128)(pt 100 24)(line_width 1))
		(line (pt 100 44)(pt 105 49)(line_width 1))
		(line (pt 100 52)(pt 105 47)(line_width 1))
		(line (pt 208 27)(pt 216 27)(line_width 1))
		(line (pt 216 27)(pt 216 39)(line_width 1))
		(line (pt 216 39)(pt 208 39)(line_width 1))
		(line (pt 208 39)(pt 208 27)(line_width 1))
		(line (pt 208 34)(pt 210 36)(line_width 1))
		(line (pt 210 36)(pt 208 38)(line_width 1))
		(line (pt 200 36)(pt 208 36)(line_width 1))
		(line (pt 192 32)(pt 208 32)(line_width 3))
		(line (pt 200 48)(pt 200 36)(line_width 1))
	)
)
(symbol
	(rect 864 2472 928 2520)
	(text "AND2" (rect 1 0 25 10)(font "Arial" (font_size 6)))
	(text "inst5" (rect 3 37 26 49)(font "Arial" ))
	(port
		(pt 0 16)
		(input)
		(text "IN1" (rect 2 7 19 19)(font "Courier New" (bold))(invisible))
		(text "IN1" (rect 2 7 19 19)(font "Courier New" (bold))(invisible))
		(line (pt 0 16)(pt 14 16)(line_width 1))
	)
	(port
		(pt 0 32)
		(input)
		(text "IN2" (rect 2 23 19 35)(font "Courier New" (bold))(invisible))
		(text "IN2" (rect 2 23 19 35)(font "Courier New" (bold))(invisible))
		(line (pt 0 32)(pt 14 32)(line_width 1))
	)
	(port
		(pt 64 24)
		(output)
		(text "OUT" (rect 48 15 65 27)(font "Courier New" (bold))(invisible))
		(text "OUT" (rect 48 15 65 27)(font "Courier New" (bold))(invisible))
		(line (pt 42 24)(pt 64 24)(line_width 1))
	)
	(drawing
		(line (pt 14 12)(pt 30 12)(line_width 1))
		(line (pt 14 37)(pt 31 37)(line_width 1))
		(line (pt 14 12)(pt 14 37)(line_width 1))
		(arc (pt 31 37)(pt 30 12)(rect 18 12 43 37)(line_width 1))
	)
)
(symbol
	(rect 192 2344 256 2392)
	(text "AND2" (rect 1 0 25 10)(font "Arial" (font_size 6)))
	(text "inst6" (rect 3 37 26 49)(font "Arial" ))
	(port
		(pt 0 16)
		(input)
		(text "IN1" (rect 2 7 19 19)(font "Courier New" (bold))(invisible))
		(text "IN1" (rect 2 7 19 19)(font "Courier New" (bold))(invisible))
		(line (pt 0 16)(pt 14 16)(line_width 1))
	)
	(port
		(pt 0 32)
		(input)
		(text "IN2" (rect 2 23 19 35)(font "Courier New" (bold))(invisible))
		(text "IN2" (rect 2 23 19 35)(font "Courier New" (bold))(invisible))
		(line (pt 0 32)(pt 14 32)(line_width 1))
	)
	(port
		(pt 64 24)
		(output)
		(text "OUT" (rect 48 15 65 27)(font "Courier New" (bold))(invisible))
		(text "OUT" (rect 48 15 65 27)(font "Courier New" (bold))(invisible))
		(line (pt 42 24)(pt 64 24)(line_width 1))
	)
	(drawing
		(line (pt 14 12)(pt 30 12)(line_width 1))
		(line (pt 14 37)(pt 31 37)(line_width 1))
		(line (pt 14 12)(pt 14 37)(line_width 1))
		(arc (pt 31 37)(pt 30 12)(rect 18 12 43 37)(line_width 1))
	)
)
(connector
	(pt 272 2576)
	(pt 360 2576)
)
(connector
	(pt 624 2256)
	(pt 624 2480)
	(bus)
)
(connector
	(pt 640 2480)
	(pt 624 2480)
	(bus)
)
(connector
	(pt 600 2256)
	(pt 624 2256)
	(bus)
)
(connector
	(pt 624 2256)
	(pt 896 2256)
	(bus)
)
(connector
	(pt 600 2272)
	(pt 896 2272)
)
(connector
	(pt 272 2272)
	(pt 272 2576)
)
(connector
	(pt 768 2488)
	(pt 864 2488)
)
(connector
	(pt 864 2504)
	(pt 824 2504)
)
(connector
	(pt 952 2496)
	(pt 928 2496)
)
(connector
	(pt 952 2496)
	(pt 952 2616)
)
(connector
	(pt 64 2496)
	(pt 640 2496)
	(bus)
)
(connector
	(pt 952 2616)
	(pt 176 2616)
)
(connector
	(pt 296 2288)
	(pt 296 2368)
)
(connector
	(pt 296 2368)
	(pt 256 2368)
)
(connector
	(pt 312 2288)
	(pt 296 2288)
)
(connector
	(pt 192 2376)
	(pt 176 2376)
)
(connector
	(pt 176 2376)
	(pt 176 2616)
)
(connector
	(pt 272 2272)
	(pt 312 2272)
)
(connector
	(pt 56 2256)
	(pt 312 2256)
)
(connector
	(pt 192 2360)
	(pt 160 2360)
)
(connector
	(pt 160 2360)
	(pt 160 2272)
)
(connector
	(pt 56 2272)
	(pt 160 2272)
)
(connector
	(pt 160 2272)
	(pt 272 2272)
)
(connector
	(pt 824 2504)
	(pt 824 2560)
)
(connector
	(pt 72 2560)
	(pt 824 2560)
)
(junction (pt 624 2256))
(junction (pt 272 2272))
(junction (pt 160 2272))
