/*
WARNING: Do NOT edit the input and output ports in this file in a text
editor if you plan to continue editing the block that represents it in
the Block Editor! File corruption is VERY likely to occur.
*/
/*
Copyright (C) 1991-2012 Altera Corporation
Your use of Altera Corporation's design tools, logic functions 
and other software and tools, and its AMPP partner logic 
functions, and any output files from any of the foregoing 
(including device programming or simulation files), and any 
associated documentation or information are expressly subject 
to the terms and conditions of the Altera Program License 
Subscription Agreement, Altera MegaCore Function License 
Agreement, or other applicable license agreement, including, 
without limitation, that your use is for the sole purpose of 
programming logic devices manufactured by Altera and sold by 
Altera or its authorized distributors.  Please refer to the 
applicable agreement for further details.
*/
//#pragma file_not_in_maxplusii_format
(header "graphic" (version "1.4"))
(pin
	(input)
	(rect -672 472 -504 488)
	(text "INPUT" (rect 133 0 161 10)(font "Arial" (font_size 6)))
	(text "clk" (rect 50 0 64 12)(font "Arial" ))
	(pt 168 8)
	(drawing
		(line (pt 92 12)(pt 117 12))
		(line (pt 92 4)(pt 117 4))
		(line (pt 121 8)(pt 168 8))
		(line (pt 92 12)(pt 92 4))
		(line (pt 117 4)(pt 121 8))
		(line (pt 117 12)(pt 121 8))
	)
	(text "VCC" (rect 136 7 156 17)(font "Arial" (font_size 6)))
)
(pin
	(input)
	(rect -664 296 -496 312)
	(text "INPUT" (rect 133 0 161 10)(font "Arial" (font_size 6)))
	(text "packet_transfer" (rect 5 0 82 12)(font "Arial" ))
	(pt 168 8)
	(drawing
		(line (pt 92 12)(pt 117 12))
		(line (pt 92 4)(pt 117 4))
		(line (pt 121 8)(pt 168 8))
		(line (pt 92 12)(pt 92 4))
		(line (pt 117 4)(pt 121 8))
		(line (pt 117 12)(pt 121 8))
	)
	(text "VCC" (rect 136 7 156 17)(font "Arial" (font_size 6)))
)
(pin
	(input)
	(rect -664 312 -496 328)
	(text "INPUT" (rect 133 0 161 10)(font "Arial" (font_size 6)))
	(text "data_transfer" (rect 5 0 71 12)(font "Arial" ))
	(pt 168 8)
	(drawing
		(line (pt 92 12)(pt 117 12))
		(line (pt 92 4)(pt 117 4))
		(line (pt 121 8)(pt 168 8))
		(line (pt 92 12)(pt 92 4))
		(line (pt 117 4)(pt 121 8))
		(line (pt 117 12)(pt 121 8))
	)
	(text "VCC" (rect 136 7 156 17)(font "Arial" (font_size 6)))
)
(pin
	(input)
	(rect -656 88 -488 104)
	(text "INPUT" (rect 133 0 161 10)(font "Arial" (font_size 6)))
	(text "find_min_max" (rect 5 0 74 12)(font "Arial" ))
	(pt 168 8)
	(drawing
		(line (pt 92 12)(pt 117 12))
		(line (pt 92 4)(pt 117 4))
		(line (pt 121 8)(pt 168 8))
		(line (pt 92 12)(pt 92 4))
		(line (pt 117 4)(pt 121 8))
		(line (pt 117 12)(pt 121 8))
	)
	(text "VCC" (rect 136 7 156 17)(font "Arial" (font_size 6)))
)
(pin
	(input)
	(rect -672 440 -504 456)
	(text "INPUT" (rect 133 0 161 10)(font "Arial" (font_size 6)))
	(text "data[223..0]" (rect 5 0 64 12)(font "Arial" ))
	(pt 168 8)
	(drawing
		(line (pt 92 12)(pt 117 12))
		(line (pt 92 4)(pt 117 4))
		(line (pt 121 8)(pt 168 8))
		(line (pt 92 12)(pt 92 4))
		(line (pt 117 4)(pt 121 8))
		(line (pt 117 12)(pt 121 8))
	)
	(text "VCC" (rect 136 7 156 17)(font "Arial" (font_size 6)))
)
(pin
	(input)
	(rect -664 232 -496 248)
	(text "INPUT" (rect 133 0 161 10)(font "Arial" (font_size 6)))
	(text "use_corr_func" (rect 5 0 75 12)(font "Arial" ))
	(pt 168 8)
	(drawing
		(line (pt 92 12)(pt 117 12))
		(line (pt 92 4)(pt 117 4))
		(line (pt 121 8)(pt 168 8))
		(line (pt 92 12)(pt 92 4))
		(line (pt 117 4)(pt 121 8))
		(line (pt 117 12)(pt 121 8))
	)
	(text "VCC" (rect 136 7 156 17)(font "Arial" (font_size 6)))
)
(pin
	(input)
	(rect -656 -32 -488 -16)
	(text "INPUT" (rect 133 0 161 10)(font "Arial" (font_size 6)))
	(text "test_corr_func" (rect 5 0 76 12)(font "Arial" ))
	(pt 168 8)
	(drawing
		(line (pt 92 12)(pt 117 12))
		(line (pt 92 4)(pt 117 4))
		(line (pt 121 8)(pt 168 8))
		(line (pt 92 12)(pt 92 4))
		(line (pt 117 4)(pt 121 8))
		(line (pt 117 12)(pt 121 8))
	)
	(text "VCC" (rect 136 7 156 17)(font "Arial" (font_size 6)))
)
(pin
	(input)
	(rect -656 -96 -488 -80)
	(text "INPUT" (rect 133 0 161 10)(font "Arial" (font_size 6)))
	(text "use_lossless" (rect 5 0 68 12)(font "Arial" ))
	(pt 168 8)
	(drawing
		(line (pt 92 12)(pt 117 12))
		(line (pt 92 4)(pt 117 4))
		(line (pt 121 8)(pt 168 8))
		(line (pt 92 12)(pt 92 4))
		(line (pt 117 4)(pt 121 8))
		(line (pt 117 12)(pt 121 8))
	)
	(text "VCC" (rect 136 7 156 17)(font "Arial" (font_size 6)))
)
(pin
	(output)
	(rect 120 96 336 112)
	(text "OUTPUT" (rect 1 0 39 10)(font "Arial" (font_size 6)))
	(text "min[223..0]" (rect 156 0 211 12)(font "Arial" ))
	(pt 0 8)
	(drawing
		(line (pt 0 8)(pt 52 8))
		(line (pt 52 4)(pt 78 4))
		(line (pt 52 12)(pt 78 12))
		(line (pt 52 12)(pt 52 4))
		(line (pt 78 4)(pt 82 8))
		(line (pt 82 8)(pt 78 12))
		(line (pt 78 12)(pt 82 8))
	)
	(annotation_block (location)(rect 560 -264 616 -248))
)
(pin
	(output)
	(rect 120 112 347 128)
	(text "OUTPUT" (rect 1 0 39 10)(font "Arial" (font_size 6)))
	(text "ll_code[31..0]" (rect 156 0 222 12)(font "Arial" ))
	(pt 0 8)
	(drawing
		(line (pt 0 8)(pt 52 8))
		(line (pt 52 4)(pt 78 4))
		(line (pt 52 12)(pt 78 12))
		(line (pt 52 12)(pt 52 4))
		(line (pt 78 4)(pt 82 8))
		(line (pt 82 8)(pt 78 12))
		(line (pt 78 12)(pt 82 8))
	)
	(annotation_block (location)(rect 704 -192 760 -176))
)
(pin
	(output)
	(rect 792 168 1012 184)
	(text "OUTPUT" (rect 1 0 39 10)(font "Arial" (font_size 6)))
	(text "comp[15..0]" (rect 156 0 215 12)(font "Arial" ))
	(pt 0 8)
	(drawing
		(line (pt 0 8)(pt 52 8))
		(line (pt 52 4)(pt 78 4))
		(line (pt 52 12)(pt 78 12))
		(line (pt 52 12)(pt 52 4))
		(line (pt 78 4)(pt 82 8))
		(line (pt 82 8)(pt 78 12))
		(line (pt 78 12)(pt 82 8))
	)
	(annotation_block (location)(rect 696 232 752 248))
)
(pin
	(output)
	(rect 1464 296 1699 312)
	(text "OUTPUT" (rect 1 0 39 10)(font "Arial" (font_size 6)))
	(text "data_out[15..0]" (rect 156 0 230 12)(font "Arial" ))
	(pt 0 8)
	(drawing
		(line (pt 0 8)(pt 52 8))
		(line (pt 52 4)(pt 78 4))
		(line (pt 52 12)(pt 78 12))
		(line (pt 52 12)(pt 52 4))
		(line (pt 78 4)(pt 82 8))
		(line (pt 82 8)(pt 78 12))
		(line (pt 78 12)(pt 82 8))
	)
	(annotation_block (location)(rect 1480 -248 1536 -232))
)
(symbol
	(rect 376 280 528 360)
	(text "mux16" (rect 61 2 107 18)(font "Arial" (font_size 10)))
	(text "inst18" (rect 8 64 37 76)(font "Arial" ))
	(port
		(pt 0 40)
		(input)
		(text "data1x[15..0]" (rect 0 0 74 14)(font "Arial" (font_size 8)))
		(text "data1x[15..0]" (rect 4 27 78 41)(font "Arial" (font_size 8)))
		(line (pt 0 40)(pt 72 40)(line_width 3))
	)
	(port
		(pt 0 56)
		(input)
		(text "data0x[15..0]" (rect 0 0 74 14)(font "Arial" (font_size 8)))
		(text "data0x[15..0]" (rect 4 43 78 57)(font "Arial" (font_size 8)))
		(line (pt 0 56)(pt 72 56)(line_width 3))
	)
	(port
		(pt 80 80)
		(input)
		(text "sel" (rect 0 0 16 14)(font "Arial" (font_size 8)))
		(text "sel" (rect 84 67 100 81)(font "Arial" (font_size 8)))
		(line (pt 80 80)(pt 80 68))
	)
	(port
		(pt 152 48)
		(output)
		(text "result[15..0]" (rect 0 0 67 14)(font "Arial" (font_size 8)))
		(text "result[15..0]" (rect 92 35 159 49)(font "Arial" (font_size 8)))
		(line (pt 152 48)(pt 88 48)(line_width 3))
	)
	(drawing
		(line (pt 72 24)(pt 72 72))
		(line (pt 88 32)(pt 88 64))
		(line (pt 72 24)(pt 88 32))
		(line (pt 72 72)(pt 88 64))
	)
)
(symbol
	(rect 1016 264 1064 296)
	(text "WIRE" (rect 1 22 24 32)(font "Arial" (font_size 6)))
	(text "inst173" (rect -3 -1 32 11)(font "Arial" ))
	(port
		(pt 0 16)
		(input)
		(text "IN" (rect 2 7 13 19)(font "Courier New" (bold))(invisible))
		(text "IN" (rect 2 13 13 25)(font "Courier New" (bold))(invisible))
		(line (pt 0 16)(pt 14 16))
	)
	(port
		(pt 48 16)
		(output)
		(text "OUT" (rect 32 7 49 19)(font "Courier New" (bold))(invisible))
		(text "OUT" (rect 32 13 49 25)(font "Courier New" (bold))(invisible))
		(line (pt 32 16)(pt 48 16))
	)
	(drawing
		(line (pt 14 25)(pt 32 16))
		(line (pt 14 7)(pt 14 25))
		(line (pt 14 7)(pt 32 16))
	)
	(flipx)
)
(symbol
	(rect 1104 256 1168 320)
	(text "and16" (rect 15 1 56 17)(font "Arial" (font_size 10)))
	(text "inst70" (rect 8 48 37 60)(font "Arial" ))
	(port
		(pt 0 24)
		(input)
		(text "data0x[15..0]" (rect 0 0 74 14)(font "Arial" (font_size 8)))
		(text "data0x[15..0]" (rect 4 -38 78 -24)(font "Arial" (font_size 8))(invisible))
		(line (pt 0 24)(pt 16 24)(line_width 3))
	)
	(port
		(pt 0 40)
		(input)
		(text "data1x[15..0]" (rect 0 0 74 14)(font "Arial" (font_size 8)))
		(text "data1x[15..0]" (rect 4 -22 78 -8)(font "Arial" (font_size 8))(invisible))
		(line (pt 0 40)(pt 16 40)(line_width 3))
	)
	(port
		(pt 64 32)
		(output)
		(text "result[15..0]" (rect 0 0 67 14)(font "Arial" (font_size 8)))
		(text "result[15..0]" (rect 61 -23 128 -9)(font "Arial" (font_size 8))(invisible))
		(line (pt 64 32)(pt 43 32)(line_width 3))
	)
	(drawing
		(text "16" (rect 5 25 16 37)(font "Arial" ))
		(text "16" (rect 5 41 16 53)(font "Arial" ))
		(text "16" (rect 51 33 62 45)(font "Arial" ))
		(line (pt 16 20)(pt 32 20))
		(line (pt 16 44)(pt 32 44))
		(line (pt 16 44)(pt 16 20))
		(line (pt 0 28)(pt 8 20))
		(line (pt 0 44)(pt 8 36))
		(line (pt 46 36)(pt 54 28))
		(arc (pt 32 44)(pt 32 20)(rect 20 20 44 44))
	)
)
(symbol
	(rect 1240 256 1384 336)
	(text "reg16nc" (rect 49 1 103 17)(font "Arial" (font_size 10)))
	(text "inst38" (rect 8 64 37 76)(font "Arial" ))
	(port
		(pt 0 32)
		(input)
		(text "data[15..0]" (rect 0 0 60 14)(font "Arial" (font_size 8)))
		(text "data[15..0]" (rect 20 26 80 40)(font "Arial" (font_size 8)))
		(line (pt 0 32)(pt 16 32)(line_width 3))
	)
	(port
		(pt 0 48)
		(input)
		(text "clock" (rect 0 0 29 14)(font "Arial" (font_size 8)))
		(text "clock" (rect 26 42 55 56)(font "Arial" (font_size 8)))
		(line (pt 0 48)(pt 16 48))
	)
	(port
		(pt 144 48)
		(output)
		(text "q[15..0]" (rect 0 0 42 14)(font "Arial" (font_size 8)))
		(text "q[15..0]" (rect 89 42 131 56)(font "Arial" (font_size 8)))
		(line (pt 144 48)(pt 128 48)(line_width 3))
	)
	(drawing
		(text "DFF" (rect 109 17 131 29)(font "Arial" ))
		(line (pt 16 16)(pt 128 16))
		(line (pt 128 16)(pt 128 64))
		(line (pt 128 64)(pt 16 64))
		(line (pt 16 64)(pt 16 16))
		(line (pt 16 42)(pt 22 48))
		(line (pt 22 48)(pt 16 54))
	)
)
(symbol
	(rect 848 232 992 312)
	(text "ff3" (rect 66 1 81 17)(font "Arial" (font_size 10)))
	(text "inst6" (rect 8 64 31 76)(font "Arial" ))
	(port
		(pt 0 32)
		(input)
		(text "data" (rect 0 0 24 14)(font "Arial" (font_size 8)))
		(text "data" (rect 20 26 44 40)(font "Arial" (font_size 8)))
		(line (pt 0 32)(pt 16 32))
	)
	(port
		(pt 0 48)
		(input)
		(text "clock" (rect 0 0 29 14)(font "Arial" (font_size 8)))
		(text "clock" (rect 26 42 55 56)(font "Arial" (font_size 8)))
		(line (pt 0 48)(pt 16 48))
	)
	(port
		(pt 144 48)
		(output)
		(text "q" (rect 0 0 7 14)(font "Arial" (font_size 8)))
		(text "q" (rect 119 42 126 56)(font "Arial" (font_size 8)))
		(line (pt 144 48)(pt 128 48))
	)
	(drawing
		(text "DFF" (rect 109 17 131 29)(font "Arial" ))
		(line (pt 16 16)(pt 128 16))
		(line (pt 128 16)(pt 128 64))
		(line (pt 128 64)(pt 16 64))
		(line (pt 16 64)(pt 16 16))
		(line (pt 16 42)(pt 22 48))
		(line (pt 22 48)(pt 16 54))
	)
)
(symbol
	(rect -120 -48 -56 16)
	(text "and16" (rect 15 1 56 17)(font "Arial" (font_size 10)))
	(text "inst5" (rect 8 48 31 60)(font "Arial" ))
	(port
		(pt 0 24)
		(input)
		(text "data0x[15..0]" (rect 0 0 74 14)(font "Arial" (font_size 8)))
		(text "data0x[15..0]" (rect 4 -38 78 -24)(font "Arial" (font_size 8))(invisible))
		(line (pt 0 24)(pt 16 24)(line_width 3))
	)
	(port
		(pt 0 40)
		(input)
		(text "data1x[15..0]" (rect 0 0 74 14)(font "Arial" (font_size 8)))
		(text "data1x[15..0]" (rect 4 -22 78 -8)(font "Arial" (font_size 8))(invisible))
		(line (pt 0 40)(pt 16 40)(line_width 3))
	)
	(port
		(pt 64 32)
		(output)
		(text "result[15..0]" (rect 0 0 67 14)(font "Arial" (font_size 8)))
		(text "result[15..0]" (rect 61 -23 128 -9)(font "Arial" (font_size 8))(invisible))
		(line (pt 64 32)(pt 43 32)(line_width 3))
	)
	(drawing
		(text "16" (rect 5 25 16 37)(font "Arial" ))
		(text "16" (rect 5 41 16 53)(font "Arial" ))
		(text "16" (rect 51 33 62 45)(font "Arial" ))
		(line (pt 16 20)(pt 32 20))
		(line (pt 16 44)(pt 32 44))
		(line (pt 16 44)(pt 16 20))
		(line (pt 0 28)(pt 8 20))
		(line (pt 0 44)(pt 8 36))
		(line (pt 46 36)(pt 54 28))
		(arc (pt 32 44)(pt 32 20)(rect 20 20 44 44))
	)
)
(symbol
	(rect -264 -40 -216 -8)
	(text "WIRE" (rect 1 0 24 10)(font "Arial" (font_size 6)))
	(text "inst17" (rect 3 21 32 33)(font "Arial" ))
	(port
		(pt 0 16)
		(input)
		(text "IN" (rect 2 7 13 19)(font "Courier New" (bold))(invisible))
		(text "IN" (rect 2 7 13 19)(font "Courier New" (bold))(invisible))
		(line (pt 0 16)(pt 14 16))
	)
	(port
		(pt 48 16)
		(output)
		(text "OUT" (rect 32 7 49 19)(font "Courier New" (bold))(invisible))
		(text "OUT" (rect 32 7 49 19)(font "Courier New" (bold))(invisible))
		(line (pt 32 16)(pt 48 16))
	)
	(drawing
		(line (pt 14 7)(pt 32 16))
		(line (pt 14 25)(pt 14 7))
		(line (pt 14 25)(pt 32 16))
	)
)
(symbol
	(rect 376 144 528 224)
	(text "mux16" (rect 61 62 107 78)(font "Arial" (font_size 10)))
	(text "inst19" (rect 8 4 37 16)(font "Arial" ))
	(port
		(pt 0 40)
		(input)
		(text "data1x[15..0]" (rect 0 0 74 14)(font "Arial" (font_size 8)))
		(text "data1x[15..0]" (rect 4 39 78 53)(font "Arial" (font_size 8)))
		(line (pt 0 40)(pt 72 40)(line_width 3))
	)
	(port
		(pt 0 24)
		(input)
		(text "data0x[15..0]" (rect 0 0 74 14)(font "Arial" (font_size 8)))
		(text "data0x[15..0]" (rect 4 23 78 37)(font "Arial" (font_size 8)))
		(line (pt 0 24)(pt 72 24)(line_width 3))
	)
	(port
		(pt 80 0)
		(input)
		(text "sel" (rect 0 0 16 14)(font "Arial" (font_size 8)))
		(text "sel" (rect 84 -1 100 13)(font "Arial" (font_size 8)))
		(line (pt 80 0)(pt 80 12))
	)
	(port
		(pt 152 32)
		(output)
		(text "result[15..0]" (rect 0 0 67 14)(font "Arial" (font_size 8)))
		(text "result[15..0]" (rect 92 31 159 45)(font "Arial" (font_size 8)))
		(line (pt 152 32)(pt 88 32)(line_width 3))
	)
	(drawing
		(line (pt 72 56)(pt 72 8))
		(line (pt 88 48)(pt 88 16))
		(line (pt 72 56)(pt 88 48))
		(line (pt 72 8)(pt 88 16))
	)
	(flipx)
)
(symbol
	(rect 8 -56 56 8)
	(text "AND2" (rect 38 1 48 25)(font "Arial" (font_size 6))(vertical))
	(text "inst7" (rect -1 3 11 26)(font "Arial" )(vertical))
	(port
		(pt 32 0)
		(input)
		(text "IN1" (rect 2 7 19 19)(font "Courier New" (bold))(invisible))
		(text "IN1" (rect 29 2 41 19)(font "Courier New" (bold))(vertical)(invisible))
		(line (pt 32 0)(pt 32 14))
	)
	(port
		(pt 16 0)
		(input)
		(text "IN2" (rect 2 23 19 35)(font "Courier New" (bold))(invisible))
		(text "IN2" (rect 13 2 25 19)(font "Courier New" (bold))(vertical)(invisible))
		(line (pt 16 0)(pt 16 14))
	)
	(port
		(pt 24 64)
		(output)
		(text "OUT" (rect 48 15 65 27)(font "Courier New" (bold))(invisible))
		(text "OUT" (rect 21 48 33 65)(font "Courier New" (bold))(vertical)(invisible))
		(line (pt 24 42)(pt 24 64))
	)
	(drawing
		(line (pt 36 14)(pt 36 30))
		(line (pt 11 14)(pt 11 31))
		(line (pt 36 14)(pt 11 14))
		(arc (pt 11 31)(pt 36 30)(rect 11 18 36 43))
	)
	(rotate270)
)
(symbol
	(rect -344 32 -144 152)
	(text "min_range_cal" (rect 8 0 90 14)(font "Arial" (font_size 8)))
	(text "inst1" (rect 8 104 31 116)(font "Arial" ))
	(port
		(pt 0 48)
		(input)
		(text "clk" (rect 0 16 15 30)(font "Arial" (font_size 8)))
		(text "clk" (rect 21 43 36 57)(font "Arial" (font_size 8)))
		(line (pt 0 48)(pt 16 48))
	)
	(port
		(pt 0 80)
		(input)
		(text "data[223..00]" (rect 0 16 74 30)(font "Arial" (font_size 8)))
		(text "data[223..00]" (rect 21 75 95 89)(font "Arial" (font_size 8)))
		(line (pt 0 80)(pt 16 80)(line_width 3))
	)
	(port
		(pt 0 64)
		(input)
		(text "enable" (rect 24 88 61 102)(font "Arial" (font_size 8)))
		(text "enable" (rect 24 56 61 70)(font "Arial" (font_size 8)))
		(line (pt 0 64)(pt 16 64))
	)
	(port
		(pt 200 32)
		(input)
		(text "use_both" (rect 150 32 203 46)(font "Arial" (font_size 8)))
		(text "use_both" (rect 128 24 181 38)(font "Arial" (font_size 8)))
		(line (pt 200 32)(pt 184 32))
	)
	(port
		(pt 200 48)
		(input)
		(text "comp[15..0]" (rect 150 48 216 62)(font "Arial" (font_size 8)))
		(text "comp[15..0]" (rect 120 40 186 54)(font "Arial" (font_size 8)))
		(line (pt 200 48)(pt 184 48)(color 128 0 255)(line_width 3))
	)
	(port
		(pt 200 88)
		(output)
		(text "ll_code[31..0]" (rect 0 16 75 30)(font "Arial" (font_size 8)))
		(text "ll_code[31..0]" (rect 112 80 187 94)(font "Arial" (font_size 8)))
		(line (pt 200 88)(pt 184 88)(line_width 3))
	)
	(port
		(pt 200 72)
		(output)
		(text "min[223..0]" (rect 0 16 61 30)(font "Arial" (font_size 8)))
		(text "min[223..0]" (rect 128 64 189 78)(font "Arial" (font_size 8)))
		(line (pt 200 72)(pt 184 72)(line_width 3))
	)
	(drawing
		(rectangle (rect 16 16 184 104))
	)
)
(symbol
	(rect -344 168 -144 304)
	(text "lossless" (rect 5 0 52 14)(font "Arial" (font_size 8)))
	(text "inst" (rect 8 120 25 132)(font "Arial" ))
	(port
		(pt 0 104)
		(input)
		(text "data[223..0]" (rect 0 0 67 14)(font "Arial" (font_size 8)))
		(text "data[223..0]" (rect 21 96 88 110)(font "Arial" (font_size 8)))
		(line (pt 0 104)(pt 16 104)(line_width 3))
	)
	(port
		(pt 0 88)
		(input)
		(text "clk" (rect 0 0 15 14)(font "Arial" (font_size 8)))
		(text "clk" (rect 21 80 36 94)(font "Arial" (font_size 8)))
		(line (pt 0 88)(pt 16 88))
	)
	(port
		(pt 0 32)
		(input)
		(text "lossless_comp_code[31..0]" (rect 0 0 155 14)(font "Arial" (font_size 8)))
		(text "lossless_comp_code[31..0]" (rect 21 27 176 41)(font "Arial" (font_size 8)))
		(line (pt 0 32)(pt 16 32)(line_width 3))
	)
	(port
		(pt 200 56)
		(input)
		(text "min[223..0]" (rect 150 24 211 38)(font "Arial" (font_size 8)))
		(text "min[223..0]" (rect 120 48 181 62)(font "Arial" (font_size 8)))
		(line (pt 200 56)(pt 184 56)(color 0 128 255)(line_width 3))
	)
	(port
		(pt 0 72)
		(input)
		(text "corr_mode" (rect 0 0 61 14)(font "Arial" (font_size 8)))
		(text "corr_mode" (rect 21 64 82 78)(font "Arial" (font_size 8)))
		(line (pt 0 72)(pt 16 72))
	)
	(port
		(pt 0 56)
		(input)
		(text "use_lossless" (rect 24 48 99 62)(font "Arial" (font_size 8)))
		(text "use_lossless" (rect 24 48 99 62)(font "Arial" (font_size 8)))
		(line (pt 0 56)(pt 16 56))
	)
	(port
		(pt 200 80)
		(output)
		(text "data_out[223..0]" (rect -128 0 -36 14)(font "Arial" (font_size 8)))
		(text "data_out[223..0]" (rect 96 72 188 86)(font "Arial" (font_size 8)))
		(line (pt 200 80)(pt 184 80)(line_width 3))
	)
	(port
		(pt 200 104)
		(output)
		(text "compress_out[15..0]" (rect -128 0 -12 14)(font "Arial" (font_size 8)))
		(text "compress_out[15..0]" (rect 80 96 196 110)(font "Arial" (font_size 8)))
		(line (pt 200 104)(pt 184 104)(line_width 3))
	)
	(drawing
		(rectangle (rect 16 16 184 120))
	)
)
(symbol
	(rect 88 208 280 376)
	(text "word_aligner_16" (rect 5 0 114 16)(font "Arial" (font_size 10)))
	(text "inst3" (rect 8 152 31 164)(font "Arial" ))
	(port
		(pt 0 64)
		(input)
		(text "comp[15..0]" (rect 0 0 66 14)(font "Arial" (font_size 8)))
		(text "comp[15..0]" (rect 21 59 87 73)(font "Arial" (font_size 8)))
		(line (pt 0 64)(pt 16 64)(line_width 3))
	)
	(port
		(pt 0 96)
		(input)
		(text "reset" (rect 0 0 29 14)(font "Arial" (font_size 8)))
		(text "reset" (rect 24 88 53 102)(font "Arial" (font_size 8)))
		(line (pt 0 96)(pt 16 96))
	)
	(port
		(pt 0 112)
		(input)
		(text "enable" (rect 0 0 37 14)(font "Arial" (font_size 8)))
		(text "enable" (rect 24 104 61 118)(font "Arial" (font_size 8)))
		(line (pt 0 112)(pt 16 112))
	)
	(port
		(pt 0 40)
		(input)
		(text "buffer_data[223..0]" (rect 0 0 109 14)(font "Arial" (font_size 8)))
		(text "buffer_data[223..0]" (rect 21 35 130 49)(font "Arial" (font_size 8)))
		(line (pt 0 40)(pt 16 40)(line_width 3))
	)
	(port
		(pt 0 128)
		(input)
		(text "clk" (rect 0 0 15 14)(font "Arial" (font_size 8)))
		(text "clk" (rect 24 120 39 134)(font "Arial" (font_size 8)))
		(line (pt 0 128)(pt 16 128))
	)
	(port
		(pt 192 112)
		(output)
		(text "out[15..0]" (rect -24 0 29 14)(font "Arial" (font_size 8)))
		(text "out[15..0]" (rect 118 107 171 121)(font "Arial" (font_size 8)))
		(line (pt 192 112)(pt 176 112)(line_width 3))
	)
	(drawing
		(rectangle (rect 16 16 176 152))
	)
)
(symbol
	(rect -344 384 -152 552)
	(text "word_aligner" (rect 5 0 89 16)(font "Arial" (font_size 10)))
	(text "inst2" (rect 8 152 31 164)(font "Arial" ))
	(port
		(pt 0 40)
		(input)
		(text "comp[15..0]" (rect 0 0 66 14)(font "Arial" (font_size 8)))
		(text "comp[15..0]" (rect 21 35 87 49)(font "Arial" (font_size 8)))
		(line (pt 0 40)(pt 16 40)(line_width 3))
	)
	(port
		(pt 0 112)
		(input)
		(text "reset" (rect 0 0 29 14)(font "Arial" (font_size 8)))
		(text "reset" (rect 24 104 53 118)(font "Arial" (font_size 8)))
		(line (pt 0 112)(pt 16 112))
	)
	(port
		(pt 0 128)
		(input)
		(text "enable" (rect 0 0 37 14)(font "Arial" (font_size 8)))
		(text "enable" (rect 24 120 61 134)(font "Arial" (font_size 8)))
		(line (pt 0 128)(pt 16 128))
	)
	(port
		(pt 0 64)
		(input)
		(text "buffer_data[223..0]" (rect 0 0 109 14)(font "Arial" (font_size 8)))
		(text "buffer_data[223..0]" (rect 21 59 130 73)(font "Arial" (font_size 8)))
		(line (pt 0 64)(pt 16 64)(line_width 3))
	)
	(port
		(pt 0 96)
		(input)
		(text "clk" (rect 0 0 15 14)(font "Arial" (font_size 8)))
		(text "clk" (rect 24 88 39 102)(font "Arial" (font_size 8)))
		(line (pt 0 96)(pt 16 96))
	)
	(port
		(pt 192 112)
		(output)
		(text "out[15..0]" (rect -24 0 29 14)(font "Arial" (font_size 8)))
		(text "out[15..0]" (rect 118 107 171 121)(font "Arial" (font_size 8)))
		(line (pt 192 112)(pt 176 112)(line_width 3))
	)
	(drawing
		(rectangle (rect 16 16 176 152))
	)
)
(symbol
	(rect -144 16 -112 48)
	(text "GND" (rect 8 16 29 26)(font "Arial" (font_size 6)))
	(text "inst4" (rect 3 21 26 33)(font "Arial" )(invisible))
	(port
		(pt 16 0)
		(output)
		(text "1" (rect 18 0 23 12)(font "Courier New" (bold))(invisible))
		(text "1" (rect 18 0 23 12)(font "Courier New" (bold))(invisible))
		(line (pt 16 8)(pt 16 0))
	)
	(drawing
		(line (pt 8 8)(pt 16 16))
		(line (pt 16 16)(pt 24 8))
		(line (pt 8 8)(pt 24 8))
	)
)
(connector
	(pt -360 200)
	(pt -344 200)
	(bus)
)
(connector
	(pt -360 160)
	(pt -360 200)
	(bus)
)
(connector
	(pt 280 320)
	(pt 376 320)
	(bus)
)
(connector
	(pt 456 360)
	(pt 456 376)
)
(connector
	(pt 1168 288)
	(pt 1240 288)
	(bus)
)
(connector
	(pt 1240 304)
	(pt 1216 304)
)
(connector
	(pt 1216 304)
	(pt 1216 344)
)
(connector
	(pt 1104 296)
	(pt 1088 296)
	(bus)
)
(connector
	(pt 1384 304)
	(pt 1464 304)
	(bus)
)
(connector
	(pt 1088 296)
	(pt 1088 328)
	(bus)
)
(connector
	(pt 528 328)
	(pt 1088 328)
	(bus)
)
(connector
	(pt 56 336)
	(pt 56 416)
)
(connector
	(pt 72 304)
	(pt 72 400)
)
(connector
	(pt 992 280)
	(pt 1016 280)
)
(connector
	(pt 848 280)
	(pt 832 280)
)
(connector
	(pt 832 344)
	(pt 1216 344)
)
(connector
	(pt 56 416)
	(pt 832 416)
)
(connector
	(pt 72 400)
	(pt 816 400)
)
(connector
	(pt 848 264)
	(pt 816 264)
)
(connector
	(pt 816 264)
	(pt 816 400)
)
(connector
	(pt 1064 280)
	(pt 1104 280)
	(bus)
)
(connector
	(pt 56 336)
	(pt 88 336)
)
(connector
	(pt 72 304)
	(pt 88 304)
)
(connector
	(pt 832 280)
	(pt 832 344)
)
(connector
	(pt 832 344)
	(pt 832 416)
)
(connector
	(pt -392 336)
	(pt 56 336)
)
(connector
	(pt 376 336)
	(pt 360 336)
	(bus)
)
(connector
	(pt -360 424)
	(pt -344 424)
	(bus)
)
(connector
	(pt -344 496)
	(pt -408 496)
)
(connector
	(pt -424 320)
	(pt -424 512)
)
(connector
	(pt -408 304)
	(pt -408 496)
)
(connector
	(pt -344 512)
	(pt -424 512)
)
(connector
	(pt 360 496)
	(pt -152 496)
	(bus)
)
(connector
	(pt 360 336)
	(pt 360 496)
	(bus)
)
(connector
	(pt -360 360)
	(pt -360 424)
	(bus)
)
(connector
	(pt -32 360)
	(pt -360 360)
	(bus)
)
(connector
	(pt -496 320)
	(pt -424 320)
)
(connector
	(pt -424 320)
	(pt 88 320)
)
(connector
	(pt -496 304)
	(pt -408 304)
)
(connector
	(pt -408 304)
	(pt 72 304)
)
(connector
	(pt -144 224)
	(pt -96 224)
	(bus)
)
(connector
	(pt -360 160)
	(pt -120 160)
	(bus)
)
(connector
	(pt -144 272)
	(pt -56 272)
	(bus)
)
(connector
	(pt -56 272)
	(pt 88 272)
	(bus)
)
(connector
	(pt 528 176)
	(pt 792 176)
	(bus)
)
(connector
	(pt -32 168)
	(pt 376 168)
	(bus)
)
(connector
	(pt -32 168)
	(pt -32 360)
	(bus)
)
(connector
	(pt 376 184)
	(pt -56 184)
	(bus)
)
(connector
	(pt -56 272)
	(pt -56 184)
	(bus)
)
(connector
	(pt 456 376)
	(pt 560 376)
)
(connector
	(pt 456 144)
	(pt 456 104)
)
(connector
	(pt 456 104)
	(pt 560 104)
)
(connector
	(pt -344 272)
	(pt -376 272)
	(bus)
)
(connector
	(pt -344 256)
	(pt -392 256)
)
(connector
	(pt -344 224)
	(pt -408 224)
)
(connector
	(pt -144 248)
	(pt 88 248)
	(bus)
)
(connector
	(pt -32 80)
	(pt -144 80)
	(bus)
)
(connector
	(pt 32 64)
	(pt -144 64)
)
(connector
	(pt 32 8)
	(pt 32 64)
)
(connector
	(pt -376 112)
	(pt -344 112)
	(bus)
)
(connector
	(pt -392 80)
	(pt -344 80)
)
(connector
	(pt -96 104)
	(pt -96 224)
	(bus)
)
(connector
	(pt -144 104)
	(pt -96 104)
	(bus)
)
(connector
	(pt -96 104)
	(pt 120 104)
	(bus)
)
(connector
	(pt -120 120)
	(pt -120 160)
	(bus)
)
(connector
	(pt -144 120)
	(pt -120 120)
	(bus)
)
(connector
	(pt -120 120)
	(pt 120 120)
	(bus)
)
(connector
	(pt -344 240)
	(pt -424 240)
)
(connector
	(pt -424 240)
	(pt -496 240)
)
(connector
	(pt -488 96)
	(pt -344 96)
)
(connector
	(pt -504 448)
	(pt -376 448)
	(bus)
)
(connector
	(pt -376 448)
	(pt -344 448)
	(bus)
)
(connector
	(pt -376 112)
	(pt -376 272)
	(bus)
)
(connector
	(pt -376 272)
	(pt -376 448)
	(bus)
)
(connector
	(pt -504 480)
	(pt -392 480)
)
(connector
	(pt -392 480)
	(pt -344 480)
)
(connector
	(pt -392 80)
	(pt -392 256)
)
(connector
	(pt -392 256)
	(pt -392 336)
)
(connector
	(pt -392 336)
	(pt -392 480)
)
(connector
	(pt -32 -16)
	(pt -56 -16)
	(bus)
)
(connector
	(pt -128 -8)
	(pt -120 -8)
	(bus)
)
(connector
	(pt -128 16)
	(pt -128 -8)
	(bus)
)
(connector
	(pt -32 -16)
	(pt -32 80)
	(bus)
)
(connector
	(pt -32 80)
	(pt -32 168)
	(bus)
)
(connector
	(pt -424 -24)
	(pt -264 -24)
)
(connector
	(pt -216 -24)
	(pt -120 -24)
	(bus)
)
(connector
	(pt -424 -64)
	(pt 24 -64)
)
(connector
	(pt 24 -56)
	(pt 24 -64)
)
(connector
	(pt -424 -64)
	(pt -424 -24)
)
(connector
	(pt -424 -24)
	(pt -424 240)
)
(connector
	(pt -408 -88)
	(pt -408 224)
)
(connector
	(pt 40 -88)
	(pt 40 -56)
)
(connector
	(pt -488 -88)
	(pt -408 -88)
)
(connector
	(pt 560 -88)
	(pt 560 104)
)
(connector
	(pt 560 104)
	(pt 560 376)
)
(connector
	(pt -408 -88)
	(pt 40 -88)
)
(connector
	(pt 40 -88)
	(pt 560 -88)
)
(junction (pt -392 336))
(junction (pt -408 304))
(junction (pt -424 320))
(junction (pt 56 336))
(junction (pt 72 304))
(junction (pt 832 344))
(junction (pt -56 272))
(junction (pt -32 168))
(junction (pt -376 272))
(junction (pt -392 256))
(junction (pt 560 104))
(junction (pt -32 80))
(junction (pt -96 104))
(junction (pt -120 120))
(junction (pt -424 240))
(junction (pt -376 448))
(junction (pt -392 480))
(junction (pt -424 -24))
(junction (pt -408 -88))
(junction (pt 40 -88))
(text "High means data is Removed" (rect 792 136 1010 152)(font "Arial" (font_size 10)(bold)))
