/*
WARNING: Do NOT edit the input and output ports in this file in a text
editor if you plan to continue editing the block that represents it in
the Block Editor! File corruption is VERY likely to occur.
*/
/*
Copyright (C) 1991-2010 Altera Corporation
Your use of Altera Corporation's design tools, logic functions 
and other software and tools, and its AMPP partner logic 
functions, and any output files from any of the foregoing 
(including device programming or simulation files), and any 
associated documentation or information are expressly subject 
to the terms and conditions of the Altera Program License 
Subscription Agreement, Altera MegaCore Function License 
Agreement, or other applicable license agreement, including, 
without limitation, that your use is for the sole purpose of 
programming logic devices manufactured by Altera and sold by 
Altera or its authorized distributors.  Please refer to the 
applicable agreement for further details.
*/
//#pragma file_not_in_maxplusii_format
(header "graphic" (version "1.3"))
(properties
	(page_setup "header_footer\nDate: %D\n%f\nProject: %j\n\nPage %p of %P\nRevision: %a\nmargin\n1\n1\n1\n1\norientation\n2\npaper_size\n1\npaper_source\n7\nfit_page_wide\n1\nfit_page_tall\n1\n")
)
(pin
	(input)
	(rect -1152 1128 -984 1144)
	(text "INPUT" (rect 133 0 161 10)(font "Arial" (font_size 6)))
	(text "rd_en" (rect 5 0 32 12)(font "Arial" ))
	(pt 168 8)
	(drawing
		(line (pt 92 12)(pt 117 12)(line_width 1))
		(line (pt 92 4)(pt 117 4)(line_width 1))
		(line (pt 121 8)(pt 168 8)(line_width 1))
		(line (pt 92 12)(pt 92 4)(line_width 1))
		(line (pt 117 4)(pt 121 8)(line_width 1))
		(line (pt 117 12)(pt 121 8)(line_width 1))
	)
	(text "VCC" (rect 136 7 156 17)(font "Arial" (font_size 6)))
)
(pin
	(input)
	(rect -1152 1296 -984 1312)
	(text "INPUT" (rect 133 0 161 10)(font "Arial" (font_size 6)))
	(text "clk" (rect 5 0 19 12)(font "Arial" ))
	(pt 168 8)
	(drawing
		(line (pt 92 12)(pt 117 12)(line_width 1))
		(line (pt 92 4)(pt 117 4)(line_width 1))
		(line (pt 121 8)(pt 168 8)(line_width 1))
		(line (pt 92 12)(pt 92 4)(line_width 1))
		(line (pt 117 4)(pt 121 8)(line_width 1))
		(line (pt 117 12)(pt 121 8)(line_width 1))
	)
	(text "VCC" (rect 136 7 156 17)(font "Arial" (font_size 6)))
)
(pin
	(input)
	(rect -1152 1216 -984 1232)
	(text "INPUT" (rect 133 0 161 10)(font "Arial" (font_size 6)))
	(text "reset" (rect 5 0 29 12)(font "Arial" ))
	(pt 168 8)
	(drawing
		(line (pt 92 12)(pt 117 12)(line_width 1))
		(line (pt 92 4)(pt 117 4)(line_width 1))
		(line (pt 121 8)(pt 168 8)(line_width 1))
		(line (pt 92 12)(pt 92 4)(line_width 1))
		(line (pt 117 4)(pt 121 8)(line_width 1))
		(line (pt 117 12)(pt 121 8)(line_width 1))
	)
	(text "VCC" (rect 136 7 156 17)(font "Arial" (font_size 6)))
)
(pin
	(input)
	(rect -808 1352 -640 1368)
	(text "INPUT" (rect 133 0 161 10)(font "Arial" (font_size 6)))
	(text "m3" (rect 5 0 20 12)(font "Arial" ))
	(pt 168 8)
	(drawing
		(line (pt 92 12)(pt 117 12)(line_width 1))
		(line (pt 92 4)(pt 117 4)(line_width 1))
		(line (pt 121 8)(pt 168 8)(line_width 1))
		(line (pt 92 12)(pt 92 4)(line_width 1))
		(line (pt 117 4)(pt 121 8)(line_width 1))
		(line (pt 117 12)(pt 121 8)(line_width 1))
	)
	(text "VCC" (rect 136 7 156 17)(font "Arial" (font_size 6)))
)
(pin
	(input)
	(rect -808 1464 -640 1480)
	(text "INPUT" (rect 133 0 161 10)(font "Arial" (font_size 6)))
	(text "m1" (rect 5 0 20 12)(font "Arial" ))
	(pt 168 8)
	(drawing
		(line (pt 92 12)(pt 117 12)(line_width 1))
		(line (pt 92 4)(pt 117 4)(line_width 1))
		(line (pt 121 8)(pt 168 8)(line_width 1))
		(line (pt 92 12)(pt 92 4)(line_width 1))
		(line (pt 117 4)(pt 121 8)(line_width 1))
		(line (pt 117 12)(pt 121 8)(line_width 1))
	)
	(text "VCC" (rect 136 7 156 17)(font "Arial" (font_size 6)))
)
(pin
	(input)
	(rect -808 1408 -640 1424)
	(text "INPUT" (rect 133 0 161 10)(font "Arial" (font_size 6)))
	(text "m2" (rect 5 0 20 12)(font "Arial" ))
	(pt 168 8)
	(drawing
		(line (pt 92 12)(pt 117 12)(line_width 1))
		(line (pt 92 4)(pt 117 4)(line_width 1))
		(line (pt 121 8)(pt 168 8)(line_width 1))
		(line (pt 92 12)(pt 92 4)(line_width 1))
		(line (pt 117 4)(pt 121 8)(line_width 1))
		(line (pt 117 12)(pt 121 8)(line_width 1))
	)
	(text "VCC" (rect 136 7 156 17)(font "Arial" (font_size 6)))
)
(pin
	(output)
	(rect -328 1248 -152 1264)
	(text "OUTPUT" (rect 1 0 39 10)(font "Arial" (font_size 6)))
	(text "rd_enable_bar" (rect 90 0 158 12)(font "Arial" ))
	(pt 0 8)
	(drawing
		(line (pt 0 8)(pt 52 8)(line_width 1))
		(line (pt 52 4)(pt 78 4)(line_width 1))
		(line (pt 52 12)(pt 78 12)(line_width 1))
		(line (pt 52 12)(pt 52 4)(line_width 1))
		(line (pt 78 4)(pt 82 8)(line_width 1))
		(line (pt 82 8)(pt 78 12)(line_width 1))
		(line (pt 78 12)(pt 82 8)(line_width 1))
	)
)
(pin
	(output)
	(rect -328 1184 -144 1200)
	(text "OUTPUT" (rect 1 0 39 10)(font "Arial" (font_size 6)))
	(text "rd_enable_bar_m2" (rect 90 0 179 12)(font "Arial" ))
	(pt 0 8)
	(drawing
		(line (pt 0 8)(pt 52 8)(line_width 1))
		(line (pt 52 4)(pt 78 4)(line_width 1))
		(line (pt 52 12)(pt 78 12)(line_width 1))
		(line (pt 52 12)(pt 52 4)(line_width 1))
		(line (pt 78 4)(pt 82 8)(line_width 1))
		(line (pt 82 8)(pt 78 12)(line_width 1))
		(line (pt 78 12)(pt 82 8)(line_width 1))
	)
)
(pin
	(output)
	(rect -328 1128 -144 1144)
	(text "OUTPUT" (rect 1 0 39 10)(font "Arial" (font_size 6)))
	(text "rd_enable_bar_m1" (rect 90 0 179 12)(font "Arial" ))
	(pt 0 8)
	(drawing
		(line (pt 0 8)(pt 52 8)(line_width 1))
		(line (pt 52 4)(pt 78 4)(line_width 1))
		(line (pt 52 12)(pt 78 12)(line_width 1))
		(line (pt 52 12)(pt 52 4)(line_width 1))
		(line (pt 78 4)(pt 82 8)(line_width 1))
		(line (pt 82 8)(pt 78 12)(line_width 1))
		(line (pt 78 12)(pt 82 8)(line_width 1))
	)
)
(pin
	(output)
	(rect -160 1400 16 1416)
	(text "OUTPUT" (rect 1 0 39 10)(font "Arial" (font_size 6)))
	(text "rd_enable_bar2" (rect 90 0 164 12)(font "Arial" ))
	(pt 0 8)
	(drawing
		(line (pt 0 8)(pt 52 8)(line_width 1))
		(line (pt 52 4)(pt 78 4)(line_width 1))
		(line (pt 52 12)(pt 78 12)(line_width 1))
		(line (pt 52 12)(pt 52 4)(line_width 1))
		(line (pt 78 4)(pt 82 8)(line_width 1))
		(line (pt 82 8)(pt 78 12)(line_width 1))
		(line (pt 78 12)(pt 82 8)(line_width 1))
	)
)
(symbol
	(rect -472 1232 -392 1272)
	(text "inv1" (rect 29 1 54 17)(font "Arial" (font_size 10)))
	(text "inst102" (rect 2 24 37 36)(font "Arial" ))
	(port
		(pt 0 24)
		(input)
		(text "data" (rect 0 0 24 14)(font "Arial" (font_size 8)))
		(text "data" (rect 4 3 28 17)(font "Arial" (font_size 8))(invisible))
		(line (pt 0 24)(pt 24 24)(line_width 1))
	)
	(port
		(pt 80 24)
		(output)
		(text "result" (rect 0 0 31 14)(font "Arial" (font_size 8)))
		(text "result" (rect 77 -1 108 13)(font "Arial" (font_size 8))(invisible))
		(line (pt 80 24)(pt 46 24)(line_width 1))
	)
	(drawing
		(line (pt 24 16)(pt 40 24)(line_width 1))
		(line (pt 40 24)(pt 24 32)(line_width 1))
		(line (pt 24 32)(pt 24 16)(line_width 1))
		(circle (rect 40 21 46 27)(line_width 1))
	)
)
(symbol
	(rect -896 1192 -752 1288)
	(text "ff_s" (rect 62 1 85 17)(font "Arial" (font_size 10)))
	(text "inst9" (rect 8 80 31 92)(font "Arial" ))
	(port
		(pt 0 32)
		(input)
		(text "sclr" (rect 0 0 21 14)(font "Arial" (font_size 8)))
		(text "sclr" (rect 20 26 41 40)(font "Arial" (font_size 8)))
		(line (pt 0 32)(pt 16 32)(line_width 1))
	)
	(port
		(pt 0 48)
		(input)
		(text "data" (rect 0 0 24 14)(font "Arial" (font_size 8)))
		(text "data" (rect 20 42 44 56)(font "Arial" (font_size 8)))
		(line (pt 0 48)(pt 16 48)(line_width 1))
	)
	(port
		(pt 0 64)
		(input)
		(text "clock" (rect 0 0 29 14)(font "Arial" (font_size 8)))
		(text "clock" (rect 26 58 55 72)(font "Arial" (font_size 8)))
		(line (pt 0 64)(pt 16 64)(line_width 1))
	)
	(port
		(pt 144 56)
		(output)
		(text "q" (rect 0 0 7 14)(font "Arial" (font_size 8)))
		(text "q" (rect 119 50 126 64)(font "Arial" (font_size 8)))
		(line (pt 144 56)(pt 128 56)(line_width 1))
	)
	(drawing
		(text "DFF" (rect 109 17 131 29)(font "Arial" ))
		(line (pt 16 16)(pt 128 16)(line_width 1))
		(line (pt 128 16)(pt 128 80)(line_width 1))
		(line (pt 128 80)(pt 16 80)(line_width 1))
		(line (pt 16 80)(pt 16 16)(line_width 1))
		(line (pt 16 58)(pt 22 64)(line_width 1))
		(line (pt 22 64)(pt 16 70)(line_width 1))
	)
)
(symbol
	(rect -704 1200 -560 1296)
	(text "ff_s" (rect 62 1 85 17)(font "Arial" (font_size 10)))
	(text "inst10" (rect 8 80 37 92)(font "Arial" ))
	(port
		(pt 0 32)
		(input)
		(text "sclr" (rect 0 0 21 14)(font "Arial" (font_size 8)))
		(text "sclr" (rect 20 26 41 40)(font "Arial" (font_size 8)))
		(line (pt 0 32)(pt 16 32)(line_width 1))
	)
	(port
		(pt 0 48)
		(input)
		(text "data" (rect 0 0 24 14)(font "Arial" (font_size 8)))
		(text "data" (rect 20 42 44 56)(font "Arial" (font_size 8)))
		(line (pt 0 48)(pt 16 48)(line_width 1))
	)
	(port
		(pt 0 64)
		(input)
		(text "clock" (rect 0 0 29 14)(font "Arial" (font_size 8)))
		(text "clock" (rect 26 58 55 72)(font "Arial" (font_size 8)))
		(line (pt 0 64)(pt 16 64)(line_width 1))
	)
	(port
		(pt 144 56)
		(output)
		(text "q" (rect 0 0 7 14)(font "Arial" (font_size 8)))
		(text "q" (rect 119 50 126 64)(font "Arial" (font_size 8)))
		(line (pt 144 56)(pt 128 56)(line_width 1))
	)
	(drawing
		(text "DFF" (rect 109 17 131 29)(font "Arial" ))
		(line (pt 16 16)(pt 128 16)(line_width 1))
		(line (pt 128 16)(pt 128 80)(line_width 1))
		(line (pt 128 80)(pt 16 80)(line_width 1))
		(line (pt 16 80)(pt 16 16)(line_width 1))
		(line (pt 16 58)(pt 22 64)(line_width 1))
		(line (pt 22 64)(pt 16 70)(line_width 1))
	)
)
(symbol
	(rect -472 1168 -392 1208)
	(text "inv1" (rect 29 1 54 17)(font "Arial" (font_size 10)))
	(text "inst103" (rect 2 24 37 36)(font "Arial" ))
	(port
		(pt 0 24)
		(input)
		(text "data" (rect 0 0 24 14)(font "Arial" (font_size 8)))
		(text "data" (rect 4 3 28 17)(font "Arial" (font_size 8))(invisible))
		(line (pt 0 24)(pt 24 24)(line_width 1))
	)
	(port
		(pt 80 24)
		(output)
		(text "result" (rect 0 0 31 14)(font "Arial" (font_size 8)))
		(text "result" (rect 77 -1 108 13)(font "Arial" (font_size 8))(invisible))
		(line (pt 80 24)(pt 46 24)(line_width 1))
	)
	(drawing
		(line (pt 24 16)(pt 40 24)(line_width 1))
		(line (pt 40 24)(pt 24 32)(line_width 1))
		(line (pt 24 32)(pt 24 16)(line_width 1))
		(circle (rect 40 21 46 27)(line_width 1))
	)
)
(symbol
	(rect -472 1112 -392 1152)
	(text "inv1" (rect 29 1 54 17)(font "Arial" (font_size 10)))
	(text "inst104" (rect 2 24 37 36)(font "Arial" ))
	(port
		(pt 0 24)
		(input)
		(text "data" (rect 0 0 24 14)(font "Arial" (font_size 8)))
		(text "data" (rect 4 3 28 17)(font "Arial" (font_size 8))(invisible))
		(line (pt 0 24)(pt 24 24)(line_width 1))
	)
	(port
		(pt 80 24)
		(output)
		(text "result" (rect 0 0 31 14)(font "Arial" (font_size 8)))
		(text "result" (rect 77 -1 108 13)(font "Arial" (font_size 8))(invisible))
		(line (pt 80 24)(pt 46 24)(line_width 1))
	)
	(drawing
		(line (pt 24 16)(pt 40 24)(line_width 1))
		(line (pt 40 24)(pt 24 32)(line_width 1))
		(line (pt 24 32)(pt 24 16)(line_width 1))
		(circle (rect 40 21 46 27)(line_width 1))
	)
)
(symbol
	(rect -464 1328 -400 1376)
	(text "AND2" (rect 1 38 25 48)(font "Arial" (font_size 6)))
	(text "inst125" (rect -3 -1 32 11)(font "Arial" ))
	(port
		(pt 0 32)
		(input)
		(text "IN1" (rect 2 7 19 19)(font "Courier New" (bold))(invisible))
		(text "IN1" (rect 2 29 19 41)(font "Courier New" (bold))(invisible))
		(line (pt 0 32)(pt 14 32)(line_width 1))
	)
	(port
		(pt 0 16)
		(input)
		(text "IN2" (rect 2 23 19 35)(font "Courier New" (bold))(invisible))
		(text "IN2" (rect 2 13 19 25)(font "Courier New" (bold))(invisible))
		(line (pt 0 16)(pt 14 16)(line_width 1))
	)
	(port
		(pt 64 24)
		(output)
		(text "OUT" (rect 48 15 65 27)(font "Courier New" (bold))(invisible))
		(text "OUT" (rect 48 21 65 33)(font "Courier New" (bold))(invisible))
		(line (pt 42 24)(pt 64 24)(line_width 1))
	)
	(drawing
		(line (pt 14 36)(pt 30 36)(line_width 1))
		(line (pt 14 11)(pt 31 11)(line_width 1))
		(line (pt 14 36)(pt 14 11)(line_width 1))
		(arc (pt 30 36)(pt 31 11)(rect 18 11 43 36)(line_width 1))
	)
	(flipx)
)
(symbol
	(rect -464 1384 -400 1432)
	(text "AND2" (rect 1 38 25 48)(font "Arial" (font_size 6)))
	(text "inst126" (rect -3 -1 32 11)(font "Arial" ))
	(port
		(pt 0 32)
		(input)
		(text "IN1" (rect 2 7 19 19)(font "Courier New" (bold))(invisible))
		(text "IN1" (rect 2 29 19 41)(font "Courier New" (bold))(invisible))
		(line (pt 0 32)(pt 14 32)(line_width 1))
	)
	(port
		(pt 0 16)
		(input)
		(text "IN2" (rect 2 23 19 35)(font "Courier New" (bold))(invisible))
		(text "IN2" (rect 2 13 19 25)(font "Courier New" (bold))(invisible))
		(line (pt 0 16)(pt 14 16)(line_width 1))
	)
	(port
		(pt 64 24)
		(output)
		(text "OUT" (rect 48 15 65 27)(font "Courier New" (bold))(invisible))
		(text "OUT" (rect 48 21 65 33)(font "Courier New" (bold))(invisible))
		(line (pt 42 24)(pt 64 24)(line_width 1))
	)
	(drawing
		(line (pt 14 36)(pt 30 36)(line_width 1))
		(line (pt 14 11)(pt 31 11)(line_width 1))
		(line (pt 14 36)(pt 14 11)(line_width 1))
		(arc (pt 30 36)(pt 31 11)(rect 18 11 43 36)(line_width 1))
	)
	(flipx)
)
(symbol
	(rect -464 1440 -400 1488)
	(text "AND2" (rect 1 38 25 48)(font "Arial" (font_size 6)))
	(text "inst127" (rect -3 -1 32 11)(font "Arial" ))
	(port
		(pt 0 32)
		(input)
		(text "IN1" (rect 2 7 19 19)(font "Courier New" (bold))(invisible))
		(text "IN1" (rect 2 29 19 41)(font "Courier New" (bold))(invisible))
		(line (pt 0 32)(pt 14 32)(line_width 1))
	)
	(port
		(pt 0 16)
		(input)
		(text "IN2" (rect 2 23 19 35)(font "Courier New" (bold))(invisible))
		(text "IN2" (rect 2 13 19 25)(font "Courier New" (bold))(invisible))
		(line (pt 0 16)(pt 14 16)(line_width 1))
	)
	(port
		(pt 64 24)
		(output)
		(text "OUT" (rect 48 15 65 27)(font "Courier New" (bold))(invisible))
		(text "OUT" (rect 48 21 65 33)(font "Courier New" (bold))(invisible))
		(line (pt 42 24)(pt 64 24)(line_width 1))
	)
	(drawing
		(line (pt 14 36)(pt 30 36)(line_width 1))
		(line (pt 14 11)(pt 31 11)(line_width 1))
		(line (pt 14 36)(pt 14 11)(line_width 1))
		(arc (pt 30 36)(pt 31 11)(rect 18 11 43 36)(line_width 1))
	)
	(flipx)
)
(symbol
	(rect -360 1384 -296 1432)
	(text "OR3" (rect 1 0 19 10)(font "Arial" (font_size 6)))
	(text "inst" (rect 3 37 23 51)(font "Arial" (font_size 8)))
	(port
		(pt 0 24)
		(input)
		(text "IN2" (rect 2 15 19 27)(font "Courier New" (bold))(invisible))
		(text "IN2" (rect 2 15 19 27)(font "Courier New" (bold))(invisible))
		(line (pt 0 24)(pt 18 24)(line_width 1))
	)
	(port
		(pt 0 32)
		(input)
		(text "IN3" (rect 2 24 19 36)(font "Courier New" (bold))(invisible))
		(text "IN3" (rect 2 24 19 36)(font "Courier New" (bold))(invisible))
		(line (pt 0 32)(pt 16 32)(line_width 1))
	)
	(port
		(pt 0 16)
		(input)
		(text "IN1" (rect 2 7 19 19)(font "Courier New" (bold))(invisible))
		(text "IN1" (rect 2 7 19 19)(font "Courier New" (bold))(invisible))
		(line (pt 0 16)(pt 16 16)(line_width 1))
	)
	(port
		(pt 64 24)
		(output)
		(text "OUT" (rect 47 15 64 27)(font "Courier New" (bold))(invisible))
		(text "OUT" (rect 47 15 64 27)(font "Courier New" (bold))(invisible))
		(line (pt 49 24)(pt 64 24)(line_width 1))
	)
	(drawing
		(line (pt 14 13)(pt 25 13)(line_width 1))
		(line (pt 14 36)(pt 25 36)(line_width 1))
		(arc (pt 7 29)(pt 7 19)(rect -14 8 19 41)(line_width 1))
		(arc (pt 49 24)(pt 25 13)(rect -6 13 57 76)(line_width 1))
		(arc (pt 25 35)(pt 49 24)(rect -6 -27 57 36)(line_width 1))
	)
)
(symbol
	(rect -272 1384 -192 1424)
	(text "inv1" (rect 29 1 54 17)(font "Arial" (font_size 10)))
	(text "inst105" (rect 2 24 37 36)(font "Arial" ))
	(port
		(pt 0 24)
		(input)
		(text "data" (rect 0 0 24 14)(font "Arial" (font_size 8)))
		(text "data" (rect 4 3 28 17)(font "Arial" (font_size 8))(invisible))
		(line (pt 0 24)(pt 24 24)(line_width 1))
	)
	(port
		(pt 80 24)
		(output)
		(text "result" (rect 0 0 31 14)(font "Arial" (font_size 8)))
		(text "result" (rect 77 -1 108 13)(font "Arial" (font_size 8))(invisible))
		(line (pt 80 24)(pt 46 24)(line_width 1))
	)
	(drawing
		(line (pt 24 16)(pt 40 24)(line_width 1))
		(line (pt 40 24)(pt 24 32)(line_width 1))
		(line (pt 24 32)(pt 24 16)(line_width 1))
		(circle (rect 40 21 46 27)(line_width 1))
	)
)
(connector
	(pt -720 1264)
	(pt -704 1264)
)
(connector
	(pt -720 1264)
	(pt -720 1304)
)
(connector
	(pt -896 1240)
	(pt -936 1240)
)
(connector
	(pt -936 1136)
	(pt -936 1240)
)
(connector
	(pt -896 1256)
	(pt -936 1256)
)
(connector
	(pt -936 1304)
	(pt -936 1256)
)
(connector
	(pt -704 1232)
	(pt -720 1232)
)
(connector
	(pt -720 1232)
	(pt -720 1168)
)
(connector
	(pt -968 1168)
	(pt -720 1168)
)
(connector
	(pt -968 1168)
	(pt -968 1224)
)
(connector
	(pt -984 1224)
	(pt -968 1224)
)
(connector
	(pt -968 1224)
	(pt -896 1224)
)
(connector
	(pt -984 1304)
	(pt -936 1304)
)
(connector
	(pt -936 1304)
	(pt -720 1304)
)
(connector
	(pt -736 1248)
	(pt -736 1192)
)
(connector
	(pt -752 1248)
	(pt -736 1248)
)
(connector
	(pt -736 1248)
	(pt -704 1248)
)
(connector
	(pt -984 1136)
	(pt -936 1136)
)
(connector
	(pt -392 1256)
	(pt -328 1256)
)
(connector
	(pt -392 1192)
	(pt -328 1192)
)
(connector
	(pt -392 1136)
	(pt -328 1136)
)
(connector
	(pt -296 1408)
	(pt -272 1408)
)
(connector
	(pt -360 1400)
	(pt -384 1400)
)
(connector
	(pt -384 1400)
	(pt -384 1352)
)
(connector
	(pt -384 1352)
	(pt -400 1352)
)
(connector
	(pt -360 1416)
	(pt -384 1416)
)
(connector
	(pt -384 1416)
	(pt -384 1464)
)
(connector
	(pt -384 1464)
	(pt -400 1464)
)
(connector
	(pt -400 1408)
	(pt -360 1408)
)
(connector
	(pt -464 1344)
	(pt -488 1344)
)
(connector
	(pt -488 1344)
	(pt -488 1256)
)
(connector
	(pt -560 1256)
	(pt -488 1256)
)
(connector
	(pt -488 1256)
	(pt -472 1256)
)
(connector
	(pt -464 1400)
	(pt -504 1400)
)
(connector
	(pt -504 1400)
	(pt -504 1192)
)
(connector
	(pt -736 1192)
	(pt -504 1192)
)
(connector
	(pt -504 1192)
	(pt -472 1192)
)
(connector
	(pt -464 1456)
	(pt -520 1456)
)
(connector
	(pt -520 1456)
	(pt -520 1136)
)
(connector
	(pt -936 1136)
	(pt -520 1136)
)
(connector
	(pt -520 1136)
	(pt -472 1136)
)
(connector
	(pt -464 1472)
	(pt -640 1472)
)
(connector
	(pt -464 1416)
	(pt -640 1416)
)
(connector
	(pt -464 1360)
	(pt -640 1360)
)
(connector
	(pt -192 1408)
	(pt -160 1408)
)
(junction (pt -936 1136))
(junction (pt -936 1304))
(junction (pt -736 1248))
(junction (pt -968 1224))
(junction (pt -488 1256))
(junction (pt -504 1192))
(junction (pt -520 1136))
