/*
WARNING: Do NOT edit the input and output ports in this file in a text
editor if you plan to continue editing the block that represents it in
the Block Editor! File corruption is VERY likely to occur.
*/
/*
Copyright (C) 1991-2012 Altera Corporation
Your use of Altera Corporation's design tools, logic functions 
and other software and tools, and its AMPP partner logic 
functions, and any output files from any of the foregoing 
(including device programming or simulation files), and any 
associated documentation or information are expressly subject 
to the terms and conditions of the Altera Program License 
Subscription Agreement, Altera MegaCore Function License 
Agreement, or other applicable license agreement, including, 
without limitation, that your use is for the sole purpose of 
programming logic devices manufactured by Altera and sold by 
Altera or its authorized distributors.  Please refer to the 
applicable agreement for further details.
*/
//#pragma file_not_in_maxplusii_format
(header "graphic" (version "1.4"))
(pin
	(input)
	(rect 32 584 200 600)
	(text "INPUT" (rect 133 0 161 10)(font "Arial" (font_size 6)))
	(text "clk_125mhz" (rect 5 0 62 12)(font "Arial" ))
	(pt 168 8)
	(drawing
		(line (pt 92 12)(pt 117 12))
		(line (pt 92 4)(pt 117 4))
		(line (pt 121 8)(pt 168 8))
		(line (pt 92 12)(pt 92 4))
		(line (pt 117 4)(pt 121 8))
		(line (pt 117 12)(pt 121 8))
	)
	(text "GND" (rect 136 7 157 17)(font "Arial" (font_size 6)))
)
(pin
	(input)
	(rect 16 296 184 312)
	(text "INPUT" (rect 133 0 161 10)(font "Arial" (font_size 6)))
	(text "ERROR" (rect 5 0 45 12)(font "Arial" ))
	(pt 168 8)
	(drawing
		(line (pt 92 12)(pt 117 12))
		(line (pt 92 4)(pt 117 4))
		(line (pt 121 8)(pt 168 8))
		(line (pt 92 12)(pt 92 4))
		(line (pt 117 4)(pt 121 8))
		(line (pt 117 12)(pt 121 8))
	)
	(text "GND" (rect 136 7 157 17)(font "Arial" (font_size 6)))
)
(pin
	(input)
	(rect 16 408 184 424)
	(text "INPUT" (rect 133 0 161 10)(font "Arial" (font_size 6)))
	(text "L1A" (rect 5 0 25 12)(font "Arial" ))
	(pt 168 8)
	(drawing
		(line (pt 92 12)(pt 117 12))
		(line (pt 92 4)(pt 117 4))
		(line (pt 121 8)(pt 168 8))
		(line (pt 92 12)(pt 92 4))
		(line (pt 117 4)(pt 121 8))
		(line (pt 117 12)(pt 121 8))
	)
	(text "GND" (rect 136 7 157 17)(font "Arial" (font_size 6)))
)
(pin
	(input)
	(rect 16 520 184 536)
	(text "INPUT" (rect 133 0 161 10)(font "Arial" (font_size 6)))
	(text "VME_access" (rect 5 0 68 12)(font "Arial" ))
	(pt 168 8)
	(drawing
		(line (pt 92 12)(pt 117 12))
		(line (pt 92 4)(pt 117 4))
		(line (pt 121 8)(pt 168 8))
		(line (pt 92 12)(pt 92 4))
		(line (pt 117 4)(pt 121 8))
		(line (pt 117 12)(pt 121 8))
	)
	(text "GND" (rect 136 7 157 17)(font "Arial" (font_size 6)))
)
(pin
	(input)
	(rect 56 -64 224 -48)
	(text "INPUT" (rect 133 0 161 10)(font "Arial" (font_size 6)))
	(text "Compression_en" (rect 5 0 87 12)(font "Arial" ))
	(pt 168 8)
	(drawing
		(line (pt 92 12)(pt 117 12))
		(line (pt 92 4)(pt 117 4))
		(line (pt 121 8)(pt 168 8))
		(line (pt 92 12)(pt 92 4))
		(line (pt 117 4)(pt 121 8))
		(line (pt 117 12)(pt 121 8))
	)
	(text "GND" (rect 136 7 157 17)(font "Arial" (font_size 6)))
)
(pin
	(input)
	(rect 16 8 184 24)
	(text "INPUT" (rect 133 0 161 10)(font "Arial" (font_size 6)))
	(text "LIVE" (rect 5 0 28 12)(font "Arial" ))
	(pt 168 8)
	(drawing
		(line (pt 92 12)(pt 117 12))
		(line (pt 92 4)(pt 117 4))
		(line (pt 121 8)(pt 168 8))
		(line (pt 92 12)(pt 92 4))
		(line (pt 117 4)(pt 121 8))
		(line (pt 117 12)(pt 121 8))
	)
	(text "GND" (rect 136 7 157 17)(font "Arial" (font_size 6)))
)
(pin
	(output)
	(rect 672 328 848 344)
	(text "OUTPUT" (rect 1 0 39 10)(font "Arial" (font_size 6)))
	(text "Error_led31" (rect 88 0 143 12)(font "Arial" ))
	(pt 0 8)
	(drawing
		(line (pt 0 8)(pt 52 8))
		(line (pt 52 4)(pt 78 4))
		(line (pt 52 12)(pt 78 12))
		(line (pt 52 12)(pt 52 4))
		(line (pt 78 4)(pt 82 8))
		(line (pt 82 8)(pt 78 12))
		(line (pt 78 12)(pt 82 8))
	)
)
(pin
	(output)
	(rect 672 440 848 456)
	(text "OUTPUT" (rect 1 0 39 10)(font "Arial" (font_size 6)))
	(text "L1A_led32" (rect 88 0 138 12)(font "Arial" ))
	(pt 0 8)
	(drawing
		(line (pt 0 8)(pt 52 8))
		(line (pt 52 4)(pt 78 4))
		(line (pt 52 12)(pt 78 12))
		(line (pt 52 12)(pt 52 4))
		(line (pt 78 4)(pt 82 8))
		(line (pt 82 8)(pt 78 12))
		(line (pt 78 12)(pt 82 8))
	)
)
(pin
	(output)
	(rect 672 552 848 568)
	(text "OUTPUT" (rect 1 0 39 10)(font "Arial" (font_size 6)))
	(text "VME_led22" (rect 88 0 142 12)(font "Arial" ))
	(pt 0 8)
	(drawing
		(line (pt 0 8)(pt 52 8))
		(line (pt 52 4)(pt 78 4))
		(line (pt 52 12)(pt 78 12))
		(line (pt 52 12)(pt 52 4))
		(line (pt 78 4)(pt 82 8))
		(line (pt 82 8)(pt 78 12))
		(line (pt 78 12)(pt 82 8))
	)
)
(pin
	(output)
	(rect 512 8 688 24)
	(text "OUTPUT" (rect 1 0 39 10)(font "Arial" (font_size 6)))
	(text "Live_led33" (rect 88 0 141 12)(font "Arial" ))
	(pt 0 8)
	(drawing
		(line (pt 0 8)(pt 52 8))
		(line (pt 52 4)(pt 78 4))
		(line (pt 52 12)(pt 78 12))
		(line (pt 52 12)(pt 52 4))
		(line (pt 78 4)(pt 82 8))
		(line (pt 82 8)(pt 78 12))
		(line (pt 78 12)(pt 82 8))
	)
)
(pin
	(output)
	(rect 600 136 776 152)
	(text "OUTPUT" (rect 1 0 39 10)(font "Arial" (font_size 6)))
	(text "Clock_led23" (rect 88 0 148 12)(font "Arial" ))
	(pt 0 8)
	(drawing
		(line (pt 0 8)(pt 52 8))
		(line (pt 52 4)(pt 78 4))
		(line (pt 52 12)(pt 78 12))
		(line (pt 52 12)(pt 52 4))
		(line (pt 78 4)(pt 82 8))
		(line (pt 82 8)(pt 78 12))
		(line (pt 78 12)(pt 82 8))
	)
)
(pin
	(output)
	(rect 496 -64 679 -48)
	(text "OUTPUT" (rect 1 0 39 10)(font "Arial" (font_size 6)))
	(text "compression_LED" (rect 88 0 177 12)(font "Arial" ))
	(pt 0 8)
	(drawing
		(line (pt 0 8)(pt 52 8))
		(line (pt 52 4)(pt 78 4))
		(line (pt 52 12)(pt 78 12))
		(line (pt 52 12)(pt 52 4))
		(line (pt 78 4)(pt 82 8))
		(line (pt 82 8)(pt 78 12))
		(line (pt 78 12)(pt 82 8))
	)
)
(symbol
	(rect 256 272 400 352)
	(text "ff3" (rect 66 1 81 17)(font "Arial" (font_size 10)))
	(text "inst5" (rect 8 64 31 76)(font "Arial" ))
	(port
		(pt 0 32)
		(input)
		(text "data" (rect 0 0 24 14)(font "Arial" (font_size 8)))
		(text "data" (rect 20 26 44 40)(font "Arial" (font_size 8)))
		(line (pt 0 32)(pt 16 32))
	)
	(port
		(pt 0 48)
		(input)
		(text "clock" (rect 0 0 29 14)(font "Arial" (font_size 8)))
		(text "clock" (rect 26 42 55 56)(font "Arial" (font_size 8)))
		(line (pt 0 48)(pt 16 48))
	)
	(port
		(pt 144 48)
		(output)
		(text "q" (rect 0 0 7 14)(font "Arial" (font_size 8)))
		(text "q" (rect 119 42 126 56)(font "Arial" (font_size 8)))
		(line (pt 144 48)(pt 128 48))
	)
	(drawing
		(text "DFF" (rect 109 17 131 29)(font "Arial" ))
		(line (pt 16 16)(pt 128 16))
		(line (pt 128 16)(pt 128 64))
		(line (pt 128 64)(pt 16 64))
		(line (pt 16 64)(pt 16 16))
		(line (pt 16 42)(pt 22 48))
		(line (pt 22 48)(pt 16 54))
	)
)
(symbol
	(rect 256 384 400 464)
	(text "ff3" (rect 66 1 81 17)(font "Arial" (font_size 10)))
	(text "inst14" (rect 8 64 37 76)(font "Arial" ))
	(port
		(pt 0 32)
		(input)
		(text "data" (rect 0 0 24 14)(font "Arial" (font_size 8)))
		(text "data" (rect 20 26 44 40)(font "Arial" (font_size 8)))
		(line (pt 0 32)(pt 16 32))
	)
	(port
		(pt 0 48)
		(input)
		(text "clock" (rect 0 0 29 14)(font "Arial" (font_size 8)))
		(text "clock" (rect 26 42 55 56)(font "Arial" (font_size 8)))
		(line (pt 0 48)(pt 16 48))
	)
	(port
		(pt 144 48)
		(output)
		(text "q" (rect 0 0 7 14)(font "Arial" (font_size 8)))
		(text "q" (rect 119 42 126 56)(font "Arial" (font_size 8)))
		(line (pt 144 48)(pt 128 48))
	)
	(drawing
		(text "DFF" (rect 109 17 131 29)(font "Arial" ))
		(line (pt 16 16)(pt 128 16))
		(line (pt 128 16)(pt 128 64))
		(line (pt 128 64)(pt 16 64))
		(line (pt 16 64)(pt 16 16))
		(line (pt 16 42)(pt 22 48))
		(line (pt 22 48)(pt 16 54))
	)
)
(symbol
	(rect 256 496 400 576)
	(text "ff3" (rect 66 1 81 17)(font "Arial" (font_size 10)))
	(text "inst15" (rect 8 64 37 76)(font "Arial" ))
	(port
		(pt 0 32)
		(input)
		(text "data" (rect 0 0 24 14)(font "Arial" (font_size 8)))
		(text "data" (rect 20 26 44 40)(font "Arial" (font_size 8)))
		(line (pt 0 32)(pt 16 32))
	)
	(port
		(pt 0 48)
		(input)
		(text "clock" (rect 0 0 29 14)(font "Arial" (font_size 8)))
		(text "clock" (rect 26 42 55 56)(font "Arial" (font_size 8)))
		(line (pt 0 48)(pt 16 48))
	)
	(port
		(pt 144 48)
		(output)
		(text "q" (rect 0 0 7 14)(font "Arial" (font_size 8)))
		(text "q" (rect 119 42 126 56)(font "Arial" (font_size 8)))
		(line (pt 144 48)(pt 128 48))
	)
	(drawing
		(text "DFF" (rect 109 17 131 29)(font "Arial" ))
		(line (pt 16 16)(pt 128 16))
		(line (pt 128 16)(pt 128 64))
		(line (pt 128 64)(pt 16 64))
		(line (pt 16 64)(pt 16 16))
		(line (pt 16 42)(pt 22 48))
		(line (pt 22 48)(pt 16 54))
	)
)
(symbol
	(rect 448 272 544 368)
	(text "led_flasher" (rect 5 82 68 96)(font "Arial" (font_size 8)))
	(text "inst6" (rect 8 4 31 16)(font "Arial" ))
	(port
		(pt 0 64)
		(input)
		(text "clk" (rect 0 0 15 14)(font "Arial" (font_size 8)))
		(text "clk" (rect 21 55 36 69)(font "Arial" (font_size 8)))
		(line (pt 0 64)(pt 16 64))
	)
	(port
		(pt 0 48)
		(input)
		(text "in" (rect 0 0 9 14)(font "Arial" (font_size 8)))
		(text "in" (rect 21 39 30 53)(font "Arial" (font_size 8)))
		(line (pt 0 48)(pt 16 48))
	)
	(port
		(pt 96 64)
		(output)
		(text "out" (rect 0 0 17 14)(font "Arial" (font_size 8)))
		(text "out" (rect 58 55 75 69)(font "Arial" (font_size 8)))
		(line (pt 96 64)(pt 80 64))
	)
	(drawing
		(rectangle (rect 16 16 80 80))
	)
	(flipx)
)
(symbol
	(rect 448 384 544 480)
	(text "led_flasher" (rect 5 82 68 96)(font "Arial" (font_size 8)))
	(text "inst7" (rect 8 4 31 16)(font "Arial" ))
	(port
		(pt 0 64)
		(input)
		(text "clk" (rect 0 0 15 14)(font "Arial" (font_size 8)))
		(text "clk" (rect 21 55 36 69)(font "Arial" (font_size 8)))
		(line (pt 0 64)(pt 16 64))
	)
	(port
		(pt 0 48)
		(input)
		(text "in" (rect 0 0 9 14)(font "Arial" (font_size 8)))
		(text "in" (rect 21 39 30 53)(font "Arial" (font_size 8)))
		(line (pt 0 48)(pt 16 48))
	)
	(port
		(pt 96 64)
		(output)
		(text "out" (rect 0 0 17 14)(font "Arial" (font_size 8)))
		(text "out" (rect 58 55 75 69)(font "Arial" (font_size 8)))
		(line (pt 96 64)(pt 80 64))
	)
	(drawing
		(rectangle (rect 16 16 80 80))
	)
	(flipx)
)
(symbol
	(rect 448 496 544 592)
	(text "led_flasher" (rect 5 82 68 96)(font "Arial" (font_size 8)))
	(text "inst16" (rect 8 4 37 16)(font "Arial" ))
	(port
		(pt 0 64)
		(input)
		(text "clk" (rect 0 0 15 14)(font "Arial" (font_size 8)))
		(text "clk" (rect 21 55 36 69)(font "Arial" (font_size 8)))
		(line (pt 0 64)(pt 16 64))
	)
	(port
		(pt 0 48)
		(input)
		(text "in" (rect 0 0 9 14)(font "Arial" (font_size 8)))
		(text "in" (rect 21 39 30 53)(font "Arial" (font_size 8)))
		(line (pt 0 48)(pt 16 48))
	)
	(port
		(pt 96 64)
		(output)
		(text "out" (rect 0 0 17 14)(font "Arial" (font_size 8)))
		(text "out" (rect 58 55 75 69)(font "Arial" (font_size 8)))
		(line (pt 96 64)(pt 80 64))
	)
	(drawing
		(rectangle (rect 16 16 80 80))
	)
	(flipx)
)
(symbol
	(rect 352 136 496 216)
	(text "clk_counter" (rect 39 1 118 17)(font "Arial" (font_size 10)))
	(text "inst23" (rect 8 64 37 76)(font "Arial" ))
	(port
		(pt 0 32)
		(input)
		(text "clock" (rect 0 0 29 14)(font "Arial" (font_size 8)))
		(text "clock" (rect 26 26 55 40)(font "Arial" (font_size 8)))
		(line (pt 0 32)(pt 16 32))
	)
	(port
		(pt 144 40)
		(output)
		(text "q[25..0]" (rect 0 0 42 14)(font "Arial" (font_size 8)))
		(text "q[25..0]" (rect 89 34 131 48)(font "Arial" (font_size 8)))
		(line (pt 144 40)(pt 128 40)(line_width 3))
	)
	(port
		(pt 144 56)
		(output)
		(text "cout" (rect 0 0 24 14)(font "Arial" (font_size 8)))
		(text "cout" (rect 104 50 128 64)(font "Arial" (font_size 8)))
		(line (pt 144 56)(pt 128 56))
	)
	(drawing
		(text "up counter" (rect 84 17 135 29)(font "Arial" ))
		(line (pt 16 16)(pt 128 16))
		(line (pt 128 16)(pt 128 64))
		(line (pt 128 64)(pt 16 64))
		(line (pt 16 64)(pt 16 16))
		(line (pt 16 26)(pt 22 32))
		(line (pt 22 32)(pt 16 38))
	)
)
(symbol
	(rect 336 0 384 32)
	(text "NOT" (rect 1 0 21 10)(font "Arial" (font_size 6)))
	(text "inst" (rect 3 21 20 33)(font "Arial" ))
	(port
		(pt 0 16)
		(input)
		(text "IN" (rect 2 7 13 19)(font "Courier New" (bold))(invisible))
		(text "IN" (rect 2 7 13 19)(font "Courier New" (bold))(invisible))
		(line (pt 0 16)(pt 13 16))
	)
	(port
		(pt 48 16)
		(output)
		(text "OUT" (rect 32 7 49 19)(font "Courier New" (bold))(invisible))
		(text "OUT" (rect 32 7 49 19)(font "Courier New" (bold))(invisible))
		(line (pt 39 16)(pt 48 16))
	)
	(drawing
		(line (pt 13 25)(pt 13 7))
		(line (pt 13 7)(pt 31 16))
		(line (pt 13 25)(pt 31 16))
		(circle (rect 31 12 39 20))
	)
)
(symbol
	(rect 336 -72 384 -40)
	(text "NOT" (rect 1 0 21 10)(font "Arial" (font_size 6)))
	(text "inst1" (rect 3 21 26 33)(font "Arial" ))
	(port
		(pt 0 16)
		(input)
		(text "IN" (rect 2 7 13 19)(font "Courier New" (bold))(invisible))
		(text "IN" (rect 2 7 13 19)(font "Courier New" (bold))(invisible))
		(line (pt 0 16)(pt 13 16))
	)
	(port
		(pt 48 16)
		(output)
		(text "OUT" (rect 32 7 49 19)(font "Courier New" (bold))(invisible))
		(text "OUT" (rect 32 7 49 19)(font "Courier New" (bold))(invisible))
		(line (pt 39 16)(pt 48 16))
	)
	(drawing
		(line (pt 13 25)(pt 13 7))
		(line (pt 13 7)(pt 31 16))
		(line (pt 13 25)(pt 31 16))
		(circle (rect 31 12 39 20))
	)
)
(connector
	(pt 256 432)
	(pt 240 432)
)
(connector
	(pt 256 544)
	(pt 240 544)
)
(connector
	(pt 400 432)
	(pt 448 432)
)
(connector
	(pt 400 544)
	(pt 448 544)
)
(connector
	(pt 240 368)
	(pt 424 368)
)
(connector
	(pt 240 320)
	(pt 256 320)
)
(connector
	(pt 424 368)
	(pt 424 336)
)
(connector
	(pt 400 320)
	(pt 448 320)
)
(connector
	(pt 424 336)
	(pt 448 336)
)
(connector
	(pt 424 448)
	(pt 448 448)
)
(connector
	(pt 424 448)
	(pt 424 480)
)
(connector
	(pt 424 592)
	(pt 424 560)
)
(connector
	(pt 424 560)
	(pt 448 560)
)
(connector
	(pt 240 480)
	(pt 424 480)
)
(connector
	(pt 184 416)
	(pt 256 416)
)
(connector
	(pt 184 528)
	(pt 256 528)
)
(connector
	(pt 544 560)
	(pt 672 560)
)
(connector
	(pt 240 320)
	(pt 240 368)
)
(connector
	(pt 240 368)
	(pt 240 432)
)
(connector
	(pt 240 432)
	(pt 240 480)
)
(connector
	(pt 240 480)
	(pt 240 544)
)
(connector
	(pt 240 544)
	(pt 240 592)
)
(connector
	(pt 200 592)
	(pt 240 592)
)
(connector
	(pt 240 592)
	(pt 424 592)
)
(connector
	(pt 512 16)
	(pt 384 16)
)
(connector
	(pt 552 176)
	(pt 552 144)
	(bus)
)
(connector
	(text "qq[25..0]" (rect 506 160 549 172)(font "Arial" ))
	(pt 496 176)
	(pt 552 176)
	(bus)
)
(connector
	(text "qq[25]" (rect 562 128 592 140)(font "Arial" ))
	(pt 552 144)
	(pt 600 144)
)
(connector
	(pt 544 336)
	(pt 672 336)
)
(connector
	(pt 544 448)
	(pt 672 448)
)
(connector
	(pt 184 304)
	(pt 256 304)
)
(connector
	(pt 352 168)
	(pt 240 168)
)
(connector
	(pt 240 168)
	(pt 240 320)
)
(connector
	(pt 336 16)
	(pt 184 16)
)
(connector
	(pt 496 -56)
	(pt 384 -56)
)
(connector
	(pt 224 -56)
	(pt 336 -56)
)
(junction (pt 240 432))
(junction (pt 240 544))
(junction (pt 240 368))
(junction (pt 240 320))
(junction (pt 240 592))
(junction (pt 240 480))
