/*
WARNING: Do NOT edit the input and output ports in this file in a text
editor if you plan to continue editing the block that represents it in
the Block Editor! File corruption is VERY likely to occur.
*/
/*
Copyright (C) 1991-2009 Altera Corporation
Your use of Altera Corporation's design tools, logic functions 
and other software and tools, and its AMPP partner logic 
functions, and any output files from any of the foregoing 
(including device programming or simulation files), and any 
associated documentation or information are expressly subject 
to the terms and conditions of the Altera Program License 
Subscription Agreement, Altera MegaCore Function License 
Agreement, or other applicable license agreement, including, 
without limitation, that your use is for the sole purpose of 
programming logic devices manufactured by Altera and sold by 
Altera or its authorized distributors.  Please refer to the 
applicable agreement for further details.
*/
//#pragma file_not_in_maxplusii_format
(header "graphic" (version "1.3"))
(pin
	(input)
	(rect -24 392 144 408)
	(text "INPUT" (rect 133 0 161 10)(font "Arial" (font_size 6)))
	(text "clk" (rect 5 0 19 12)(font "Arial" ))
	(pt 168 8)
	(drawing
		(line (pt 92 12)(pt 117 12)(line_width 1))
		(line (pt 92 4)(pt 117 4)(line_width 1))
		(line (pt 121 8)(pt 168 8)(line_width 1))
		(line (pt 92 12)(pt 92 4)(line_width 1))
		(line (pt 117 4)(pt 121 8)(line_width 1))
		(line (pt 117 12)(pt 121 8)(line_width 1))
	)
	(text "VCC" (rect 136 7 156 17)(font "Arial" (font_size 6)))
)
(pin
	(input)
	(rect -16 256 152 272)
	(text "INPUT" (rect 133 0 161 10)(font "Arial" (font_size 6)))
	(text "edge_in" (rect 5 0 42 12)(font "Arial" ))
	(pt 168 8)
	(drawing
		(line (pt 92 12)(pt 117 12)(line_width 1))
		(line (pt 92 4)(pt 117 4)(line_width 1))
		(line (pt 121 8)(pt 168 8)(line_width 1))
		(line (pt 92 12)(pt 92 4)(line_width 1))
		(line (pt 117 4)(pt 121 8)(line_width 1))
		(line (pt 117 12)(pt 121 8)(line_width 1))
	)
	(text "VCC" (rect 136 7 156 17)(font "Arial" (font_size 6)))
)
(pin
	(input)
	(rect -24 424 144 440)
	(text "INPUT" (rect 133 0 161 10)(font "Arial" (font_size 6)))
	(text "clear_low" (rect 5 0 49 12)(font "Arial" ))
	(pt 168 8)
	(drawing
		(line (pt 92 12)(pt 117 12)(line_width 1))
		(line (pt 92 4)(pt 117 4)(line_width 1))
		(line (pt 121 8)(pt 168 8)(line_width 1))
		(line (pt 92 12)(pt 92 4)(line_width 1))
		(line (pt 117 4)(pt 121 8)(line_width 1))
		(line (pt 117 12)(pt 121 8)(line_width 1))
	)
	(text "VCC" (rect 136 7 156 17)(font "Arial" (font_size 6)))
)
(pin
	(output)
	(rect 768 288 944 304)
	(text "OUTPUT" (rect 1 0 39 10)(font "Arial" (font_size 6)))
	(text "count[15..0]" (rect 90 0 149 12)(font "Arial" ))
	(pt 0 8)
	(drawing
		(line (pt 0 8)(pt 52 8)(line_width 1))
		(line (pt 52 4)(pt 78 4)(line_width 1))
		(line (pt 52 12)(pt 78 12)(line_width 1))
		(line (pt 52 12)(pt 52 4)(line_width 1))
		(line (pt 78 4)(pt 82 8)(line_width 1))
		(line (pt 82 8)(pt 78 12)(line_width 1))
		(line (pt 78 12)(pt 82 8)(line_width 1))
	)
)
(symbol
	(rect 192 304 336 384)
	(text "ff3" (rect 66 1 81 17)(font "Arial" (font_size 10)))
	(text "inst72" (rect 8 64 37 76)(font "Arial" ))
	(port
		(pt 0 32)
		(input)
		(text "data" (rect 0 0 24 14)(font "Arial" (font_size 8)))
		(text "data" (rect 20 26 44 40)(font "Arial" (font_size 8)))
		(line (pt 0 32)(pt 16 32)(line_width 1))
	)
	(port
		(pt 0 48)
		(input)
		(text "clock" (rect 0 0 29 14)(font "Arial" (font_size 8)))
		(text "clock" (rect 26 42 55 56)(font "Arial" (font_size 8)))
		(line (pt 0 48)(pt 16 48)(line_width 1))
	)
	(port
		(pt 144 48)
		(output)
		(text "q" (rect 0 0 7 14)(font "Arial" (font_size 8)))
		(text "q" (rect 119 42 126 56)(font "Arial" (font_size 8)))
		(line (pt 144 48)(pt 128 48)(line_width 1))
	)
	(drawing
		(text "DFF" (rect 109 17 131 29)(font "Arial" ))
		(line (pt 16 16)(pt 128 16)(line_width 1))
		(line (pt 128 16)(pt 128 64)(line_width 1))
		(line (pt 128 64)(pt 16 64)(line_width 1))
		(line (pt 16 64)(pt 16 16)(line_width 1))
		(line (pt 16 42)(pt 22 48)(line_width 1))
		(line (pt 22 48)(pt 16 54)(line_width 1))
	)
)
(symbol
	(rect 360 328 440 368)
	(text "inv1" (rect 29 1 54 17)(font "Arial" (font_size 10)))
	(text "inst8" (rect 8 24 31 36)(font "Arial" ))
	(port
		(pt 0 24)
		(input)
		(text "data" (rect 0 0 24 14)(font "Arial" (font_size 8)))
		(text "data" (rect 4 3 28 17)(font "Arial" (font_size 8))(invisible))
		(line (pt 0 24)(pt 24 24)(line_width 1))
	)
	(port
		(pt 80 24)
		(output)
		(text "result" (rect 0 0 31 14)(font "Arial" (font_size 8)))
		(text "result" (rect 77 -1 108 13)(font "Arial" (font_size 8))(invisible))
		(line (pt 80 24)(pt 46 24)(line_width 1))
	)
	(drawing
		(line (pt 24 16)(pt 40 24)(line_width 1))
		(line (pt 40 24)(pt 24 32)(line_width 1))
		(line (pt 24 32)(pt 24 16)(line_width 1))
		(circle (rect 40 21 46 27)(line_width 1))
	)
)
(symbol
	(rect 472 248 536 296)
	(text "AND2" (rect 1 0 25 10)(font "Arial" (font_size 6)))
	(text "inst" (rect 3 37 20 49)(font "Arial" ))
	(port
		(pt 0 16)
		(input)
		(text "IN1" (rect 2 7 19 19)(font "Courier New" (bold))(invisible))
		(text "IN1" (rect 2 7 19 19)(font "Courier New" (bold))(invisible))
		(line (pt 0 16)(pt 14 16)(line_width 1))
	)
	(port
		(pt 0 32)
		(input)
		(text "IN2" (rect 2 23 19 35)(font "Courier New" (bold))(invisible))
		(text "IN2" (rect 2 23 19 35)(font "Courier New" (bold))(invisible))
		(line (pt 0 32)(pt 14 32)(line_width 1))
	)
	(port
		(pt 64 24)
		(output)
		(text "OUT" (rect 48 15 65 27)(font "Courier New" (bold))(invisible))
		(text "OUT" (rect 48 15 65 27)(font "Courier New" (bold))(invisible))
		(line (pt 42 24)(pt 64 24)(line_width 1))
	)
	(drawing
		(line (pt 14 12)(pt 30 12)(line_width 1))
		(line (pt 14 37)(pt 31 37)(line_width 1))
		(line (pt 14 12)(pt 14 37)(line_width 1))
		(arc (pt 31 37)(pt 30 12)(rect 18 12 43 37)(line_width 1))
	)
)
(symbol
	(rect 568 240 712 368)
	(text "counter16" (rect 44 111 111 127)(font "Arial" (font_size 10)))
	(text "inst1" (rect 8 4 31 16)(font "Arial" ))
	(port
		(pt 0 96)
		(input)
		(text "sclr" (rect 0 0 21 14)(font "Arial" (font_size 8)))
		(text "sclr" (rect 20 88 41 102)(font "Arial" (font_size 8)))
		(line (pt 0 96)(pt 16 96)(line_width 1))
	)
	(port
		(pt 0 64)
		(input)
		(text "clock" (rect 0 0 29 14)(font "Arial" (font_size 8)))
		(text "clock" (rect 26 56 55 70)(font "Arial" (font_size 8)))
		(line (pt 0 64)(pt 16 64)(line_width 1))
	)
	(port
		(pt 0 32)
		(input)
		(text "cnt_en" (rect 0 0 38 14)(font "Arial" (font_size 8)))
		(text "cnt_en" (rect 20 24 58 38)(font "Arial" (font_size 8)))
		(line (pt 0 32)(pt 16 32)(line_width 1))
	)
	(port
		(pt 144 56)
		(output)
		(text "q[15..0]" (rect 0 0 42 14)(font "Arial" (font_size 8)))
		(text "q[15..0]" (rect 89 48 131 62)(font "Arial" (font_size 8)))
		(line (pt 144 56)(pt 128 56)(line_width 3))
	)
	(drawing
		(text "up counter" (rect 84 99 135 111)(font "Arial" ))
		(line (pt 16 112)(pt 128 112)(line_width 1))
		(line (pt 128 112)(pt 128 16)(line_width 1))
		(line (pt 128 16)(pt 16 16)(line_width 1))
		(line (pt 16 16)(pt 16 112)(line_width 1))
		(line (pt 16 70)(pt 22 64)(line_width 1))
		(line (pt 22 64)(pt 16 58)(line_width 1))
	)
	(flipx)
)
(symbol
	(rect 376 408 456 448)
	(text "inv1" (rect 29 1 54 17)(font "Arial" (font_size 10)))
	(text "inst9" (rect 8 24 31 36)(font "Arial" ))
	(port
		(pt 0 24)
		(input)
		(text "data" (rect 0 0 24 14)(font "Arial" (font_size 8)))
		(text "data" (rect 4 3 28 17)(font "Arial" (font_size 8))(invisible))
		(line (pt 0 24)(pt 24 24)(line_width 1))
	)
	(port
		(pt 80 24)
		(output)
		(text "result" (rect 0 0 31 14)(font "Arial" (font_size 8)))
		(text "result" (rect 77 -1 108 13)(font "Arial" (font_size 8))(invisible))
		(line (pt 80 24)(pt 46 24)(line_width 1))
	)
	(drawing
		(line (pt 24 16)(pt 40 24)(line_width 1))
		(line (pt 40 24)(pt 24 32)(line_width 1))
		(line (pt 24 32)(pt 24 16)(line_width 1))
		(circle (rect 40 21 46 27)(line_width 1))
	)
)
(connector
	(pt 536 272)
	(pt 568 272)
)
(connector
	(pt 472 280)
	(pt 456 280)
)
(connector
	(pt 456 280)
	(pt 456 352)
)
(connector
	(pt 440 352)
	(pt 456 352)
)
(connector
	(pt 336 352)
	(pt 360 352)
)
(connector
	(pt 192 336)
	(pt 176 336)
)
(connector
	(pt 192 352)
	(pt 176 352)
)
(connector
	(pt 176 264)
	(pt 176 336)
)
(connector
	(pt 152 264)
	(pt 176 264)
)
(connector
	(pt 176 264)
	(pt 472 264)
)
(connector
	(pt 176 352)
	(pt 176 400)
)
(connector
	(pt 144 400)
	(pt 176 400)
)
(connector
	(pt 496 400)
	(pt 496 304)
)
(connector
	(pt 176 400)
	(pt 496 400)
)
(connector
	(pt 496 304)
	(pt 568 304)
)
(connector
	(pt 712 296)
	(pt 768 296)
	(bus)
)
(connector
	(pt 144 432)
	(pt 376 432)
)
(connector
	(pt 456 432)
	(pt 528 432)
)
(connector
	(pt 528 432)
	(pt 528 336)
)
(connector
	(pt 528 336)
	(pt 568 336)
)
(junction (pt 176 264))
(junction (pt 176 400))
