/*
WARNING: Do NOT edit the input and output ports in this file in a text
editor if you plan to continue editing the block that represents it in
the Block Editor! File corruption is VERY likely to occur.
*/
/*
Copyright (C) 1991-2012 Altera Corporation
Your use of Altera Corporation's design tools, logic functions 
and other software and tools, and its AMPP partner logic 
functions, and any output files from any of the foregoing 
(including device programming or simulation files), and any 
associated documentation or information are expressly subject 
to the terms and conditions of the Altera Program License 
Subscription Agreement, Altera MegaCore Function License 
Agreement, or other applicable license agreement, including, 
without limitation, that your use is for the sole purpose of 
programming logic devices manufactured by Altera and sold by 
Altera or its authorized distributors.  Please refer to the 
applicable agreement for further details.
*/
//#pragma file_not_in_maxplusii_format
(header "graphic" (version "1.4"))
(pin
	(input)
	(rect 440 -304 608 -288)
	(text "INPUT" (rect 133 0 161 10)(font "Arial" (font_size 6)))
	(text "distance[3..0]" (rect 9 0 76 12)(font "Arial" ))
	(pt 168 8)
	(drawing
		(line (pt 92 12)(pt 117 12))
		(line (pt 92 4)(pt 117 4))
		(line (pt 121 8)(pt 168 8))
		(line (pt 92 12)(pt 92 4))
		(line (pt 117 4)(pt 121 8))
		(line (pt 117 12)(pt 121 8))
	)
	(text "VCC" (rect 136 7 156 17)(font "Arial" (font_size 6)))
)
(pin
	(input)
	(rect 440 -272 608 -256)
	(text "INPUT" (rect 133 0 161 10)(font "Arial" (font_size 6)))
	(text "clk" (rect 9 0 23 12)(font "Arial" ))
	(pt 168 8)
	(drawing
		(line (pt 92 12)(pt 117 12))
		(line (pt 92 4)(pt 117 4))
		(line (pt 121 8)(pt 168 8))
		(line (pt 92 12)(pt 92 4))
		(line (pt 117 4)(pt 121 8))
		(line (pt 117 12)(pt 121 8))
	)
	(text "VCC" (rect 136 7 156 17)(font "Arial" (font_size 6)))
)
(pin
	(input)
	(rect 440 -496 608 -480)
	(text "INPUT" (rect 133 0 161 10)(font "Arial" (font_size 6)))
	(text "data_low[13..0]" (rect 5 0 80 12)(font "Arial" ))
	(pt 168 8)
	(drawing
		(line (pt 92 12)(pt 117 12))
		(line (pt 92 4)(pt 117 4))
		(line (pt 121 8)(pt 168 8))
		(line (pt 92 12)(pt 92 4))
		(line (pt 117 4)(pt 121 8))
		(line (pt 117 12)(pt 121 8))
	)
	(text "VCC" (rect 136 7 156 17)(font "Arial" (font_size 6)))
)
(pin
	(input)
	(rect 440 -368 608 -352)
	(text "INPUT" (rect 133 0 161 10)(font "Arial" (font_size 6)))
	(text "data_high[13..0]" (rect 5 0 85 12)(font "Arial" ))
	(pt 168 8)
	(drawing
		(line (pt 92 12)(pt 117 12))
		(line (pt 92 4)(pt 117 4))
		(line (pt 121 8)(pt 168 8))
		(line (pt 92 12)(pt 92 4))
		(line (pt 117 4)(pt 121 8))
		(line (pt 117 12)(pt 121 8))
	)
	(text "VCC" (rect 136 7 156 17)(font "Arial" (font_size 6)))
)
(pin
	(output)
	(rect 1864 -416 2040 -400)
	(text "OUTPUT" (rect 1 0 39 10)(font "Arial" (font_size 6)))
	(text "data_out[27..0]" (rect 90 0 164 12)(font "Arial" ))
	(pt 0 8)
	(drawing
		(line (pt 0 8)(pt 52 8))
		(line (pt 52 4)(pt 78 4))
		(line (pt 52 12)(pt 78 12))
		(line (pt 52 12)(pt 52 4))
		(line (pt 78 4)(pt 82 8))
		(line (pt 82 8)(pt 78 12))
		(line (pt 78 12)(pt 82 8))
	)
)
(symbol
	(rect 864 -360 912 -328)
	(text "WIRE" (rect 1 0 24 10)(font "Arial" (font_size 6)))
	(text "inst123" (rect 3 21 38 33)(font "Arial" ))
	(port
		(pt 0 16)
		(input)
		(text "IN" (rect 2 7 13 19)(font "Courier New" (bold))(invisible))
		(text "IN" (rect 2 7 13 19)(font "Courier New" (bold))(invisible))
		(line (pt 0 16)(pt 14 16))
	)
	(port
		(pt 48 16)
		(output)
		(text "OUT" (rect 32 7 49 19)(font "Courier New" (bold))(invisible))
		(text "OUT" (rect 32 7 49 19)(font "Courier New" (bold))(invisible))
		(line (pt 32 16)(pt 48 16))
	)
	(drawing
		(line (pt 14 7)(pt 32 16))
		(line (pt 14 25)(pt 14 7))
		(line (pt 14 25)(pt 32 16))
	)
)
(symbol
	(rect 864 -448 912 -416)
	(text "WIRE" (rect 1 0 24 10)(font "Arial" (font_size 6)))
	(text "inst124" (rect 3 21 38 33)(font "Arial" ))
	(port
		(pt 0 16)
		(input)
		(text "IN" (rect 2 7 13 19)(font "Courier New" (bold))(invisible))
		(text "IN" (rect 2 7 13 19)(font "Courier New" (bold))(invisible))
		(line (pt 0 16)(pt 14 16))
	)
	(port
		(pt 48 16)
		(output)
		(text "OUT" (rect 32 7 49 19)(font "Courier New" (bold))(invisible))
		(text "OUT" (rect 32 7 49 19)(font "Courier New" (bold))(invisible))
		(line (pt 32 16)(pt 48 16))
	)
	(drawing
		(line (pt 14 7)(pt 32 16))
		(line (pt 14 25)(pt 14 7))
		(line (pt 14 25)(pt 32 16))
	)
)
(symbol
	(rect 816 -416 848 -384)
	(text "GND" (rect 8 16 29 26)(font "Arial" (font_size 6)))
	(text "inst125" (rect 3 21 38 33)(font "Arial" )(invisible))
	(port
		(pt 16 0)
		(output)
		(text "1" (rect 18 0 23 12)(font "Courier New" (bold))(invisible))
		(text "1" (rect 18 0 23 12)(font "Courier New" (bold))(invisible))
		(line (pt 16 8)(pt 16 0))
	)
	(drawing
		(line (pt 8 8)(pt 16 16))
		(line (pt 16 16)(pt 24 8))
		(line (pt 8 8)(pt 24 8))
	)
)
(symbol
	(rect 1472 -368 1520 -336)
	(text "WIRE" (rect 1 0 24 10)(font "Arial" (font_size 6)))
	(text "inst126" (rect 3 21 38 33)(font "Arial" ))
	(port
		(pt 0 16)
		(input)
		(text "IN" (rect 2 7 13 19)(font "Courier New" (bold))(invisible))
		(text "IN" (rect 2 7 13 19)(font "Courier New" (bold))(invisible))
		(line (pt 0 16)(pt 14 16))
	)
	(port
		(pt 48 16)
		(output)
		(text "OUT" (rect 32 7 49 19)(font "Courier New" (bold))(invisible))
		(text "OUT" (rect 32 7 49 19)(font "Courier New" (bold))(invisible))
		(line (pt 32 16)(pt 48 16))
	)
	(drawing
		(line (pt 14 7)(pt 32 16))
		(line (pt 14 25)(pt 14 7))
		(line (pt 14 25)(pt 32 16))
	)
)
(symbol
	(rect 1464 -496 1528 -432)
	(text "or14x2" (rect 13 1 59 17)(font "Arial" (font_size 10)))
	(text "inst122" (rect 8 48 43 60)(font "Arial" ))
	(port
		(pt 0 24)
		(input)
		(text "data0x[13..0]" (rect 0 0 74 14)(font "Arial" (font_size 8)))
		(text "data0x[13..0]" (rect 4 -38 78 -24)(font "Arial" (font_size 8))(invisible))
		(line (pt 0 24)(pt 18 24)(line_width 3))
	)
	(port
		(pt 0 40)
		(input)
		(text "data1x[13..0]" (rect 0 0 74 14)(font "Arial" (font_size 8)))
		(text "data1x[13..0]" (rect 4 -22 78 -8)(font "Arial" (font_size 8))(invisible))
		(line (pt 0 40)(pt 18 40)(line_width 3))
	)
	(port
		(pt 64 32)
		(output)
		(text "result[13..0]" (rect 0 0 67 14)(font "Arial" (font_size 8)))
		(text "result[13..0]" (rect 61 -23 128 -9)(font "Arial" (font_size 8))(invisible))
		(line (pt 64 32)(pt 51 32)(line_width 3))
	)
	(drawing
		(text "14" (rect 6 25 17 37)(font "Arial" ))
		(text "14" (rect 6 41 17 53)(font "Arial" ))
		(text "14" (rect 55 33 66 45)(font "Arial" ))
		(line (pt 16 20)(pt 28 20))
		(line (pt 16 44)(pt 28 44))
		(line (pt 1 28)(pt 9 20))
		(line (pt 1 44)(pt 9 36))
		(line (pt 50 36)(pt 58 28))
		(arc (pt 16 44)(pt 16 20)(rect -21 11 21 53))
		(arc (pt 52 32)(pt 28 20)(rect -2 20 58 80))
		(arc (pt 28 44)(pt 52 32)(rect -2 -16 58 44))
	)
)
(symbol
	(rect 1096 -400 1280 -320)
	(text "barrel_shifter4" (rect 52 2 147 18)(font "Arial" (font_size 10)))
	(text "inst52" (rect 8 64 37 76)(font "Arial" ))
	(port
		(pt 0 24)
		(input)
		(text "data[27..0]" (rect 0 0 60 14)(font "Arial" (font_size 8)))
		(text "data[27..0]" (rect 20 18 80 32)(font "Arial" (font_size 8)))
		(line (pt 0 24)(pt 16 24)(line_width 3))
	)
	(port
		(pt 0 40)
		(input)
		(text "distance[3..0]" (rect 0 0 76 14)(font "Arial" (font_size 8)))
		(text "distance[3..0]" (rect 20 34 96 48)(font "Arial" (font_size 8)))
		(line (pt 0 40)(pt 16 40)(line_width 3))
	)
	(port
		(pt 184 24)
		(output)
		(text "result[27..0]" (rect 0 0 67 14)(font "Arial" (font_size 8)))
		(text "result[27..0]" (rect 108 18 175 32)(font "Arial" (font_size 8)))
		(line (pt 184 24)(pt 168 24)(line_width 3))
	)
	(drawing
		(text "LOGICAL left shift" (rect 21 52 114 64)(font "Arial" ))
		(line (pt 16 16)(pt 16 64))
		(line (pt 168 16)(pt 168 64))
		(line (pt 16 16)(pt 168 16))
		(line (pt 16 64)(pt 168 64))
	)
)
(symbol
	(rect 1704 -456 1848 -376)
	(text "reg28" (rect 56 1 93 17)(font "Arial" (font_size 10)))
	(text "inst" (rect 8 64 25 76)(font "Arial" ))
	(port
		(pt 0 32)
		(input)
		(text "data[27..0]" (rect 0 0 60 14)(font "Arial" (font_size 8)))
		(text "data[27..0]" (rect 20 26 80 40)(font "Arial" (font_size 8)))
		(line (pt 0 32)(pt 16 32)(line_width 3))
	)
	(port
		(pt 0 48)
		(input)
		(text "clock" (rect 0 0 29 14)(font "Arial" (font_size 8)))
		(text "clock" (rect 26 42 55 56)(font "Arial" (font_size 8)))
		(line (pt 0 48)(pt 16 48))
	)
	(port
		(pt 144 48)
		(output)
		(text "q[27..0]" (rect 0 0 42 14)(font "Arial" (font_size 8)))
		(text "q[27..0]" (rect 89 42 131 56)(font "Arial" (font_size 8)))
		(line (pt 144 48)(pt 128 48)(line_width 3))
	)
	(drawing
		(text "DFF" (rect 109 17 131 29)(font "Arial" ))
		(line (pt 16 16)(pt 128 16))
		(line (pt 128 16)(pt 128 64))
		(line (pt 128 64)(pt 16 64))
		(line (pt 16 64)(pt 16 16))
		(line (pt 16 42)(pt 22 48))
		(line (pt 22 48)(pt 16 54))
	)
)
(symbol
	(rect 664 -520 808 -440)
	(text "reg14nc" (rect 49 1 103 17)(font "Arial" (font_size 10)))
	(text "inst1" (rect 8 64 31 76)(font "Arial" ))
	(port
		(pt 0 32)
		(input)
		(text "data[13..0]" (rect 0 0 60 14)(font "Arial" (font_size 8)))
		(text "data[13..0]" (rect 20 26 80 40)(font "Arial" (font_size 8)))
		(line (pt 0 32)(pt 16 32)(line_width 3))
	)
	(port
		(pt 0 48)
		(input)
		(text "clock" (rect 0 0 29 14)(font "Arial" (font_size 8)))
		(text "clock" (rect 26 42 55 56)(font "Arial" (font_size 8)))
		(line (pt 0 48)(pt 16 48))
	)
	(port
		(pt 144 48)
		(output)
		(text "q[13..0]" (rect 0 0 42 14)(font "Arial" (font_size 8)))
		(text "q[13..0]" (rect 89 42 131 56)(font "Arial" (font_size 8)))
		(line (pt 144 48)(pt 128 48)(line_width 3))
	)
	(drawing
		(text "DFF" (rect 109 17 131 29)(font "Arial" ))
		(line (pt 16 16)(pt 128 16))
		(line (pt 128 16)(pt 128 64))
		(line (pt 128 64)(pt 16 64))
		(line (pt 16 64)(pt 16 16))
		(line (pt 16 42)(pt 22 48))
		(line (pt 22 48)(pt 16 54))
	)
)
(symbol
	(rect 664 -392 808 -312)
	(text "reg14nc" (rect 49 1 103 17)(font "Arial" (font_size 10)))
	(text "inst2" (rect 8 64 31 76)(font "Arial" ))
	(port
		(pt 0 32)
		(input)
		(text "data[13..0]" (rect 0 0 60 14)(font "Arial" (font_size 8)))
		(text "data[13..0]" (rect 20 26 80 40)(font "Arial" (font_size 8)))
		(line (pt 0 32)(pt 16 32)(line_width 3))
	)
	(port
		(pt 0 48)
		(input)
		(text "clock" (rect 0 0 29 14)(font "Arial" (font_size 8)))
		(text "clock" (rect 26 42 55 56)(font "Arial" (font_size 8)))
		(line (pt 0 48)(pt 16 48))
	)
	(port
		(pt 144 48)
		(output)
		(text "q[13..0]" (rect 0 0 42 14)(font "Arial" (font_size 8)))
		(text "q[13..0]" (rect 89 42 131 56)(font "Arial" (font_size 8)))
		(line (pt 144 48)(pt 128 48)(line_width 3))
	)
	(drawing
		(text "DFF" (rect 109 17 131 29)(font "Arial" ))
		(line (pt 16 16)(pt 128 16))
		(line (pt 128 16)(pt 128 64))
		(line (pt 128 64)(pt 16 64))
		(line (pt 16 64)(pt 16 16))
		(line (pt 16 42)(pt 22 48))
		(line (pt 22 48)(pt 16 54))
	)
)
(connector
	(pt 864 -432)
	(pt 832 -432)
	(bus)
)
(connector
	(pt 832 -432)
	(pt 832 -416)
	(bus)
)
(connector
	(pt 1448 -456)
	(pt 1448 -400)
	(bus)
)
(connector
	(pt 1464 -456)
	(pt 1448 -456)
	(bus)
)
(connector
	(text "a[27..14]" (rect 922 -448 965 -436)(font "Arial" ))
	(pt 912 -432)
	(pt 984 -432)
	(bus)
)
(connector
	(text "a[27..0]" (rect 1042 -392 1079 -380)(font "Arial" ))
	(pt 984 -376)
	(pt 1096 -376)
	(bus)
)
(connector
	(text "b[27..0]" (rect 1290 -392 1327 -380)(font "Arial" ))
	(pt 1280 -376)
	(pt 1344 -376)
	(bus)
)
(connector
	(pt 1096 -360)
	(pt 1040 -360)
	(bus)
)
(connector
	(text "a[13..0]" (rect 922 -360 959 -348)(font "Arial" ))
	(pt 912 -344)
	(pt 984 -344)
	(bus)
)
(connector
	(pt 1848 -408)
	(pt 1864 -408)
	(bus)
)
(connector
	(pt 1680 -408)
	(pt 1704 -408)
)
(connector
	(text "d[27..0]" (rect 1650 -440 1687 -428)(font "Arial" ))
	(pt 1704 -424)
	(pt 1640 -424)
	(bus)
)
(connector
	(pt 808 -344)
	(pt 864 -344)
	(bus)
)
(connector
	(pt 608 -488)
	(pt 664 -488)
	(bus)
)
(connector
	(pt 808 -472)
	(pt 1464 -472)
	(bus)
)
(connector
	(pt 664 -360)
	(pt 608 -360)
	(bus)
)
(connector
	(pt 664 -472)
	(pt 648 -472)
)
(connector
	(pt 648 -344)
	(pt 664 -344)
)
(connector
	(pt 1040 -296)
	(pt 608 -296)
	(bus)
)
(connector
	(pt 1040 -360)
	(pt 1040 -296)
	(bus)
)
(connector
	(pt 1680 -408)
	(pt 1680 -264)
)
(connector
	(pt 984 -432)
	(pt 984 -376)
	(bus)
)
(connector
	(pt 984 -376)
	(pt 984 -344)
	(bus)
)
(connector
	(pt 1344 -400)
	(pt 1344 -376)
	(bus)
)
(connector
	(pt 1344 -376)
	(pt 1344 -352)
	(bus)
)
(connector
	(pt 1640 -464)
	(pt 1640 -424)
	(bus)
)
(connector
	(pt 1640 -424)
	(pt 1640 -352)
	(bus)
)
(connector
	(pt 648 -472)
	(pt 648 -344)
)
(connector
	(pt 648 -344)
	(pt 648 -264)
)
(connector
	(pt 608 -264)
	(pt 648 -264)
)
(connector
	(pt 648 -264)
	(pt 1680 -264)
)
(connector
	(text "b[13..0]" (rect 1378 -416 1415 -404)(font "Arial" ))
	(pt 1344 -400)
	(pt 1448 -400)
	(bus)
)
(connector
	(text "b[27..14]" (rect 1378 -368 1421 -356)(font "Arial" ))
	(pt 1344 -352)
	(pt 1472 -352)
	(bus)
)
(connector
	(text "d[27..14]" (rect 1538 -368 1581 -356)(font "Arial" ))
	(pt 1520 -352)
	(pt 1640 -352)
	(bus)
)
(connector
	(text "d[13..0]" (rect 1538 -480 1575 -468)(font "Arial" ))
	(pt 1528 -464)
	(pt 1640 -464)
	(bus)
)
(junction (pt 984 -376))
(junction (pt 1344 -376))
(junction (pt 1640 -424))
(junction (pt 648 -344))
(junction (pt 648 -264))
