/*
WARNING: Do NOT edit the input and output ports in this file in a text
editor if you plan to continue editing the block that represents it in
the Block Editor! File corruption is VERY likely to occur.
*/
/*
Copyright (C) 1991-2009 Altera Corporation
Your use of Altera Corporation's design tools, logic functions 
and other software and tools, and its AMPP partner logic 
functions, and any output files from any of the foregoing 
(including device programming or simulation files), and any 
associated documentation or information are expressly subject 
to the terms and conditions of the Altera Program License 
Subscription Agreement, Altera MegaCore Function License 
Agreement, or other applicable license agreement, including, 
without limitation, that your use is for the sole purpose of 
programming logic devices manufactured by Altera and sold by 
Altera or its authorized distributors.  Please refer to the 
applicable agreement for further details.
*/
//#pragma file_not_in_maxplusii_format
(header "graphic" (version "1.3"))
(pin
	(input)
	(rect 392 -160 560 -144)
	(text "INPUT" (rect 7 0 35 10)(font "Arial" (font_size 6)))
	(text "in" (rect 104 0 112 12)(font "Arial" ))
	(pt 0 8)
	(drawing
		(line (pt 76 12)(pt 51 12)(line_width 1))
		(line (pt 76 4)(pt 51 4)(line_width 1))
		(line (pt 47 8)(pt 0 8)(line_width 1))
		(line (pt 76 12)(pt 76 4)(line_width 1))
		(line (pt 51 4)(pt 47 8)(line_width 1))
		(line (pt 51 12)(pt 47 8)(line_width 1))
	)
	(flipy)
	(text "VCC" (rect 12 7 32 17)(font "Arial" (font_size 6)))
)
(pin
	(input)
	(rect 376 40 544 56)
	(text "INPUT" (rect 7 0 35 10)(font "Arial" (font_size 6)))
	(text "clk" (rect 104 0 118 12)(font "Arial" ))
	(pt 0 8)
	(drawing
		(line (pt 76 12)(pt 51 12)(line_width 1))
		(line (pt 76 4)(pt 51 4)(line_width 1))
		(line (pt 47 8)(pt 0 8)(line_width 1))
		(line (pt 76 12)(pt 76 4)(line_width 1))
		(line (pt 51 4)(pt 47 8)(line_width 1))
		(line (pt 51 12)(pt 47 8)(line_width 1))
	)
	(flipy)
	(text "VCC" (rect 12 7 32 17)(font "Arial" (font_size 6)))
)
(pin
	(output)
	(rect -448 -136 -272 -120)
	(text "OUTPUT" (rect 137 6 175 16)(font "Arial" (font_size 6)))
	(text "out" (rect 5 4 20 16)(font "Arial" ))
	(pt 176 8)
	(drawing
		(line (pt 176 8)(pt 124 8)(line_width 1))
		(line (pt 124 12)(pt 98 12)(line_width 1))
		(line (pt 124 4)(pt 98 4)(line_width 1))
		(line (pt 124 4)(pt 124 12)(line_width 1))
		(line (pt 98 12)(pt 94 8)(line_width 1))
		(line (pt 94 8)(pt 98 4)(line_width 1))
		(line (pt 98 4)(pt 94 8)(line_width 1))
	)
	(rotate180)
	(annotation_block (location)(rect 312 296 368 312))
)
(symbol
	(rect 280 -168 344 -120)
	(text "OR2" (rect 45 0 63 10)(font "Arial" (font_size 6)))
	(text "inst4" (rect 38 37 61 49)(font "Arial" ))
	(port
		(pt 64 32)
		(input)
		(text "IN2" (rect 2 23 19 35)(font "Courier New" (bold))(invisible))
		(text "IN2" (rect 45 23 62 35)(font "Courier New" (bold))(invisible))
		(line (pt 64 32)(pt 49 32)(line_width 1))
	)
	(port
		(pt 64 16)
		(input)
		(text "IN1" (rect 2 7 19 19)(font "Courier New" (bold))(invisible))
		(text "IN1" (rect 45 7 62 19)(font "Courier New" (bold))(invisible))
		(line (pt 64 16)(pt 49 16)(line_width 1))
	)
	(port
		(pt 0 24)
		(output)
		(text "OUT" (rect 48 15 65 27)(font "Courier New" (bold))(invisible))
		(text "OUT" (rect -1 15 16 27)(font "Courier New" (bold))(invisible))
		(line (pt 16 24)(pt 0 24)(line_width 1))
	)
	(drawing
		(line (pt 50 36)(pt 39 36)(line_width 1))
		(line (pt 50 13)(pt 39 13)(line_width 1))
		(arc (pt 57 19)(pt 57 29)(rect 45 8 78 41)(line_width 1))
		(arc (pt 39 13)(pt 15 24)(rect 7 13 70 76)(line_width 1))
		(arc (pt 15 24)(pt 39 35)(rect 7 -27 70 36)(line_width 1))
	)
	(flipy)
)
(symbol
	(rect 96 -176 240 -96)
	(text "ff3" (rect 63 1 78 17)(font "Arial" (font_size 10)))
	(text "inst" (rect 119 64 136 76)(font "Arial" ))
	(port
		(pt 144 32)
		(input)
		(text "data" (rect 0 0 24 14)(font "Arial" (font_size 8)))
		(text "data" (rect 100 26 124 40)(font "Arial" (font_size 8)))
		(line (pt 144 32)(pt 128 32)(line_width 1))
	)
	(port
		(pt 144 48)
		(input)
		(text "clock" (rect 0 0 29 14)(font "Arial" (font_size 8)))
		(text "clock" (rect 89 42 118 56)(font "Arial" (font_size 8)))
		(line (pt 144 48)(pt 128 48)(line_width 1))
	)
	(port
		(pt 0 48)
		(output)
		(text "q" (rect 0 0 7 14)(font "Arial" (font_size 8)))
		(text "q" (rect 18 42 25 56)(font "Arial" (font_size 8)))
		(line (pt 0 48)(pt 16 48)(line_width 1))
	)
	(drawing
		(text "DFF" (rect 13 17 35 29)(font "Arial" ))
		(line (pt 128 16)(pt 16 16)(line_width 1))
		(line (pt 16 16)(pt 16 64)(line_width 1))
		(line (pt 16 64)(pt 128 64)(line_width 1))
		(line (pt 128 64)(pt 128 16)(line_width 1))
		(line (pt 128 42)(pt 122 48)(line_width 1))
		(line (pt 122 48)(pt 128 54)(line_width 1))
	)
	(flipy)
)
(symbol
	(rect -96 -112 48 -32)
	(text "ff3" (rect 63 1 78 17)(font "Arial" (font_size 10)))
	(text "inst5" (rect 119 64 142 76)(font "Arial" ))
	(port
		(pt 144 32)
		(input)
		(text "data" (rect 0 0 24 14)(font "Arial" (font_size 8)))
		(text "data" (rect 100 26 124 40)(font "Arial" (font_size 8)))
		(line (pt 144 32)(pt 128 32)(line_width 1))
	)
	(port
		(pt 144 48)
		(input)
		(text "clock" (rect 0 0 29 14)(font "Arial" (font_size 8)))
		(text "clock" (rect 89 42 118 56)(font "Arial" (font_size 8)))
		(line (pt 144 48)(pt 128 48)(line_width 1))
	)
	(port
		(pt 0 48)
		(output)
		(text "q" (rect 0 0 7 14)(font "Arial" (font_size 8)))
		(text "q" (rect 18 42 25 56)(font "Arial" (font_size 8)))
		(line (pt 0 48)(pt 16 48)(line_width 1))
	)
	(drawing
		(text "DFF" (rect 13 17 35 29)(font "Arial" ))
		(line (pt 128 16)(pt 16 16)(line_width 1))
		(line (pt 16 16)(pt 16 64)(line_width 1))
		(line (pt 16 64)(pt 128 64)(line_width 1))
		(line (pt 128 64)(pt 128 16)(line_width 1))
		(line (pt 128 42)(pt 122 48)(line_width 1))
		(line (pt 122 48)(pt 128 54)(line_width 1))
	)
	(flipy)
)
(symbol
	(rect -272 -96 -128 -16)
	(text "ff3" (rect 63 1 78 17)(font "Arial" (font_size 10)))
	(text "inst6" (rect 119 64 142 76)(font "Arial" ))
	(port
		(pt 144 32)
		(input)
		(text "data" (rect 0 0 24 14)(font "Arial" (font_size 8)))
		(text "data" (rect 100 26 124 40)(font "Arial" (font_size 8)))
		(line (pt 144 32)(pt 128 32)(line_width 1))
	)
	(port
		(pt 144 48)
		(input)
		(text "clock" (rect 0 0 29 14)(font "Arial" (font_size 8)))
		(text "clock" (rect 89 42 118 56)(font "Arial" (font_size 8)))
		(line (pt 144 48)(pt 128 48)(line_width 1))
	)
	(port
		(pt 0 48)
		(output)
		(text "q" (rect 0 0 7 14)(font "Arial" (font_size 8)))
		(text "q" (rect 18 42 25 56)(font "Arial" (font_size 8)))
		(line (pt 0 48)(pt 16 48)(line_width 1))
	)
	(drawing
		(text "DFF" (rect 13 17 35 29)(font "Arial" ))
		(line (pt 128 16)(pt 16 16)(line_width 1))
		(line (pt 16 16)(pt 16 64)(line_width 1))
		(line (pt 16 64)(pt 128 64)(line_width 1))
		(line (pt 128 64)(pt 128 16)(line_width 1))
		(line (pt 128 42)(pt 122 48)(line_width 1))
		(line (pt 122 48)(pt 128 54)(line_width 1))
	)
	(flipy)
)
(symbol
	(rect -448 -80 -304 0)
	(text "ff3" (rect 63 1 78 17)(font "Arial" (font_size 10)))
	(text "inst7" (rect 119 64 142 76)(font "Arial" ))
	(port
		(pt 144 32)
		(input)
		(text "data" (rect 0 0 24 14)(font "Arial" (font_size 8)))
		(text "data" (rect 100 26 124 40)(font "Arial" (font_size 8)))
		(line (pt 144 32)(pt 128 32)(line_width 1))
	)
	(port
		(pt 144 48)
		(input)
		(text "clock" (rect 0 0 29 14)(font "Arial" (font_size 8)))
		(text "clock" (rect 89 42 118 56)(font "Arial" (font_size 8)))
		(line (pt 144 48)(pt 128 48)(line_width 1))
	)
	(port
		(pt 0 48)
		(output)
		(text "q" (rect 0 0 7 14)(font "Arial" (font_size 8)))
		(text "q" (rect 18 42 25 56)(font "Arial" (font_size 8)))
		(line (pt 0 48)(pt 16 48)(line_width 1))
	)
	(drawing
		(text "DFF" (rect 13 17 35 29)(font "Arial" ))
		(line (pt 128 16)(pt 16 16)(line_width 1))
		(line (pt 16 16)(pt 16 64)(line_width 1))
		(line (pt 16 64)(pt 128 64)(line_width 1))
		(line (pt 128 64)(pt 128 16)(line_width 1))
		(line (pt 128 42)(pt 122 48)(line_width 1))
		(line (pt 122 48)(pt 128 54)(line_width 1))
	)
	(flipy)
)
(symbol
	(rect -56 -8 24 32)
	(text "inv1" (rect 29 1 54 17)(font "Arial" (font_size 10)))
	(text "inst25" (rect 8 24 37 36)(font "Arial" ))
	(port
		(pt 0 24)
		(input)
		(text "data" (rect 0 0 24 14)(font "Arial" (font_size 8)))
		(text "data" (rect 4 3 28 17)(font "Arial" (font_size 8))(invisible))
		(line (pt 0 24)(pt 24 24)(line_width 1))
	)
	(port
		(pt 80 24)
		(output)
		(text "result" (rect 0 0 31 14)(font "Arial" (font_size 8)))
		(text "result" (rect 77 -1 108 13)(font "Arial" (font_size 8))(invisible))
		(line (pt 80 24)(pt 46 24)(line_width 1))
	)
	(drawing
		(line (pt 24 16)(pt 40 24)(line_width 1))
		(line (pt 40 24)(pt 24 32)(line_width 1))
		(line (pt 24 32)(pt 24 16)(line_width 1))
		(circle (rect 40 21 46 27)(line_width 1))
	)
)
(symbol
	(rect 120 -16 184 32)
	(text "AND2" (rect 1 0 25 10)(font "Arial" (font_size 6)))
	(text "inst8" (rect 3 37 26 49)(font "Arial" ))
	(port
		(pt 0 16)
		(input)
		(text "IN1" (rect 2 7 19 19)(font "Courier New" (bold))(invisible))
		(text "IN1" (rect 2 7 19 19)(font "Courier New" (bold))(invisible))
		(line (pt 0 16)(pt 14 16)(line_width 1))
	)
	(port
		(pt 0 32)
		(input)
		(text "IN2" (rect 2 23 19 35)(font "Courier New" (bold))(invisible))
		(text "IN2" (rect 2 23 19 35)(font "Courier New" (bold))(invisible))
		(line (pt 0 32)(pt 14 32)(line_width 1))
	)
	(port
		(pt 64 24)
		(output)
		(text "OUT" (rect 48 15 65 27)(font "Courier New" (bold))(invisible))
		(text "OUT" (rect 48 15 65 27)(font "Courier New" (bold))(invisible))
		(line (pt 42 24)(pt 64 24)(line_width 1))
	)
	(drawing
		(line (pt 14 12)(pt 30 12)(line_width 1))
		(line (pt 14 37)(pt 31 37)(line_width 1))
		(line (pt 14 12)(pt 14 37)(line_width 1))
		(arc (pt 31 37)(pt 30 12)(rect 18 12 43 37)(line_width 1))
	)
)
(connector
	(pt 280 -144)
	(pt 240 -144)
)
(connector
	(pt 392 -152)
	(pt 344 -152)
)
(connector
	(pt 344 -136)
	(pt 360 -136)
)
(connector
	(pt 360 -136)
	(pt 360 8)
)
(connector
	(pt 184 8)
	(pt 360 8)
)
(connector
	(pt -272 -128)
	(pt 80 -128)
)
(connector
	(pt 80 -128)
	(pt 96 -128)
)
(connector
	(pt 80 0)
	(pt 120 0)
)
(connector
	(pt 240 -128)
	(pt 256 -128)
)
(connector
	(pt -448 -32)
	(pt -464 -32)
)
(connector
	(pt -464 -32)
	(pt -464 16)
)
(connector
	(pt -464 16)
	(pt -56 16)
)
(connector
	(pt -304 -32)
	(pt -288 -32)
)
(connector
	(pt 24 16)
	(pt 120 16)
)
(connector
	(pt 80 -80)
	(pt 48 -80)
)
(connector
	(pt 80 -128)
	(pt 80 -80)
)
(connector
	(pt 80 -80)
	(pt 80 0)
)
(connector
	(pt -96 -64)
	(pt -128 -64)
)
(connector
	(pt -112 -48)
	(pt -128 -48)
)
(connector
	(pt -304 -48)
	(pt -272 -48)
)
(connector
	(pt 48 -64)
	(pt 64 -64)
)
(connector
	(pt 256 -128)
	(pt 256 48)
)
(connector
	(pt 64 -64)
	(pt 64 48)
)
(connector
	(pt 256 48)
	(pt 376 48)
)
(connector
	(pt -112 -48)
	(pt -112 48)
)
(connector
	(pt 64 48)
	(pt 256 48)
)
(connector
	(pt -288 -32)
	(pt -288 48)
)
(connector
	(pt -288 48)
	(pt -112 48)
)
(connector
	(pt -112 48)
	(pt 64 48)
)
(junction (pt 80 -128))
(junction (pt 80 -80))
(junction (pt 256 48))
(junction (pt 64 48))
(junction (pt -112 48))
