/*
WARNING: Do NOT edit the input and output ports in this file in a text
editor if you plan to continue editing the block that represents it in
the Block Editor! File corruption is VERY likely to occur.
*/
/*
Copyright (C) 1991-2010 Altera Corporation
Your use of Altera Corporation's design tools, logic functions 
and other software and tools, and its AMPP partner logic 
functions, and any output files from any of the foregoing 
(including device programming or simulation files), and any 
associated documentation or information are expressly subject 
to the terms and conditions of the Altera Program License 
Subscription Agreement, Altera MegaCore Function License 
Agreement, or other applicable license agreement, including, 
without limitation, that your use is for the sole purpose of 
programming logic devices manufactured by Altera and sold by 
Altera or its authorized distributors.  Please refer to the 
applicable agreement for further details.
*/
//#pragma file_not_in_maxplusii_format
(header "graphic" (version "1.3"))
(pin
	(input)
	(rect 1904 680 2072 696)
	(text "INPUT" (rect 133 0 161 10)(font "Arial" (font_size 6)))
	(text "sel[8..0]" (rect 5 0 45 12)(font "Arial" ))
	(pt 168 8)
	(drawing
		(line (pt 92 12)(pt 117 12)(line_width 1))
		(line (pt 92 4)(pt 117 4)(line_width 1))
		(line (pt 121 8)(pt 168 8)(line_width 1))
		(line (pt 92 12)(pt 92 4)(line_width 1))
		(line (pt 117 4)(pt 121 8)(line_width 1))
		(line (pt 117 12)(pt 121 8)(line_width 1))
	)
	(text "VCC" (rect 136 7 156 17)(font "Arial" (font_size 6)))
)
(pin
	(input)
	(rect 1928 768 2096 784)
	(text "INPUT" (rect 133 0 161 10)(font "Arial" (font_size 6)))
	(text "c6" (rect 5 0 16 12)(font "Arial" ))
	(pt 168 8)
	(drawing
		(line (pt 92 12)(pt 117 12)(line_width 1))
		(line (pt 92 4)(pt 117 4)(line_width 1))
		(line (pt 121 8)(pt 168 8)(line_width 1))
		(line (pt 92 12)(pt 92 4)(line_width 1))
		(line (pt 117 4)(pt 121 8)(line_width 1))
		(line (pt 117 12)(pt 121 8)(line_width 1))
	)
	(text "VCC" (rect 136 7 156 17)(font "Arial" (font_size 6)))
)
(pin
	(input)
	(rect 1928 816 2096 832)
	(text "INPUT" (rect 133 0 161 10)(font "Arial" (font_size 6)))
	(text "c7" (rect 5 0 16 12)(font "Arial" ))
	(pt 168 8)
	(drawing
		(line (pt 92 12)(pt 117 12)(line_width 1))
		(line (pt 92 4)(pt 117 4)(line_width 1))
		(line (pt 121 8)(pt 168 8)(line_width 1))
		(line (pt 92 12)(pt 92 4)(line_width 1))
		(line (pt 117 4)(pt 121 8)(line_width 1))
		(line (pt 117 12)(pt 121 8)(line_width 1))
	)
	(text "VCC" (rect 136 7 156 17)(font "Arial" (font_size 6)))
)
(pin
	(input)
	(rect 1928 864 2096 880)
	(text "INPUT" (rect 133 0 161 10)(font "Arial" (font_size 6)))
	(text "c8" (rect 5 0 16 12)(font "Arial" ))
	(pt 168 8)
	(drawing
		(line (pt 92 12)(pt 117 12)(line_width 1))
		(line (pt 92 4)(pt 117 4)(line_width 1))
		(line (pt 121 8)(pt 168 8)(line_width 1))
		(line (pt 92 12)(pt 92 4)(line_width 1))
		(line (pt 117 4)(pt 121 8)(line_width 1))
		(line (pt 117 12)(pt 121 8)(line_width 1))
	)
	(text "VCC" (rect 136 7 156 17)(font "Arial" (font_size 6)))
)
(pin
	(input)
	(rect 1928 912 2096 928)
	(text "INPUT" (rect 133 0 161 10)(font "Arial" (font_size 6)))
	(text "c11" (rect 5 0 22 12)(font "Arial" ))
	(pt 168 8)
	(drawing
		(line (pt 92 12)(pt 117 12)(line_width 1))
		(line (pt 92 4)(pt 117 4)(line_width 1))
		(line (pt 121 8)(pt 168 8)(line_width 1))
		(line (pt 92 12)(pt 92 4)(line_width 1))
		(line (pt 117 4)(pt 121 8)(line_width 1))
		(line (pt 117 12)(pt 121 8)(line_width 1))
	)
	(text "VCC" (rect 136 7 156 17)(font "Arial" (font_size 6)))
)
(pin
	(input)
	(rect 1928 960 2096 976)
	(text "INPUT" (rect 133 0 161 10)(font "Arial" (font_size 6)))
	(text "c12" (rect 5 0 22 12)(font "Arial" ))
	(pt 168 8)
	(drawing
		(line (pt 92 12)(pt 117 12)(line_width 1))
		(line (pt 92 4)(pt 117 4)(line_width 1))
		(line (pt 121 8)(pt 168 8)(line_width 1))
		(line (pt 92 12)(pt 92 4)(line_width 1))
		(line (pt 117 4)(pt 121 8)(line_width 1))
		(line (pt 117 12)(pt 121 8)(line_width 1))
	)
	(text "VCC" (rect 136 7 156 17)(font "Arial" (font_size 6)))
)
(pin
	(input)
	(rect 1928 1008 2096 1024)
	(text "INPUT" (rect 133 0 161 10)(font "Arial" (font_size 6)))
	(text "c16" (rect 5 0 22 12)(font "Arial" ))
	(pt 168 8)
	(drawing
		(line (pt 92 12)(pt 117 12)(line_width 1))
		(line (pt 92 4)(pt 117 4)(line_width 1))
		(line (pt 121 8)(pt 168 8)(line_width 1))
		(line (pt 92 12)(pt 92 4)(line_width 1))
		(line (pt 117 4)(pt 121 8)(line_width 1))
		(line (pt 117 12)(pt 121 8)(line_width 1))
	)
	(text "VCC" (rect 136 7 156 17)(font "Arial" (font_size 6)))
)
(pin
	(input)
	(rect 1928 1056 2096 1072)
	(text "INPUT" (rect 133 0 161 10)(font "Arial" (font_size 6)))
	(text "c17" (rect 5 0 22 12)(font "Arial" ))
	(pt 168 8)
	(drawing
		(line (pt 92 12)(pt 117 12)(line_width 1))
		(line (pt 92 4)(pt 117 4)(line_width 1))
		(line (pt 121 8)(pt 168 8)(line_width 1))
		(line (pt 92 12)(pt 92 4)(line_width 1))
		(line (pt 117 4)(pt 121 8)(line_width 1))
		(line (pt 117 12)(pt 121 8)(line_width 1))
	)
	(text "VCC" (rect 136 7 156 17)(font "Arial" (font_size 6)))
)
(pin
	(input)
	(rect 1928 1104 2096 1120)
	(text "INPUT" (rect 133 0 161 10)(font "Arial" (font_size 6)))
	(text "c18" (rect 5 0 22 12)(font "Arial" ))
	(pt 168 8)
	(drawing
		(line (pt 92 12)(pt 117 12)(line_width 1))
		(line (pt 92 4)(pt 117 4)(line_width 1))
		(line (pt 121 8)(pt 168 8)(line_width 1))
		(line (pt 92 12)(pt 92 4)(line_width 1))
		(line (pt 117 4)(pt 121 8)(line_width 1))
		(line (pt 117 12)(pt 121 8)(line_width 1))
	)
	(text "VCC" (rect 136 7 156 17)(font "Arial" (font_size 6)))
)
(pin
	(input)
	(rect 1928 1152 2096 1168)
	(text "INPUT" (rect 133 0 161 10)(font "Arial" (font_size 6)))
	(text "c28" (rect 5 0 22 12)(font "Arial" ))
	(pt 168 8)
	(drawing
		(line (pt 92 12)(pt 117 12)(line_width 1))
		(line (pt 92 4)(pt 117 4)(line_width 1))
		(line (pt 121 8)(pt 168 8)(line_width 1))
		(line (pt 92 12)(pt 92 4)(line_width 1))
		(line (pt 117 4)(pt 121 8)(line_width 1))
		(line (pt 117 12)(pt 121 8)(line_width 1))
	)
	(text "VCC" (rect 136 7 156 17)(font "Arial" (font_size 6)))
)
(pin
	(output)
	(rect 2504 952 2680 968)
	(text "OUTPUT" (rect 1 0 39 10)(font "Arial" (font_size 6)))
	(text "out" (rect 90 0 105 12)(font "Arial" ))
	(pt 0 8)
	(drawing
		(line (pt 0 8)(pt 52 8)(line_width 1))
		(line (pt 52 4)(pt 78 4)(line_width 1))
		(line (pt 52 12)(pt 78 12)(line_width 1))
		(line (pt 52 12)(pt 52 4)(line_width 1))
		(line (pt 78 4)(pt 82 8)(line_width 1))
		(line (pt 82 8)(pt 78 12)(line_width 1))
		(line (pt 78 12)(pt 82 8)(line_width 1))
	)
)
(symbol
	(rect 2216 936 2280 984)
	(text "AND2" (rect 1 0 25 10)(font "Arial" (font_size 6)))
	(text "inst44" (rect 3 37 32 49)(font "Arial" ))
	(port
		(pt 0 16)
		(input)
		(text "IN1" (rect 2 7 19 19)(font "Courier New" (bold))(invisible))
		(text "IN1" (rect 2 7 19 19)(font "Courier New" (bold))(invisible))
		(line (pt 0 16)(pt 14 16)(line_width 1))
	)
	(port
		(pt 0 32)
		(input)
		(text "IN2" (rect 2 23 19 35)(font "Courier New" (bold))(invisible))
		(text "IN2" (rect 2 23 19 35)(font "Courier New" (bold))(invisible))
		(line (pt 0 32)(pt 14 32)(line_width 1))
	)
	(port
		(pt 64 24)
		(output)
		(text "OUT" (rect 48 15 65 27)(font "Courier New" (bold))(invisible))
		(text "OUT" (rect 48 15 65 27)(font "Courier New" (bold))(invisible))
		(line (pt 42 24)(pt 64 24)(line_width 1))
	)
	(drawing
		(line (pt 14 12)(pt 30 12)(line_width 1))
		(line (pt 14 37)(pt 31 37)(line_width 1))
		(line (pt 14 12)(pt 14 37)(line_width 1))
		(arc (pt 31 37)(pt 30 12)(rect 18 12 43 37)(line_width 1))
	)
)
(symbol
	(rect 2312 792 2376 840)
	(text "OR3" (rect 1 0 19 10)(font "Arial" (font_size 6)))
	(text "inst46" (rect 3 37 32 49)(font "Arial" ))
	(port
		(pt 0 24)
		(input)
		(text "IN2" (rect 2 15 19 27)(font "Courier New" (bold))(invisible))
		(text "IN2" (rect 2 15 19 27)(font "Courier New" (bold))(invisible))
		(line (pt 0 24)(pt 18 24)(line_width 1))
	)
	(port
		(pt 0 32)
		(input)
		(text "IN3" (rect 2 24 19 36)(font "Courier New" (bold))(invisible))
		(text "IN3" (rect 2 24 19 36)(font "Courier New" (bold))(invisible))
		(line (pt 0 32)(pt 16 32)(line_width 1))
	)
	(port
		(pt 0 16)
		(input)
		(text "IN1" (rect 2 7 19 19)(font "Courier New" (bold))(invisible))
		(text "IN1" (rect 2 7 19 19)(font "Courier New" (bold))(invisible))
		(line (pt 0 16)(pt 16 16)(line_width 1))
	)
	(port
		(pt 64 24)
		(output)
		(text "OUT" (rect 47 15 64 27)(font "Courier New" (bold))(invisible))
		(text "OUT" (rect 47 15 64 27)(font "Courier New" (bold))(invisible))
		(line (pt 49 24)(pt 64 24)(line_width 1))
	)
	(drawing
		(line (pt 14 13)(pt 25 13)(line_width 1))
		(line (pt 14 36)(pt 25 36)(line_width 1))
		(arc (pt 7 29)(pt 7 19)(rect -14 8 19 41)(line_width 1))
		(arc (pt 49 24)(pt 25 13)(rect -6 13 57 76)(line_width 1))
		(arc (pt 25 35)(pt 49 24)(rect -6 -27 57 36)(line_width 1))
	)
)
(symbol
	(rect 2216 888 2280 936)
	(text "AND2" (rect 1 0 25 10)(font "Arial" (font_size 6)))
	(text "inst45" (rect 3 37 32 49)(font "Arial" ))
	(port
		(pt 0 16)
		(input)
		(text "IN1" (rect 2 7 19 19)(font "Courier New" (bold))(invisible))
		(text "IN1" (rect 2 7 19 19)(font "Courier New" (bold))(invisible))
		(line (pt 0 16)(pt 14 16)(line_width 1))
	)
	(port
		(pt 0 32)
		(input)
		(text "IN2" (rect 2 23 19 35)(font "Courier New" (bold))(invisible))
		(text "IN2" (rect 2 23 19 35)(font "Courier New" (bold))(invisible))
		(line (pt 0 32)(pt 14 32)(line_width 1))
	)
	(port
		(pt 64 24)
		(output)
		(text "OUT" (rect 48 15 65 27)(font "Courier New" (bold))(invisible))
		(text "OUT" (rect 48 15 65 27)(font "Courier New" (bold))(invisible))
		(line (pt 42 24)(pt 64 24)(line_width 1))
	)
	(drawing
		(line (pt 14 12)(pt 30 12)(line_width 1))
		(line (pt 14 37)(pt 31 37)(line_width 1))
		(line (pt 14 12)(pt 14 37)(line_width 1))
		(arc (pt 31 37)(pt 30 12)(rect 18 12 43 37)(line_width 1))
	)
)
(symbol
	(rect 2216 840 2280 888)
	(text "AND2" (rect 1 0 25 10)(font "Arial" (font_size 6)))
	(text "inst47" (rect 3 37 32 49)(font "Arial" ))
	(port
		(pt 0 16)
		(input)
		(text "IN1" (rect 2 7 19 19)(font "Courier New" (bold))(invisible))
		(text "IN1" (rect 2 7 19 19)(font "Courier New" (bold))(invisible))
		(line (pt 0 16)(pt 14 16)(line_width 1))
	)
	(port
		(pt 0 32)
		(input)
		(text "IN2" (rect 2 23 19 35)(font "Courier New" (bold))(invisible))
		(text "IN2" (rect 2 23 19 35)(font "Courier New" (bold))(invisible))
		(line (pt 0 32)(pt 14 32)(line_width 1))
	)
	(port
		(pt 64 24)
		(output)
		(text "OUT" (rect 48 15 65 27)(font "Courier New" (bold))(invisible))
		(text "OUT" (rect 48 15 65 27)(font "Courier New" (bold))(invisible))
		(line (pt 42 24)(pt 64 24)(line_width 1))
	)
	(drawing
		(line (pt 14 12)(pt 30 12)(line_width 1))
		(line (pt 14 37)(pt 31 37)(line_width 1))
		(line (pt 14 12)(pt 14 37)(line_width 1))
		(arc (pt 31 37)(pt 30 12)(rect 18 12 43 37)(line_width 1))
	)
)
(symbol
	(rect 2216 984 2280 1032)
	(text "AND2" (rect 1 0 25 10)(font "Arial" (font_size 6)))
	(text "inst48" (rect 3 37 32 49)(font "Arial" ))
	(port
		(pt 0 16)
		(input)
		(text "IN1" (rect 2 7 19 19)(font "Courier New" (bold))(invisible))
		(text "IN1" (rect 2 7 19 19)(font "Courier New" (bold))(invisible))
		(line (pt 0 16)(pt 14 16)(line_width 1))
	)
	(port
		(pt 0 32)
		(input)
		(text "IN2" (rect 2 23 19 35)(font "Courier New" (bold))(invisible))
		(text "IN2" (rect 2 23 19 35)(font "Courier New" (bold))(invisible))
		(line (pt 0 32)(pt 14 32)(line_width 1))
	)
	(port
		(pt 64 24)
		(output)
		(text "OUT" (rect 48 15 65 27)(font "Courier New" (bold))(invisible))
		(text "OUT" (rect 48 15 65 27)(font "Courier New" (bold))(invisible))
		(line (pt 42 24)(pt 64 24)(line_width 1))
	)
	(drawing
		(line (pt 14 12)(pt 30 12)(line_width 1))
		(line (pt 14 37)(pt 31 37)(line_width 1))
		(line (pt 14 12)(pt 14 37)(line_width 1))
		(arc (pt 31 37)(pt 30 12)(rect 18 12 43 37)(line_width 1))
	)
)
(symbol
	(rect 2216 1032 2280 1080)
	(text "AND2" (rect 1 0 25 10)(font "Arial" (font_size 6)))
	(text "inst49" (rect 3 37 32 49)(font "Arial" ))
	(port
		(pt 0 16)
		(input)
		(text "IN1" (rect 2 7 19 19)(font "Courier New" (bold))(invisible))
		(text "IN1" (rect 2 7 19 19)(font "Courier New" (bold))(invisible))
		(line (pt 0 16)(pt 14 16)(line_width 1))
	)
	(port
		(pt 0 32)
		(input)
		(text "IN2" (rect 2 23 19 35)(font "Courier New" (bold))(invisible))
		(text "IN2" (rect 2 23 19 35)(font "Courier New" (bold))(invisible))
		(line (pt 0 32)(pt 14 32)(line_width 1))
	)
	(port
		(pt 64 24)
		(output)
		(text "OUT" (rect 48 15 65 27)(font "Courier New" (bold))(invisible))
		(text "OUT" (rect 48 15 65 27)(font "Courier New" (bold))(invisible))
		(line (pt 42 24)(pt 64 24)(line_width 1))
	)
	(drawing
		(line (pt 14 12)(pt 30 12)(line_width 1))
		(line (pt 14 37)(pt 31 37)(line_width 1))
		(line (pt 14 12)(pt 14 37)(line_width 1))
		(arc (pt 31 37)(pt 30 12)(rect 18 12 43 37)(line_width 1))
	)
)
(symbol
	(rect 2216 1080 2280 1128)
	(text "AND2" (rect 1 0 25 10)(font "Arial" (font_size 6)))
	(text "inst50" (rect 3 37 32 49)(font "Arial" ))
	(port
		(pt 0 16)
		(input)
		(text "IN1" (rect 2 7 19 19)(font "Courier New" (bold))(invisible))
		(text "IN1" (rect 2 7 19 19)(font "Courier New" (bold))(invisible))
		(line (pt 0 16)(pt 14 16)(line_width 1))
	)
	(port
		(pt 0 32)
		(input)
		(text "IN2" (rect 2 23 19 35)(font "Courier New" (bold))(invisible))
		(text "IN2" (rect 2 23 19 35)(font "Courier New" (bold))(invisible))
		(line (pt 0 32)(pt 14 32)(line_width 1))
	)
	(port
		(pt 64 24)
		(output)
		(text "OUT" (rect 48 15 65 27)(font "Courier New" (bold))(invisible))
		(text "OUT" (rect 48 15 65 27)(font "Courier New" (bold))(invisible))
		(line (pt 42 24)(pt 64 24)(line_width 1))
	)
	(drawing
		(line (pt 14 12)(pt 30 12)(line_width 1))
		(line (pt 14 37)(pt 31 37)(line_width 1))
		(line (pt 14 12)(pt 14 37)(line_width 1))
		(arc (pt 31 37)(pt 30 12)(rect 18 12 43 37)(line_width 1))
	)
)
(symbol
	(rect 2216 792 2280 840)
	(text "AND2" (rect 1 0 25 10)(font "Arial" (font_size 6)))
	(text "inst51" (rect 3 37 32 49)(font "Arial" ))
	(port
		(pt 0 16)
		(input)
		(text "IN1" (rect 2 7 19 19)(font "Courier New" (bold))(invisible))
		(text "IN1" (rect 2 7 19 19)(font "Courier New" (bold))(invisible))
		(line (pt 0 16)(pt 14 16)(line_width 1))
	)
	(port
		(pt 0 32)
		(input)
		(text "IN2" (rect 2 23 19 35)(font "Courier New" (bold))(invisible))
		(text "IN2" (rect 2 23 19 35)(font "Courier New" (bold))(invisible))
		(line (pt 0 32)(pt 14 32)(line_width 1))
	)
	(port
		(pt 64 24)
		(output)
		(text "OUT" (rect 48 15 65 27)(font "Courier New" (bold))(invisible))
		(text "OUT" (rect 48 15 65 27)(font "Courier New" (bold))(invisible))
		(line (pt 42 24)(pt 64 24)(line_width 1))
	)
	(drawing
		(line (pt 14 12)(pt 30 12)(line_width 1))
		(line (pt 14 37)(pt 31 37)(line_width 1))
		(line (pt 14 12)(pt 14 37)(line_width 1))
		(arc (pt 31 37)(pt 30 12)(rect 18 12 43 37)(line_width 1))
	)
)
(symbol
	(rect 2216 1128 2280 1176)
	(text "AND2" (rect 1 0 25 10)(font "Arial" (font_size 6)))
	(text "inst52" (rect 3 37 32 49)(font "Arial" ))
	(port
		(pt 0 16)
		(input)
		(text "IN1" (rect 2 7 19 19)(font "Courier New" (bold))(invisible))
		(text "IN1" (rect 2 7 19 19)(font "Courier New" (bold))(invisible))
		(line (pt 0 16)(pt 14 16)(line_width 1))
	)
	(port
		(pt 0 32)
		(input)
		(text "IN2" (rect 2 23 19 35)(font "Courier New" (bold))(invisible))
		(text "IN2" (rect 2 23 19 35)(font "Courier New" (bold))(invisible))
		(line (pt 0 32)(pt 14 32)(line_width 1))
	)
	(port
		(pt 64 24)
		(output)
		(text "OUT" (rect 48 15 65 27)(font "Courier New" (bold))(invisible))
		(text "OUT" (rect 48 15 65 27)(font "Courier New" (bold))(invisible))
		(line (pt 42 24)(pt 64 24)(line_width 1))
	)
	(drawing
		(line (pt 14 12)(pt 30 12)(line_width 1))
		(line (pt 14 37)(pt 31 37)(line_width 1))
		(line (pt 14 12)(pt 14 37)(line_width 1))
		(arc (pt 31 37)(pt 30 12)(rect 18 12 43 37)(line_width 1))
	)
)
(symbol
	(rect 2216 744 2280 792)
	(text "AND2" (rect 1 0 25 10)(font "Arial" (font_size 6)))
	(text "inst53" (rect 3 37 32 49)(font "Arial" ))
	(port
		(pt 0 16)
		(input)
		(text "IN1" (rect 2 7 19 19)(font "Courier New" (bold))(invisible))
		(text "IN1" (rect 2 7 19 19)(font "Courier New" (bold))(invisible))
		(line (pt 0 16)(pt 14 16)(line_width 1))
	)
	(port
		(pt 0 32)
		(input)
		(text "IN2" (rect 2 23 19 35)(font "Courier New" (bold))(invisible))
		(text "IN2" (rect 2 23 19 35)(font "Courier New" (bold))(invisible))
		(line (pt 0 32)(pt 14 32)(line_width 1))
	)
	(port
		(pt 64 24)
		(output)
		(text "OUT" (rect 48 15 65 27)(font "Courier New" (bold))(invisible))
		(text "OUT" (rect 48 15 65 27)(font "Courier New" (bold))(invisible))
		(line (pt 42 24)(pt 64 24)(line_width 1))
	)
	(drawing
		(line (pt 14 12)(pt 30 12)(line_width 1))
		(line (pt 14 37)(pt 31 37)(line_width 1))
		(line (pt 14 12)(pt 14 37)(line_width 1))
		(arc (pt 31 37)(pt 30 12)(rect 18 12 43 37)(line_width 1))
	)
)
(symbol
	(rect 2312 936 2376 984)
	(text "OR3" (rect 1 0 19 10)(font "Arial" (font_size 6)))
	(text "inst54" (rect 3 37 32 49)(font "Arial" ))
	(port
		(pt 0 24)
		(input)
		(text "IN2" (rect 2 15 19 27)(font "Courier New" (bold))(invisible))
		(text "IN2" (rect 2 15 19 27)(font "Courier New" (bold))(invisible))
		(line (pt 0 24)(pt 18 24)(line_width 1))
	)
	(port
		(pt 0 32)
		(input)
		(text "IN3" (rect 2 24 19 36)(font "Courier New" (bold))(invisible))
		(text "IN3" (rect 2 24 19 36)(font "Courier New" (bold))(invisible))
		(line (pt 0 32)(pt 16 32)(line_width 1))
	)
	(port
		(pt 0 16)
		(input)
		(text "IN1" (rect 2 7 19 19)(font "Courier New" (bold))(invisible))
		(text "IN1" (rect 2 7 19 19)(font "Courier New" (bold))(invisible))
		(line (pt 0 16)(pt 16 16)(line_width 1))
	)
	(port
		(pt 64 24)
		(output)
		(text "OUT" (rect 47 15 64 27)(font "Courier New" (bold))(invisible))
		(text "OUT" (rect 47 15 64 27)(font "Courier New" (bold))(invisible))
		(line (pt 49 24)(pt 64 24)(line_width 1))
	)
	(drawing
		(line (pt 14 13)(pt 25 13)(line_width 1))
		(line (pt 14 36)(pt 25 36)(line_width 1))
		(arc (pt 7 29)(pt 7 19)(rect -14 8 19 41)(line_width 1))
		(arc (pt 49 24)(pt 25 13)(rect -6 13 57 76)(line_width 1))
		(arc (pt 25 35)(pt 49 24)(rect -6 -27 57 36)(line_width 1))
	)
)
(symbol
	(rect 2312 1080 2376 1128)
	(text "OR3" (rect 1 0 19 10)(font "Arial" (font_size 6)))
	(text "inst55" (rect 3 37 32 49)(font "Arial" ))
	(port
		(pt 0 24)
		(input)
		(text "IN2" (rect 2 15 19 27)(font "Courier New" (bold))(invisible))
		(text "IN2" (rect 2 15 19 27)(font "Courier New" (bold))(invisible))
		(line (pt 0 24)(pt 18 24)(line_width 1))
	)
	(port
		(pt 0 32)
		(input)
		(text "IN3" (rect 2 24 19 36)(font "Courier New" (bold))(invisible))
		(text "IN3" (rect 2 24 19 36)(font "Courier New" (bold))(invisible))
		(line (pt 0 32)(pt 16 32)(line_width 1))
	)
	(port
		(pt 0 16)
		(input)
		(text "IN1" (rect 2 7 19 19)(font "Courier New" (bold))(invisible))
		(text "IN1" (rect 2 7 19 19)(font "Courier New" (bold))(invisible))
		(line (pt 0 16)(pt 16 16)(line_width 1))
	)
	(port
		(pt 64 24)
		(output)
		(text "OUT" (rect 47 15 64 27)(font "Courier New" (bold))(invisible))
		(text "OUT" (rect 47 15 64 27)(font "Courier New" (bold))(invisible))
		(line (pt 49 24)(pt 64 24)(line_width 1))
	)
	(drawing
		(line (pt 14 13)(pt 25 13)(line_width 1))
		(line (pt 14 36)(pt 25 36)(line_width 1))
		(arc (pt 7 29)(pt 7 19)(rect -14 8 19 41)(line_width 1))
		(arc (pt 49 24)(pt 25 13)(rect -6 13 57 76)(line_width 1))
		(arc (pt 25 35)(pt 49 24)(rect -6 -27 57 36)(line_width 1))
	)
)
(symbol
	(rect 2408 936 2472 984)
	(text "OR3" (rect 1 0 19 10)(font "Arial" (font_size 6)))
	(text "inst56" (rect 3 37 32 49)(font "Arial" ))
	(port
		(pt 0 24)
		(input)
		(text "IN2" (rect 2 15 19 27)(font "Courier New" (bold))(invisible))
		(text "IN2" (rect 2 15 19 27)(font "Courier New" (bold))(invisible))
		(line (pt 0 24)(pt 18 24)(line_width 1))
	)
	(port
		(pt 0 32)
		(input)
		(text "IN3" (rect 2 24 19 36)(font "Courier New" (bold))(invisible))
		(text "IN3" (rect 2 24 19 36)(font "Courier New" (bold))(invisible))
		(line (pt 0 32)(pt 16 32)(line_width 1))
	)
	(port
		(pt 0 16)
		(input)
		(text "IN1" (rect 2 7 19 19)(font "Courier New" (bold))(invisible))
		(text "IN1" (rect 2 7 19 19)(font "Courier New" (bold))(invisible))
		(line (pt 0 16)(pt 16 16)(line_width 1))
	)
	(port
		(pt 64 24)
		(output)
		(text "OUT" (rect 47 15 64 27)(font "Courier New" (bold))(invisible))
		(text "OUT" (rect 47 15 64 27)(font "Courier New" (bold))(invisible))
		(line (pt 49 24)(pt 64 24)(line_width 1))
	)
	(drawing
		(line (pt 14 13)(pt 25 13)(line_width 1))
		(line (pt 14 36)(pt 25 36)(line_width 1))
		(arc (pt 7 29)(pt 7 19)(rect -14 8 19 41)(line_width 1))
		(arc (pt 49 24)(pt 25 13)(rect -6 13 57 76)(line_width 1))
		(arc (pt 25 35)(pt 49 24)(rect -6 -27 57 36)(line_width 1))
	)
)
(connector
	(pt 2376 816)
	(pt 2392 816)
)
(connector
	(pt 2392 952)
	(pt 2408 952)
)
(connector
	(pt 2408 968)
	(pt 2392 968)
)
(connector
	(pt 2392 1104)
	(pt 2376 1104)
)
(connector
	(pt 2376 960)
	(pt 2408 960)
)
(connector
	(pt 2280 768)
	(pt 2296 768)
)
(connector
	(pt 2296 768)
	(pt 2296 808)
)
(connector
	(pt 2312 816)
	(pt 2280 816)
)
(connector
	(pt 2296 808)
	(pt 2312 808)
)
(connector
	(pt 2312 952)
	(pt 2296 952)
)
(connector
	(pt 2280 912)
	(pt 2296 912)
)
(connector
	(pt 2280 864)
	(pt 2296 864)
)
(connector
	(pt 2296 824)
	(pt 2312 824)
)
(connector
	(pt 2312 960)
	(pt 2280 960)
)
(connector
	(pt 2312 1104)
	(pt 2280 1104)
)
(connector
	(pt 2312 1096)
	(pt 2296 1096)
)
(connector
	(pt 2296 968)
	(pt 2312 968)
)
(connector
	(pt 2280 1008)
	(pt 2296 1008)
)
(connector
	(pt 2280 1056)
	(pt 2296 1056)
)
(connector
	(pt 2280 1152)
	(pt 2296 1152)
)
(connector
	(pt 2296 1112)
	(pt 2312 1112)
)
(connector
	(pt 2392 816)
	(pt 2392 952)
)
(connector
	(pt 2296 968)
	(pt 2296 1008)
)
(connector
	(pt 2296 912)
	(pt 2296 952)
)
(connector
	(pt 2296 1056)
	(pt 2296 1096)
)
(connector
	(pt 2296 1112)
	(pt 2296 1152)
)
(connector
	(pt 2296 824)
	(pt 2296 864)
)
(connector
	(pt 2392 968)
	(pt 2392 1104)
)
(connector
	(pt 2216 1144)
	(pt 2128 1144)
)
(connector
	(pt 2216 1096)
	(pt 2128 1096)
)
(connector
	(pt 2216 1048)
	(pt 2128 1048)
)
(connector
	(pt 2216 1000)
	(pt 2128 1000)
)
(connector
	(pt 2216 952)
	(pt 2128 952)
)
(connector
	(pt 2216 904)
	(pt 2128 904)
)
(connector
	(pt 2216 856)
	(pt 2128 856)
)
(connector
	(pt 2216 808)
	(pt 2128 808)
)
(connector
	(pt 2216 760)
	(pt 2128 760)
)
(connector
	(pt 2128 808)
	(pt 2128 760)
	(bus)
)
(connector
	(pt 2128 856)
	(pt 2128 808)
	(bus)
)
(connector
	(pt 2128 904)
	(pt 2128 856)
	(bus)
)
(connector
	(pt 2128 952)
	(pt 2128 904)
	(bus)
)
(connector
	(pt 2128 1000)
	(pt 2128 952)
	(bus)
)
(connector
	(pt 2128 1048)
	(pt 2128 1000)
	(bus)
)
(connector
	(pt 2128 1144)
	(pt 2128 1096)
	(bus)
)
(connector
	(pt 2128 1096)
	(pt 2128 1048)
	(bus)
)
(connector
	(pt 2128 688)
	(pt 2072 688)
	(bus)
)
(connector
	(pt 2128 688)
	(pt 2128 760)
	(bus)
)
(connector
	(pt 2216 776)
	(pt 2096 776)
)
(connector
	(pt 2216 824)
	(pt 2096 824)
)
(connector
	(pt 2216 872)
	(pt 2096 872)
)
(connector
	(pt 2216 920)
	(pt 2096 920)
)
(connector
	(pt 2216 968)
	(pt 2096 968)
)
(connector
	(pt 2216 1016)
	(pt 2096 1016)
)
(connector
	(pt 2216 1064)
	(pt 2096 1064)
)
(connector
	(pt 2216 1112)
	(pt 2096 1112)
)
(connector
	(pt 2216 1160)
	(pt 2096 1160)
)
(connector
	(pt 2472 960)
	(pt 2504 960)
)
(junction (pt 2128 760))
(junction (pt 2128 808))
(junction (pt 2128 856))
(junction (pt 2128 904))
(junction (pt 2128 952))
(junction (pt 2128 1000))
(junction (pt 2128 1048))
(junction (pt 2128 1096))
