/*
WARNING: Do NOT edit the input and output ports in this file in a text
editor if you plan to continue editing the block that represents it in
the Block Editor! File corruption is VERY likely to occur.
*/
/*
Copyright (C) 1991-2010 Altera Corporation
Your use of Altera Corporation's design tools, logic functions 
and other software and tools, and its AMPP partner logic 
functions, and any output files from any of the foregoing 
(including device programming or simulation files), and any 
associated documentation or information are expressly subject 
to the terms and conditions of the Altera Program License 
Subscription Agreement, Altera MegaCore Function License 
Agreement, or other applicable license agreement, including, 
without limitation, that your use is for the sole purpose of 
programming logic devices manufactured by Altera and sold by 
Altera or its authorized distributors.  Please refer to the 
applicable agreement for further details.
*/
//#pragma file_not_in_maxplusii_format
(header "graphic" (version "1.3"))
(pin
	(input)
	(rect 928 544 1096 560)
	(text "INPUT" (rect 133 0 161 10)(font "Arial" (font_size 6)))
	(text "adc8_thres[13..0]" (rect 9 0 95 12)(font "Arial" ))
	(pt 168 8)
	(drawing
		(line (pt 92 12)(pt 117 12)(line_width 1))
		(line (pt 92 4)(pt 117 4)(line_width 1))
		(line (pt 121 8)(pt 168 8)(line_width 1))
		(line (pt 92 12)(pt 92 4)(line_width 1))
		(line (pt 117 4)(pt 121 8)(line_width 1))
		(line (pt 117 12)(pt 121 8)(line_width 1))
	)
	(text "VCC" (rect 136 7 156 17)(font "Arial" (font_size 6)))
)
(pin
	(input)
	(rect 920 1664 1088 1680)
	(text "INPUT" (rect 133 0 161 10)(font "Arial" (font_size 6)))
	(text "adc15_thres[13..0]" (rect 9 0 101 12)(font "Arial" ))
	(pt 168 8)
	(drawing
		(line (pt 92 12)(pt 117 12)(line_width 1))
		(line (pt 92 4)(pt 117 4)(line_width 1))
		(line (pt 121 8)(pt 168 8)(line_width 1))
		(line (pt 92 12)(pt 92 4)(line_width 1))
		(line (pt 117 4)(pt 121 8)(line_width 1))
		(line (pt 117 12)(pt 121 8)(line_width 1))
	)
	(text "VCC" (rect 136 7 156 17)(font "Arial" (font_size 6)))
)
(pin
	(input)
	(rect 920 1504 1088 1520)
	(text "INPUT" (rect 133 0 161 10)(font "Arial" (font_size 6)))
	(text "adc14_thres[13..0]" (rect 9 0 101 12)(font "Arial" ))
	(pt 168 8)
	(drawing
		(line (pt 92 12)(pt 117 12)(line_width 1))
		(line (pt 92 4)(pt 117 4)(line_width 1))
		(line (pt 121 8)(pt 168 8)(line_width 1))
		(line (pt 92 12)(pt 92 4)(line_width 1))
		(line (pt 117 4)(pt 121 8)(line_width 1))
		(line (pt 117 12)(pt 121 8)(line_width 1))
	)
	(text "VCC" (rect 136 7 156 17)(font "Arial" (font_size 6)))
)
(pin
	(input)
	(rect 920 1344 1088 1360)
	(text "INPUT" (rect 133 0 161 10)(font "Arial" (font_size 6)))
	(text "adc13_thres[13..0]" (rect 9 0 101 12)(font "Arial" ))
	(pt 168 8)
	(drawing
		(line (pt 92 12)(pt 117 12)(line_width 1))
		(line (pt 92 4)(pt 117 4)(line_width 1))
		(line (pt 121 8)(pt 168 8)(line_width 1))
		(line (pt 92 12)(pt 92 4)(line_width 1))
		(line (pt 117 4)(pt 121 8)(line_width 1))
		(line (pt 117 12)(pt 121 8)(line_width 1))
	)
	(text "VCC" (rect 136 7 156 17)(font "Arial" (font_size 6)))
)
(pin
	(input)
	(rect 920 864 1088 880)
	(text "INPUT" (rect 133 0 161 10)(font "Arial" (font_size 6)))
	(text "adc10_thres[13..0]" (rect 9 0 101 12)(font "Arial" ))
	(pt 168 8)
	(drawing
		(line (pt 92 12)(pt 117 12)(line_width 1))
		(line (pt 92 4)(pt 117 4)(line_width 1))
		(line (pt 121 8)(pt 168 8)(line_width 1))
		(line (pt 92 12)(pt 92 4)(line_width 1))
		(line (pt 117 4)(pt 121 8)(line_width 1))
		(line (pt 117 12)(pt 121 8)(line_width 1))
	)
	(text "VCC" (rect 136 7 156 17)(font "Arial" (font_size 6)))
)
(pin
	(input)
	(rect 920 704 1088 720)
	(text "INPUT" (rect 133 0 161 10)(font "Arial" (font_size 6)))
	(text "adc9_thres[13..0]" (rect 9 0 95 12)(font "Arial" ))
	(pt 168 8)
	(drawing
		(line (pt 92 12)(pt 117 12)(line_width 1))
		(line (pt 92 4)(pt 117 4)(line_width 1))
		(line (pt 121 8)(pt 168 8)(line_width 1))
		(line (pt 92 12)(pt 92 4)(line_width 1))
		(line (pt 117 4)(pt 121 8)(line_width 1))
		(line (pt 117 12)(pt 121 8)(line_width 1))
	)
	(text "VCC" (rect 136 7 156 17)(font "Arial" (font_size 6)))
)
(pin
	(input)
	(rect 328 544 496 560)
	(text "INPUT" (rect 133 0 161 10)(font "Arial" (font_size 6)))
	(text "adc0_thres[13..0]" (rect 9 0 95 12)(font "Arial" ))
	(pt 168 8)
	(drawing
		(line (pt 92 12)(pt 117 12)(line_width 1))
		(line (pt 92 4)(pt 117 4)(line_width 1))
		(line (pt 121 8)(pt 168 8)(line_width 1))
		(line (pt 92 12)(pt 92 4)(line_width 1))
		(line (pt 117 4)(pt 121 8)(line_width 1))
		(line (pt 117 12)(pt 121 8)(line_width 1))
	)
	(text "VCC" (rect 136 7 156 17)(font "Arial" (font_size 6)))
)
(pin
	(input)
	(rect 328 1664 496 1680)
	(text "INPUT" (rect 133 0 161 10)(font "Arial" (font_size 6)))
	(text "adc7_thres[13..0]" (rect 9 0 95 12)(font "Arial" ))
	(pt 168 8)
	(drawing
		(line (pt 92 12)(pt 117 12)(line_width 1))
		(line (pt 92 4)(pt 117 4)(line_width 1))
		(line (pt 121 8)(pt 168 8)(line_width 1))
		(line (pt 92 12)(pt 92 4)(line_width 1))
		(line (pt 117 4)(pt 121 8)(line_width 1))
		(line (pt 117 12)(pt 121 8)(line_width 1))
	)
	(text "VCC" (rect 136 7 156 17)(font "Arial" (font_size 6)))
)
(pin
	(input)
	(rect 328 1504 496 1520)
	(text "INPUT" (rect 133 0 161 10)(font "Arial" (font_size 6)))
	(text "adc6_thres[13..0]" (rect 9 0 95 12)(font "Arial" ))
	(pt 168 8)
	(drawing
		(line (pt 92 12)(pt 117 12)(line_width 1))
		(line (pt 92 4)(pt 117 4)(line_width 1))
		(line (pt 121 8)(pt 168 8)(line_width 1))
		(line (pt 92 12)(pt 92 4)(line_width 1))
		(line (pt 117 4)(pt 121 8)(line_width 1))
		(line (pt 117 12)(pt 121 8)(line_width 1))
	)
	(text "VCC" (rect 136 7 156 17)(font "Arial" (font_size 6)))
)
(pin
	(input)
	(rect 328 1184 496 1200)
	(text "INPUT" (rect 133 0 161 10)(font "Arial" (font_size 6)))
	(text "adc4_thres[13..0]" (rect 9 0 95 12)(font "Arial" ))
	(pt 168 8)
	(drawing
		(line (pt 92 12)(pt 117 12)(line_width 1))
		(line (pt 92 4)(pt 117 4)(line_width 1))
		(line (pt 121 8)(pt 168 8)(line_width 1))
		(line (pt 92 12)(pt 92 4)(line_width 1))
		(line (pt 117 4)(pt 121 8)(line_width 1))
		(line (pt 117 12)(pt 121 8)(line_width 1))
	)
	(text "VCC" (rect 136 7 156 17)(font "Arial" (font_size 6)))
)
(pin
	(input)
	(rect 328 1024 496 1040)
	(text "INPUT" (rect 133 0 161 10)(font "Arial" (font_size 6)))
	(text "adc3_thres[13..0]" (rect 9 0 95 12)(font "Arial" ))
	(pt 168 8)
	(drawing
		(line (pt 92 12)(pt 117 12)(line_width 1))
		(line (pt 92 4)(pt 117 4)(line_width 1))
		(line (pt 121 8)(pt 168 8)(line_width 1))
		(line (pt 92 12)(pt 92 4)(line_width 1))
		(line (pt 117 4)(pt 121 8)(line_width 1))
		(line (pt 117 12)(pt 121 8)(line_width 1))
	)
	(text "VCC" (rect 136 7 156 17)(font "Arial" (font_size 6)))
)
(pin
	(input)
	(rect 328 864 496 880)
	(text "INPUT" (rect 133 0 161 10)(font "Arial" (font_size 6)))
	(text "adc2_thres[13..0]" (rect 9 0 95 12)(font "Arial" ))
	(pt 168 8)
	(drawing
		(line (pt 92 12)(pt 117 12)(line_width 1))
		(line (pt 92 4)(pt 117 4)(line_width 1))
		(line (pt 121 8)(pt 168 8)(line_width 1))
		(line (pt 92 12)(pt 92 4)(line_width 1))
		(line (pt 117 4)(pt 121 8)(line_width 1))
		(line (pt 117 12)(pt 121 8)(line_width 1))
	)
	(text "VCC" (rect 136 7 156 17)(font "Arial" (font_size 6)))
)
(pin
	(input)
	(rect 328 704 496 720)
	(text "INPUT" (rect 133 0 161 10)(font "Arial" (font_size 6)))
	(text "adc1_thres[13..0]" (rect 9 0 95 12)(font "Arial" ))
	(pt 168 8)
	(drawing
		(line (pt 92 12)(pt 117 12)(line_width 1))
		(line (pt 92 4)(pt 117 4)(line_width 1))
		(line (pt 121 8)(pt 168 8)(line_width 1))
		(line (pt 92 12)(pt 92 4)(line_width 1))
		(line (pt 117 4)(pt 121 8)(line_width 1))
		(line (pt 117 12)(pt 121 8)(line_width 1))
	)
	(text "VCC" (rect 136 7 156 17)(font "Arial" (font_size 6)))
)
(pin
	(input)
	(rect -8 1896 160 1912)
	(text "INPUT" (rect 133 0 161 10)(font "Arial" (font_size 6)))
	(text "adc[223..0]" (rect 9 0 64 12)(font "Arial" ))
	(pt 168 8)
	(drawing
		(line (pt 92 12)(pt 117 12)(line_width 1))
		(line (pt 92 4)(pt 117 4)(line_width 1))
		(line (pt 121 8)(pt 168 8)(line_width 1))
		(line (pt 92 12)(pt 92 4)(line_width 1))
		(line (pt 117 4)(pt 121 8)(line_width 1))
		(line (pt 117 12)(pt 121 8)(line_width 1))
	)
	(text "VCC" (rect 136 7 156 17)(font "Arial" (font_size 6)))
)
(pin
	(input)
	(rect -8 1864 160 1880)
	(text "INPUT" (rect 133 0 161 10)(font "Arial" (font_size 6)))
	(text "clk_125mhz" (rect 9 0 66 12)(font "Arial" ))
	(pt 168 8)
	(drawing
		(line (pt 92 12)(pt 117 12)(line_width 1))
		(line (pt 92 4)(pt 117 4)(line_width 1))
		(line (pt 121 8)(pt 168 8)(line_width 1))
		(line (pt 92 12)(pt 92 4)(line_width 1))
		(line (pt 117 4)(pt 121 8)(line_width 1))
		(line (pt 117 12)(pt 121 8)(line_width 1))
	)
	(text "VCC" (rect 136 7 156 17)(font "Arial" (font_size 6)))
)
(pin
	(input)
	(rect -8 1832 160 1848)
	(text "INPUT" (rect 133 0 161 10)(font "Arial" (font_size 6)))
	(text "reset" (rect 9 0 33 12)(font "Arial" ))
	(pt 168 8)
	(drawing
		(line (pt 92 12)(pt 117 12)(line_width 1))
		(line (pt 92 4)(pt 117 4)(line_width 1))
		(line (pt 121 8)(pt 168 8)(line_width 1))
		(line (pt 92 12)(pt 92 4)(line_width 1))
		(line (pt 117 4)(pt 121 8)(line_width 1))
		(line (pt 117 12)(pt 121 8)(line_width 1))
	)
	(text "VCC" (rect 136 7 156 17)(font "Arial" (font_size 6)))
)
(pin
	(input)
	(rect -8 1848 160 1864)
	(text "INPUT" (rect 133 0 161 10)(font "Arial" (font_size 6)))
	(text "start" (rect 9 0 31 12)(font "Arial" ))
	(pt 168 8)
	(drawing
		(line (pt 92 12)(pt 117 12)(line_width 1))
		(line (pt 92 4)(pt 117 4)(line_width 1))
		(line (pt 121 8)(pt 168 8)(line_width 1))
		(line (pt 92 12)(pt 92 4)(line_width 1))
		(line (pt 117 4)(pt 121 8)(line_width 1))
		(line (pt 117 12)(pt 121 8)(line_width 1))
	)
	(text "VCC" (rect 136 7 156 17)(font "Arial" (font_size 6)))
)
(pin
	(input)
	(rect 328 1344 496 1360)
	(text "INPUT" (rect 133 0 161 10)(font "Arial" (font_size 6)))
	(text "adc5_thres[13..0]" (rect 9 0 95 12)(font "Arial" ))
	(pt 168 8)
	(drawing
		(line (pt 92 12)(pt 117 12)(line_width 1))
		(line (pt 92 4)(pt 117 4)(line_width 1))
		(line (pt 121 8)(pt 168 8)(line_width 1))
		(line (pt 92 12)(pt 92 4)(line_width 1))
		(line (pt 117 4)(pt 121 8)(line_width 1))
		(line (pt 117 12)(pt 121 8)(line_width 1))
	)
	(text "VCC" (rect 136 7 156 17)(font "Arial" (font_size 6)))
)
(pin
	(input)
	(rect 920 1184 1088 1200)
	(text "INPUT" (rect 133 0 161 10)(font "Arial" (font_size 6)))
	(text "adc12_thres[13..0]" (rect 9 0 101 12)(font "Arial" ))
	(pt 168 8)
	(drawing
		(line (pt 92 12)(pt 117 12)(line_width 1))
		(line (pt 92 4)(pt 117 4)(line_width 1))
		(line (pt 121 8)(pt 168 8)(line_width 1))
		(line (pt 92 12)(pt 92 4)(line_width 1))
		(line (pt 117 4)(pt 121 8)(line_width 1))
		(line (pt 117 12)(pt 121 8)(line_width 1))
	)
	(text "VCC" (rect 136 7 156 17)(font "Arial" (font_size 6)))
)
(pin
	(input)
	(rect 920 1024 1088 1040)
	(text "INPUT" (rect 133 0 161 10)(font "Arial" (font_size 6)))
	(text "adc11_thres[13..0]" (rect 9 0 101 12)(font "Arial" ))
	(pt 168 8)
	(drawing
		(line (pt 92 12)(pt 117 12)(line_width 1))
		(line (pt 92 4)(pt 117 4)(line_width 1))
		(line (pt 121 8)(pt 168 8)(line_width 1))
		(line (pt 92 12)(pt 92 4)(line_width 1))
		(line (pt 117 4)(pt 121 8)(line_width 1))
		(line (pt 117 12)(pt 121 8)(line_width 1))
	)
	(text "VCC" (rect 136 7 156 17)(font "Arial" (font_size 6)))
)
(pin
	(input)
	(rect -8 1880 160 1896)
	(text "INPUT" (rect 133 0 161 10)(font "Arial" (font_size 6)))
	(text "comp_enable" (rect 5 0 69 12)(font "Arial" ))
	(pt 168 8)
	(drawing
		(line (pt 92 12)(pt 117 12)(line_width 1))
		(line (pt 92 4)(pt 117 4)(line_width 1))
		(line (pt 121 8)(pt 168 8)(line_width 1))
		(line (pt 92 12)(pt 92 4)(line_width 1))
		(line (pt 117 4)(pt 121 8)(line_width 1))
		(line (pt 117 12)(pt 121 8)(line_width 1))
	)
	(text "VCC" (rect 136 7 156 17)(font "Arial" (font_size 6)))
)
(pin
	(input)
	(rect -8 1808 160 1824)
	(text "INPUT" (rect 133 0 161 10)(font "Arial" (font_size 6)))
	(text "N_width[9..0]" (rect 5 0 69 12)(font "Arial" ))
	(pt 168 8)
	(drawing
		(line (pt 92 12)(pt 117 12)(line_width 1))
		(line (pt 92 4)(pt 117 4)(line_width 1))
		(line (pt 121 8)(pt 168 8)(line_width 1))
		(line (pt 92 12)(pt 92 4)(line_width 1))
		(line (pt 117 4)(pt 121 8)(line_width 1))
		(line (pt 117 12)(pt 121 8)(line_width 1))
	)
	(text "VCC" (rect 136 7 156 17)(font "Arial" (font_size 6)))
)
(pin
	(output)
	(rect 1624 1880 1800 1896)
	(text "OUTPUT" (rect 1 0 39 10)(font "Arial" (font_size 6)))
	(text "data[223..0]" (rect 90 0 149 12)(font "Arial" ))
	(pt 0 8)
	(drawing
		(line (pt 0 8)(pt 52 8)(line_width 1))
		(line (pt 52 4)(pt 78 4)(line_width 1))
		(line (pt 52 12)(pt 78 12)(line_width 1))
		(line (pt 52 12)(pt 52 4)(line_width 1))
		(line (pt 78 4)(pt 82 8)(line_width 1))
		(line (pt 82 8)(pt 78 12)(line_width 1))
		(line (pt 78 12)(pt 82 8)(line_width 1))
	)
)
(pin
	(output)
	(rect 1536 504 1712 520)
	(text "OUTPUT" (rect 1 0 39 10)(font "Arial" (font_size 6)))
	(text "comp[15..0]" (rect 90 0 149 12)(font "Arial" ))
	(pt 0 8)
	(drawing
		(line (pt 0 8)(pt 52 8)(line_width 1))
		(line (pt 52 4)(pt 78 4)(line_width 1))
		(line (pt 52 12)(pt 78 12)(line_width 1))
		(line (pt 52 12)(pt 52 4)(line_width 1))
		(line (pt 78 4)(pt 82 8)(line_width 1))
		(line (pt 82 8)(pt 78 12)(line_width 1))
		(line (pt 78 12)(pt 82 8)(line_width 1))
	)
)
(symbol
	(rect 512 1160 704 1320)
	(text "pipeline_channel" (rect 5 0 118 16)(font "Arial" (font_size 10)))
	(text "inst12" (rect 8 144 37 156)(font "Arial" ))
	(port
		(pt 0 32)
		(input)
		(text "threshold[13..0]" (rect 0 0 88 14)(font "Arial" (font_size 8)))
		(text "threshold[13..0]" (rect 21 27 109 41)(font "Arial" (font_size 8)))
		(line (pt 0 32)(pt 16 32)(line_width 3))
	)
	(port
		(pt 0 64)
		(input)
		(text "comps_enable" (rect 0 0 82 14)(font "Arial" (font_size 8)))
		(text "comps_enable" (rect 21 59 103 73)(font "Arial" (font_size 8)))
		(line (pt 0 64)(pt 16 64)(line_width 1))
	)
	(port
		(pt 0 48)
		(input)
		(text "data[13..0]" (rect 0 0 60 14)(font "Arial" (font_size 8)))
		(text "data[13..0]" (rect 21 43 81 57)(font "Arial" (font_size 8)))
		(line (pt 0 48)(pt 16 48)(line_width 3))
	)
	(port
		(pt 0 80)
		(input)
		(text "clk_125mhz" (rect 0 0 67 14)(font "Arial" (font_size 8)))
		(text "clk_125mhz" (rect 21 75 88 89)(font "Arial" (font_size 8)))
		(line (pt 0 80)(pt 16 80)(line_width 1))
	)
	(port
		(pt 0 96)
		(input)
		(text "take_sample" (rect 0 0 70 14)(font "Arial" (font_size 8)))
		(text "take_sample" (rect 21 91 91 105)(font "Arial" (font_size 8)))
		(line (pt 0 96)(pt 16 96)(line_width 1))
	)
	(port
		(pt 0 112)
		(input)
		(text "reset" (rect 0 0 29 14)(font "Arial" (font_size 8)))
		(text "reset" (rect 21 107 50 121)(font "Arial" (font_size 8)))
		(line (pt 0 112)(pt 16 112)(line_width 1))
	)
	(port
		(pt 192 112)
		(input)
		(text "N_width[9..0]" (rect 0 0 75 14)(font "Arial" (font_size 8)))
		(text "N_width[9..0]" (rect 93 104 168 118)(font "Arial" (font_size 8)))
		(line (pt 176 112)(pt 192 112)(line_width 3))
	)
	(port
		(pt 192 48)
		(output)
		(text "comp" (rect 0 0 30 14)(font "Arial" (font_size 8)))
		(text "comp" (rect 141 43 171 57)(font "Arial" (font_size 8)))
		(line (pt 192 48)(pt 176 48)(line_width 1))
	)
	(drawing
		(rectangle (rect 16 16 176 144)(line_width 1))
	)
)
(symbol
	(rect 512 1320 704 1480)
	(text "pipeline_channel" (rect 5 0 118 16)(font "Arial" (font_size 10)))
	(text "inst13" (rect 8 144 37 156)(font "Arial" ))
	(port
		(pt 0 32)
		(input)
		(text "threshold[13..0]" (rect 0 0 88 14)(font "Arial" (font_size 8)))
		(text "threshold[13..0]" (rect 21 27 109 41)(font "Arial" (font_size 8)))
		(line (pt 0 32)(pt 16 32)(line_width 3))
	)
	(port
		(pt 0 64)
		(input)
		(text "comps_enable" (rect 0 0 82 14)(font "Arial" (font_size 8)))
		(text "comps_enable" (rect 21 59 103 73)(font "Arial" (font_size 8)))
		(line (pt 0 64)(pt 16 64)(line_width 1))
	)
	(port
		(pt 0 48)
		(input)
		(text "data[13..0]" (rect 0 0 60 14)(font "Arial" (font_size 8)))
		(text "data[13..0]" (rect 21 43 81 57)(font "Arial" (font_size 8)))
		(line (pt 0 48)(pt 16 48)(line_width 3))
	)
	(port
		(pt 0 80)
		(input)
		(text "clk_125mhz" (rect 0 0 67 14)(font "Arial" (font_size 8)))
		(text "clk_125mhz" (rect 21 75 88 89)(font "Arial" (font_size 8)))
		(line (pt 0 80)(pt 16 80)(line_width 1))
	)
	(port
		(pt 0 96)
		(input)
		(text "take_sample" (rect 0 0 70 14)(font "Arial" (font_size 8)))
		(text "take_sample" (rect 21 91 91 105)(font "Arial" (font_size 8)))
		(line (pt 0 96)(pt 16 96)(line_width 1))
	)
	(port
		(pt 0 112)
		(input)
		(text "reset" (rect 0 0 29 14)(font "Arial" (font_size 8)))
		(text "reset" (rect 21 107 50 121)(font "Arial" (font_size 8)))
		(line (pt 0 112)(pt 16 112)(line_width 1))
	)
	(port
		(pt 192 112)
		(input)
		(text "N_width[9..0]" (rect 0 0 75 14)(font "Arial" (font_size 8)))
		(text "N_width[9..0]" (rect 93 104 168 118)(font "Arial" (font_size 8)))
		(line (pt 176 112)(pt 192 112)(line_width 3))
	)
	(port
		(pt 192 48)
		(output)
		(text "comp" (rect 0 0 30 14)(font "Arial" (font_size 8)))
		(text "comp" (rect 141 43 171 57)(font "Arial" (font_size 8)))
		(line (pt 192 48)(pt 176 48)(line_width 1))
	)
	(drawing
		(rectangle (rect 16 16 176 144)(line_width 1))
	)
)
(symbol
	(rect 512 1480 704 1640)
	(text "pipeline_channel" (rect 5 0 118 16)(font "Arial" (font_size 10)))
	(text "inst14" (rect 8 144 37 156)(font "Arial" ))
	(port
		(pt 0 32)
		(input)
		(text "threshold[13..0]" (rect 0 0 88 14)(font "Arial" (font_size 8)))
		(text "threshold[13..0]" (rect 21 27 109 41)(font "Arial" (font_size 8)))
		(line (pt 0 32)(pt 16 32)(line_width 3))
	)
	(port
		(pt 0 64)
		(input)
		(text "comps_enable" (rect 0 0 82 14)(font "Arial" (font_size 8)))
		(text "comps_enable" (rect 21 59 103 73)(font "Arial" (font_size 8)))
		(line (pt 0 64)(pt 16 64)(line_width 1))
	)
	(port
		(pt 0 48)
		(input)
		(text "data[13..0]" (rect 0 0 60 14)(font "Arial" (font_size 8)))
		(text "data[13..0]" (rect 21 43 81 57)(font "Arial" (font_size 8)))
		(line (pt 0 48)(pt 16 48)(line_width 3))
	)
	(port
		(pt 0 80)
		(input)
		(text "clk_125mhz" (rect 0 0 67 14)(font "Arial" (font_size 8)))
		(text "clk_125mhz" (rect 21 75 88 89)(font "Arial" (font_size 8)))
		(line (pt 0 80)(pt 16 80)(line_width 1))
	)
	(port
		(pt 0 96)
		(input)
		(text "take_sample" (rect 0 0 70 14)(font "Arial" (font_size 8)))
		(text "take_sample" (rect 21 91 91 105)(font "Arial" (font_size 8)))
		(line (pt 0 96)(pt 16 96)(line_width 1))
	)
	(port
		(pt 0 112)
		(input)
		(text "reset" (rect 0 0 29 14)(font "Arial" (font_size 8)))
		(text "reset" (rect 21 107 50 121)(font "Arial" (font_size 8)))
		(line (pt 0 112)(pt 16 112)(line_width 1))
	)
	(port
		(pt 192 112)
		(input)
		(text "N_width[9..0]" (rect 0 0 75 14)(font "Arial" (font_size 8)))
		(text "N_width[9..0]" (rect 93 104 168 118)(font "Arial" (font_size 8)))
		(line (pt 176 112)(pt 192 112)(line_width 3))
	)
	(port
		(pt 192 48)
		(output)
		(text "comp" (rect 0 0 30 14)(font "Arial" (font_size 8)))
		(text "comp" (rect 141 43 171 57)(font "Arial" (font_size 8)))
		(line (pt 192 48)(pt 176 48)(line_width 1))
	)
	(drawing
		(rectangle (rect 16 16 176 144)(line_width 1))
	)
)
(symbol
	(rect 512 1640 704 1800)
	(text "pipeline_channel" (rect 5 0 118 16)(font "Arial" (font_size 10)))
	(text "inst15" (rect 8 144 37 156)(font "Arial" ))
	(port
		(pt 0 32)
		(input)
		(text "threshold[13..0]" (rect 0 0 88 14)(font "Arial" (font_size 8)))
		(text "threshold[13..0]" (rect 21 27 109 41)(font "Arial" (font_size 8)))
		(line (pt 0 32)(pt 16 32)(line_width 3))
	)
	(port
		(pt 0 64)
		(input)
		(text "comps_enable" (rect 0 0 82 14)(font "Arial" (font_size 8)))
		(text "comps_enable" (rect 21 59 103 73)(font "Arial" (font_size 8)))
		(line (pt 0 64)(pt 16 64)(line_width 1))
	)
	(port
		(pt 0 48)
		(input)
		(text "data[13..0]" (rect 0 0 60 14)(font "Arial" (font_size 8)))
		(text "data[13..0]" (rect 21 43 81 57)(font "Arial" (font_size 8)))
		(line (pt 0 48)(pt 16 48)(line_width 3))
	)
	(port
		(pt 0 80)
		(input)
		(text "clk_125mhz" (rect 0 0 67 14)(font "Arial" (font_size 8)))
		(text "clk_125mhz" (rect 21 75 88 89)(font "Arial" (font_size 8)))
		(line (pt 0 80)(pt 16 80)(line_width 1))
	)
	(port
		(pt 0 96)
		(input)
		(text "take_sample" (rect 0 0 70 14)(font "Arial" (font_size 8)))
		(text "take_sample" (rect 21 91 91 105)(font "Arial" (font_size 8)))
		(line (pt 0 96)(pt 16 96)(line_width 1))
	)
	(port
		(pt 0 112)
		(input)
		(text "reset" (rect 0 0 29 14)(font "Arial" (font_size 8)))
		(text "reset" (rect 21 107 50 121)(font "Arial" (font_size 8)))
		(line (pt 0 112)(pt 16 112)(line_width 1))
	)
	(port
		(pt 192 112)
		(input)
		(text "N_width[9..0]" (rect 0 0 75 14)(font "Arial" (font_size 8)))
		(text "N_width[9..0]" (rect 93 104 168 118)(font "Arial" (font_size 8)))
		(line (pt 176 112)(pt 192 112)(line_width 3))
	)
	(port
		(pt 192 48)
		(output)
		(text "comp" (rect 0 0 30 14)(font "Arial" (font_size 8)))
		(text "comp" (rect 141 43 171 57)(font "Arial" (font_size 8)))
		(line (pt 192 48)(pt 176 48)(line_width 1))
	)
	(drawing
		(rectangle (rect 16 16 176 144)(line_width 1))
	)
)
(symbol
	(rect 1104 1480 1296 1640)
	(text "pipeline_channel" (rect 5 0 118 16)(font "Arial" (font_size 10)))
	(text "inst10" (rect 8 144 37 156)(font "Arial" ))
	(port
		(pt 0 32)
		(input)
		(text "threshold[13..0]" (rect 0 0 88 14)(font "Arial" (font_size 8)))
		(text "threshold[13..0]" (rect 21 27 109 41)(font "Arial" (font_size 8)))
		(line (pt 0 32)(pt 16 32)(line_width 3))
	)
	(port
		(pt 0 64)
		(input)
		(text "comps_enable" (rect 0 0 82 14)(font "Arial" (font_size 8)))
		(text "comps_enable" (rect 21 59 103 73)(font "Arial" (font_size 8)))
		(line (pt 0 64)(pt 16 64)(line_width 1))
	)
	(port
		(pt 0 48)
		(input)
		(text "data[13..0]" (rect 0 0 60 14)(font "Arial" (font_size 8)))
		(text "data[13..0]" (rect 21 43 81 57)(font "Arial" (font_size 8)))
		(line (pt 0 48)(pt 16 48)(line_width 3))
	)
	(port
		(pt 0 80)
		(input)
		(text "clk_125mhz" (rect 0 0 67 14)(font "Arial" (font_size 8)))
		(text "clk_125mhz" (rect 21 75 88 89)(font "Arial" (font_size 8)))
		(line (pt 0 80)(pt 16 80)(line_width 1))
	)
	(port
		(pt 0 96)
		(input)
		(text "take_sample" (rect 0 0 70 14)(font "Arial" (font_size 8)))
		(text "take_sample" (rect 21 91 91 105)(font "Arial" (font_size 8)))
		(line (pt 0 96)(pt 16 96)(line_width 1))
	)
	(port
		(pt 0 112)
		(input)
		(text "reset" (rect 0 0 29 14)(font "Arial" (font_size 8)))
		(text "reset" (rect 21 107 50 121)(font "Arial" (font_size 8)))
		(line (pt 0 112)(pt 16 112)(line_width 1))
	)
	(port
		(pt 192 112)
		(input)
		(text "N_width[9..0]" (rect 0 0 75 14)(font "Arial" (font_size 8)))
		(text "N_width[9..0]" (rect 93 104 168 118)(font "Arial" (font_size 8)))
		(line (pt 176 112)(pt 192 112)(line_width 3))
	)
	(port
		(pt 192 48)
		(output)
		(text "comp" (rect 0 0 30 14)(font "Arial" (font_size 8)))
		(text "comp" (rect 141 43 171 57)(font "Arial" (font_size 8)))
		(line (pt 192 48)(pt 176 48)(line_width 1))
	)
	(drawing
		(rectangle (rect 16 16 176 144)(line_width 1))
	)
)
(symbol
	(rect 1104 1640 1296 1800)
	(text "pipeline_channel" (rect 5 0 118 16)(font "Arial" (font_size 10)))
	(text "inst11" (rect 8 144 37 156)(font "Arial" ))
	(port
		(pt 0 32)
		(input)
		(text "threshold[13..0]" (rect 0 0 88 14)(font "Arial" (font_size 8)))
		(text "threshold[13..0]" (rect 21 27 109 41)(font "Arial" (font_size 8)))
		(line (pt 0 32)(pt 16 32)(line_width 3))
	)
	(port
		(pt 0 64)
		(input)
		(text "comps_enable" (rect 0 0 82 14)(font "Arial" (font_size 8)))
		(text "comps_enable" (rect 21 59 103 73)(font "Arial" (font_size 8)))
		(line (pt 0 64)(pt 16 64)(line_width 1))
	)
	(port
		(pt 0 48)
		(input)
		(text "data[13..0]" (rect 0 0 60 14)(font "Arial" (font_size 8)))
		(text "data[13..0]" (rect 21 43 81 57)(font "Arial" (font_size 8)))
		(line (pt 0 48)(pt 16 48)(line_width 3))
	)
	(port
		(pt 0 80)
		(input)
		(text "clk_125mhz" (rect 0 0 67 14)(font "Arial" (font_size 8)))
		(text "clk_125mhz" (rect 21 75 88 89)(font "Arial" (font_size 8)))
		(line (pt 0 80)(pt 16 80)(line_width 1))
	)
	(port
		(pt 0 96)
		(input)
		(text "take_sample" (rect 0 0 70 14)(font "Arial" (font_size 8)))
		(text "take_sample" (rect 21 91 91 105)(font "Arial" (font_size 8)))
		(line (pt 0 96)(pt 16 96)(line_width 1))
	)
	(port
		(pt 0 112)
		(input)
		(text "reset" (rect 0 0 29 14)(font "Arial" (font_size 8)))
		(text "reset" (rect 21 107 50 121)(font "Arial" (font_size 8)))
		(line (pt 0 112)(pt 16 112)(line_width 1))
	)
	(port
		(pt 192 112)
		(input)
		(text "N_width[9..0]" (rect 0 0 75 14)(font "Arial" (font_size 8)))
		(text "N_width[9..0]" (rect 93 104 168 118)(font "Arial" (font_size 8)))
		(line (pt 176 112)(pt 192 112)(line_width 3))
	)
	(port
		(pt 192 48)
		(output)
		(text "comp" (rect 0 0 30 14)(font "Arial" (font_size 8)))
		(text "comp" (rect 141 43 171 57)(font "Arial" (font_size 8)))
		(line (pt 192 48)(pt 176 48)(line_width 1))
	)
	(drawing
		(rectangle (rect 16 16 176 144)(line_width 1))
	)
)
(symbol
	(rect 1104 1320 1296 1480)
	(text "pipeline_channel" (rect 5 0 118 16)(font "Arial" (font_size 10)))
	(text "inst16" (rect 8 144 37 156)(font "Arial" ))
	(port
		(pt 0 32)
		(input)
		(text "threshold[13..0]" (rect 0 0 88 14)(font "Arial" (font_size 8)))
		(text "threshold[13..0]" (rect 21 27 109 41)(font "Arial" (font_size 8)))
		(line (pt 0 32)(pt 16 32)(line_width 3))
	)
	(port
		(pt 0 64)
		(input)
		(text "comps_enable" (rect 0 0 82 14)(font "Arial" (font_size 8)))
		(text "comps_enable" (rect 21 59 103 73)(font "Arial" (font_size 8)))
		(line (pt 0 64)(pt 16 64)(line_width 1))
	)
	(port
		(pt 0 48)
		(input)
		(text "data[13..0]" (rect 0 0 60 14)(font "Arial" (font_size 8)))
		(text "data[13..0]" (rect 21 43 81 57)(font "Arial" (font_size 8)))
		(line (pt 0 48)(pt 16 48)(line_width 3))
	)
	(port
		(pt 0 80)
		(input)
		(text "clk_125mhz" (rect 0 0 67 14)(font "Arial" (font_size 8)))
		(text "clk_125mhz" (rect 21 75 88 89)(font "Arial" (font_size 8)))
		(line (pt 0 80)(pt 16 80)(line_width 1))
	)
	(port
		(pt 0 96)
		(input)
		(text "take_sample" (rect 0 0 70 14)(font "Arial" (font_size 8)))
		(text "take_sample" (rect 21 91 91 105)(font "Arial" (font_size 8)))
		(line (pt 0 96)(pt 16 96)(line_width 1))
	)
	(port
		(pt 0 112)
		(input)
		(text "reset" (rect 0 0 29 14)(font "Arial" (font_size 8)))
		(text "reset" (rect 21 107 50 121)(font "Arial" (font_size 8)))
		(line (pt 0 112)(pt 16 112)(line_width 1))
	)
	(port
		(pt 192 112)
		(input)
		(text "N_width[9..0]" (rect 0 0 75 14)(font "Arial" (font_size 8)))
		(text "N_width[9..0]" (rect 93 104 168 118)(font "Arial" (font_size 8)))
		(line (pt 176 112)(pt 192 112)(line_width 3))
	)
	(port
		(pt 192 48)
		(output)
		(text "comp" (rect 0 0 30 14)(font "Arial" (font_size 8)))
		(text "comp" (rect 141 43 171 57)(font "Arial" (font_size 8)))
		(line (pt 192 48)(pt 176 48)(line_width 1))
	)
	(drawing
		(rectangle (rect 16 16 176 144)(line_width 1))
	)
)
(symbol
	(rect 1104 1160 1296 1320)
	(text "pipeline_channel" (rect 5 0 118 16)(font "Arial" (font_size 10)))
	(text "inst17" (rect 8 144 37 156)(font "Arial" ))
	(port
		(pt 0 32)
		(input)
		(text "threshold[13..0]" (rect 0 0 88 14)(font "Arial" (font_size 8)))
		(text "threshold[13..0]" (rect 21 27 109 41)(font "Arial" (font_size 8)))
		(line (pt 0 32)(pt 16 32)(line_width 3))
	)
	(port
		(pt 0 64)
		(input)
		(text "comps_enable" (rect 0 0 82 14)(font "Arial" (font_size 8)))
		(text "comps_enable" (rect 21 59 103 73)(font "Arial" (font_size 8)))
		(line (pt 0 64)(pt 16 64)(line_width 1))
	)
	(port
		(pt 0 48)
		(input)
		(text "data[13..0]" (rect 0 0 60 14)(font "Arial" (font_size 8)))
		(text "data[13..0]" (rect 21 43 81 57)(font "Arial" (font_size 8)))
		(line (pt 0 48)(pt 16 48)(line_width 3))
	)
	(port
		(pt 0 80)
		(input)
		(text "clk_125mhz" (rect 0 0 67 14)(font "Arial" (font_size 8)))
		(text "clk_125mhz" (rect 21 75 88 89)(font "Arial" (font_size 8)))
		(line (pt 0 80)(pt 16 80)(line_width 1))
	)
	(port
		(pt 0 96)
		(input)
		(text "take_sample" (rect 0 0 70 14)(font "Arial" (font_size 8)))
		(text "take_sample" (rect 21 91 91 105)(font "Arial" (font_size 8)))
		(line (pt 0 96)(pt 16 96)(line_width 1))
	)
	(port
		(pt 0 112)
		(input)
		(text "reset" (rect 0 0 29 14)(font "Arial" (font_size 8)))
		(text "reset" (rect 21 107 50 121)(font "Arial" (font_size 8)))
		(line (pt 0 112)(pt 16 112)(line_width 1))
	)
	(port
		(pt 192 112)
		(input)
		(text "N_width[9..0]" (rect 0 0 75 14)(font "Arial" (font_size 8)))
		(text "N_width[9..0]" (rect 93 104 168 118)(font "Arial" (font_size 8)))
		(line (pt 176 112)(pt 192 112)(line_width 3))
	)
	(port
		(pt 192 48)
		(output)
		(text "comp" (rect 0 0 30 14)(font "Arial" (font_size 8)))
		(text "comp" (rect 141 43 171 57)(font "Arial" (font_size 8)))
		(line (pt 192 48)(pt 176 48)(line_width 1))
	)
	(drawing
		(rectangle (rect 16 16 176 144)(line_width 1))
	)
)
(symbol
	(rect 1408 1784 1592 1928)
	(text "pipeline_sr" (rect 61 127 134 143)(font "Arial" (font_size 10)))
	(text "inst1" (rect 8 4 31 16)(font "Arial" ))
	(port
		(pt 0 104)
		(input)
		(text "shiftin[223..0]" (rect 0 0 76 14)(font "Arial" (font_size 8)))
		(text "shiftin[223..0]" (rect 20 96 96 110)(font "Arial" (font_size 8)))
		(line (pt 0 104)(pt 16 104)(line_width 3))
	)
	(port
		(pt 0 88)
		(input)
		(text "clock" (rect 0 0 29 14)(font "Arial" (font_size 8)))
		(text "clock" (rect 20 80 49 94)(font "Arial" (font_size 8)))
		(line (pt 0 88)(pt 16 88)(line_width 1))
	)
	(port
		(pt 0 72)
		(input)
		(text "clken" (rect 0 0 29 14)(font "Arial" (font_size 8)))
		(text "clken" (rect 20 64 49 78)(font "Arial" (font_size 8)))
		(line (pt 0 72)(pt 16 72)(line_width 1))
	)
	(port
		(pt 0 56)
		(input)
		(text "aclr" (rect 0 0 21 14)(font "Arial" (font_size 8)))
		(text "aclr" (rect 20 48 41 62)(font "Arial" (font_size 8)))
		(line (pt 0 56)(pt 16 56)(line_width 1))
	)
	(port
		(pt 184 104)
		(output)
		(text "shiftout[223..0]" (rect 0 0 84 14)(font "Arial" (font_size 8)))
		(text "shiftout[223..0]" (rect 93 96 177 110)(font "Arial" (font_size 8)))
		(line (pt 184 104)(pt 168 104)(line_width 3))
	)
	(port
		(pt 184 72)
		(output)
		(text "taps[223..0]" (rect 0 0 67 14)(font "Arial" (font_size 8)))
		(text "taps[223..0]" (rect 108 64 175 78)(font "Arial" (font_size 8)))
		(line (pt 184 72)(pt 168 72)(line_width 3))
	)
	(drawing
		(text "altshift_taps" (rect 63 112 132 126)(font "Arial" (font_size 8)))
		(text "Number of taps 1" (rect 19 26 106 38)(font "Arial" ))
		(text "Tap distance 512" (rect 19 16 102 28)(font "Arial" ))
		(line (pt 16 128)(pt 168 128)(line_width 1))
		(line (pt 168 128)(pt 168 16)(line_width 1))
		(line (pt 168 16)(pt 16 16)(line_width 1))
		(line (pt 16 16)(pt 16 128)(line_width 1))
	)
	(flipx)
)
(symbol
	(rect 1104 1000 1296 1160)
	(text "pipeline_channel" (rect 5 0 118 16)(font "Arial" (font_size 10)))
	(text "inst18" (rect 8 144 37 156)(font "Arial" ))
	(port
		(pt 0 32)
		(input)
		(text "threshold[13..0]" (rect 0 0 88 14)(font "Arial" (font_size 8)))
		(text "threshold[13..0]" (rect 21 27 109 41)(font "Arial" (font_size 8)))
		(line (pt 0 32)(pt 16 32)(line_width 3))
	)
	(port
		(pt 0 64)
		(input)
		(text "comps_enable" (rect 0 0 82 14)(font "Arial" (font_size 8)))
		(text "comps_enable" (rect 21 59 103 73)(font "Arial" (font_size 8)))
		(line (pt 0 64)(pt 16 64)(line_width 1))
	)
	(port
		(pt 0 48)
		(input)
		(text "data[13..0]" (rect 0 0 60 14)(font "Arial" (font_size 8)))
		(text "data[13..0]" (rect 21 43 81 57)(font "Arial" (font_size 8)))
		(line (pt 0 48)(pt 16 48)(line_width 3))
	)
	(port
		(pt 0 80)
		(input)
		(text "clk_125mhz" (rect 0 0 67 14)(font "Arial" (font_size 8)))
		(text "clk_125mhz" (rect 21 75 88 89)(font "Arial" (font_size 8)))
		(line (pt 0 80)(pt 16 80)(line_width 1))
	)
	(port
		(pt 0 96)
		(input)
		(text "take_sample" (rect 0 0 70 14)(font "Arial" (font_size 8)))
		(text "take_sample" (rect 21 91 91 105)(font "Arial" (font_size 8)))
		(line (pt 0 96)(pt 16 96)(line_width 1))
	)
	(port
		(pt 0 112)
		(input)
		(text "reset" (rect 0 0 29 14)(font "Arial" (font_size 8)))
		(text "reset" (rect 21 107 50 121)(font "Arial" (font_size 8)))
		(line (pt 0 112)(pt 16 112)(line_width 1))
	)
	(port
		(pt 192 112)
		(input)
		(text "N_width[9..0]" (rect 0 0 75 14)(font "Arial" (font_size 8)))
		(text "N_width[9..0]" (rect 93 104 168 118)(font "Arial" (font_size 8)))
		(line (pt 176 112)(pt 192 112)(line_width 3))
	)
	(port
		(pt 192 48)
		(output)
		(text "comp" (rect 0 0 30 14)(font "Arial" (font_size 8)))
		(text "comp" (rect 141 43 171 57)(font "Arial" (font_size 8)))
		(line (pt 192 48)(pt 176 48)(line_width 1))
	)
	(drawing
		(rectangle (rect 16 16 176 144)(line_width 1))
	)
)
(symbol
	(rect 1104 840 1296 1000)
	(text "pipeline_channel" (rect 5 0 118 16)(font "Arial" (font_size 10)))
	(text "inst19" (rect 8 144 37 156)(font "Arial" ))
	(port
		(pt 0 32)
		(input)
		(text "threshold[13..0]" (rect 0 0 88 14)(font "Arial" (font_size 8)))
		(text "threshold[13..0]" (rect 21 27 109 41)(font "Arial" (font_size 8)))
		(line (pt 0 32)(pt 16 32)(line_width 3))
	)
	(port
		(pt 0 64)
		(input)
		(text "comps_enable" (rect 0 0 82 14)(font "Arial" (font_size 8)))
		(text "comps_enable" (rect 21 59 103 73)(font "Arial" (font_size 8)))
		(line (pt 0 64)(pt 16 64)(line_width 1))
	)
	(port
		(pt 0 48)
		(input)
		(text "data[13..0]" (rect 0 0 60 14)(font "Arial" (font_size 8)))
		(text "data[13..0]" (rect 21 43 81 57)(font "Arial" (font_size 8)))
		(line (pt 0 48)(pt 16 48)(line_width 3))
	)
	(port
		(pt 0 80)
		(input)
		(text "clk_125mhz" (rect 0 0 67 14)(font "Arial" (font_size 8)))
		(text "clk_125mhz" (rect 21 75 88 89)(font "Arial" (font_size 8)))
		(line (pt 0 80)(pt 16 80)(line_width 1))
	)
	(port
		(pt 0 96)
		(input)
		(text "take_sample" (rect 0 0 70 14)(font "Arial" (font_size 8)))
		(text "take_sample" (rect 21 91 91 105)(font "Arial" (font_size 8)))
		(line (pt 0 96)(pt 16 96)(line_width 1))
	)
	(port
		(pt 0 112)
		(input)
		(text "reset" (rect 0 0 29 14)(font "Arial" (font_size 8)))
		(text "reset" (rect 21 107 50 121)(font "Arial" (font_size 8)))
		(line (pt 0 112)(pt 16 112)(line_width 1))
	)
	(port
		(pt 192 112)
		(input)
		(text "N_width[9..0]" (rect 0 0 75 14)(font "Arial" (font_size 8)))
		(text "N_width[9..0]" (rect 93 104 168 118)(font "Arial" (font_size 8)))
		(line (pt 176 112)(pt 192 112)(line_width 3))
	)
	(port
		(pt 192 48)
		(output)
		(text "comp" (rect 0 0 30 14)(font "Arial" (font_size 8)))
		(text "comp" (rect 141 43 171 57)(font "Arial" (font_size 8)))
		(line (pt 192 48)(pt 176 48)(line_width 1))
	)
	(drawing
		(rectangle (rect 16 16 176 144)(line_width 1))
	)
)
(symbol
	(rect 1104 680 1296 840)
	(text "pipeline_channel" (rect 5 0 118 16)(font "Arial" (font_size 10)))
	(text "inst20" (rect 8 144 37 156)(font "Arial" ))
	(port
		(pt 0 32)
		(input)
		(text "threshold[13..0]" (rect 0 0 88 14)(font "Arial" (font_size 8)))
		(text "threshold[13..0]" (rect 21 27 109 41)(font "Arial" (font_size 8)))
		(line (pt 0 32)(pt 16 32)(line_width 3))
	)
	(port
		(pt 0 64)
		(input)
		(text "comps_enable" (rect 0 0 82 14)(font "Arial" (font_size 8)))
		(text "comps_enable" (rect 21 59 103 73)(font "Arial" (font_size 8)))
		(line (pt 0 64)(pt 16 64)(line_width 1))
	)
	(port
		(pt 0 48)
		(input)
		(text "data[13..0]" (rect 0 0 60 14)(font "Arial" (font_size 8)))
		(text "data[13..0]" (rect 21 43 81 57)(font "Arial" (font_size 8)))
		(line (pt 0 48)(pt 16 48)(line_width 3))
	)
	(port
		(pt 0 80)
		(input)
		(text "clk_125mhz" (rect 0 0 67 14)(font "Arial" (font_size 8)))
		(text "clk_125mhz" (rect 21 75 88 89)(font "Arial" (font_size 8)))
		(line (pt 0 80)(pt 16 80)(line_width 1))
	)
	(port
		(pt 0 96)
		(input)
		(text "take_sample" (rect 0 0 70 14)(font "Arial" (font_size 8)))
		(text "take_sample" (rect 21 91 91 105)(font "Arial" (font_size 8)))
		(line (pt 0 96)(pt 16 96)(line_width 1))
	)
	(port
		(pt 0 112)
		(input)
		(text "reset" (rect 0 0 29 14)(font "Arial" (font_size 8)))
		(text "reset" (rect 21 107 50 121)(font "Arial" (font_size 8)))
		(line (pt 0 112)(pt 16 112)(line_width 1))
	)
	(port
		(pt 192 112)
		(input)
		(text "N_width[9..0]" (rect 0 0 75 14)(font "Arial" (font_size 8)))
		(text "N_width[9..0]" (rect 93 104 168 118)(font "Arial" (font_size 8)))
		(line (pt 176 112)(pt 192 112)(line_width 3))
	)
	(port
		(pt 192 48)
		(output)
		(text "comp" (rect 0 0 30 14)(font "Arial" (font_size 8)))
		(text "comp" (rect 141 43 171 57)(font "Arial" (font_size 8)))
		(line (pt 192 48)(pt 176 48)(line_width 1))
	)
	(drawing
		(rectangle (rect 16 16 176 144)(line_width 1))
	)
)
(symbol
	(rect 1104 520 1296 680)
	(text "pipeline_channel" (rect 5 0 118 16)(font "Arial" (font_size 10)))
	(text "inst21" (rect 8 144 37 156)(font "Arial" ))
	(port
		(pt 0 32)
		(input)
		(text "threshold[13..0]" (rect 0 0 88 14)(font "Arial" (font_size 8)))
		(text "threshold[13..0]" (rect 21 27 109 41)(font "Arial" (font_size 8)))
		(line (pt 0 32)(pt 16 32)(line_width 3))
	)
	(port
		(pt 0 64)
		(input)
		(text "comps_enable" (rect 0 0 82 14)(font "Arial" (font_size 8)))
		(text "comps_enable" (rect 21 59 103 73)(font "Arial" (font_size 8)))
		(line (pt 0 64)(pt 16 64)(line_width 1))
	)
	(port
		(pt 0 48)
		(input)
		(text "data[13..0]" (rect 0 0 60 14)(font "Arial" (font_size 8)))
		(text "data[13..0]" (rect 21 43 81 57)(font "Arial" (font_size 8)))
		(line (pt 0 48)(pt 16 48)(line_width 3))
	)
	(port
		(pt 0 80)
		(input)
		(text "clk_125mhz" (rect 0 0 67 14)(font "Arial" (font_size 8)))
		(text "clk_125mhz" (rect 21 75 88 89)(font "Arial" (font_size 8)))
		(line (pt 0 80)(pt 16 80)(line_width 1))
	)
	(port
		(pt 0 96)
		(input)
		(text "take_sample" (rect 0 0 70 14)(font "Arial" (font_size 8)))
		(text "take_sample" (rect 21 91 91 105)(font "Arial" (font_size 8)))
		(line (pt 0 96)(pt 16 96)(line_width 1))
	)
	(port
		(pt 0 112)
		(input)
		(text "reset" (rect 0 0 29 14)(font "Arial" (font_size 8)))
		(text "reset" (rect 21 107 50 121)(font "Arial" (font_size 8)))
		(line (pt 0 112)(pt 16 112)(line_width 1))
	)
	(port
		(pt 192 112)
		(input)
		(text "N_width[9..0]" (rect 0 0 75 14)(font "Arial" (font_size 8)))
		(text "N_width[9..0]" (rect 93 104 168 118)(font "Arial" (font_size 8)))
		(line (pt 176 112)(pt 192 112)(line_width 3))
	)
	(port
		(pt 192 48)
		(output)
		(text "comp" (rect 0 0 30 14)(font "Arial" (font_size 8)))
		(text "comp" (rect 141 43 171 57)(font "Arial" (font_size 8)))
		(line (pt 192 48)(pt 176 48)(line_width 1))
	)
	(drawing
		(rectangle (rect 16 16 176 144)(line_width 1))
	)
)
(symbol
	(rect 512 1000 704 1160)
	(text "pipeline_channel" (rect 5 0 118 16)(font "Arial" (font_size 10)))
	(text "inst22" (rect 8 144 37 156)(font "Arial" ))
	(port
		(pt 0 32)
		(input)
		(text "threshold[13..0]" (rect 0 0 88 14)(font "Arial" (font_size 8)))
		(text "threshold[13..0]" (rect 21 27 109 41)(font "Arial" (font_size 8)))
		(line (pt 0 32)(pt 16 32)(line_width 3))
	)
	(port
		(pt 0 64)
		(input)
		(text "comps_enable" (rect 0 0 82 14)(font "Arial" (font_size 8)))
		(text "comps_enable" (rect 21 59 103 73)(font "Arial" (font_size 8)))
		(line (pt 0 64)(pt 16 64)(line_width 1))
	)
	(port
		(pt 0 48)
		(input)
		(text "data[13..0]" (rect 0 0 60 14)(font "Arial" (font_size 8)))
		(text "data[13..0]" (rect 21 43 81 57)(font "Arial" (font_size 8)))
		(line (pt 0 48)(pt 16 48)(line_width 3))
	)
	(port
		(pt 0 80)
		(input)
		(text "clk_125mhz" (rect 0 0 67 14)(font "Arial" (font_size 8)))
		(text "clk_125mhz" (rect 21 75 88 89)(font "Arial" (font_size 8)))
		(line (pt 0 80)(pt 16 80)(line_width 1))
	)
	(port
		(pt 0 96)
		(input)
		(text "take_sample" (rect 0 0 70 14)(font "Arial" (font_size 8)))
		(text "take_sample" (rect 21 91 91 105)(font "Arial" (font_size 8)))
		(line (pt 0 96)(pt 16 96)(line_width 1))
	)
	(port
		(pt 0 112)
		(input)
		(text "reset" (rect 0 0 29 14)(font "Arial" (font_size 8)))
		(text "reset" (rect 21 107 50 121)(font "Arial" (font_size 8)))
		(line (pt 0 112)(pt 16 112)(line_width 1))
	)
	(port
		(pt 192 112)
		(input)
		(text "N_width[9..0]" (rect 0 0 75 14)(font "Arial" (font_size 8)))
		(text "N_width[9..0]" (rect 93 104 168 118)(font "Arial" (font_size 8)))
		(line (pt 176 112)(pt 192 112)(line_width 3))
	)
	(port
		(pt 192 48)
		(output)
		(text "comp" (rect 0 0 30 14)(font "Arial" (font_size 8)))
		(text "comp" (rect 141 43 171 57)(font "Arial" (font_size 8)))
		(line (pt 192 48)(pt 176 48)(line_width 1))
	)
	(drawing
		(rectangle (rect 16 16 176 144)(line_width 1))
	)
)
(symbol
	(rect 512 840 704 1000)
	(text "pipeline_channel" (rect 5 0 118 16)(font "Arial" (font_size 10)))
	(text "inst23" (rect 8 144 37 156)(font "Arial" ))
	(port
		(pt 0 32)
		(input)
		(text "threshold[13..0]" (rect 0 0 88 14)(font "Arial" (font_size 8)))
		(text "threshold[13..0]" (rect 21 27 109 41)(font "Arial" (font_size 8)))
		(line (pt 0 32)(pt 16 32)(line_width 3))
	)
	(port
		(pt 0 64)
		(input)
		(text "comps_enable" (rect 0 0 82 14)(font "Arial" (font_size 8)))
		(text "comps_enable" (rect 21 59 103 73)(font "Arial" (font_size 8)))
		(line (pt 0 64)(pt 16 64)(line_width 1))
	)
	(port
		(pt 0 48)
		(input)
		(text "data[13..0]" (rect 0 0 60 14)(font "Arial" (font_size 8)))
		(text "data[13..0]" (rect 21 43 81 57)(font "Arial" (font_size 8)))
		(line (pt 0 48)(pt 16 48)(line_width 3))
	)
	(port
		(pt 0 80)
		(input)
		(text "clk_125mhz" (rect 0 0 67 14)(font "Arial" (font_size 8)))
		(text "clk_125mhz" (rect 21 75 88 89)(font "Arial" (font_size 8)))
		(line (pt 0 80)(pt 16 80)(line_width 1))
	)
	(port
		(pt 0 96)
		(input)
		(text "take_sample" (rect 0 0 70 14)(font "Arial" (font_size 8)))
		(text "take_sample" (rect 21 91 91 105)(font "Arial" (font_size 8)))
		(line (pt 0 96)(pt 16 96)(line_width 1))
	)
	(port
		(pt 0 112)
		(input)
		(text "reset" (rect 0 0 29 14)(font "Arial" (font_size 8)))
		(text "reset" (rect 21 107 50 121)(font "Arial" (font_size 8)))
		(line (pt 0 112)(pt 16 112)(line_width 1))
	)
	(port
		(pt 192 112)
		(input)
		(text "N_width[9..0]" (rect 0 0 75 14)(font "Arial" (font_size 8)))
		(text "N_width[9..0]" (rect 93 104 168 118)(font "Arial" (font_size 8)))
		(line (pt 176 112)(pt 192 112)(line_width 3))
	)
	(port
		(pt 192 48)
		(output)
		(text "comp" (rect 0 0 30 14)(font "Arial" (font_size 8)))
		(text "comp" (rect 141 43 171 57)(font "Arial" (font_size 8)))
		(line (pt 192 48)(pt 176 48)(line_width 1))
	)
	(drawing
		(rectangle (rect 16 16 176 144)(line_width 1))
	)
)
(symbol
	(rect 512 680 704 840)
	(text "pipeline_channel" (rect 5 0 118 16)(font "Arial" (font_size 10)))
	(text "inst24" (rect 8 144 37 156)(font "Arial" ))
	(port
		(pt 0 32)
		(input)
		(text "threshold[13..0]" (rect 0 0 88 14)(font "Arial" (font_size 8)))
		(text "threshold[13..0]" (rect 21 27 109 41)(font "Arial" (font_size 8)))
		(line (pt 0 32)(pt 16 32)(line_width 3))
	)
	(port
		(pt 0 64)
		(input)
		(text "comps_enable" (rect 0 0 82 14)(font "Arial" (font_size 8)))
		(text "comps_enable" (rect 21 59 103 73)(font "Arial" (font_size 8)))
		(line (pt 0 64)(pt 16 64)(line_width 1))
	)
	(port
		(pt 0 48)
		(input)
		(text "data[13..0]" (rect 0 0 60 14)(font "Arial" (font_size 8)))
		(text "data[13..0]" (rect 21 43 81 57)(font "Arial" (font_size 8)))
		(line (pt 0 48)(pt 16 48)(line_width 3))
	)
	(port
		(pt 0 80)
		(input)
		(text "clk_125mhz" (rect 0 0 67 14)(font "Arial" (font_size 8)))
		(text "clk_125mhz" (rect 21 75 88 89)(font "Arial" (font_size 8)))
		(line (pt 0 80)(pt 16 80)(line_width 1))
	)
	(port
		(pt 0 96)
		(input)
		(text "take_sample" (rect 0 0 70 14)(font "Arial" (font_size 8)))
		(text "take_sample" (rect 21 91 91 105)(font "Arial" (font_size 8)))
		(line (pt 0 96)(pt 16 96)(line_width 1))
	)
	(port
		(pt 0 112)
		(input)
		(text "reset" (rect 0 0 29 14)(font "Arial" (font_size 8)))
		(text "reset" (rect 21 107 50 121)(font "Arial" (font_size 8)))
		(line (pt 0 112)(pt 16 112)(line_width 1))
	)
	(port
		(pt 192 112)
		(input)
		(text "N_width[9..0]" (rect 0 0 75 14)(font "Arial" (font_size 8)))
		(text "N_width[9..0]" (rect 93 104 168 118)(font "Arial" (font_size 8)))
		(line (pt 176 112)(pt 192 112)(line_width 3))
	)
	(port
		(pt 192 48)
		(output)
		(text "comp" (rect 0 0 30 14)(font "Arial" (font_size 8)))
		(text "comp" (rect 141 43 171 57)(font "Arial" (font_size 8)))
		(line (pt 192 48)(pt 176 48)(line_width 1))
	)
	(drawing
		(rectangle (rect 16 16 176 144)(line_width 1))
	)
)
(symbol
	(rect 512 520 704 680)
	(text "pipeline_channel" (rect 5 0 118 16)(font "Arial" (font_size 10)))
	(text "inst25" (rect 8 144 37 156)(font "Arial" ))
	(port
		(pt 0 32)
		(input)
		(text "threshold[13..0]" (rect 0 0 88 14)(font "Arial" (font_size 8)))
		(text "threshold[13..0]" (rect 21 27 109 41)(font "Arial" (font_size 8)))
		(line (pt 0 32)(pt 16 32)(line_width 3))
	)
	(port
		(pt 0 64)
		(input)
		(text "comps_enable" (rect 0 0 82 14)(font "Arial" (font_size 8)))
		(text "comps_enable" (rect 21 59 103 73)(font "Arial" (font_size 8)))
		(line (pt 0 64)(pt 16 64)(line_width 1))
	)
	(port
		(pt 0 48)
		(input)
		(text "data[13..0]" (rect 0 0 60 14)(font "Arial" (font_size 8)))
		(text "data[13..0]" (rect 21 43 81 57)(font "Arial" (font_size 8)))
		(line (pt 0 48)(pt 16 48)(line_width 3))
	)
	(port
		(pt 0 80)
		(input)
		(text "clk_125mhz" (rect 0 0 67 14)(font "Arial" (font_size 8)))
		(text "clk_125mhz" (rect 21 75 88 89)(font "Arial" (font_size 8)))
		(line (pt 0 80)(pt 16 80)(line_width 1))
	)
	(port
		(pt 0 96)
		(input)
		(text "take_sample" (rect 0 0 70 14)(font "Arial" (font_size 8)))
		(text "take_sample" (rect 21 91 91 105)(font "Arial" (font_size 8)))
		(line (pt 0 96)(pt 16 96)(line_width 1))
	)
	(port
		(pt 0 112)
		(input)
		(text "reset" (rect 0 0 29 14)(font "Arial" (font_size 8)))
		(text "reset" (rect 21 107 50 121)(font "Arial" (font_size 8)))
		(line (pt 0 112)(pt 16 112)(line_width 1))
	)
	(port
		(pt 192 112)
		(input)
		(text "N_width[9..0]" (rect 0 0 75 14)(font "Arial" (font_size 8)))
		(text "N_width[9..0]" (rect 93 104 168 118)(font "Arial" (font_size 8)))
		(line (pt 176 112)(pt 192 112)(line_width 3))
	)
	(port
		(pt 192 48)
		(output)
		(text "comp" (rect 0 0 30 14)(font "Arial" (font_size 8)))
		(text "comp" (rect 141 43 171 57)(font "Arial" (font_size 8)))
		(line (pt 192 48)(pt 176 48)(line_width 1))
	)
	(drawing
		(rectangle (rect 16 16 176 144)(line_width 1))
	)
)
(connector
	(pt 496 552)
	(pt 512 552)
	(bus)
)
(connector
	(pt 496 712)
	(pt 512 712)
	(bus)
)
(connector
	(pt 496 872)
	(pt 512 872)
	(bus)
)
(connector
	(pt 496 1032)
	(pt 512 1032)
	(bus)
)
(connector
	(pt 496 1192)
	(pt 512 1192)
	(bus)
)
(connector
	(pt 496 1352)
	(pt 512 1352)
	(bus)
)
(connector
	(pt 496 1512)
	(pt 512 1512)
	(bus)
)
(connector
	(pt 496 1672)
	(pt 512 1672)
	(bus)
)
(connector
	(pt 240 888)
	(pt 240 1048)
	(bus)
)
(connector
	(pt 264 904)
	(pt 264 1064)
)
(connector
	(pt 280 920)
	(pt 280 1080)
)
(connector
	(pt 296 936)
	(pt 296 1096)
)
(connector
	(pt 312 952)
	(pt 312 1112)
)
(connector
	(pt 240 1048)
	(pt 240 1208)
	(bus)
)
(connector
	(pt 264 1064)
	(pt 264 1224)
)
(connector
	(pt 280 1080)
	(pt 280 1240)
)
(connector
	(pt 296 1096)
	(pt 296 1256)
)
(connector
	(pt 312 1112)
	(pt 312 1272)
)
(connector
	(pt 240 1208)
	(pt 240 1368)
	(bus)
)
(connector
	(pt 824 1208)
	(pt 824 1368)
	(bus)
)
(connector
	(pt 264 1224)
	(pt 264 1384)
)
(connector
	(pt 280 1240)
	(pt 280 1400)
)
(connector
	(pt 296 1256)
	(pt 296 1416)
)
(connector
	(pt 312 1272)
	(pt 312 1432)
)
(connector
	(pt 264 1384)
	(pt 264 1544)
)
(connector
	(pt 280 1400)
	(pt 280 1560)
)
(connector
	(pt 296 1416)
	(pt 296 1576)
)
(connector
	(pt 312 1432)
	(pt 312 1592)
)
(connector
	(pt 824 1368)
	(pt 824 1528)
	(bus)
)
(connector
	(pt 824 1528)
	(pt 824 1688)
	(bus)
)
(connector
	(pt 312 632)
	(pt 312 792)
)
(connector
	(pt 312 792)
	(pt 312 952)
)
(connector
	(pt 264 584)
	(pt 264 744)
)
(connector
	(pt 264 744)
	(pt 264 904)
)
(connector
	(pt 280 600)
	(pt 280 760)
)
(connector
	(pt 280 760)
	(pt 280 920)
)
(connector
	(pt 296 616)
	(pt 296 776)
)
(connector
	(pt 296 776)
	(pt 296 936)
)
(connector
	(pt 824 512)
	(pt 824 568)
	(bus)
)
(connector
	(pt 824 568)
	(pt 824 728)
	(bus)
)
(connector
	(pt 824 728)
	(pt 824 888)
	(bus)
)
(connector
	(pt 824 888)
	(pt 824 1048)
	(bus)
)
(connector
	(pt 824 1048)
	(pt 824 1208)
	(bus)
)
(connector
	(text "adc[13..0]" (rect 450 568 499 580)(font "Arial" ))
	(pt 240 568)
	(pt 512 568)
	(bus)
)
(connector
	(pt 264 584)
	(pt 512 584)
)
(connector
	(pt 280 600)
	(pt 512 600)
)
(connector
	(pt 296 616)
	(pt 512 616)
)
(connector
	(pt 312 632)
	(pt 512 632)
)
(connector
	(text "adc[27..14]" (rect 450 728 505 740)(font "Arial" ))
	(pt 240 728)
	(pt 512 728)
	(bus)
)
(connector
	(pt 264 744)
	(pt 512 744)
)
(connector
	(pt 280 760)
	(pt 512 760)
)
(connector
	(pt 296 776)
	(pt 512 776)
)
(connector
	(pt 312 792)
	(pt 512 792)
)
(connector
	(text "adc[41..28]" (rect 442 888 497 900)(font "Arial" ))
	(pt 240 888)
	(pt 512 888)
	(bus)
)
(connector
	(pt 264 904)
	(pt 512 904)
)
(connector
	(pt 280 920)
	(pt 512 920)
)
(connector
	(pt 296 936)
	(pt 512 936)
)
(connector
	(pt 312 952)
	(pt 512 952)
)
(connector
	(text "adc[55..42]" (rect 450 1048 505 1060)(font "Arial" ))
	(pt 240 1048)
	(pt 512 1048)
	(bus)
)
(connector
	(pt 264 1064)
	(pt 512 1064)
)
(connector
	(pt 280 1080)
	(pt 512 1080)
)
(connector
	(pt 296 1096)
	(pt 512 1096)
)
(connector
	(pt 312 1112)
	(pt 512 1112)
)
(connector
	(text "adc[69..56]" (rect 450 1208 505 1220)(font "Arial" ))
	(pt 240 1208)
	(pt 512 1208)
	(bus)
)
(connector
	(pt 264 1224)
	(pt 512 1224)
)
(connector
	(pt 280 1240)
	(pt 512 1240)
)
(connector
	(pt 296 1256)
	(pt 512 1256)
)
(connector
	(pt 312 1272)
	(pt 512 1272)
)
(connector
	(text "adc[83..70]" (rect 450 1368 505 1380)(font "Arial" ))
	(pt 240 1368)
	(pt 512 1368)
	(bus)
)
(connector
	(pt 264 1384)
	(pt 512 1384)
)
(connector
	(pt 280 1400)
	(pt 512 1400)
)
(connector
	(pt 296 1416)
	(pt 512 1416)
)
(connector
	(pt 312 1432)
	(pt 512 1432)
)
(connector
	(text "adc[97..84]" (rect 450 1528 505 1540)(font "Arial" ))
	(pt 240 1528)
	(pt 512 1528)
	(bus)
)
(connector
	(pt 264 1544)
	(pt 512 1544)
)
(connector
	(pt 280 1560)
	(pt 512 1560)
)
(connector
	(pt 296 1576)
	(pt 512 1576)
)
(connector
	(pt 312 1592)
	(pt 512 1592)
)
(connector
	(text "adc[111..98]" (rect 442 1688 503 1700)(font "Arial" ))
	(pt 240 1688)
	(pt 512 1688)
	(bus)
)
(connector
	(pt 264 1704)
	(pt 512 1704)
)
(connector
	(pt 280 1720)
	(pt 512 1720)
)
(connector
	(pt 296 1736)
	(pt 512 1736)
)
(connector
	(pt 312 1752)
	(pt 512 1752)
)
(connector
	(pt 1088 712)
	(pt 1104 712)
	(bus)
)
(connector
	(pt 1088 872)
	(pt 1104 872)
	(bus)
)
(connector
	(pt 1088 1032)
	(pt 1104 1032)
	(bus)
)
(connector
	(pt 1088 1192)
	(pt 1104 1192)
	(bus)
)
(connector
	(pt 1088 1352)
	(pt 1104 1352)
	(bus)
)
(connector
	(pt 1088 1512)
	(pt 1104 1512)
	(bus)
)
(connector
	(pt 912 1592)
	(pt 1104 1592)
)
(connector
	(pt 1088 1672)
	(pt 1104 1672)
	(bus)
)
(connector
	(text "adc[125..112]" (rect 1026 568 1093 580)(font "Arial" ))
	(pt 848 568)
	(pt 1104 568)
	(bus)
)
(connector
	(pt 864 584)
	(pt 1104 584)
)
(connector
	(pt 880 600)
	(pt 1104 600)
)
(connector
	(pt 896 616)
	(pt 1104 616)
)
(connector
	(pt 912 632)
	(pt 1104 632)
)
(connector
	(text "adc[139..126]" (rect 1026 728 1093 740)(font "Arial" ))
	(pt 848 728)
	(pt 1104 728)
	(bus)
)
(connector
	(pt 864 744)
	(pt 1104 744)
)
(connector
	(pt 880 760)
	(pt 1104 760)
)
(connector
	(pt 896 776)
	(pt 1104 776)
)
(connector
	(pt 912 792)
	(pt 1104 792)
)
(connector
	(text "adc[153..140]" (rect 1026 888 1093 900)(font "Arial" ))
	(pt 848 888)
	(pt 1104 888)
	(bus)
)
(connector
	(pt 864 904)
	(pt 1104 904)
)
(connector
	(pt 880 920)
	(pt 1104 920)
)
(connector
	(pt 896 936)
	(pt 1104 936)
)
(connector
	(pt 912 952)
	(pt 1104 952)
)
(connector
	(text "adc[167..154]" (rect 1026 1048 1093 1060)(font "Arial" ))
	(pt 848 1048)
	(pt 1104 1048)
	(bus)
)
(connector
	(pt 864 1064)
	(pt 1104 1064)
)
(connector
	(pt 880 1080)
	(pt 1104 1080)
)
(connector
	(pt 896 1096)
	(pt 1104 1096)
)
(connector
	(pt 912 1112)
	(pt 1104 1112)
)
(connector
	(text "adc[181..168]" (rect 1026 1208 1093 1220)(font "Arial" ))
	(pt 848 1208)
	(pt 1104 1208)
	(bus)
)
(connector
	(pt 864 1224)
	(pt 1104 1224)
)
(connector
	(pt 880 1240)
	(pt 1104 1240)
)
(connector
	(pt 896 1256)
	(pt 1104 1256)
)
(connector
	(pt 912 1272)
	(pt 1104 1272)
)
(connector
	(text "adc[195..182]" (rect 1026 1368 1093 1380)(font "Arial" ))
	(pt 848 1368)
	(pt 1104 1368)
	(bus)
)
(connector
	(pt 864 1384)
	(pt 1104 1384)
)
(connector
	(pt 880 1400)
	(pt 1104 1400)
)
(connector
	(pt 896 1416)
	(pt 1104 1416)
)
(connector
	(pt 912 1432)
	(pt 1104 1432)
)
(connector
	(text "adc[209..196]" (rect 1026 1528 1093 1540)(font "Arial" ))
	(pt 848 1528)
	(pt 1104 1528)
	(bus)
)
(connector
	(pt 864 1544)
	(pt 1104 1544)
)
(connector
	(pt 880 1560)
	(pt 1104 1560)
)
(connector
	(pt 896 1576)
	(pt 1104 1576)
)
(connector
	(text "adc[223..210]" (rect 1026 1688 1093 1700)(font "Arial" ))
	(pt 848 1688)
	(pt 1104 1688)
	(bus)
)
(connector
	(pt 864 1704)
	(pt 1104 1704)
)
(connector
	(pt 880 1720)
	(pt 1104 1720)
)
(connector
	(pt 896 1736)
	(pt 1104 1736)
)
(connector
	(pt 912 1752)
	(pt 1104 1752)
)
(connector
	(pt 1416 1048)
	(pt 1416 1208)
	(bus)
)
(connector
	(pt 1416 1208)
	(pt 1416 1368)
	(bus)
)
(connector
	(pt 848 568)
	(pt 848 728)
	(bus)
)
(connector
	(pt 864 584)
	(pt 864 744)
)
(connector
	(pt 880 600)
	(pt 880 760)
)
(connector
	(pt 896 616)
	(pt 896 776)
)
(connector
	(pt 912 632)
	(pt 912 792)
)
(connector
	(pt 848 728)
	(pt 848 888)
	(bus)
)
(connector
	(pt 864 744)
	(pt 864 904)
)
(connector
	(pt 880 760)
	(pt 880 920)
)
(connector
	(pt 896 776)
	(pt 896 936)
)
(connector
	(pt 912 792)
	(pt 912 952)
)
(connector
	(pt 848 888)
	(pt 848 1048)
	(bus)
)
(connector
	(pt 864 904)
	(pt 864 1064)
)
(connector
	(pt 880 920)
	(pt 880 1080)
)
(connector
	(pt 896 936)
	(pt 896 1096)
)
(connector
	(pt 912 952)
	(pt 912 1112)
)
(connector
	(pt 848 1048)
	(pt 848 1208)
	(bus)
)
(connector
	(pt 864 1064)
	(pt 864 1224)
)
(connector
	(pt 880 1080)
	(pt 880 1240)
)
(connector
	(pt 896 1096)
	(pt 896 1256)
)
(connector
	(pt 912 1112)
	(pt 912 1272)
)
(connector
	(pt 848 1208)
	(pt 848 1368)
	(bus)
)
(connector
	(pt 864 1224)
	(pt 864 1384)
)
(connector
	(pt 880 1240)
	(pt 880 1400)
)
(connector
	(pt 896 1256)
	(pt 896 1416)
)
(connector
	(pt 912 1272)
	(pt 912 1432)
)
(connector
	(pt 912 1432)
	(pt 912 1592)
)
(connector
	(pt 848 1368)
	(pt 848 1528)
	(bus)
)
(connector
	(pt 864 1384)
	(pt 864 1544)
)
(connector
	(pt 880 1400)
	(pt 880 1560)
)
(connector
	(pt 896 1416)
	(pt 896 1576)
)
(connector
	(pt 704 632)
	(pt 784 632)
	(bus)
)
(connector
	(pt 704 792)
	(pt 784 792)
	(bus)
)
(connector
	(pt 704 952)
	(pt 784 952)
	(bus)
)
(connector
	(pt 784 632)
	(pt 784 792)
	(bus)
)
(connector
	(pt 704 1112)
	(pt 784 1112)
	(bus)
)
(connector
	(pt 784 792)
	(pt 784 952)
	(bus)
)
(connector
	(pt 704 1272)
	(pt 784 1272)
	(bus)
)
(connector
	(pt 784 952)
	(pt 784 1112)
	(bus)
)
(connector
	(pt 704 1432)
	(pt 784 1432)
	(bus)
)
(connector
	(pt 784 1112)
	(pt 784 1272)
	(bus)
)
(connector
	(pt 704 1592)
	(pt 784 1592)
	(bus)
)
(connector
	(pt 784 1272)
	(pt 784 1432)
	(bus)
)
(connector
	(pt 704 1752)
	(pt 784 1752)
	(bus)
)
(connector
	(pt 784 1432)
	(pt 784 1592)
	(bus)
)
(connector
	(pt 1296 632)
	(pt 1376 632)
	(bus)
)
(connector
	(pt 1296 792)
	(pt 1376 792)
	(bus)
)
(connector
	(pt 1296 1112)
	(pt 1376 1112)
	(bus)
)
(connector
	(pt 1296 1272)
	(pt 1376 1272)
	(bus)
)
(connector
	(pt 1296 1432)
	(pt 1376 1432)
	(bus)
)
(connector
	(pt 1296 1592)
	(pt 1376 1592)
	(bus)
)
(connector
	(pt 1376 632)
	(pt 1376 792)
	(bus)
)
(connector
	(pt 1376 1112)
	(pt 1376 1272)
	(bus)
)
(connector
	(pt 1376 1272)
	(pt 1376 1432)
	(bus)
)
(connector
	(pt 1376 1432)
	(pt 1376 1592)
	(bus)
)
(connector
	(pt 160 1904)
	(pt 240 1904)
	(bus)
)
(connector
	(pt 160 1888)
	(pt 264 1888)
)
(connector
	(pt 264 1888)
	(pt 864 1888)
)
(connector
	(pt 264 1544)
	(pt 264 1704)
)
(connector
	(pt 264 1704)
	(pt 264 1888)
)
(connector
	(pt 160 1872)
	(pt 280 1872)
)
(connector
	(pt 280 1560)
	(pt 280 1720)
)
(connector
	(pt 280 1720)
	(pt 280 1872)
)
(connector
	(pt 160 1856)
	(pt 296 1856)
)
(connector
	(pt 296 1576)
	(pt 296 1736)
)
(connector
	(pt 296 1736)
	(pt 296 1856)
)
(connector
	(pt 848 1528)
	(pt 848 1688)
	(bus)
)
(connector
	(pt 848 1688)
	(pt 848 1904)
	(bus)
)
(connector
	(pt 864 1544)
	(pt 864 1704)
)
(connector
	(pt 864 1704)
	(pt 864 1888)
)
(connector
	(pt 880 1560)
	(pt 880 1720)
)
(connector
	(pt 880 1720)
	(pt 880 1872)
)
(connector
	(pt 896 1576)
	(pt 896 1736)
)
(connector
	(pt 896 1736)
	(pt 896 1856)
)
(connector
	(pt 912 1592)
	(pt 912 1752)
)
(connector
	(pt 912 1752)
	(pt 912 1840)
)
(connector
	(pt 784 1592)
	(pt 784 1752)
	(bus)
)
(connector
	(pt 784 1752)
	(pt 784 1816)
	(bus)
)
(connector
	(pt 240 1368)
	(pt 240 1528)
	(bus)
)
(connector
	(pt 240 1688)
	(pt 240 1904)
	(bus)
)
(connector
	(pt 240 1528)
	(pt 240 1688)
	(bus)
)
(connector
	(pt 784 1816)
	(pt 1376 1816)
	(bus)
)
(connector
	(pt 160 1816)
	(pt 784 1816)
	(bus)
)
(connector
	(pt 168 1840)
	(pt 168 1744)
)
(connector
	(pt 160 1840)
	(pt 168 1840)
)
(connector
	(pt 312 1752)
	(pt 312 1840)
)
(connector
	(pt 312 1592)
	(pt 312 1744)
)
(connector
	(pt 312 1744)
	(pt 312 1752)
)
(connector
	(pt 168 1744)
	(pt 312 1744)
)
(connector
	(pt 1416 1368)
	(pt 1416 1528)
	(bus)
)
(connector
	(pt 1416 1528)
	(pt 1416 1688)
	(bus)
)
(connector
	(pt 1376 1592)
	(pt 1376 1752)
	(bus)
)
(connector
	(pt 1376 1752)
	(pt 1376 1816)
	(bus)
)
(connector
	(pt 1296 1752)
	(pt 1376 1752)
	(bus)
)
(connector
	(pt 240 728)
	(pt 240 888)
	(bus)
)
(connector
	(pt 240 568)
	(pt 240 728)
	(bus)
)
(connector
	(pt 1096 552)
	(pt 1104 552)
	(bus)
)
(connector
	(pt 1416 728)
	(pt 1416 888)
	(bus)
)
(connector
	(pt 1416 888)
	(pt 1416 1048)
	(bus)
)
(connector
	(pt 1376 792)
	(pt 1376 952)
	(bus)
)
(connector
	(pt 1376 952)
	(pt 1376 1112)
	(bus)
)
(connector
	(pt 1296 952)
	(pt 1376 952)
	(bus)
)
(connector
	(text "comp[0]" (rect 714 568 754 580)(font "Arial" ))
	(pt 824 568)
	(pt 704 568)
)
(connector
	(text "comp[1]" (rect 714 712 754 724)(font "Arial" ))
	(pt 824 728)
	(pt 704 728)
)
(connector
	(text "comp[2]" (rect 714 872 754 884)(font "Arial" ))
	(pt 824 888)
	(pt 704 888)
)
(connector
	(text "comp[3]" (rect 714 1032 754 1044)(font "Arial" ))
	(pt 824 1048)
	(pt 704 1048)
)
(connector
	(text "comp[4]" (rect 714 1192 754 1204)(font "Arial" ))
	(pt 824 1208)
	(pt 704 1208)
)
(connector
	(text "comp[8]" (rect 1306 568 1346 580)(font "Arial" ))
	(pt 1296 568)
	(pt 1416 568)
)
(connector
	(text "comp[9]" (rect 1306 728 1346 740)(font "Arial" ))
	(pt 1296 728)
	(pt 1416 728)
)
(connector
	(text "comp[10]" (rect 1298 888 1344 900)(font "Arial" ))
	(pt 1296 888)
	(pt 1416 888)
)
(connector
	(text "comp[11]" (rect 1306 1048 1352 1060)(font "Arial" ))
	(pt 1296 1048)
	(pt 1416 1048)
)
(connector
	(text "comp[12]" (rect 1306 1208 1352 1220)(font "Arial" ))
	(pt 1296 1208)
	(pt 1416 1208)
)
(connector
	(text "comp[13]" (rect 1306 1368 1352 1380)(font "Arial" ))
	(pt 1296 1368)
	(pt 1416 1368)
)
(connector
	(text "comp[14]" (rect 1306 1528 1352 1540)(font "Arial" ))
	(pt 1296 1528)
	(pt 1416 1528)
)
(connector
	(text "comp[15]" (rect 1298 1688 1344 1700)(font "Arial" ))
	(pt 1296 1688)
	(pt 1416 1688)
)
(connector
	(text "comp[7]" (rect 714 1672 754 1684)(font "Arial" ))
	(pt 824 1688)
	(pt 704 1688)
)
(connector
	(text "comp[6]" (rect 714 1512 754 1524)(font "Arial" ))
	(pt 824 1528)
	(pt 704 1528)
)
(connector
	(text "comp[5]" (rect 714 1352 754 1364)(font "Arial" ))
	(pt 824 1368)
	(pt 704 1368)
)
(connector
	(pt 1416 512)
	(pt 1416 568)
	(bus)
)
(connector
	(pt 1416 568)
	(pt 1416 728)
	(bus)
)
(connector
	(pt 824 512)
	(pt 1416 512)
	(bus)
)
(connector
	(pt 1416 512)
	(pt 1536 512)
	(bus)
)
(connector
	(pt 312 1840)
	(pt 912 1840)
)
(connector
	(pt 280 1872)
	(pt 880 1872)
)
(connector
	(pt 296 1856)
	(pt 896 1856)
)
(connector
	(pt 912 1840)
	(pt 1408 1840)
)
(connector
	(pt 896 1856)
	(pt 1408 1856)
)
(connector
	(pt 880 1872)
	(pt 1408 1872)
)
(connector
	(pt 1592 1888)
	(pt 1624 1888)
	(bus)
)
(connector
	(pt 1408 1888)
	(pt 880 1888)
	(bus)
)
(connector
	(pt 880 1888)
	(pt 880 1904)
	(bus)
)
(connector
	(pt 240 1904)
	(pt 848 1904)
	(bus)
)
(connector
	(pt 848 1904)
	(pt 880 1904)
	(bus)
)
(junction (pt 1416 728))
(junction (pt 1416 888))
(junction (pt 1416 1048))
(junction (pt 1416 1208))
(junction (pt 1416 1368))
(junction (pt 1416 1528))
(junction (pt 824 568))
(junction (pt 824 728))
(junction (pt 824 888))
(junction (pt 824 1048))
(junction (pt 824 1208))
(junction (pt 824 1368))
(junction (pt 824 1528))
(junction (pt 848 1048))
(junction (pt 848 1208))
(junction (pt 848 1368))
(junction (pt 848 1528))
(junction (pt 848 1688))
(junction (pt 848 728))
(junction (pt 848 888))
(junction (pt 864 1064))
(junction (pt 864 1224))
(junction (pt 864 1384))
(junction (pt 864 1544))
(junction (pt 864 1704))
(junction (pt 864 744))
(junction (pt 864 904))
(junction (pt 880 1240))
(junction (pt 880 1400))
(junction (pt 880 1560))
(junction (pt 880 1720))
(junction (pt 880 760))
(junction (pt 880 920))
(junction (pt 880 1080))
(junction (pt 896 1096))
(junction (pt 896 1256))
(junction (pt 896 1416))
(junction (pt 896 1576))
(junction (pt 896 1736))
(junction (pt 896 776))
(junction (pt 896 936))
(junction (pt 912 1272))
(junction (pt 912 1432))
(junction (pt 912 1592))
(junction (pt 912 1752))
(junction (pt 912 792))
(junction (pt 912 952))
(junction (pt 912 1112))
(junction (pt 240 1688))
(junction (pt 240 1528))
(junction (pt 240 1368))
(junction (pt 240 1208))
(junction (pt 240 1048))
(junction (pt 240 888))
(junction (pt 240 728))
(junction (pt 264 744))
(junction (pt 280 760))
(junction (pt 296 776))
(junction (pt 312 792))
(junction (pt 264 904))
(junction (pt 280 920))
(junction (pt 296 936))
(junction (pt 312 952))
(junction (pt 264 1064))
(junction (pt 280 1080))
(junction (pt 296 1096))
(junction (pt 312 1112))
(junction (pt 264 1224))
(junction (pt 280 1240))
(junction (pt 296 1256))
(junction (pt 312 1272))
(junction (pt 280 1400))
(junction (pt 296 1416))
(junction (pt 312 1432))
(junction (pt 264 1384))
(junction (pt 264 1544))
(junction (pt 280 1560))
(junction (pt 312 1592))
(junction (pt 296 1576))
(junction (pt 264 1704))
(junction (pt 280 1720))
(junction (pt 296 1736))
(junction (pt 312 1752))
(junction (pt 784 792))
(junction (pt 784 952))
(junction (pt 784 1112))
(junction (pt 784 1272))
(junction (pt 784 1432))
(junction (pt 784 1592))
(junction (pt 1376 792))
(junction (pt 1376 952))
(junction (pt 1376 1112))
(junction (pt 1376 1272))
(junction (pt 1376 1432))
(junction (pt 1376 1592))
(junction (pt 784 1752))
(junction (pt 1376 1752))
(junction (pt 240 1904))
(junction (pt 264 1888))
(junction (pt 280 1872))
(junction (pt 296 1856))
(junction (pt 784 1816))
(junction (pt 312 1744))
(junction (pt 1416 568))
(junction (pt 1416 512))
(junction (pt 848 1904))
(junction (pt 880 1872))
(junction (pt 896 1856))
(junction (pt 912 1840))
