/*
WARNING: Do NOT edit the input and output ports in this file in a text
editor if you plan to continue editing the block that represents it in
the Block Editor! File corruption is VERY likely to occur.
*/
/*
Copyright (C) 1991-2010 Altera Corporation
Your use of Altera Corporation's design tools, logic functions 
and other software and tools, and its AMPP partner logic 
functions, and any output files from any of the foregoing 
(including device programming or simulation files), and any 
associated documentation or information are expressly subject 
to the terms and conditions of the Altera Program License 
Subscription Agreement, Altera MegaCore Function License 
Agreement, or other applicable license agreement, including, 
without limitation, that your use is for the sole purpose of 
programming logic devices manufactured by Altera and sold by 
Altera or its authorized distributors.  Please refer to the 
applicable agreement for further details.
*/
//#pragma file_not_in_maxplusii_format
(header "graphic" (version "1.3"))
(properties
	(page_setup "header_footer\nDate: %D\n%f\nProject: %j\n\nPage %p of %P\nRevision: %a\nmargin\n0.23\n0.23\n0.22\n0.22\norientation\n2\npaper_size\n1\npaper_source\n7\nfit_page_wide\n1\nfit_page_tall\n1\n")
)
(pin
	(input)
	(rect -192 800 -24 816)
	(text "INPUT" (rect 133 0 161 10)(font "Arial" (font_size 6)))
	(text "clk_125mhz" (rect 9 0 66 12)(font "Arial" ))
	(pt 168 8)
	(drawing
		(line (pt 92 12)(pt 117 12)(line_width 1))
		(line (pt 92 4)(pt 117 4)(line_width 1))
		(line (pt 121 8)(pt 168 8)(line_width 1))
		(line (pt 92 12)(pt 92 4)(line_width 1))
		(line (pt 117 4)(pt 121 8)(line_width 1))
		(line (pt 117 12)(pt 121 8)(line_width 1))
	)
	(text "VCC" (rect 136 7 156 17)(font "Arial" (font_size 6)))
)
(pin
	(input)
	(rect -320 256 -152 272)
	(text "INPUT" (rect 133 0 161 10)(font "Arial" (font_size 6)))
	(text "reset" (rect 9 0 33 12)(font "Arial" ))
	(pt 168 8)
	(drawing
		(line (pt 92 12)(pt 117 12)(line_width 1))
		(line (pt 92 4)(pt 117 4)(line_width 1))
		(line (pt 121 8)(pt 168 8)(line_width 1))
		(line (pt 92 12)(pt 92 4)(line_width 1))
		(line (pt 117 4)(pt 121 8)(line_width 1))
		(line (pt 117 12)(pt 121 8)(line_width 1))
	)
	(text "VCC" (rect 136 7 156 17)(font "Arial" (font_size 6)))
)
(pin
	(input)
	(rect -192 816 -24 832)
	(text "INPUT" (rect 133 0 161 10)(font "Arial" (font_size 6)))
	(text "take_sample" (rect 5 0 67 12)(font "Arial" ))
	(pt 168 8)
	(drawing
		(line (pt 92 12)(pt 117 12)(line_width 1))
		(line (pt 92 4)(pt 117 4)(line_width 1))
		(line (pt 121 8)(pt 168 8)(line_width 1))
		(line (pt 92 12)(pt 92 4)(line_width 1))
		(line (pt 117 4)(pt 121 8)(line_width 1))
		(line (pt 117 12)(pt 121 8)(line_width 1))
	)
	(text "VCC" (rect 136 7 156 17)(font "Arial" (font_size 6)))
)
(pin
	(input)
	(rect -328 64 -160 80)
	(text "INPUT" (rect 133 0 161 10)(font "Arial" (font_size 6)))
	(text "threshold[13..0]" (rect 9 0 85 12)(font "Arial" ))
	(pt 168 8)
	(drawing
		(line (pt 92 12)(pt 117 12)(line_width 1))
		(line (pt 92 4)(pt 117 4)(line_width 1))
		(line (pt 121 8)(pt 168 8)(line_width 1))
		(line (pt 92 12)(pt 92 4)(line_width 1))
		(line (pt 117 4)(pt 121 8)(line_width 1))
		(line (pt 117 12)(pt 121 8)(line_width 1))
	)
	(text "VCC" (rect 136 7 156 17)(font "Arial" (font_size 6)))
)
(pin
	(input)
	(rect -328 128 -160 144)
	(text "INPUT" (rect 133 0 161 10)(font "Arial" (font_size 6)))
	(text "data[13..0]" (rect 5 0 58 12)(font "Arial" ))
	(pt 168 8)
	(drawing
		(line (pt 92 12)(pt 117 12)(line_width 1))
		(line (pt 92 4)(pt 117 4)(line_width 1))
		(line (pt 121 8)(pt 168 8)(line_width 1))
		(line (pt 92 12)(pt 92 4)(line_width 1))
		(line (pt 117 4)(pt 121 8)(line_width 1))
		(line (pt 117 12)(pt 121 8)(line_width 1))
	)
	(text "VCC" (rect 136 7 156 17)(font "Arial" (font_size 6)))
)
(pin
	(input)
	(rect 56 320 224 336)
	(text "INPUT" (rect 133 0 161 10)(font "Arial" (font_size 6)))
	(text "N_width[9..0]" (rect 5 0 69 12)(font "Arial" ))
	(pt 168 8)
	(drawing
		(line (pt 92 12)(pt 117 12)(line_width 1))
		(line (pt 92 4)(pt 117 4)(line_width 1))
		(line (pt 121 8)(pt 168 8)(line_width 1))
		(line (pt 92 12)(pt 92 4)(line_width 1))
		(line (pt 117 4)(pt 121 8)(line_width 1))
		(line (pt 117 12)(pt 121 8)(line_width 1))
	)
	(text "VCC" (rect 136 7 156 17)(font "Arial" (font_size 6)))
)
(pin
	(input)
	(rect 912 392 1080 408)
	(text "INPUT" (rect 7 6 35 16)(font "Arial" (font_size 6)))
	(text "comps_enable" (rect 93 4 163 16)(font "Arial" ))
	(pt 0 8)
	(drawing
		(line (pt 76 4)(pt 51 4)(line_width 1))
		(line (pt 76 12)(pt 51 12)(line_width 1))
		(line (pt 47 8)(pt 0 8)(line_width 1))
		(line (pt 76 4)(pt 76 12)(line_width 1))
		(line (pt 51 12)(pt 47 8)(line_width 1))
		(line (pt 51 4)(pt 47 8)(line_width 1))
	)
	(rotate180)
	(text "VCC" (rect 12 -1 32 9)(font "Arial" (font_size 6)))
)
(pin
	(output)
	(rect 1576 776 1752 792)
	(text "OUTPUT" (rect 1 0 39 10)(font "Arial" (font_size 6)))
	(text "comp" (rect 90 0 117 12)(font "Arial" ))
	(pt 0 8)
	(drawing
		(line (pt 0 8)(pt 52 8)(line_width 1))
		(line (pt 52 4)(pt 78 4)(line_width 1))
		(line (pt 52 12)(pt 78 12)(line_width 1))
		(line (pt 52 12)(pt 52 4)(line_width 1))
		(line (pt 78 4)(pt 82 8)(line_width 1))
		(line (pt 82 8)(pt 78 12)(line_width 1))
		(line (pt 78 12)(pt 82 8)(line_width 1))
	)
)
(symbol
	(rect 904 104 1048 216)
	(text "ff_sc" (rect 59 1 90 17)(font "Arial" (font_size 10)))
	(text "inst" (rect 8 96 25 108)(font "Arial" ))
	(port
		(pt 0 32)
		(input)
		(text "sclr" (rect 0 0 21 14)(font "Arial" (font_size 8)))
		(text "sclr" (rect 20 26 41 40)(font "Arial" (font_size 8)))
		(line (pt 0 32)(pt 16 32)(line_width 1))
	)
	(port
		(pt 0 48)
		(input)
		(text "sset" (rect 0 0 24 14)(font "Arial" (font_size 8)))
		(text "sset" (rect 20 42 44 56)(font "Arial" (font_size 8)))
		(line (pt 0 48)(pt 16 48)(line_width 1))
	)
	(port
		(pt 0 64)
		(input)
		(text "data" (rect 0 0 24 14)(font "Arial" (font_size 8)))
		(text "data" (rect 20 58 44 72)(font "Arial" (font_size 8)))
		(line (pt 0 64)(pt 16 64)(line_width 1))
	)
	(port
		(pt 0 80)
		(input)
		(text "clock" (rect 0 0 29 14)(font "Arial" (font_size 8)))
		(text "clock" (rect 26 74 55 88)(font "Arial" (font_size 8)))
		(line (pt 0 80)(pt 16 80)(line_width 1))
	)
	(port
		(pt 80 112)
		(input)
		(text "aclr" (rect 0 0 14 21)(font "Arial" (font_size 8))(vertical))
		(text "aclr" (rect 73 75 87 96)(font "Arial" (font_size 8))(vertical))
		(line (pt 80 112)(pt 80 96)(line_width 1))
	)
	(port
		(pt 144 48)
		(output)
		(text "q" (rect 0 0 7 14)(font "Arial" (font_size 8)))
		(text "q" (rect 119 42 126 56)(font "Arial" (font_size 8)))
		(line (pt 144 48)(pt 128 48)(line_width 1))
	)
	(drawing
		(text "DFF" (rect 109 17 131 29)(font "Arial" ))
		(line (pt 16 16)(pt 128 16)(line_width 1))
		(line (pt 128 16)(pt 128 96)(line_width 1))
		(line (pt 128 96)(pt 16 96)(line_width 1))
		(line (pt 16 96)(pt 16 16)(line_width 1))
		(line (pt 16 74)(pt 22 80)(line_width 1))
		(line (pt 22 80)(pt 16 86)(line_width 1))
	)
)
(symbol
	(rect 320 64 384 112)
	(text "NAND2" (rect 1 0 32 10)(font "Arial" (font_size 6)))
	(text "inst3" (rect 3 37 26 49)(font "Arial" ))
	(port
		(pt 0 32)
		(input)
		(text "IN2" (rect 2 23 19 35)(font "Courier New" (bold))(invisible))
		(text "IN2" (rect 2 23 19 35)(font "Courier New" (bold))(invisible))
		(line (pt 0 32)(pt 15 32)(line_width 1))
	)
	(port
		(pt 0 16)
		(input)
		(text "IN1" (rect 2 7 19 19)(font "Courier New" (bold))(invisible))
		(text "IN1" (rect 2 7 19 19)(font "Courier New" (bold))(invisible))
		(line (pt 0 16)(pt 15 16)(line_width 1))
	)
	(port
		(pt 64 24)
		(output)
		(text "OUT" (rect 48 15 65 27)(font "Courier New" (bold))(invisible))
		(text "OUT" (rect 48 15 65 27)(font "Courier New" (bold))(invisible))
		(line (pt 52 24)(pt 64 24)(line_width 1))
	)
	(drawing
		(line (pt 15 37)(pt 32 37)(line_width 1))
		(line (pt 15 12)(pt 32 12)(line_width 1))
		(line (pt 15 36)(pt 15 12)(line_width 1))
		(arc (pt 32 36)(pt 32 12)(rect 20 12 45 37)(line_width 1))
		(circle (rect 44 20 52 28)(line_width 1))
	)
)
(symbol
	(rect 408 96 552 224)
	(text "counter" (rect 51 1 101 17)(font "Arial" (font_size 10)))
	(text "inst9" (rect 8 112 31 124)(font "Arial" ))
	(port
		(pt 0 32)
		(input)
		(text "sclr" (rect 0 0 21 14)(font "Arial" (font_size 8)))
		(text "sclr" (rect 20 26 41 40)(font "Arial" (font_size 8)))
		(line (pt 0 32)(pt 16 32)(line_width 1))
	)
	(port
		(pt 0 64)
		(input)
		(text "clock" (rect 0 0 29 14)(font "Arial" (font_size 8)))
		(text "clock" (rect 26 58 55 72)(font "Arial" (font_size 8)))
		(line (pt 0 64)(pt 16 64)(line_width 1))
	)
	(port
		(pt 0 96)
		(input)
		(text "cnt_en" (rect 0 0 38 14)(font "Arial" (font_size 8)))
		(text "cnt_en" (rect 20 90 58 104)(font "Arial" (font_size 8)))
		(line (pt 0 96)(pt 16 96)(line_width 1))
	)
	(port
		(pt 80 128)
		(input)
		(text "aclr" (rect 0 0 14 21)(font "Arial" (font_size 8))(vertical))
		(text "aclr" (rect 73 91 87 112)(font "Arial" (font_size 8))(vertical))
		(line (pt 80 128)(pt 80 112)(line_width 1))
	)
	(port
		(pt 144 56)
		(output)
		(text "q[9..0]" (rect 0 0 35 14)(font "Arial" (font_size 8)))
		(text "q[9..0]" (rect 95 50 130 64)(font "Arial" (font_size 8)))
		(line (pt 144 56)(pt 128 56)(line_width 3))
	)
	(drawing
		(text "up counter" (rect 84 17 135 29)(font "Arial" ))
		(line (pt 16 16)(pt 128 16)(line_width 1))
		(line (pt 128 16)(pt 128 112)(line_width 1))
		(line (pt 128 112)(pt 16 112)(line_width 1))
		(line (pt 16 112)(pt 16 16)(line_width 1))
		(line (pt 16 58)(pt 22 64)(line_width 1))
		(line (pt 22 64)(pt 16 70)(line_width 1))
	)
)
(symbol
	(rect 144 40 272 136)
	(text "compare" (rect 39 79 98 95)(font "Arial" (font_size 10)))
	(text "inst8" (rect 8 4 31 16)(font "Arial" ))
	(port
		(pt 0 48)
		(input)
		(text "dataa[13..0]" (rect 0 0 67 14)(font "Arial" (font_size 8)))
		(text "dataa[13..0]" (rect 20 40 87 54)(font "Arial" (font_size 8)))
		(line (pt 0 48)(pt 16 48)(line_width 3))
	)
	(port
		(pt 0 32)
		(input)
		(text "datab[13..0]" (rect 0 0 67 14)(font "Arial" (font_size 8)))
		(text "datab[13..0]" (rect 20 24 87 38)(font "Arial" (font_size 8)))
		(line (pt 0 32)(pt 16 32)(line_width 3))
	)
	(port
		(pt 128 40)
		(output)
		(text "aleb" (rect 0 0 23 14)(font "Arial" (font_size 8)))
		(text "aleb" (rect 89 32 112 46)(font "Arial" (font_size 8)))
		(line (pt 128 40)(pt 112 40)(line_width 1))
	)
	(drawing
		(text "unsigned compare" (rect 36 67 125 79)(font "Arial" ))
		(line (pt 16 80)(pt 112 80)(line_width 1))
		(line (pt 112 80)(pt 112 16)(line_width 1))
		(line (pt 112 16)(pt 16 16)(line_width 1))
		(line (pt 16 16)(pt 16 80)(line_width 1))
	)
	(flipx)
)
(symbol
	(rect 280 448 360 528)
	(text "mux2" (rect 24 2 61 18)(font "Arial" (font_size 10)))
	(text "inst7" (rect 8 64 31 76)(font "Arial" ))
	(port
		(pt 0 40)
		(input)
		(text "data1" (rect 0 0 31 14)(font "Arial" (font_size 8)))
		(text "data1" (rect 4 27 35 41)(font "Arial" (font_size 8)))
		(line (pt 0 40)(pt 32 40)(line_width 1))
	)
	(port
		(pt 0 56)
		(input)
		(text "data0" (rect 0 0 31 14)(font "Arial" (font_size 8)))
		(text "data0" (rect 4 43 35 57)(font "Arial" (font_size 8)))
		(line (pt 0 56)(pt 32 56)(line_width 1))
	)
	(port
		(pt 40 80)
		(input)
		(text "sel" (rect 0 0 16 14)(font "Arial" (font_size 8)))
		(text "sel" (rect 44 67 60 81)(font "Arial" (font_size 8)))
		(line (pt 40 80)(pt 40 68)(line_width 1))
	)
	(port
		(pt 80 48)
		(output)
		(text "result" (rect 0 0 31 14)(font "Arial" (font_size 8)))
		(text "result" (rect 50 35 81 49)(font "Arial" (font_size 8)))
		(line (pt 80 48)(pt 48 48)(line_width 1))
	)
	(drawing
		(line (pt 32 24)(pt 32 72)(line_width 1))
		(line (pt 48 32)(pt 48 64)(line_width 1))
		(line (pt 32 24)(pt 48 32)(line_width 1))
		(line (pt 32 72)(pt 48 64)(line_width 1))
	)
)
(symbol
	(rect 592 456 672 536)
	(text "mux2" (rect 24 2 61 18)(font "Arial" (font_size 10)))
	(text "inst11" (rect 8 64 37 76)(font "Arial" ))
	(port
		(pt 0 40)
		(input)
		(text "data1" (rect 0 0 31 14)(font "Arial" (font_size 8)))
		(text "data1" (rect 4 27 35 41)(font "Arial" (font_size 8)))
		(line (pt 0 40)(pt 32 40)(line_width 1))
	)
	(port
		(pt 0 56)
		(input)
		(text "data0" (rect 0 0 31 14)(font "Arial" (font_size 8)))
		(text "data0" (rect 4 43 35 57)(font "Arial" (font_size 8)))
		(line (pt 0 56)(pt 32 56)(line_width 1))
	)
	(port
		(pt 40 80)
		(input)
		(text "sel" (rect 0 0 16 14)(font "Arial" (font_size 8)))
		(text "sel" (rect 44 67 60 81)(font "Arial" (font_size 8)))
		(line (pt 40 80)(pt 40 68)(line_width 1))
	)
	(port
		(pt 80 48)
		(output)
		(text "result" (rect 0 0 31 14)(font "Arial" (font_size 8)))
		(text "result" (rect 50 35 81 49)(font "Arial" (font_size 8)))
		(line (pt 80 48)(pt 48 48)(line_width 1))
	)
	(drawing
		(line (pt 32 24)(pt 32 72)(line_width 1))
		(line (pt 48 32)(pt 48 64)(line_width 1))
		(line (pt 32 24)(pt 48 32)(line_width 1))
		(line (pt 32 72)(pt 48 64)(line_width 1))
	)
)
(symbol
	(rect 920 464 1000 544)
	(text "mux2" (rect 24 2 61 18)(font "Arial" (font_size 10)))
	(text "inst14" (rect 8 64 37 76)(font "Arial" ))
	(port
		(pt 0 40)
		(input)
		(text "data1" (rect 0 0 31 14)(font "Arial" (font_size 8)))
		(text "data1" (rect 4 27 35 41)(font "Arial" (font_size 8)))
		(line (pt 0 40)(pt 32 40)(line_width 1))
	)
	(port
		(pt 0 56)
		(input)
		(text "data0" (rect 0 0 31 14)(font "Arial" (font_size 8)))
		(text "data0" (rect 4 43 35 57)(font "Arial" (font_size 8)))
		(line (pt 0 56)(pt 32 56)(line_width 1))
	)
	(port
		(pt 40 80)
		(input)
		(text "sel" (rect 0 0 16 14)(font "Arial" (font_size 8)))
		(text "sel" (rect 44 67 60 81)(font "Arial" (font_size 8)))
		(line (pt 40 80)(pt 40 68)(line_width 1))
	)
	(port
		(pt 80 48)
		(output)
		(text "result" (rect 0 0 31 14)(font "Arial" (font_size 8)))
		(text "result" (rect 50 35 81 49)(font "Arial" (font_size 8)))
		(line (pt 80 48)(pt 48 48)(line_width 1))
	)
	(drawing
		(line (pt 32 24)(pt 32 72)(line_width 1))
		(line (pt 48 32)(pt 48 64)(line_width 1))
		(line (pt 32 24)(pt 48 32)(line_width 1))
		(line (pt 32 72)(pt 48 64)(line_width 1))
	)
)
(symbol
	(rect 1312 696 1400 872)
	(text "mux8" (rect 24 158 61 174)(font "Arial" (font_size 10)))
	(text "inst21" (rect 8 4 37 16)(font "Arial" ))
	(port
		(pt 0 136)
		(input)
		(text "data7" (rect 0 0 31 14)(font "Arial" (font_size 8)))
		(text "data7" (rect 4 135 35 149)(font "Arial" (font_size 8)))
		(line (pt 0 136)(pt 32 136)(line_width 1))
	)
	(port
		(pt 0 120)
		(input)
		(text "data6" (rect 0 0 31 14)(font "Arial" (font_size 8)))
		(text "data6" (rect 4 119 35 133)(font "Arial" (font_size 8)))
		(line (pt 0 120)(pt 32 120)(line_width 1))
	)
	(port
		(pt 0 104)
		(input)
		(text "data5" (rect 0 0 31 14)(font "Arial" (font_size 8)))
		(text "data5" (rect 4 103 35 117)(font "Arial" (font_size 8)))
		(line (pt 0 104)(pt 32 104)(line_width 1))
	)
	(port
		(pt 0 88)
		(input)
		(text "data4" (rect 0 0 31 14)(font "Arial" (font_size 8)))
		(text "data4" (rect 4 87 35 101)(font "Arial" (font_size 8)))
		(line (pt 0 88)(pt 32 88)(line_width 1))
	)
	(port
		(pt 0 72)
		(input)
		(text "data3" (rect 0 0 31 14)(font "Arial" (font_size 8)))
		(text "data3" (rect 4 71 35 85)(font "Arial" (font_size 8)))
		(line (pt 0 72)(pt 32 72)(line_width 1))
	)
	(port
		(pt 0 56)
		(input)
		(text "data2" (rect 0 0 31 14)(font "Arial" (font_size 8)))
		(text "data2" (rect 4 55 35 69)(font "Arial" (font_size 8)))
		(line (pt 0 56)(pt 32 56)(line_width 1))
	)
	(port
		(pt 0 40)
		(input)
		(text "data1" (rect 0 0 31 14)(font "Arial" (font_size 8)))
		(text "data1" (rect 4 39 35 53)(font "Arial" (font_size 8)))
		(line (pt 0 40)(pt 32 40)(line_width 1))
	)
	(port
		(pt 0 24)
		(input)
		(text "data0" (rect 0 0 31 14)(font "Arial" (font_size 8)))
		(text "data0" (rect 4 23 35 37)(font "Arial" (font_size 8)))
		(line (pt 0 24)(pt 32 24)(line_width 1))
	)
	(port
		(pt 40 0)
		(input)
		(text "sel[2..0]" (rect 0 0 44 14)(font "Arial" (font_size 8)))
		(text "sel[2..0]" (rect 44 -1 88 13)(font "Arial" (font_size 8)))
		(line (pt 40 0)(pt 40 12)(line_width 3))
	)
	(port
		(pt 88 80)
		(output)
		(text "result" (rect 0 0 31 14)(font "Arial" (font_size 8)))
		(text "result" (rect 58 79 89 93)(font "Arial" (font_size 8)))
		(line (pt 88 80)(pt 48 80)(line_width 1))
	)
	(drawing
		(line (pt 32 152)(pt 32 8)(line_width 1))
		(line (pt 48 144)(pt 48 16)(line_width 1))
		(line (pt 32 152)(pt 48 144)(line_width 1))
		(line (pt 32 8)(pt 48 16)(line_width 1))
	)
	(flipx)
)
(symbol
	(rect 1456 752 1536 832)
	(text "mux2" (rect 24 62 61 78)(font "Arial" (font_size 10)))
	(text "inst15" (rect 8 4 37 16)(font "Arial" ))
	(port
		(pt 0 40)
		(input)
		(text "data1" (rect 0 0 31 14)(font "Arial" (font_size 8)))
		(text "data1" (rect 4 39 35 53)(font "Arial" (font_size 8)))
		(line (pt 0 40)(pt 32 40)(line_width 1))
	)
	(port
		(pt 0 24)
		(input)
		(text "data0" (rect 0 0 31 14)(font "Arial" (font_size 8)))
		(text "data0" (rect 4 23 35 37)(font "Arial" (font_size 8)))
		(line (pt 0 24)(pt 32 24)(line_width 1))
	)
	(port
		(pt 40 0)
		(input)
		(text "sel" (rect 0 0 16 14)(font "Arial" (font_size 8)))
		(text "sel" (rect 44 -1 60 13)(font "Arial" (font_size 8)))
		(line (pt 40 0)(pt 40 12)(line_width 1))
	)
	(port
		(pt 80 32)
		(output)
		(text "result" (rect 0 0 31 14)(font "Arial" (font_size 8)))
		(text "result" (rect 50 31 81 45)(font "Arial" (font_size 8)))
		(line (pt 80 32)(pt 48 32)(line_width 1))
	)
	(drawing
		(line (pt 32 56)(pt 32 8)(line_width 1))
		(line (pt 48 48)(pt 48 16)(line_width 1))
		(line (pt 32 56)(pt 48 48)(line_width 1))
		(line (pt 32 8)(pt 48 16)(line_width 1))
	)
	(flipx)
)
(symbol
	(rect 1048 200 1096 264)
	(text "OR2" (rect 38 1 48 19)(font "Arial" (font_size 6))(vertical))
	(text "inst18" (rect -1 3 11 32)(font "Arial" )(vertical))
	(port
		(pt 16 0)
		(input)
		(text "IN2" (rect 2 23 19 35)(font "Courier New" (bold))(invisible))
		(text "IN2" (rect 13 2 25 19)(font "Courier New" (bold))(vertical)(invisible))
		(line (pt 16 0)(pt 16 15)(line_width 1))
	)
	(port
		(pt 32 0)
		(input)
		(text "IN1" (rect 2 7 19 19)(font "Courier New" (bold))(invisible))
		(text "IN1" (rect 29 2 41 19)(font "Courier New" (bold))(vertical)(invisible))
		(line (pt 32 0)(pt 32 15)(line_width 1))
	)
	(port
		(pt 24 64)
		(output)
		(text "OUT" (rect 48 15 65 27)(font "Courier New" (bold))(invisible))
		(text "OUT" (rect 21 48 33 65)(font "Courier New" (bold))(vertical)(invisible))
		(line (pt 24 48)(pt 24 64)(line_width 1))
	)
	(drawing
		(line (pt 12 14)(pt 12 25)(line_width 1))
		(line (pt 35 14)(pt 35 25)(line_width 1))
		(arc (pt 19 7)(pt 29 7)(rect 7 -14 40 19)(line_width 1))
		(arc (pt 24 49)(pt 35 25)(rect -28 -6 35 57)(line_width 1))
		(arc (pt 13 25)(pt 24 49)(rect 12 -6 75 57)(line_width 1))
	)
	(rotate270)
)
(symbol
	(rect 712 96 840 192)
	(text "compare7" (rect 36 1 103 17)(font "Arial" (font_size 10)))
	(text "inst4" (rect 8 80 31 92)(font "Arial" ))
	(port
		(pt 0 48)
		(input)
		(text "dataa[6..0]" (rect 0 0 60 14)(font "Arial" (font_size 8)))
		(text "dataa[6..0]" (rect 20 42 80 56)(font "Arial" (font_size 8)))
		(line (pt 0 48)(pt 16 48)(line_width 3))
	)
	(port
		(pt 0 64)
		(input)
		(text "datab[6..0]" (rect 0 0 60 14)(font "Arial" (font_size 8)))
		(text "datab[6..0]" (rect 20 58 80 72)(font "Arial" (font_size 8)))
		(line (pt 0 64)(pt 16 64)(line_width 3))
	)
	(port
		(pt 128 56)
		(output)
		(text "aeb" (rect 0 0 21 14)(font "Arial" (font_size 8)))
		(text "aeb" (rect 91 50 112 64)(font "Arial" (font_size 8)))
		(line (pt 128 56)(pt 112 56)(line_width 1))
	)
	(drawing
		(text "compare" (rect 76 17 118 29)(font "Arial" ))
		(line (pt 16 16)(pt 112 16)(line_width 1))
		(line (pt 112 16)(pt 112 80)(line_width 1))
		(line (pt 112 80)(pt 16 80)(line_width 1))
		(line (pt 16 80)(pt 16 16)(line_width 1))
	)
)
(symbol
	(rect 72 624 256 752)
	(text "sr256x1" (rect 69 1 123 17)(font "Arial" (font_size 10)))
	(text "inst6" (rect 8 112 31 124)(font "Arial" ))
	(port
		(pt 0 40)
		(input)
		(text "shiftin" (rect 0 0 34 14)(font "Arial" (font_size 8)))
		(text "shiftin" (rect 20 34 54 48)(font "Arial" (font_size 8)))
		(line (pt 0 40)(pt 16 40)(line_width 1))
	)
	(port
		(pt 0 56)
		(input)
		(text "clock" (rect 0 0 29 14)(font "Arial" (font_size 8)))
		(text "clock" (rect 20 50 49 64)(font "Arial" (font_size 8)))
		(line (pt 0 56)(pt 16 56)(line_width 1))
	)
	(port
		(pt 0 72)
		(input)
		(text "clken" (rect 0 0 29 14)(font "Arial" (font_size 8)))
		(text "clken" (rect 20 66 49 80)(font "Arial" (font_size 8)))
		(line (pt 0 72)(pt 16 72)(line_width 1))
	)
	(port
		(pt 184 40)
		(output)
		(text "shiftout" (rect 0 0 42 14)(font "Arial" (font_size 8)))
		(text "shiftout" (rect 129 34 171 48)(font "Arial" (font_size 8)))
		(line (pt 184 40)(pt 168 40)(line_width 1))
	)
	(port
		(pt 184 56)
		(output)
		(text "taps" (rect 0 0 24 14)(font "Arial" (font_size 8)))
		(text "taps" (rect 144 50 168 64)(font "Arial" (font_size 8)))
		(line (pt 184 56)(pt 168 56)(line_width 3))
	)
	(drawing
		(text "altshift_taps" (rect 63 18 132 32)(font "Arial" (font_size 8)))
		(text "Number of taps 1" (rect 19 90 106 102)(font "Arial" ))
		(text "Tap distance 256" (rect 19 100 102 112)(font "Arial" ))
		(line (pt 16 16)(pt 168 16)(line_width 1))
		(line (pt 168 16)(pt 168 112)(line_width 1))
		(line (pt 168 112)(pt 16 112)(line_width 1))
		(line (pt 16 112)(pt 16 16)(line_width 1))
	)
)
(symbol
	(rect 384 632 568 760)
	(text "sr1x128" (rect 69 1 123 17)(font "Arial" (font_size 10)))
	(text "inst10" (rect 8 112 37 124)(font "Arial" ))
	(port
		(pt 0 40)
		(input)
		(text "shiftin" (rect 0 0 34 14)(font "Arial" (font_size 8)))
		(text "shiftin" (rect 20 34 54 48)(font "Arial" (font_size 8)))
		(line (pt 0 40)(pt 16 40)(line_width 1))
	)
	(port
		(pt 0 56)
		(input)
		(text "clock" (rect 0 0 29 14)(font "Arial" (font_size 8)))
		(text "clock" (rect 20 50 49 64)(font "Arial" (font_size 8)))
		(line (pt 0 56)(pt 16 56)(line_width 1))
	)
	(port
		(pt 0 72)
		(input)
		(text "clken" (rect 0 0 29 14)(font "Arial" (font_size 8)))
		(text "clken" (rect 20 66 49 80)(font "Arial" (font_size 8)))
		(line (pt 0 72)(pt 16 72)(line_width 1))
	)
	(port
		(pt 184 40)
		(output)
		(text "shiftout" (rect 0 0 42 14)(font "Arial" (font_size 8)))
		(text "shiftout" (rect 129 34 171 48)(font "Arial" (font_size 8)))
		(line (pt 184 40)(pt 168 40)(line_width 1))
	)
	(port
		(pt 184 56)
		(output)
		(text "taps" (rect 0 0 24 14)(font "Arial" (font_size 8)))
		(text "taps" (rect 144 50 168 64)(font "Arial" (font_size 8)))
		(line (pt 184 56)(pt 168 56)(line_width 3))
	)
	(drawing
		(text "altshift_taps" (rect 63 18 132 32)(font "Arial" (font_size 8)))
		(text "Number of taps 1" (rect 19 90 106 102)(font "Arial" ))
		(text "Tap distance 128" (rect 19 100 102 112)(font "Arial" ))
		(line (pt 16 16)(pt 168 16)(line_width 1))
		(line (pt 168 16)(pt 168 112)(line_width 1))
		(line (pt 168 112)(pt 16 112)(line_width 1))
		(line (pt 16 112)(pt 16 16)(line_width 1))
	)
)
(symbol
	(rect 704 632 888 760)
	(text "sr1x64" (rect 73 1 119 17)(font "Arial" (font_size 10)))
	(text "inst13" (rect 8 112 37 124)(font "Arial" ))
	(port
		(pt 0 40)
		(input)
		(text "shiftin" (rect 0 0 34 14)(font "Arial" (font_size 8)))
		(text "shiftin" (rect 20 34 54 48)(font "Arial" (font_size 8)))
		(line (pt 0 40)(pt 16 40)(line_width 1))
	)
	(port
		(pt 0 56)
		(input)
		(text "clock" (rect 0 0 29 14)(font "Arial" (font_size 8)))
		(text "clock" (rect 20 50 49 64)(font "Arial" (font_size 8)))
		(line (pt 0 56)(pt 16 56)(line_width 1))
	)
	(port
		(pt 0 72)
		(input)
		(text "clken" (rect 0 0 29 14)(font "Arial" (font_size 8)))
		(text "clken" (rect 20 66 49 80)(font "Arial" (font_size 8)))
		(line (pt 0 72)(pt 16 72)(line_width 1))
	)
	(port
		(pt 184 40)
		(output)
		(text "shiftout" (rect 0 0 42 14)(font "Arial" (font_size 8)))
		(text "shiftout" (rect 129 34 171 48)(font "Arial" (font_size 8)))
		(line (pt 184 40)(pt 168 40)(line_width 1))
	)
	(port
		(pt 184 56)
		(output)
		(text "taps" (rect 0 0 24 14)(font "Arial" (font_size 8)))
		(text "taps" (rect 144 50 168 64)(font "Arial" (font_size 8)))
		(line (pt 184 56)(pt 168 56)(line_width 3))
	)
	(drawing
		(text "altshift_taps" (rect 63 18 132 32)(font "Arial" (font_size 8)))
		(text "Number of taps 1" (rect 19 90 106 102)(font "Arial" ))
		(text "Tap distance 64" (rect 19 100 96 112)(font "Arial" ))
		(line (pt 16 16)(pt 168 16)(line_width 1))
		(line (pt 168 16)(pt 168 112)(line_width 1))
		(line (pt 168 112)(pt 16 112)(line_width 1))
		(line (pt 16 112)(pt 16 16)(line_width 1))
	)
)
(symbol
	(rect 1032 632 1216 760)
	(text "sr_compare" (rect 58 1 138 17)(font "Arial" (font_size 10)))
	(text "inst12" (rect 8 112 37 124)(font "Arial" ))
	(port
		(pt 0 40)
		(input)
		(text "shiftin" (rect 0 0 34 14)(font "Arial" (font_size 8)))
		(text "shiftin" (rect 20 34 54 48)(font "Arial" (font_size 8)))
		(line (pt 0 40)(pt 16 40)(line_width 1))
	)
	(port
		(pt 0 56)
		(input)
		(text "clock" (rect 0 0 29 14)(font "Arial" (font_size 8)))
		(text "clock" (rect 20 50 49 64)(font "Arial" (font_size 8)))
		(line (pt 0 56)(pt 16 56)(line_width 1))
	)
	(port
		(pt 0 72)
		(input)
		(text "clken" (rect 0 0 29 14)(font "Arial" (font_size 8)))
		(text "clken" (rect 20 66 49 80)(font "Arial" (font_size 8)))
		(line (pt 0 72)(pt 16 72)(line_width 1))
	)
	(port
		(pt 184 40)
		(output)
		(text "shiftout" (rect 0 0 42 14)(font "Arial" (font_size 8)))
		(text "shiftout" (rect 129 34 171 48)(font "Arial" (font_size 8)))
		(line (pt 184 40)(pt 168 40)(line_width 1))
	)
	(port
		(pt 184 56)
		(output)
		(text "taps[7..0]" (rect 0 0 53 14)(font "Arial" (font_size 8)))
		(text "taps[7..0]" (rect 120 50 173 64)(font "Arial" (font_size 8)))
		(line (pt 184 56)(pt 168 56)(line_width 3))
	)
	(drawing
		(text "altshift_taps" (rect 63 18 132 32)(font "Arial" (font_size 8)))
		(text "Number of taps 8" (rect 19 90 106 102)(font "Arial" ))
		(text "Tap distance 8" (rect 19 100 90 112)(font "Arial" ))
		(line (pt 16 16)(pt 168 16)(line_width 1))
		(line (pt 168 16)(pt 168 112)(line_width 1))
		(line (pt 168 112)(pt 16 112)(line_width 1))
		(line (pt 16 112)(pt 16 16)(line_width 1))
	)
)
(symbol
	(rect 768 368 832 416)
	(text "AND2" (rect 39 38 63 48)(font "Arial" (font_size 6)))
	(text "inst2" (rect 38 -1 61 11)(font "Arial" ))
	(port
		(pt 64 32)
		(input)
		(text "IN1" (rect 2 7 19 19)(font "Courier New" (bold))(invisible))
		(text "IN1" (rect 45 29 62 41)(font "Courier New" (bold))(invisible))
		(line (pt 64 32)(pt 50 32)(line_width 1))
	)
	(port
		(pt 64 16)
		(input)
		(text "IN2" (rect 2 23 19 35)(font "Courier New" (bold))(invisible))
		(text "IN2" (rect 45 13 62 25)(font "Courier New" (bold))(invisible))
		(line (pt 64 16)(pt 50 16)(line_width 1))
	)
	(port
		(pt 0 24)
		(output)
		(text "OUT" (rect 48 15 65 27)(font "Courier New" (bold))(invisible))
		(text "OUT" (rect -1 21 16 33)(font "Courier New" (bold))(invisible))
		(line (pt 22 24)(pt 0 24)(line_width 1))
	)
	(drawing
		(line (pt 50 36)(pt 34 36)(line_width 1))
		(line (pt 50 11)(pt 33 11)(line_width 1))
		(line (pt 50 36)(pt 50 11)(line_width 1))
		(arc (pt 33 11)(pt 34 36)(rect 21 11 46 36)(line_width 1))
	)
	(rotate180)
)
(symbol
	(rect -80 104 112 208)
	(text "pedestal_tracking_comp" (rect 5 0 143 14)(font "Arial" (font_size 8)))
	(text "inst1" (rect 8 88 31 100)(font "Arial" ))
	(port
		(pt 0 32)
		(input)
		(text "data_in[13..0]" (rect 0 0 76 14)(font "Arial" (font_size 8)))
		(text "data_in[13..0]" (rect 21 27 97 41)(font "Arial" (font_size 8)))
		(line (pt 0 32)(pt 16 32)(line_width 3))
	)
	(port
		(pt 0 64)
		(input)
		(text "clk_125mhz" (rect 0 0 67 14)(font "Arial" (font_size 8)))
		(text "clk_125mhz" (rect 21 59 88 73)(font "Arial" (font_size 8)))
		(line (pt 0 64)(pt 16 64)(line_width 1))
	)
	(port
		(pt 0 48)
		(input)
		(text "reset" (rect 0 0 29 14)(font "Arial" (font_size 8)))
		(text "reset" (rect 21 43 50 57)(font "Arial" (font_size 8)))
		(line (pt 0 48)(pt 16 48)(line_width 1))
	)
	(port
		(pt 192 48)
		(output)
		(text "data_out[13..0]" (rect -24 0 60 14)(font "Arial" (font_size 8)))
		(text "data_out[13..0]" (rect 87 43 171 57)(font "Arial" (font_size 8)))
		(line (pt 192 48)(pt 176 48)(line_width 3))
	)
	(drawing
		(rectangle (rect 16 16 176 88)(line_width 1))
	)
)
(symbol
	(rect 112 -232 320 -88)
	(text "corr" (rect 5 8 28 22)(font "Arial" (font_size 8)))
	(text "inst5" (rect 8 128 31 140)(font "Arial" ))
	(port
		(pt 0 72)
		(input)
		(text "clock" (rect 0 8 29 22)(font "Arial" (font_size 8)))
		(text "clock" (rect 21 67 50 81)(font "Arial" (font_size 8)))
		(line (pt 0 72)(pt 16 72)(line_width 1))
	)
	(port
		(pt 0 88)
		(input)
		(text "reset" (rect 0 8 29 22)(font "Arial" (font_size 8)))
		(text "reset" (rect 21 83 50 97)(font "Arial" (font_size 8)))
		(line (pt 0 88)(pt 16 88)(line_width 1))
	)
	(port
		(pt 0 40)
		(input)
		(text "data[13..0]" (rect 0 8 60 22)(font "Arial" (font_size 8)))
		(text "data[13..0]" (rect 21 35 81 49)(font "Arial" (font_size 8)))
		(line (pt 0 40)(pt 16 40)(line_width 3))
	)
	(port
		(pt 208 40)
		(output)
		(text "dataSum[19..0]" (rect 0 8 84 22)(font "Arial" (font_size 8)))
		(text "dataSum[19..0]" (rect 103 35 187 49)(font "Arial" (font_size 8)))
		(line (pt 208 40)(pt 192 40)(line_width 3))
	)
	(port
		(pt 208 56)
		(output)
		(text "DRSTRS[34..0]" (rect 0 8 83 22)(font "Arial" (font_size 8)))
		(text "DRSTRS[34..0]" (rect 104 51 187 65)(font "Arial" (font_size 8)))
		(line (pt 208 56)(pt 192 56)(line_width 3))
	)
	(port
		(pt 208 72)
		(output)
		(text "data2Sum[33..0]" (rect 0 8 92 22)(font "Arial" (font_size 8)))
		(text "data2Sum[33..0]" (rect 95 67 187 81)(font "Arial" (font_size 8)))
		(line (pt 208 72)(pt 192 72)(line_width 3))
	)
	(port
		(pt 208 104)
		(output)
		(text "corr" (rect 0 8 23 22)(font "Arial" (font_size 8)))
		(text "corr" (rect 164 99 187 113)(font "Arial" (font_size 8)))
		(line (pt 208 104)(pt 192 104)(line_width 1))
	)
	(drawing
		(rectangle (rect 16 24 192 128)(line_width 1))
	)
)
(symbol
	(rect 352 -144 416 -96)
	(text "OR2" (rect 1 0 19 10)(font "Arial" (font_size 6)))
	(text "inst16" (rect 3 37 32 49)(font "Arial" ))
	(port
		(pt 0 32)
		(input)
		(text "IN2" (rect 2 23 19 35)(font "Courier New" (bold))(invisible))
		(text "IN2" (rect 2 23 19 35)(font "Courier New" (bold))(invisible))
		(line (pt 0 32)(pt 15 32)(line_width 1))
	)
	(port
		(pt 0 16)
		(input)
		(text "IN1" (rect 2 7 19 19)(font "Courier New" (bold))(invisible))
		(text "IN1" (rect 2 7 19 19)(font "Courier New" (bold))(invisible))
		(line (pt 0 16)(pt 15 16)(line_width 1))
	)
	(port
		(pt 64 24)
		(output)
		(text "OUT" (rect 48 15 65 27)(font "Courier New" (bold))(invisible))
		(text "OUT" (rect 48 15 65 27)(font "Courier New" (bold))(invisible))
		(line (pt 48 24)(pt 64 24)(line_width 1))
	)
	(drawing
		(line (pt 14 36)(pt 25 36)(line_width 1))
		(line (pt 14 13)(pt 25 13)(line_width 1))
		(arc (pt 7 29)(pt 7 19)(rect -14 8 19 41)(line_width 1))
		(arc (pt 49 24)(pt 25 13)(rect -6 13 57 76)(line_width 1))
		(arc (pt 25 35)(pt 49 24)(rect -6 -27 57 36)(line_width 1))
	)
)
(connector
	(pt 392 160)
	(pt 408 160)
)
(connector
	(pt 392 160)
	(pt 392 232)
)
(connector
	(text "q[9..0]" (rect 562 136 593 148)(font "Arial" ))
	(pt 552 152)
	(pt 592 152)
	(bus)
)
(connector
	(pt 1064 96)
	(pt 888 96)
)
(connector
	(pt 408 192)
	(pt 288 192)
)
(connector
	(pt 304 96)
	(pt 320 96)
)
(connector
	(pt 408 128)
	(pt 384 128)
)
(connector
	(pt 384 128)
	(pt 384 88)
)
(connector
	(pt 856 88)
	(pt 384 88)
)
(connector
	(pt 688 160)
	(pt 712 160)
	(bus)
)
(connector
	(pt 872 80)
	(pt 872 152)
)
(connector
	(pt 888 168)
	(pt 904 168)
)
(connector
	(pt 888 184)
	(pt 904 184)
)
(connector
	(pt 888 96)
	(pt 888 168)
)
(connector
	(pt 888 232)
	(pt 888 184)
)
(connector
	(pt 856 136)
	(pt 904 136)
)
(connector
	(pt 856 88)
	(pt 856 136)
)
(connector
	(pt 840 152)
	(pt 872 152)
)
(connector
	(pt 872 152)
	(pt 904 152)
)
(connector
	(pt 1048 152)
	(pt 1064 152)
)
(connector
	(pt 592 152)
	(pt 592 144)
	(bus)
)
(connector
	(text "q[9..3]" (rect 642 128 673 140)(font "Arial" ))
	(pt 592 144)
	(pt 712 144)
	(bus)
)
(connector
	(pt 392 232)
	(pt 888 232)
)
(connector
	(text "n[6..0]" (rect 672 291 684 322)(font "Arial" )(vertical))
	(pt 688 160)
	(pt 688 328)
	(bus)
)
(connector
	(pt 1064 96)
	(pt 1064 152)
)
(connector
	(pt 1064 152)
	(pt 1064 200)
)
(connector
	(pt 872 80)
	(pt 1080 80)
)
(connector
	(pt 1080 80)
	(pt 1080 200)
)
(connector
	(pt 336 808)
	(pt 336 688)
)
(connector
	(pt 352 824)
	(pt 352 704)
)
(connector
	(pt 384 704)
	(pt 352 704)
)
(connector
	(pt 384 688)
	(pt 336 688)
)
(connector
	(pt 656 808)
	(pt 656 688)
)
(connector
	(pt 704 704)
	(pt 672 704)
)
(connector
	(pt 672 824)
	(pt 672 704)
)
(connector
	(pt 704 688)
	(pt 656 688)
)
(connector
	(pt 1000 824)
	(pt 1000 704)
)
(connector
	(pt 1032 704)
	(pt 1000 704)
)
(connector
	(pt 1032 688)
	(pt 984 688)
)
(connector
	(pt 984 688)
	(pt 984 808)
)
(connector
	(pt 72 664)
	(pt 56 664)
)
(connector
	(pt 72 680)
	(pt 0 680)
)
(connector
	(pt 72 696)
	(pt 16 696)
)
(connector
	(pt 672 824)
	(pt 1000 824)
)
(connector
	(pt 656 808)
	(pt 984 808)
)
(connector
	(pt -24 808)
	(pt 0 808)
)
(connector
	(pt 0 680)
	(pt 0 808)
)
(connector
	(pt 0 808)
	(pt 336 808)
)
(connector
	(pt 336 808)
	(pt 656 808)
)
(connector
	(pt -24 824)
	(pt 16 824)
)
(connector
	(pt 16 824)
	(pt 352 824)
)
(connector
	(pt 352 824)
	(pt 672 824)
)
(connector
	(text "t[7]" (rect 1290 704 1306 716)(font "Arial" ))
	(pt 1312 720)
	(pt 1280 720)
)
(connector
	(text "t[6]" (rect 1290 720 1306 732)(font "Arial" ))
	(pt 1312 736)
	(pt 1280 736)
)
(connector
	(text "t[5]" (rect 1290 736 1306 748)(font "Arial" ))
	(pt 1312 752)
	(pt 1280 752)
)
(connector
	(text "t[4]" (rect 1290 752 1306 764)(font "Arial" ))
	(pt 1312 768)
	(pt 1280 768)
)
(connector
	(text "t[3]" (rect 1290 768 1306 780)(font "Arial" ))
	(pt 1312 784)
	(pt 1280 784)
)
(connector
	(text "t[2]" (rect 1290 784 1306 796)(font "Arial" ))
	(pt 1312 800)
	(pt 1280 800)
)
(connector
	(text "t[1]" (rect 1290 800 1306 812)(font "Arial" ))
	(pt 1312 816)
	(pt 1280 816)
)
(connector
	(text "t[0]" (rect 1290 816 1306 828)(font "Arial" ))
	(pt 1312 832)
	(pt 1280 832)
)
(connector
	(text "n[2..0]" (rect 1336 627 1348 658)(font "Arial" )(vertical))
	(pt 1352 584)
	(pt 1352 696)
	(bus)
)
(connector
	(pt 1456 792)
	(pt 1440 792)
)
(connector
	(pt 1440 792)
	(pt 1440 600)
)
(connector
	(text "n[6]" (rect 1480 630 1492 648)(font "Arial" )(vertical))
	(pt 1496 584)
	(pt 1496 752)
)
(connector
	(pt 56 600)
	(pt 1440 600)
)
(connector
	(pt 1280 736)
	(pt 1280 752)
	(bus)
)
(connector
	(pt 1280 752)
	(pt 1280 768)
	(bus)
)
(connector
	(pt 1280 768)
	(pt 1280 784)
	(bus)
)
(connector
	(pt 1280 784)
	(pt 1280 800)
	(bus)
)
(connector
	(pt 1280 800)
	(pt 1280 816)
	(bus)
)
(connector
	(pt 1280 816)
	(pt 1280 832)
	(bus)
)
(connector
	(pt 1352 584)
	(pt 1496 584)
	(bus)
)
(connector
	(pt 1400 776)
	(pt 1456 776)
)
(connector
	(pt 1536 784)
	(pt 1576 784)
)
(connector
	(pt 576 512)
	(pt 592 512)
)
(connector
	(pt 264 504)
	(pt 280 504)
)
(connector
	(pt 384 672)
	(pt 368 672)
)
(connector
	(pt 568 672)
	(pt 576 672)
)
(connector
	(pt 576 672)
	(pt 576 512)
)
(connector
	(pt 368 672)
	(pt 368 496)
)
(connector
	(pt 704 672)
	(pt 688 672)
)
(connector
	(pt 888 672)
	(pt 904 672)
)
(connector
	(pt 904 672)
	(pt 904 520)
)
(connector
	(pt 904 520)
	(pt 920 520)
)
(connector
	(pt 1000 512)
	(pt 1016 512)
)
(connector
	(pt 1032 672)
	(pt 1016 672)
)
(connector
	(text "n[4]" (rect 616 542 628 560)(font "Arial" )(vertical))
	(pt 632 584)
	(pt 632 536)
)
(connector
	(text "n[3]" (rect 944 550 956 568)(font "Arial" )(vertical))
	(pt 960 584)
	(pt 960 544)
)
(connector
	(text "n[5]" (rect 304 542 316 560)(font "Arial" )(vertical))
	(pt 320 584)
	(pt 320 528)
)
(connector
	(pt 256 664)
	(pt 264 664)
)
(connector
	(pt 264 664)
	(pt 264 504)
)
(connector
	(text "n[6..0]" (rect 512 355 524 386)(font "Arial" )(vertical))
	(pt 528 328)
	(pt 528 584)
	(bus)
)
(connector
	(pt 264 392)
	(pt 264 488)
)
(connector
	(pt 688 672)
	(pt 688 504)
)
(connector
	(pt 1016 672)
	(pt 1016 512)
)
(connector
	(pt 632 584)
	(pt 960 584)
	(bus)
)
(connector
	(pt 960 584)
	(pt 1352 584)
	(bus)
)
(connector
	(text "n[9..0]" (rect 234 312 265 324)(font "Arial" ))
	(pt 224 328)
	(pt 528 328)
	(bus)
)
(connector
	(pt 528 328)
	(pt 688 328)
	(bus)
)
(connector
	(pt 320 584)
	(pt 528 584)
	(bus)
)
(connector
	(pt 528 584)
	(pt 632 584)
	(bus)
)
(connector
	(pt 56 488)
	(pt 264 488)
)
(connector
	(pt 264 488)
	(pt 280 488)
)
(connector
	(pt 360 496)
	(pt 368 496)
)
(connector
	(pt 368 496)
	(pt 592 496)
)
(connector
	(pt 672 504)
	(pt 688 504)
)
(connector
	(pt 688 504)
	(pt 920 504)
)
(connector
	(pt 56 488)
	(pt 56 600)
)
(connector
	(pt 56 600)
	(pt 56 664)
)
(connector
	(text "t[7..0]" (rect 1226 672 1255 684)(font "Arial" ))
	(pt 1280 688)
	(pt 1216 688)
	(bus)
)
(connector
	(pt 1280 688)
	(pt 1280 720)
	(bus)
)
(connector
	(pt 1280 720)
	(pt 1280 736)
	(bus)
)
(connector
	(pt 264 392)
	(pt 768 392)
)
(connector
	(pt 1072 264)
	(pt 1072 384)
)
(connector
	(pt 832 384)
	(pt 1072 384)
)
(connector
	(pt 832 400)
	(pt 912 400)
)
(connector
	(pt 488 224)
	(pt 488 264)
)
(connector
	(pt 984 216)
	(pt 984 264)
)
(connector
	(pt 304 96)
	(pt 304 280)
)
(connector
	(pt 304 280)
	(pt 16 280)
)
(connector
	(pt 16 280)
	(pt 16 696)
)
(connector
	(pt 16 696)
	(pt 16 824)
)
(connector
	(pt 0 232)
	(pt 0 680)
)
(connector
	(pt 272 80)
	(pt 288 80)
)
(connector
	(pt 112 152)
	(pt 128 152)
	(bus)
)
(connector
	(pt 128 152)
	(pt 128 88)
	(bus)
)
(connector
	(pt 128 88)
	(pt 144 88)
	(bus)
)
(connector
	(pt 488 264)
	(pt 984 264)
)
(connector
	(pt -80 152)
	(pt -120 152)
)
(connector
	(pt -152 264)
	(pt -120 264)
)
(connector
	(pt -120 264)
	(pt 488 264)
)
(connector
	(pt -96 232)
	(pt 0 232)
)
(connector
	(pt 0 232)
	(pt 392 232)
)
(connector
	(pt -96 168)
	(pt -80 168)
)
(connector
	(pt -160 72)
	(pt 144 72)
	(bus)
)
(connector
	(pt -136 136)
	(pt -136 -192)
	(bus)
)
(connector
	(pt -136 -192)
	(pt 112 -192)
	(bus)
)
(connector
	(pt -160 136)
	(pt -136 136)
	(bus)
)
(connector
	(pt -136 136)
	(pt -80 136)
	(bus)
)
(connector
	(pt 320 -128)
	(pt 352 -128)
)
(connector
	(pt 288 -72)
	(pt 336 -72)
)
(connector
	(pt 336 -72)
	(pt 336 -112)
)
(connector
	(pt 336 -112)
	(pt 352 -112)
)
(connector
	(pt 288 -72)
	(pt 288 80)
)
(connector
	(pt 288 80)
	(pt 288 192)
)
(connector
	(pt 440 -56)
	(pt 440 -120)
)
(connector
	(pt 440 -120)
	(pt 416 -120)
)
(connector
	(pt 304 80)
	(pt 304 -56)
)
(connector
	(pt 440 -56)
	(pt 304 -56)
)
(connector
	(pt 304 80)
	(pt 320 80)
)
(connector
	(pt -120 -144)
	(pt 112 -144)
)
(connector
	(pt -120 -144)
	(pt -120 152)
)
(connector
	(pt -120 152)
	(pt -120 264)
)
(connector
	(pt 112 -160)
	(pt -96 -160)
)
(connector
	(pt -96 -160)
	(pt -96 168)
)
(connector
	(pt -96 168)
	(pt -96 232)
)
(junction (pt 392 232))
(junction (pt 872 152))
(junction (pt 0 808))
(junction (pt 16 824))
(junction (pt 1064 152))
(junction (pt 528 328))
(junction (pt 352 824))
(junction (pt 672 824))
(junction (pt 336 808))
(junction (pt 656 808))
(junction (pt 960 584))
(junction (pt 632 584))
(junction (pt 528 584))
(junction (pt 56 600))
(junction (pt 0 680))
(junction (pt 16 696))
(junction (pt 1280 720))
(junction (pt 1280 736))
(junction (pt 1280 752))
(junction (pt 1280 768))
(junction (pt 1280 784))
(junction (pt 1280 800))
(junction (pt 1280 816))
(junction (pt 1352 584))
(junction (pt 368 496))
(junction (pt 688 504))
(junction (pt 264 488))
(junction (pt 488 264))
(junction (pt 288 80))
(junction (pt -120 264))
(junction (pt 0 232))
(junction (pt -136 136))
(junction (pt -120 152))
(junction (pt -96 168))
(text "Packet width is N_width*8  up to 512 for compression" (rect 48 344 353 358)(font "Arial" (font_size 8)))
(text "Compression should be disabled if N_width > 512" (rect 48 360 328 374)(font "Arial" (font_size 8)))
(text "Shift register programmable between 512 and 0 increments of 8 using N_width[6..0]" (rect 360 864 1039 882)(font "Arial" (font_size 12)))
