/*
WARNING: Do NOT edit the input and output ports in this file in a text
editor if you plan to continue editing the block that represents it in
the Block Editor! File corruption is VERY likely to occur.
*/
/*
Copyright (C) 1991-2012 Altera Corporation
Your use of Altera Corporation's design tools, logic functions 
and other software and tools, and its AMPP partner logic 
functions, and any output files from any of the foregoing 
(including device programming or simulation files), and any 
associated documentation or information are expressly subject 
to the terms and conditions of the Altera Program License 
Subscription Agreement, Altera MegaCore Function License 
Agreement, or other applicable license agreement, including, 
without limitation, that your use is for the sole purpose of 
programming logic devices manufactured by Altera and sold by 
Altera or its authorized distributors.  Please refer to the 
applicable agreement for further details.
*/
//#pragma file_not_in_maxplusii_format
(header "graphic" (version "1.4"))
(pin
	(input)
	(rect 1784 1000 1952 1016)
	(text "INPUT" (rect 133 0 175 15)(font "Arial" (font_size 6)))
	(text "ADC_IN[13..0]" (rect 5 0 110 16)(font "Arial" ))
	(pt 168 8)
	(drawing
		(line (pt 92 12)(pt 117 12))
		(line (pt 92 4)(pt 117 4))
		(line (pt 121 8)(pt 168 8))
		(line (pt 92 12)(pt 92 4))
		(line (pt 117 4)(pt 121 8))
		(line (pt 117 12)(pt 121 8))
	)
	(text "VCC" (rect 136 7 165 22)(font "Arial" (font_size 6)))
)
(pin
	(input)
	(rect 1080 544 1248 560)
	(text "INPUT" (rect 133 0 175 15)(font "Arial" (font_size 6)))
	(text "Trigger" (rect 5 0 59 16)(font "Arial" ))
	(pt 168 8)
	(drawing
		(line (pt 92 12)(pt 117 12))
		(line (pt 92 4)(pt 117 4))
		(line (pt 121 8)(pt 168 8))
		(line (pt 92 12)(pt 92 4))
		(line (pt 117 4)(pt 121 8))
		(line (pt 117 12)(pt 121 8))
	)
	(text "VCC" (rect 136 7 165 22)(font "Arial" (font_size 6)))
)
(pin
	(input)
	(rect 1784 1016 1952 1032)
	(text "INPUT" (rect 133 0 175 15)(font "Arial" (font_size 6)))
	(text "TH[13..0]" (rect 5 0 73 16)(font "Arial" ))
	(pt 168 8)
	(drawing
		(line (pt 92 12)(pt 117 12))
		(line (pt 92 4)(pt 117 4))
		(line (pt 121 8)(pt 168 8))
		(line (pt 92 12)(pt 92 4))
		(line (pt 117 4)(pt 121 8))
		(line (pt 117 12)(pt 121 8))
	)
	(text "VCC" (rect 136 7 165 22)(font "Arial" (font_size 6)))
)
(pin
	(input)
	(rect 1080 728 1248 744)
	(text "INPUT" (rect 133 0 175 15)(font "Arial" (font_size 6)))
	(text "reset" (rect 5 0 42 16)(font "Arial" ))
	(pt 168 8)
	(drawing
		(line (pt 92 12)(pt 117 12))
		(line (pt 92 4)(pt 117 4))
		(line (pt 121 8)(pt 168 8))
		(line (pt 92 12)(pt 92 4))
		(line (pt 117 4)(pt 121 8))
		(line (pt 117 12)(pt 121 8))
	)
	(text "VCC" (rect 136 7 165 22)(font "Arial" (font_size 6)))
)
(pin
	(input)
	(rect 3376 1064 3544 1080)
	(text "INPUT" (rect 7 0 49 15)(font "Arial" (font_size 6)))
	(text "TH_MODE[1..0]" (rect 86 0 202 16)(font "Arial" ))
	(pt 0 8)
	(drawing
		(line (pt 76 12)(pt 51 12))
		(line (pt 76 4)(pt 51 4))
		(line (pt 47 8)(pt 0 8))
		(line (pt 76 12)(pt 76 4))
		(line (pt 51 4)(pt 47 8))
		(line (pt 51 12)(pt 47 8))
	)
	(flipy)
	(text "VCC" (rect 12 7 41 22)(font "Arial" (font_size 6)))
)
(pin
	(input)
	(rect 1072 944 1240 960)
	(text "INPUT" (rect 133 0 175 15)(font "Arial" (font_size 6)))
	(text "clock" (rect 5 0 42 16)(font "Arial" ))
	(pt 168 8)
	(drawing
		(line (pt 92 12)(pt 117 12))
		(line (pt 92 4)(pt 117 4))
		(line (pt 121 8)(pt 168 8))
		(line (pt 92 12)(pt 92 4))
		(line (pt 117 4)(pt 121 8))
		(line (pt 117 12)(pt 121 8))
	)
	(text "VCC" (rect 136 7 165 22)(font "Arial" (font_size 6)))
)
(pin
	(input)
	(rect 1080 432 1248 448)
	(text "INPUT" (rect 133 0 175 15)(font "Arial" (font_size 6)))
	(text "enable" (rect 5 0 55 16)(font "Arial" ))
	(pt 168 8)
	(drawing
		(line (pt 92 12)(pt 117 12))
		(line (pt 92 4)(pt 117 4))
		(line (pt 121 8)(pt 168 8))
		(line (pt 92 12)(pt 92 4))
		(line (pt 117 4)(pt 121 8))
		(line (pt 117 12)(pt 121 8))
	)
	(text "VCC" (rect 136 7 165 22)(font "Arial" (font_size 6)))
)
(pin
	(input)
	(rect 2112 280 2280 296)
	(text "INPUT" (rect 133 0 175 15)(font "Arial" (font_size 6)))
	(text "ADC_no[7..0]" (rect 5 0 105 16)(font "Arial" ))
	(pt 168 8)
	(drawing
		(line (pt 92 12)(pt 117 12))
		(line (pt 92 4)(pt 117 4))
		(line (pt 121 8)(pt 168 8))
		(line (pt 92 12)(pt 92 4))
		(line (pt 117 4)(pt 121 8))
		(line (pt 117 12)(pt 121 8))
	)
	(text "VCC" (rect 136 7 165 22)(font "Arial" (font_size 6)))
)
(pin
	(input)
	(rect 2112 224 2280 240)
	(text "INPUT" (rect 133 0 175 15)(font "Arial" (font_size 6)))
	(text "Channel[3..0]" (rect 5 0 105 16)(font "Arial" ))
	(pt 168 8)
	(drawing
		(line (pt 92 12)(pt 117 12))
		(line (pt 92 4)(pt 117 4))
		(line (pt 121 8)(pt 168 8))
		(line (pt 92 12)(pt 92 4))
		(line (pt 117 4)(pt 121 8))
		(line (pt 117 12)(pt 121 8))
	)
	(text "VCC" (rect 136 7 165 22)(font "Arial" (font_size 6)))
)
(pin
	(output)
	(rect 3064 1616 3240 1632)
	(text "OUTPUT" (rect 1 0 58 15)(font "Arial" (font_size 6)))
	(text "test4" (rect 90 0 126 16)(font "Arial" ))
	(pt 0 8)
	(drawing
		(line (pt 0 8)(pt 52 8))
		(line (pt 52 4)(pt 78 4))
		(line (pt 52 12)(pt 78 12))
		(line (pt 52 12)(pt 52 4))
		(line (pt 78 4)(pt 82 8))
		(line (pt 82 8)(pt 78 12))
		(line (pt 78 12)(pt 82 8))
	)
)
(pin
	(output)
	(rect 2856 640 3032 656)
	(text "OUTPUT" (rect 1 0 58 15)(font "Arial" (font_size 6)))
	(text "test6" (rect 90 0 126 16)(font "Arial" ))
	(pt 0 8)
	(drawing
		(line (pt 0 8)(pt 52 8))
		(line (pt 52 4)(pt 78 4))
		(line (pt 52 12)(pt 78 12))
		(line (pt 52 12)(pt 52 4))
		(line (pt 78 4)(pt 82 8))
		(line (pt 82 8)(pt 78 12))
		(line (pt 78 12)(pt 82 8))
	)
)
(pin
	(output)
	(rect 3336 536 3514 552)
	(text "OUTPUT" (rect 1 0 58 15)(font "Arial" (font_size 6)))
	(text "ADC_OUT[13..0]" (rect 90 0 215 16)(font "Arial" ))
	(pt 0 8)
	(drawing
		(line (pt 0 8)(pt 52 8))
		(line (pt 52 4)(pt 78 4))
		(line (pt 52 12)(pt 78 12))
		(line (pt 52 12)(pt 52 4))
		(line (pt 78 4)(pt 82 8))
		(line (pt 82 8)(pt 78 12))
		(line (pt 78 12)(pt 82 8))
	)
)
(pin
	(output)
	(rect 3320 352 3496 368)
	(text "OUTPUT" (rect 1 0 58 15)(font "Arial" (font_size 6)))
	(text "TriggerOut" (rect 90 0 171 16)(font "Arial" ))
	(pt 0 8)
	(drawing
		(line (pt 0 8)(pt 52 8))
		(line (pt 52 4)(pt 78 4))
		(line (pt 52 12)(pt 78 12))
		(line (pt 52 12)(pt 52 4))
		(line (pt 78 4)(pt 82 8))
		(line (pt 82 8)(pt 78 12))
		(line (pt 78 12)(pt 82 8))
	)
)
(pin
	(output)
	(rect 3608 864 3784 880)
	(text "OUTPUT" (rect 1 0 58 15)(font "Arial" (font_size 6)))
	(text "test7" (rect 90 0 126 16)(font "Arial" ))
	(pt 0 8)
	(drawing
		(line (pt 0 8)(pt 52 8))
		(line (pt 52 4)(pt 78 4))
		(line (pt 52 12)(pt 78 12))
		(line (pt 52 12)(pt 52 4))
		(line (pt 78 4)(pt 82 8))
		(line (pt 82 8)(pt 78 12))
		(line (pt 78 12)(pt 82 8))
	)
)
(pin
	(output)
	(rect 3064 1568 3240 1584)
	(text "OUTPUT" (rect 1 0 58 15)(font "Arial" (font_size 6)))
	(text "test8" (rect 90 0 126 16)(font "Arial" ))
	(pt 0 8)
	(drawing
		(line (pt 0 8)(pt 52 8))
		(line (pt 52 4)(pt 78 4))
		(line (pt 52 12)(pt 78 12))
		(line (pt 52 12)(pt 52 4))
		(line (pt 78 4)(pt 82 8))
		(line (pt 82 8)(pt 78 12))
		(line (pt 78 12)(pt 82 8))
	)
)
(pin
	(output)
	(rect 3064 1720 3240 1736)
	(text "OUTPUT" (rect 1 0 58 15)(font "Arial" (font_size 6)))
	(text "test9" (rect 90 0 126 16)(font "Arial" ))
	(pt 0 8)
	(drawing
		(line (pt 0 8)(pt 52 8))
		(line (pt 52 4)(pt 78 4))
		(line (pt 52 12)(pt 78 12))
		(line (pt 52 12)(pt 52 4))
		(line (pt 78 4)(pt 82 8))
		(line (pt 82 8)(pt 78 12))
		(line (pt 78 12)(pt 82 8))
	)
)
(symbol
	(rect 2344 216 2392 248)
	(text "WIRE" (rect 1 0 37 15)(font "Arial" (font_size 6)))
	(text "inst8" (rect 3 21 38 37)(font "Arial" ))
	(port
		(pt 0 16)
		(input)
		(text "IN" (rect 2 7 20 23)(font "Courier New" (bold))(invisible))
		(text "IN" (rect 2 7 20 23)(font "Courier New" (bold))(invisible))
		(line (pt 0 16)(pt 14 16))
	)
	(port
		(pt 48 16)
		(output)
		(text "OUT" (rect 32 7 60 23)(font "Courier New" (bold))(invisible))
		(text "OUT" (rect 32 7 60 23)(font "Courier New" (bold))(invisible))
		(line (pt 32 16)(pt 48 16))
	)
	(drawing
		(line (pt 14 7)(pt 32 16))
		(line (pt 14 25)(pt 14 7))
		(line (pt 14 25)(pt 32 16))
	)
)
(symbol
	(rect 2344 272 2392 304)
	(text "WIRE" (rect 1 0 37 15)(font "Arial" (font_size 6)))
	(text "inst44" (rect 3 21 47 37)(font "Arial" ))
	(port
		(pt 0 16)
		(input)
		(text "IN" (rect 2 7 20 23)(font "Courier New" (bold))(invisible))
		(text "IN" (rect 2 7 20 23)(font "Courier New" (bold))(invisible))
		(line (pt 0 16)(pt 14 16))
	)
	(port
		(pt 48 16)
		(output)
		(text "OUT" (rect 32 7 60 23)(font "Courier New" (bold))(invisible))
		(text "OUT" (rect 32 7 60 23)(font "Courier New" (bold))(invisible))
		(line (pt 32 16)(pt 48 16))
	)
	(drawing
		(line (pt 14 7)(pt 32 16))
		(line (pt 14 25)(pt 14 7))
		(line (pt 14 25)(pt 32 16))
	)
)
(symbol
	(rect 2336 144 2384 176)
	(text "WIRE" (rect 1 0 37 15)(font "Arial" (font_size 6)))
	(text "inst46" (rect 3 21 47 37)(font "Arial" ))
	(port
		(pt 0 16)
		(input)
		(text "IN" (rect 2 7 20 23)(font "Courier New" (bold))(invisible))
		(text "IN" (rect 2 7 20 23)(font "Courier New" (bold))(invisible))
		(line (pt 0 16)(pt 14 16))
	)
	(port
		(pt 48 16)
		(output)
		(text "OUT" (rect 32 7 60 23)(font "Courier New" (bold))(invisible))
		(text "OUT" (rect 32 7 60 23)(font "Courier New" (bold))(invisible))
		(line (pt 32 16)(pt 48 16))
	)
	(drawing
		(line (pt 14 7)(pt 32 16))
		(line (pt 14 25)(pt 14 7))
		(line (pt 14 25)(pt 32 16))
	)
)
(symbol
	(rect 1368 520 1512 600)
	(text "PS_DFF_1" (rect 40 1 160 24)(font "Arial" (font_size 10)))
	(text "inst" (rect 8 64 33 80)(font "Arial" ))
	(port
		(pt 0 32)
		(input)
		(text "data" (rect 0 0 36 18)(font "Arial" (font_size 8)))
		(text "data" (rect 20 26 56 44)(font "Arial" (font_size 8)))
		(line (pt 0 32)(pt 16 32))
	)
	(port
		(pt 0 48)
		(input)
		(text "clock" (rect 0 0 42 18)(font "Arial" (font_size 8)))
		(text "clock" (rect 26 42 68 60)(font "Arial" (font_size 8)))
		(line (pt 0 48)(pt 16 48))
	)
	(port
		(pt 144 48)
		(output)
		(text "q" (rect 0 0 10 18)(font "Arial" (font_size 8)))
		(text "q" (rect 119 42 129 60)(font "Arial" (font_size 8)))
		(line (pt 144 48)(pt 128 48))
	)
	(drawing
		(text "DFF" (rect 109 17 142 33)(font "Arial" ))
		(line (pt 16 16)(pt 128 16))
		(line (pt 128 16)(pt 128 64))
		(line (pt 128 64)(pt 16 64))
		(line (pt 16 64)(pt 16 16))
		(line (pt 16 42)(pt 22 48))
		(line (pt 22 48)(pt 16 54))
	)
)
(symbol
	(rect 1560 552 1608 584)
	(text "NOT" (rect 1 0 30 15)(font "Arial" (font_size 6)))
	(text "inst2" (rect 3 21 38 37)(font "Arial" ))
	(port
		(pt 0 16)
		(input)
		(text "IN" (rect 2 7 20 23)(font "Courier New" (bold))(invisible))
		(text "IN" (rect 2 7 20 23)(font "Courier New" (bold))(invisible))
		(line (pt 0 16)(pt 13 16))
	)
	(port
		(pt 48 16)
		(output)
		(text "OUT" (rect 32 7 60 23)(font "Courier New" (bold))(invisible))
		(text "OUT" (rect 32 7 60 23)(font "Courier New" (bold))(invisible))
		(line (pt 39 16)(pt 48 16))
	)
	(drawing
		(line (pt 13 25)(pt 13 7))
		(line (pt 13 7)(pt 31 16))
		(line (pt 13 25)(pt 31 16))
		(circle (rect 31 12 39 20))
	)
)
(symbol
	(rect 1656 584 1720 632)
	(text "AND2" (rect 1 0 38 15)(font "Arial" (font_size 6)))
	(text "inst3" (rect 3 37 38 53)(font "Arial" ))
	(port
		(pt 0 16)
		(input)
		(text "IN1" (rect 2 7 30 23)(font "Courier New" (bold))(invisible))
		(text "IN1" (rect 2 7 30 23)(font "Courier New" (bold))(invisible))
		(line (pt 0 16)(pt 14 16))
	)
	(port
		(pt 0 32)
		(input)
		(text "IN2" (rect 2 23 30 39)(font "Courier New" (bold))(invisible))
		(text "IN2" (rect 2 23 30 39)(font "Courier New" (bold))(invisible))
		(line (pt 0 32)(pt 14 32))
	)
	(port
		(pt 64 24)
		(output)
		(text "OUT" (rect 48 15 76 31)(font "Courier New" (bold))(invisible))
		(text "OUT" (rect 48 15 76 31)(font "Courier New" (bold))(invisible))
		(line (pt 42 24)(pt 64 24))
	)
	(drawing
		(line (pt 14 12)(pt 30 12))
		(line (pt 14 37)(pt 31 37))
		(line (pt 14 12)(pt 14 37))
		(arc (pt 31 37)(pt 30 12)(rect 18 12 43 37))
	)
)
(symbol
	(rect 2104 960 2232 1056)
	(text "PS_Compare_14" (rect 15 1 196 24)(font "Arial" (font_size 10)))
	(text "inst12" (rect 8 80 52 96)(font "Arial" ))
	(port
		(pt 0 48)
		(input)
		(text "dataa[13..0]" (rect 0 0 97 18)(font "Arial" (font_size 8)))
		(text "dataa[13..0]" (rect 20 42 117 60)(font "Arial" (font_size 8)))
		(line (pt 0 48)(pt 16 48)(line_width 3))
	)
	(port
		(pt 0 64)
		(input)
		(text "datab[13..0]" (rect 0 0 97 18)(font "Arial" (font_size 8)))
		(text "datab[13..0]" (rect 20 58 117 76)(font "Arial" (font_size 8)))
		(line (pt 0 64)(pt 16 64)(line_width 3))
	)
	(port
		(pt 128 56)
		(output)
		(text "agb" (rect 0 0 31 18)(font "Arial" (font_size 8)))
		(text "agb" (rect 91 50 122 68)(font "Arial" (font_size 8)))
		(line (pt 128 56)(pt 112 56))
	)
	(drawing
		(text "unsigned compare" (rect 36 17 174 33)(font "Arial" ))
		(line (pt 16 16)(pt 112 16))
		(line (pt 112 16)(pt 112 80))
		(line (pt 112 80)(pt 16 80))
		(line (pt 16 80)(pt 16 16))
	)
)
(symbol
	(rect 2184 920 2232 952)
	(text "NOT" (rect 1 0 30 15)(font "Arial" (font_size 6)))
	(text "inst17" (rect 3 21 47 37)(font "Arial" ))
	(port
		(pt 0 16)
		(input)
		(text "IN" (rect 2 7 20 23)(font "Courier New" (bold))(invisible))
		(text "IN" (rect 2 7 20 23)(font "Courier New" (bold))(invisible))
		(line (pt 0 16)(pt 13 16))
	)
	(port
		(pt 48 16)
		(output)
		(text "OUT" (rect 32 7 60 23)(font "Courier New" (bold))(invisible))
		(text "OUT" (rect 32 7 60 23)(font "Courier New" (bold))(invisible))
		(line (pt 39 16)(pt 48 16))
	)
	(drawing
		(line (pt 13 25)(pt 13 7))
		(line (pt 13 7)(pt 31 16))
		(line (pt 13 25)(pt 31 16))
		(circle (rect 31 12 39 20))
	)
)
(symbol
	(rect 2728 984 2872 1080)
	(text "PS_FF_1" (rect 45 79 147 102)(font "Arial" (font_size 10)))
	(text "inst20" (rect 8 4 52 20)(font "Arial" ))
	(port
		(pt 0 64)
		(input)
		(text "data" (rect 0 0 36 18)(font "Arial" (font_size 8)))
		(text "data" (rect 20 56 56 74)(font "Arial" (font_size 8)))
		(line (pt 0 64)(pt 16 64))
	)
	(port
		(pt 0 48)
		(input)
		(text "clock" (rect 0 0 42 18)(font "Arial" (font_size 8)))
		(text "clock" (rect 26 40 68 58)(font "Arial" (font_size 8)))
		(line (pt 0 48)(pt 16 48))
	)
	(port
		(pt 0 32)
		(input)
		(text "enable" (rect 0 0 55 18)(font "Arial" (font_size 8)))
		(text "enable" (rect 20 24 75 42)(font "Arial" (font_size 8)))
		(line (pt 0 32)(pt 16 32))
	)
	(port
		(pt 80 0)
		(input)
		(text "aclr" (rect 0 0 18 29)(font "Arial" (font_size 8))(vertical))
		(text "aclr" (rect 73 16 91 45)(font "Arial" (font_size 8))(vertical))
		(line (pt 80 0)(pt 80 16))
	)
	(port
		(pt 144 56)
		(output)
		(text "q" (rect 0 0 10 18)(font "Arial" (font_size 8)))
		(text "q" (rect 119 48 129 66)(font "Arial" (font_size 8)))
		(line (pt 144 56)(pt 128 56))
	)
	(drawing
		(text "DFF" (rect 109 67 142 83)(font "Arial" ))
		(line (pt 16 80)(pt 128 80))
		(line (pt 128 80)(pt 128 16))
		(line (pt 128 16)(pt 16 16))
		(line (pt 16 16)(pt 16 80))
		(line (pt 16 54)(pt 22 48))
		(line (pt 22 48)(pt 16 42))
	)
	(flipx)
)
(symbol
	(rect 1880 576 2024 704)
	(text "PS_Counter_8" (rect 30 1 184 24)(font "Arial" (font_size 10)))
	(text "inst4" (rect 8 112 43 128)(font "Arial" ))
	(port
		(pt 0 32)
		(input)
		(text "sclr" (rect 0 0 28 18)(font "Arial" (font_size 8)))
		(text "sclr" (rect 20 26 48 44)(font "Arial" (font_size 8)))
		(line (pt 0 32)(pt 16 32))
	)
	(port
		(pt 0 64)
		(input)
		(text "clock" (rect 0 0 42 18)(font "Arial" (font_size 8)))
		(text "clock" (rect 26 58 68 76)(font "Arial" (font_size 8)))
		(line (pt 0 64)(pt 16 64))
	)
	(port
		(pt 0 96)
		(input)
		(text "cnt_en" (rect 0 0 54 18)(font "Arial" (font_size 8)))
		(text "cnt_en" (rect 20 90 74 108)(font "Arial" (font_size 8)))
		(line (pt 0 96)(pt 16 96))
	)
	(port
		(pt 112 128)
		(input)
		(text "aset" (rect 0 0 18 35)(font "Arial" (font_size 8))(vertical))
		(text "aset" (rect 105 89 123 124)(font "Arial" (font_size 8))(vertical))
		(line (pt 112 128)(pt 112 112))
	)
	(port
		(pt 144 56)
		(output)
		(text "q[7..0]" (rect 0 0 50 18)(font "Arial" (font_size 8)))
		(text "q[7..0]" (rect 95 50 145 68)(font "Arial" (font_size 8)))
		(line (pt 144 56)(pt 128 56)(line_width 3))
	)
	(drawing
		(text "up counter" (rect 84 17 164 33)(font "Arial" ))
		(line (pt 16 16)(pt 128 16))
		(line (pt 128 16)(pt 128 112))
		(line (pt 128 112)(pt 16 112))
		(line (pt 16 112)(pt 16 16))
		(line (pt 16 58)(pt 22 64))
		(line (pt 22 64)(pt 16 70))
	)
)
(symbol
	(rect 2600 440 2752 520)
	(text "PS_MUX_14" (rect 44 2 183 25)(font "Arial" (font_size 10)))
	(text "inst24" (rect 8 64 52 80)(font "Arial" ))
	(port
		(pt 0 40)
		(input)
		(text "data1x[13..0]" (rect 0 0 106 18)(font "Arial" (font_size 8)))
		(text "data1x[13..0]" (rect 4 27 110 45)(font "Arial" (font_size 8)))
		(line (pt 0 40)(pt 72 40)(line_width 3))
	)
	(port
		(pt 0 56)
		(input)
		(text "data0x[13..0]" (rect 0 0 106 18)(font "Arial" (font_size 8)))
		(text "data0x[13..0]" (rect 4 43 110 61)(font "Arial" (font_size 8)))
		(line (pt 0 56)(pt 72 56)(line_width 3))
	)
	(port
		(pt 80 80)
		(input)
		(text "sel" (rect 0 0 23 18)(font "Arial" (font_size 8)))
		(text "sel" (rect 84 67 107 85)(font "Arial" (font_size 8)))
		(line (pt 80 80)(pt 80 68))
	)
	(port
		(pt 152 48)
		(output)
		(text "result[13..0]" (rect 0 0 94 18)(font "Arial" (font_size 8)))
		(text "result[13..0]" (rect 92 35 186 53)(font "Arial" (font_size 8)))
		(line (pt 152 48)(pt 88 48)(line_width 3))
	)
	(drawing
		(line (pt 72 24)(pt 72 72))
		(line (pt 88 32)(pt 88 64))
		(line (pt 72 24)(pt 88 32))
		(line (pt 72 72)(pt 88 64))
	)
)
(symbol
	(rect 2328 376 2480 472)
	(text "PS_DFF_14x64" (rect 5 0 146 18)(font "Arial" (font_size 8)))
	(text "inst1" (rect 8 80 43 96)(font "Arial" ))
	(port
		(pt 0 32)
		(input)
		(text "in[13..0]" (rect 0 0 64 18)(font "Arial" (font_size 8)))
		(text "in[13..0]" (rect 21 27 85 45)(font "Arial" (font_size 8)))
		(line (pt 0 32)(pt 16 32)(line_width 3))
	)
	(port
		(pt 0 48)
		(input)
		(text "ck" (rect 0 0 18 18)(font "Arial" (font_size 8)))
		(text "ck" (rect 21 43 39 61)(font "Arial" (font_size 8)))
		(line (pt 0 48)(pt 16 48))
	)
	(port
		(pt 152 32)
		(output)
		(text "out[13..0]" (rect 0 0 75 18)(font "Arial" (font_size 8)))
		(text "out[13..0]" (rect 78 27 153 45)(font "Arial" (font_size 8)))
		(line (pt 152 32)(pt 136 32)(line_width 3))
	)
	(drawing
		(rectangle (rect 16 16 136 80))
	)
)
(symbol
	(rect 2344 904 2488 984)
	(text "PS_DFF_1" (rect 40 1 160 24)(font "Arial" (font_size 10)))
	(text "inst15" (rect 8 64 52 80)(font "Arial" ))
	(port
		(pt 0 32)
		(input)
		(text "data" (rect 0 0 36 18)(font "Arial" (font_size 8)))
		(text "data" (rect 20 26 56 44)(font "Arial" (font_size 8)))
		(line (pt 0 32)(pt 16 32))
	)
	(port
		(pt 0 48)
		(input)
		(text "clock" (rect 0 0 42 18)(font "Arial" (font_size 8)))
		(text "clock" (rect 26 42 68 60)(font "Arial" (font_size 8)))
		(line (pt 0 48)(pt 16 48))
	)
	(port
		(pt 144 48)
		(output)
		(text "q" (rect 0 0 10 18)(font "Arial" (font_size 8)))
		(text "q" (rect 119 42 129 60)(font "Arial" (font_size 8)))
		(line (pt 144 48)(pt 128 48))
	)
	(drawing
		(text "DFF" (rect 109 17 142 33)(font "Arial" ))
		(line (pt 16 16)(pt 128 16))
		(line (pt 128 16)(pt 128 64))
		(line (pt 128 64)(pt 16 64))
		(line (pt 16 64)(pt 16 16))
		(line (pt 16 42)(pt 22 48))
		(line (pt 22 48)(pt 16 54))
	)
)
(symbol
	(rect 3376 848 3440 896)
	(text "AND2" (rect 1 0 38 15)(font "Arial" (font_size 6)))
	(text "inst21" (rect 3 37 47 53)(font "Arial" ))
	(port
		(pt 0 16)
		(input)
		(text "IN1" (rect 2 7 30 23)(font "Courier New" (bold))(invisible))
		(text "IN1" (rect 2 7 30 23)(font "Courier New" (bold))(invisible))
		(line (pt 0 16)(pt 14 16))
	)
	(port
		(pt 0 32)
		(input)
		(text "IN2" (rect 2 23 30 39)(font "Courier New" (bold))(invisible))
		(text "IN2" (rect 2 23 30 39)(font "Courier New" (bold))(invisible))
		(line (pt 0 32)(pt 14 32))
	)
	(port
		(pt 64 24)
		(output)
		(text "OUT" (rect 48 15 76 31)(font "Courier New" (bold))(invisible))
		(text "OUT" (rect 48 15 76 31)(font "Courier New" (bold))(invisible))
		(line (pt 42 24)(pt 64 24))
	)
	(drawing
		(line (pt 14 12)(pt 30 12))
		(line (pt 14 37)(pt 31 37))
		(line (pt 14 12)(pt 14 37))
		(arc (pt 31 37)(pt 30 12)(rect 18 12 43 37))
	)
)
(symbol
	(rect 1824 312 1968 392)
	(text "PS_DFF_1" (rect 40 1 160 24)(font "Arial" (font_size 10)))
	(text "inst28" (rect 8 64 52 80)(font "Arial" ))
	(port
		(pt 0 32)
		(input)
		(text "data" (rect 0 0 36 18)(font "Arial" (font_size 8)))
		(text "data" (rect 20 26 56 44)(font "Arial" (font_size 8)))
		(line (pt 0 32)(pt 16 32))
	)
	(port
		(pt 0 48)
		(input)
		(text "clock" (rect 0 0 42 18)(font "Arial" (font_size 8)))
		(text "clock" (rect 26 42 68 60)(font "Arial" (font_size 8)))
		(line (pt 0 48)(pt 16 48))
	)
	(port
		(pt 144 48)
		(output)
		(text "q" (rect 0 0 10 18)(font "Arial" (font_size 8)))
		(text "q" (rect 119 42 129 60)(font "Arial" (font_size 8)))
		(line (pt 144 48)(pt 128 48))
	)
	(drawing
		(text "DFF" (rect 109 17 142 33)(font "Arial" ))
		(line (pt 16 16)(pt 128 16))
		(line (pt 128 16)(pt 128 64))
		(line (pt 128 64)(pt 16 64))
		(line (pt 16 64)(pt 16 16))
		(line (pt 16 42)(pt 22 48))
		(line (pt 22 48)(pt 16 54))
	)
)
(symbol
	(rect 2344 584 2472 696)
	(text "PS_Compare_8" (rect 19 1 187 24)(font "Arial" (font_size 10)))
	(text "inst5" (rect 8 96 43 112)(font "Arial" ))
	(port
		(pt 0 48)
		(input)
		(text "dataa[7..0]" (rect 0 0 87 18)(font "Arial" (font_size 8)))
		(text "dataa[7..0]" (rect 20 42 107 60)(font "Arial" (font_size 8)))
		(line (pt 0 48)(pt 16 48)(line_width 3))
	)
	(port
		(pt 0 64)
		(input)
		(text "datab[7..0]" (rect 0 0 87 18)(font "Arial" (font_size 8)))
		(text "datab[7..0]" (rect 20 58 107 76)(font "Arial" (font_size 8)))
		(line (pt 0 64)(pt 16 64)(line_width 3))
	)
	(port
		(pt 0 80)
		(input)
		(text "clock" (rect 0 0 42 18)(font "Arial" (font_size 8)))
		(text "clock" (rect 26 74 68 92)(font "Arial" (font_size 8)))
		(line (pt 0 80)(pt 16 80))
	)
	(port
		(pt 128 64)
		(output)
		(text "alb" (rect 0 0 24 18)(font "Arial" (font_size 8)))
		(text "alb" (rect 95 58 119 76)(font "Arial" (font_size 8)))
		(line (pt 128 64)(pt 112 64))
	)
	(drawing
		(text "unsigned compare" (rect 36 17 174 33)(font "Arial" ))
		(line (pt 16 16)(pt 112 16))
		(line (pt 112 16)(pt 112 96))
		(line (pt 112 96)(pt 16 96))
		(line (pt 16 96)(pt 16 16))
		(line (pt 16 74)(pt 22 80))
		(line (pt 22 80)(pt 16 86))
	)
)
(symbol
	(rect 2128 680 2232 728)
	(text "PS_Constant_64" (rect 3 1 181 24)(font "Arial" (font_size 10)))
	(text "inst6" (rect 8 32 43 48)(font "Arial" ))
	(port
		(pt 104 24)
		(output)
		(text "result[7..0]" (rect 0 0 83 18)(font "Arial" (font_size 8)))
		(text "result[7..0]" (rect 101 -25 184 -7)(font "Arial" (font_size 8))(invisible))
		(line (pt 104 24)(pt 88 24)(line_width 3))
	)
	(drawing
		(text "64" (rect 78 18 96 34)(font "Arial" ))
		(text "8" (rect 95 25 104 41)(font "Arial" ))
		(line (pt 16 16)(pt 88 16))
		(line (pt 88 16)(pt 88 32))
		(line (pt 88 32)(pt 16 32))
		(line (pt 16 32)(pt 16 16))
		(line (pt 90 28)(pt 98 20))
	)
)
(symbol
	(rect 3168 496 3312 576)
	(text "PS_DFF_14" (rect 37 1 170 24)(font "Arial" (font_size 10)))
	(text "inst7" (rect 8 64 43 80)(font "Arial" ))
	(port
		(pt 0 32)
		(input)
		(text "data[13..0]" (rect 0 0 87 18)(font "Arial" (font_size 8)))
		(text "data[13..0]" (rect 20 26 107 44)(font "Arial" (font_size 8)))
		(line (pt 0 32)(pt 16 32)(line_width 3))
	)
	(port
		(pt 0 48)
		(input)
		(text "clock" (rect 0 0 42 18)(font "Arial" (font_size 8)))
		(text "clock" (rect 26 42 68 60)(font "Arial" (font_size 8)))
		(line (pt 0 48)(pt 16 48))
	)
	(port
		(pt 144 48)
		(output)
		(text "q[13..0]" (rect 0 0 61 18)(font "Arial" (font_size 8)))
		(text "q[13..0]" (rect 89 42 150 60)(font "Arial" (font_size 8)))
		(line (pt 144 48)(pt 128 48)(line_width 3))
	)
	(drawing
		(text "DFF" (rect 109 17 142 33)(font "Arial" ))
		(line (pt 16 16)(pt 128 16))
		(line (pt 128 16)(pt 128 64))
		(line (pt 128 64)(pt 16 64))
		(line (pt 16 64)(pt 16 16))
		(line (pt 16 42)(pt 22 48))
		(line (pt 22 48)(pt 16 54))
	)
)
(symbol
	(rect 2784 776 2880 872)
	(text "PS_DFF_1x62" (rect 5 0 135 18)(font "Arial" (font_size 8)))
	(text "inst9" (rect 8 80 43 96)(font "Arial" ))
	(port
		(pt 0 32)
		(input)
		(text "in" (rect 0 0 14 18)(font "Arial" (font_size 8)))
		(text "in" (rect 21 27 35 45)(font "Arial" (font_size 8)))
		(line (pt 0 32)(pt 16 32))
	)
	(port
		(pt 0 48)
		(input)
		(text "ck" (rect 0 0 18 18)(font "Arial" (font_size 8)))
		(text "ck" (rect 21 43 39 61)(font "Arial" (font_size 8)))
		(line (pt 0 48)(pt 16 48))
	)
	(port
		(pt 96 32)
		(output)
		(text "out" (rect 0 0 24 18)(font "Arial" (font_size 8)))
		(text "out" (rect 58 27 82 45)(font "Arial" (font_size 8)))
		(line (pt 96 32)(pt 80 32))
	)
	(drawing
		(rectangle (rect 16 16 80 80))
	)
)
(symbol
	(rect 2728 1120 2872 1216)
	(text "PS_FF_1" (rect 45 79 147 102)(font "Arial" (font_size 10)))
	(text "inst13" (rect 8 4 52 20)(font "Arial" ))
	(port
		(pt 0 64)
		(input)
		(text "data" (rect 0 0 36 18)(font "Arial" (font_size 8)))
		(text "data" (rect 20 56 56 74)(font "Arial" (font_size 8)))
		(line (pt 0 64)(pt 16 64))
	)
	(port
		(pt 0 48)
		(input)
		(text "clock" (rect 0 0 42 18)(font "Arial" (font_size 8)))
		(text "clock" (rect 26 40 68 58)(font "Arial" (font_size 8)))
		(line (pt 0 48)(pt 16 48))
	)
	(port
		(pt 0 32)
		(input)
		(text "enable" (rect 0 0 55 18)(font "Arial" (font_size 8)))
		(text "enable" (rect 20 24 75 42)(font "Arial" (font_size 8)))
		(line (pt 0 32)(pt 16 32))
	)
	(port
		(pt 80 0)
		(input)
		(text "aclr" (rect 0 0 18 29)(font "Arial" (font_size 8))(vertical))
		(text "aclr" (rect 73 16 91 45)(font "Arial" (font_size 8))(vertical))
		(line (pt 80 0)(pt 80 16))
	)
	(port
		(pt 144 56)
		(output)
		(text "q" (rect 0 0 10 18)(font "Arial" (font_size 8)))
		(text "q" (rect 119 48 129 66)(font "Arial" (font_size 8)))
		(line (pt 144 56)(pt 128 56))
	)
	(drawing
		(text "DFF" (rect 109 67 142 83)(font "Arial" ))
		(line (pt 16 80)(pt 128 80))
		(line (pt 128 80)(pt 128 16))
		(line (pt 128 16)(pt 16 16))
		(line (pt 16 16)(pt 16 80))
		(line (pt 16 54)(pt 22 48))
		(line (pt 22 48)(pt 16 42))
	)
	(flipx)
)
(symbol
	(rect 2728 1296 2872 1392)
	(text "PS_FF_1" (rect 45 79 147 102)(font "Arial" (font_size 10)))
	(text "inst16" (rect 8 4 52 20)(font "Arial" ))
	(port
		(pt 0 64)
		(input)
		(text "data" (rect 0 0 36 18)(font "Arial" (font_size 8)))
		(text "data" (rect 20 56 56 74)(font "Arial" (font_size 8)))
		(line (pt 0 64)(pt 16 64))
	)
	(port
		(pt 0 48)
		(input)
		(text "clock" (rect 0 0 42 18)(font "Arial" (font_size 8)))
		(text "clock" (rect 26 40 68 58)(font "Arial" (font_size 8)))
		(line (pt 0 48)(pt 16 48))
	)
	(port
		(pt 0 32)
		(input)
		(text "enable" (rect 0 0 55 18)(font "Arial" (font_size 8)))
		(text "enable" (rect 20 24 75 42)(font "Arial" (font_size 8)))
		(line (pt 0 32)(pt 16 32))
	)
	(port
		(pt 80 0)
		(input)
		(text "aclr" (rect 0 0 18 29)(font "Arial" (font_size 8))(vertical))
		(text "aclr" (rect 73 16 91 45)(font "Arial" (font_size 8))(vertical))
		(line (pt 80 0)(pt 80 16))
	)
	(port
		(pt 144 56)
		(output)
		(text "q" (rect 0 0 10 18)(font "Arial" (font_size 8)))
		(text "q" (rect 119 48 129 66)(font "Arial" (font_size 8)))
		(line (pt 144 56)(pt 128 56))
	)
	(drawing
		(text "DFF" (rect 109 67 142 83)(font "Arial" ))
		(line (pt 16 80)(pt 128 80))
		(line (pt 128 80)(pt 128 16))
		(line (pt 128 16)(pt 16 16))
		(line (pt 16 16)(pt 16 80))
		(line (pt 16 54)(pt 22 48))
		(line (pt 22 48)(pt 16 42))
	)
	(flipx)
)
(symbol
	(rect 2320 1152 2464 1232)
	(text "PS_DFF_1" (rect 40 1 160 24)(font "Arial" (font_size 10)))
	(text "inst18" (rect 8 64 52 80)(font "Arial" ))
	(port
		(pt 0 32)
		(input)
		(text "data" (rect 0 0 36 18)(font "Arial" (font_size 8)))
		(text "data" (rect 20 26 56 44)(font "Arial" (font_size 8)))
		(line (pt 0 32)(pt 16 32))
	)
	(port
		(pt 0 48)
		(input)
		(text "clock" (rect 0 0 42 18)(font "Arial" (font_size 8)))
		(text "clock" (rect 26 42 68 60)(font "Arial" (font_size 8)))
		(line (pt 0 48)(pt 16 48))
	)
	(port
		(pt 144 48)
		(output)
		(text "q" (rect 0 0 10 18)(font "Arial" (font_size 8)))
		(text "q" (rect 119 42 129 60)(font "Arial" (font_size 8)))
		(line (pt 144 48)(pt 128 48))
	)
	(drawing
		(text "DFF" (rect 109 17 142 33)(font "Arial" ))
		(line (pt 16 16)(pt 128 16))
		(line (pt 128 16)(pt 128 64))
		(line (pt 128 64)(pt 16 64))
		(line (pt 16 64)(pt 16 16))
		(line (pt 16 42)(pt 22 48))
		(line (pt 22 48)(pt 16 54))
	)
)
(symbol
	(rect 2544 1128 2608 1176)
	(text "AND2" (rect 1 0 38 15)(font "Arial" (font_size 6)))
	(text "inst23" (rect 3 37 47 53)(font "Arial" ))
	(port
		(pt 0 16)
		(input)
		(text "IN1" (rect 2 7 30 23)(font "Courier New" (bold))(invisible))
		(text "IN1" (rect 2 7 30 23)(font "Courier New" (bold))(invisible))
		(line (pt 0 16)(pt 14 16))
	)
	(port
		(pt 0 32)
		(input)
		(text "IN2" (rect 2 23 30 39)(font "Courier New" (bold))(invisible))
		(text "IN2" (rect 2 23 30 39)(font "Courier New" (bold))(invisible))
		(line (pt 0 32)(pt 14 32))
	)
	(port
		(pt 64 24)
		(output)
		(text "OUT" (rect 48 15 76 31)(font "Courier New" (bold))(invisible))
		(text "OUT" (rect 48 15 76 31)(font "Courier New" (bold))(invisible))
		(line (pt 42 24)(pt 64 24))
	)
	(drawing
		(line (pt 14 12)(pt 30 12))
		(line (pt 14 37)(pt 31 37))
		(line (pt 14 12)(pt 14 37))
		(arc (pt 31 37)(pt 30 12)(rect 18 12 43 37))
	)
)
(symbol
	(rect 2408 1336 2552 1432)
	(text "PS_FF_1" (rect 45 79 147 102)(font "Arial" (font_size 10)))
	(text "inst27" (rect 8 4 52 20)(font "Arial" ))
	(port
		(pt 0 64)
		(input)
		(text "data" (rect 0 0 36 18)(font "Arial" (font_size 8)))
		(text "data" (rect 20 56 56 74)(font "Arial" (font_size 8)))
		(line (pt 0 64)(pt 16 64))
	)
	(port
		(pt 0 48)
		(input)
		(text "clock" (rect 0 0 42 18)(font "Arial" (font_size 8)))
		(text "clock" (rect 26 40 68 58)(font "Arial" (font_size 8)))
		(line (pt 0 48)(pt 16 48))
	)
	(port
		(pt 0 32)
		(input)
		(text "enable" (rect 0 0 55 18)(font "Arial" (font_size 8)))
		(text "enable" (rect 20 24 75 42)(font "Arial" (font_size 8)))
		(line (pt 0 32)(pt 16 32))
	)
	(port
		(pt 80 0)
		(input)
		(text "aclr" (rect 0 0 18 29)(font "Arial" (font_size 8))(vertical))
		(text "aclr" (rect 73 16 91 45)(font "Arial" (font_size 8))(vertical))
		(line (pt 80 0)(pt 80 16))
	)
	(port
		(pt 144 56)
		(output)
		(text "q" (rect 0 0 10 18)(font "Arial" (font_size 8)))
		(text "q" (rect 119 48 129 66)(font "Arial" (font_size 8)))
		(line (pt 144 56)(pt 128 56))
	)
	(drawing
		(text "DFF" (rect 109 67 142 83)(font "Arial" ))
		(line (pt 16 80)(pt 128 80))
		(line (pt 128 80)(pt 128 16))
		(line (pt 128 16)(pt 16 16))
		(line (pt 16 16)(pt 16 80))
		(line (pt 16 54)(pt 22 48))
		(line (pt 22 48)(pt 16 42))
	)
	(flipx)
)
(symbol
	(rect 2960 904 3048 1016)
	(text "PS_MUX_4" (rect 7 2 133 25)(font "Arial" (font_size 10)))
	(text "inst31" (rect 8 96 52 112)(font "Arial" ))
	(port
		(pt 0 40)
		(input)
		(text "data3" (rect 0 0 47 18)(font "Arial" (font_size 8)))
		(text "data3" (rect 4 27 51 45)(font "Arial" (font_size 8)))
		(line (pt 0 40)(pt 32 40))
	)
	(port
		(pt 0 56)
		(input)
		(text "data2" (rect 0 0 47 18)(font "Arial" (font_size 8)))
		(text "data2" (rect 4 43 51 61)(font "Arial" (font_size 8)))
		(line (pt 0 56)(pt 32 56))
	)
	(port
		(pt 0 72)
		(input)
		(text "data1" (rect 0 0 47 18)(font "Arial" (font_size 8)))
		(text "data1" (rect 4 59 51 77)(font "Arial" (font_size 8)))
		(line (pt 0 72)(pt 32 72))
	)
	(port
		(pt 0 88)
		(input)
		(text "data0" (rect 0 0 47 18)(font "Arial" (font_size 8)))
		(text "data0" (rect 4 75 51 93)(font "Arial" (font_size 8)))
		(line (pt 0 88)(pt 32 88))
	)
	(port
		(pt 40 112)
		(input)
		(text "sel[1..0]" (rect 0 0 63 18)(font "Arial" (font_size 8)))
		(text "sel[1..0]" (rect 44 99 107 117)(font "Arial" (font_size 8)))
		(line (pt 40 112)(pt 40 100)(line_width 3))
	)
	(port
		(pt 88 64)
		(output)
		(text "result" (rect 0 0 43 18)(font "Arial" (font_size 8)))
		(text "result" (rect 58 51 101 69)(font "Arial" (font_size 8)))
		(line (pt 88 64)(pt 48 64))
	)
	(drawing
		(line (pt 32 24)(pt 32 104))
		(line (pt 48 32)(pt 48 96))
		(line (pt 32 24)(pt 48 32))
		(line (pt 32 104)(pt 48 96))
	)
)
(symbol
	(rect 2576 1304 2640 1352)
	(text "AND2" (rect 1 0 38 15)(font "Arial" (font_size 6)))
	(text "inst33" (rect 3 37 47 53)(font "Arial" ))
	(port
		(pt 0 16)
		(input)
		(text "IN1" (rect 2 7 30 23)(font "Courier New" (bold))(invisible))
		(text "IN1" (rect 2 7 30 23)(font "Courier New" (bold))(invisible))
		(line (pt 0 16)(pt 14 16))
	)
	(port
		(pt 0 32)
		(input)
		(text "IN2" (rect 2 23 30 39)(font "Courier New" (bold))(invisible))
		(text "IN2" (rect 2 23 30 39)(font "Courier New" (bold))(invisible))
		(line (pt 0 32)(pt 14 32))
	)
	(port
		(pt 64 24)
		(output)
		(text "OUT" (rect 48 15 76 31)(font "Courier New" (bold))(invisible))
		(text "OUT" (rect 48 15 76 31)(font "Courier New" (bold))(invisible))
		(line (pt 42 24)(pt 64 24))
	)
	(drawing
		(line (pt 14 12)(pt 30 12))
		(line (pt 14 37)(pt 31 37))
		(line (pt 14 12)(pt 14 37))
		(arc (pt 31 37)(pt 30 12)(rect 18 12 43 37))
	)
)
(symbol
	(rect 3192 936 3336 1032)
	(text "PS_FF_1" (rect 45 79 147 102)(font "Arial" (font_size 10)))
	(text "inst30" (rect 8 4 52 20)(font "Arial" ))
	(port
		(pt 0 64)
		(input)
		(text "data" (rect 0 0 36 18)(font "Arial" (font_size 8)))
		(text "data" (rect 20 56 56 74)(font "Arial" (font_size 8)))
		(line (pt 0 64)(pt 16 64))
	)
	(port
		(pt 0 48)
		(input)
		(text "clock" (rect 0 0 42 18)(font "Arial" (font_size 8)))
		(text "clock" (rect 26 40 68 58)(font "Arial" (font_size 8)))
		(line (pt 0 48)(pt 16 48))
	)
	(port
		(pt 0 32)
		(input)
		(text "enable" (rect 0 0 55 18)(font "Arial" (font_size 8)))
		(text "enable" (rect 20 24 75 42)(font "Arial" (font_size 8)))
		(line (pt 0 32)(pt 16 32))
	)
	(port
		(pt 80 0)
		(input)
		(text "aclr" (rect 0 0 18 29)(font "Arial" (font_size 8))(vertical))
		(text "aclr" (rect 73 16 91 45)(font "Arial" (font_size 8))(vertical))
		(line (pt 80 0)(pt 80 16))
	)
	(port
		(pt 144 56)
		(output)
		(text "q" (rect 0 0 10 18)(font "Arial" (font_size 8)))
		(text "q" (rect 119 48 129 66)(font "Arial" (font_size 8)))
		(line (pt 144 56)(pt 128 56))
	)
	(drawing
		(text "DFF" (rect 109 67 142 83)(font "Arial" ))
		(line (pt 16 80)(pt 128 80))
		(line (pt 128 80)(pt 128 16))
		(line (pt 128 16)(pt 16 16))
		(line (pt 16 16)(pt 16 80))
		(line (pt 16 54)(pt 22 48))
		(line (pt 22 48)(pt 16 42))
	)
	(flipx)
)
(symbol
	(rect 2840 480 2992 560)
	(text "PS_MUX_14" (rect 44 2 183 25)(font "Arial" (font_size 10)))
	(text "inst26" (rect 8 64 52 80)(font "Arial" ))
	(port
		(pt 0 40)
		(input)
		(text "data1x[13..0]" (rect 0 0 106 18)(font "Arial" (font_size 8)))
		(text "data1x[13..0]" (rect 4 27 110 45)(font "Arial" (font_size 8)))
		(line (pt 0 40)(pt 72 40)(line_width 3))
	)
	(port
		(pt 0 56)
		(input)
		(text "data0x[13..0]" (rect 0 0 106 18)(font "Arial" (font_size 8)))
		(text "data0x[13..0]" (rect 4 43 110 61)(font "Arial" (font_size 8)))
		(line (pt 0 56)(pt 72 56)(line_width 3))
	)
	(port
		(pt 80 80)
		(input)
		(text "sel" (rect 0 0 23 18)(font "Arial" (font_size 8)))
		(text "sel" (rect 84 67 107 85)(font "Arial" (font_size 8)))
		(line (pt 80 80)(pt 80 68))
	)
	(port
		(pt 152 48)
		(output)
		(text "result[13..0]" (rect 0 0 94 18)(font "Arial" (font_size 8)))
		(text "result[13..0]" (rect 92 35 186 53)(font "Arial" (font_size 8)))
		(line (pt 152 48)(pt 88 48)(line_width 3))
	)
	(drawing
		(line (pt 72 24)(pt 72 72))
		(line (pt 88 32)(pt 88 64))
		(line (pt 72 24)(pt 88 32))
		(line (pt 72 72)(pt 88 64))
	)
)
(symbol
	(rect 1384 304 1480 400)
	(text "PS_DFF_1x65" (rect 5 0 135 18)(font "Arial" (font_size 8)))
	(text "inst32" (rect 8 80 52 96)(font "Arial" ))
	(port
		(pt 0 32)
		(input)
		(text "in" (rect 0 0 14 18)(font "Arial" (font_size 8)))
		(text "in" (rect 21 27 35 45)(font "Arial" (font_size 8)))
		(line (pt 0 32)(pt 16 32))
	)
	(port
		(pt 0 48)
		(input)
		(text "ck" (rect 0 0 18 18)(font "Arial" (font_size 8)))
		(text "ck" (rect 21 43 39 61)(font "Arial" (font_size 8)))
		(line (pt 0 48)(pt 16 48))
	)
	(port
		(pt 96 32)
		(output)
		(text "out" (rect 0 0 24 18)(font "Arial" (font_size 8)))
		(text "out" (rect 58 27 82 45)(font "Arial" (font_size 8)))
		(line (pt 96 32)(pt 80 32))
	)
	(drawing
		(rectangle (rect 16 16 80 80))
	)
)
(symbol
	(rect 1640 296 1720 376)
	(text "PS_MUX_1" (rect 7 2 133 25)(font "Arial" (font_size 10)))
	(text "inst34" (rect 8 64 52 80)(font "Arial" ))
	(port
		(pt 0 40)
		(input)
		(text "data1" (rect 0 0 47 18)(font "Arial" (font_size 8)))
		(text "data1" (rect 4 27 51 45)(font "Arial" (font_size 8)))
		(line (pt 0 40)(pt 32 40))
	)
	(port
		(pt 0 56)
		(input)
		(text "data0" (rect 0 0 47 18)(font "Arial" (font_size 8)))
		(text "data0" (rect 4 43 51 61)(font "Arial" (font_size 8)))
		(line (pt 0 56)(pt 32 56))
	)
	(port
		(pt 40 80)
		(input)
		(text "sel" (rect 0 0 23 18)(font "Arial" (font_size 8)))
		(text "sel" (rect 44 67 67 85)(font "Arial" (font_size 8)))
		(line (pt 40 80)(pt 40 68))
	)
	(port
		(pt 80 48)
		(output)
		(text "result" (rect 0 0 43 18)(font "Arial" (font_size 8)))
		(text "result" (rect 50 35 93 53)(font "Arial" (font_size 8)))
		(line (pt 80 48)(pt 48 48))
	)
	(drawing
		(line (pt 32 24)(pt 32 72))
		(line (pt 48 32)(pt 48 64))
		(line (pt 32 24)(pt 48 32))
		(line (pt 32 72)(pt 48 64))
	)
)
(symbol
	(rect 3456 832 3504 864)
	(text "NOT" (rect 1 0 30 15)(font "Arial" (font_size 6)))
	(text "inst10" (rect 3 21 47 37)(font "Arial" ))
	(port
		(pt 0 16)
		(input)
		(text "IN" (rect 2 7 20 23)(font "Courier New" (bold))(invisible))
		(text "IN" (rect 2 7 20 23)(font "Courier New" (bold))(invisible))
		(line (pt 0 16)(pt 13 16))
	)
	(port
		(pt 48 16)
		(output)
		(text "OUT" (rect 32 7 60 23)(font "Courier New" (bold))(invisible))
		(text "OUT" (rect 32 7 60 23)(font "Courier New" (bold))(invisible))
		(line (pt 39 16)(pt 48 16))
	)
	(drawing
		(line (pt 13 25)(pt 13 7))
		(line (pt 13 7)(pt 31 16))
		(line (pt 13 25)(pt 31 16))
		(circle (rect 31 12 39 20))
	)
)
(symbol
	(rect 3520 792 3584 840)
	(text "AND2" (rect 1 0 38 15)(font "Arial" (font_size 6)))
	(text "inst11" (rect 3 37 47 53)(font "Arial" ))
	(port
		(pt 0 16)
		(input)
		(text "IN1" (rect 2 7 30 23)(font "Courier New" (bold))(invisible))
		(text "IN1" (rect 2 7 30 23)(font "Courier New" (bold))(invisible))
		(line (pt 0 16)(pt 14 16))
	)
	(port
		(pt 0 32)
		(input)
		(text "IN2" (rect 2 23 30 39)(font "Courier New" (bold))(invisible))
		(text "IN2" (rect 2 23 30 39)(font "Courier New" (bold))(invisible))
		(line (pt 0 32)(pt 14 32))
	)
	(port
		(pt 64 24)
		(output)
		(text "OUT" (rect 48 15 76 31)(font "Courier New" (bold))(invisible))
		(text "OUT" (rect 48 15 76 31)(font "Courier New" (bold))(invisible))
		(line (pt 42 24)(pt 64 24))
	)
	(drawing
		(line (pt 14 12)(pt 30 12))
		(line (pt 14 37)(pt 31 37))
		(line (pt 14 12)(pt 14 37))
		(arc (pt 31 37)(pt 30 12)(rect 18 12 43 37))
	)
)
(symbol
	(rect 3608 800 3656 832)
	(text "NOT" (rect 1 0 30 15)(font "Arial" (font_size 6)))
	(text "inst35" (rect 3 21 47 37)(font "Arial" ))
	(port
		(pt 0 16)
		(input)
		(text "IN" (rect 2 7 20 23)(font "Courier New" (bold))(invisible))
		(text "IN" (rect 2 7 20 23)(font "Courier New" (bold))(invisible))
		(line (pt 0 16)(pt 13 16))
	)
	(port
		(pt 48 16)
		(output)
		(text "OUT" (rect 32 7 60 23)(font "Courier New" (bold))(invisible))
		(text "OUT" (rect 32 7 60 23)(font "Courier New" (bold))(invisible))
		(line (pt 39 16)(pt 48 16))
	)
	(drawing
		(line (pt 13 25)(pt 13 7))
		(line (pt 13 7)(pt 31 16))
		(line (pt 13 25)(pt 31 16))
		(circle (rect 31 12 39 20))
	)
)
(symbol
	(rect 2168 1496 2296 1592)
	(text "PS_Compare_14" (rect 15 1 196 24)(font "Arial" (font_size 10)))
	(text "inst36" (rect 8 80 52 96)(font "Arial" ))
	(port
		(pt 0 48)
		(input)
		(text "dataa[13..0]" (rect 0 0 97 18)(font "Arial" (font_size 8)))
		(text "dataa[13..0]" (rect 20 42 117 60)(font "Arial" (font_size 8)))
		(line (pt 0 48)(pt 16 48)(line_width 3))
	)
	(port
		(pt 0 64)
		(input)
		(text "datab[13..0]" (rect 0 0 97 18)(font "Arial" (font_size 8)))
		(text "datab[13..0]" (rect 20 58 117 76)(font "Arial" (font_size 8)))
		(line (pt 0 64)(pt 16 64)(line_width 3))
	)
	(port
		(pt 128 56)
		(output)
		(text "agb" (rect 0 0 31 18)(font "Arial" (font_size 8)))
		(text "agb" (rect 91 50 122 68)(font "Arial" (font_size 8)))
		(line (pt 128 56)(pt 112 56))
	)
	(drawing
		(text "unsigned compare" (rect 36 17 174 33)(font "Arial" ))
		(line (pt 16 16)(pt 112 16))
		(line (pt 112 16)(pt 112 80))
		(line (pt 112 80)(pt 16 80))
		(line (pt 16 80)(pt 16 16))
	)
)
(symbol
	(rect 1536 1536 1696 1648)
	(text "PS_ADD" (rect 54 1 151 24)(font "Arial" (font_size 10)))
	(text "inst37" (rect 8 96 52 112)(font "Arial" ))
	(port
		(pt 0 40)
		(input)
		(text "dataa[9..0]" (rect 0 0 87 18)(font "Arial" (font_size 8)))
		(text "dataa[9..0]" (rect 4 27 91 45)(font "Arial" (font_size 8)))
		(line (pt 0 40)(pt 64 40)(line_width 3))
	)
	(port
		(pt 0 72)
		(input)
		(text "datab[9..0]" (rect 0 0 87 18)(font "Arial" (font_size 8)))
		(text "datab[9..0]" (rect 4 59 91 77)(font "Arial" (font_size 8)))
		(line (pt 0 72)(pt 64 72)(line_width 3))
	)
	(port
		(pt 160 56)
		(output)
		(text "result[9..0]" (rect 0 0 83 18)(font "Arial" (font_size 8)))
		(text "result[9..0]" (rect 106 43 189 61)(font "Arial" (font_size 8)))
		(line (pt 160 56)(pt 96 56)(line_width 3))
	)
	(port
		(pt 160 96)
		(output)
		(text "cout" (rect 0 0 34 18)(font "Arial" (font_size 8)))
		(text "cout" (rect 136 83 170 101)(font "Arial" (font_size 8)))
		(line (pt 160 96)(pt 80 96))
	)
	(drawing
		(text "A" (rect 66 34 80 52)(font "Arial" (font_size 8)))
		(text "B" (rect 66 66 80 84)(font "Arial" (font_size 8)))
		(text "A+B" (rect 73 50 111 68)(font "Arial" (font_size 8)))
		(line (pt 64 32)(pt 96 40))
		(line (pt 96 40)(pt 96 72))
		(line (pt 96 72)(pt 64 80))
		(line (pt 64 80)(pt 64 32))
		(line (pt 80 96)(pt 80 75))
	)
)
(symbol
	(rect 1320 1384 1368 1416)
	(text "WIRE" (rect 1 0 37 15)(font "Arial" (font_size 6)))
	(text "inst38" (rect 3 21 47 37)(font "Arial" ))
	(port
		(pt 0 16)
		(input)
		(text "IN" (rect 2 7 20 23)(font "Courier New" (bold))(invisible))
		(text "IN" (rect 2 7 20 23)(font "Courier New" (bold))(invisible))
		(line (pt 0 16)(pt 14 16))
	)
	(port
		(pt 48 16)
		(output)
		(text "OUT" (rect 32 7 60 23)(font "Courier New" (bold))(invisible))
		(text "OUT" (rect 32 7 60 23)(font "Courier New" (bold))(invisible))
		(line (pt 32 16)(pt 48 16))
	)
	(drawing
		(line (pt 14 7)(pt 32 16))
		(line (pt 14 25)(pt 14 7))
		(line (pt 14 25)(pt 32 16))
	)
)
(symbol
	(rect 1320 1432 1368 1464)
	(text "WIRE" (rect 1 0 37 15)(font "Arial" (font_size 6)))
	(text "inst39" (rect 3 21 47 37)(font "Arial" ))
	(port
		(pt 0 16)
		(input)
		(text "IN" (rect 2 7 20 23)(font "Courier New" (bold))(invisible))
		(text "IN" (rect 2 7 20 23)(font "Courier New" (bold))(invisible))
		(line (pt 0 16)(pt 14 16))
	)
	(port
		(pt 48 16)
		(output)
		(text "OUT" (rect 32 7 60 23)(font "Courier New" (bold))(invisible))
		(text "OUT" (rect 32 7 60 23)(font "Courier New" (bold))(invisible))
		(line (pt 32 16)(pt 48 16))
	)
	(drawing
		(line (pt 14 7)(pt 32 16))
		(line (pt 14 25)(pt 14 7))
		(line (pt 14 25)(pt 32 16))
	)
)
(symbol
	(rect 1272 1432 1304 1464)
	(text "GND" (rect 6 8 21 39)(font "Arial" (font_size 6))(vertical))
	(text "inst40" (rect -1 3 15 47)(font "Arial" )(vertical)(invisible))
	(port
		(pt 32 16)
		(output)
		(text "1" (rect 18 0 27 16)(font "Courier New" (bold))(invisible))
		(text "1" (rect 20 18 36 27)(font "Courier New" (bold))(vertical)(invisible))
		(line (pt 24 16)(pt 32 16))
	)
	(drawing
		(line (pt 24 8)(pt 16 16))
		(line (pt 16 16)(pt 24 24))
		(line (pt 24 8)(pt 24 24))
	)
	(rotate270)
)
(symbol
	(rect 1624 1392 1672 1424)
	(text "WIRE" (rect 1 0 37 15)(font "Arial" (font_size 6)))
	(text "inst41" (rect 3 21 47 37)(font "Arial" ))
	(port
		(pt 0 16)
		(input)
		(text "IN" (rect 2 7 20 23)(font "Courier New" (bold))(invisible))
		(text "IN" (rect 2 7 20 23)(font "Courier New" (bold))(invisible))
		(line (pt 0 16)(pt 14 16))
	)
	(port
		(pt 48 16)
		(output)
		(text "OUT" (rect 32 7 60 23)(font "Courier New" (bold))(invisible))
		(text "OUT" (rect 32 7 60 23)(font "Courier New" (bold))(invisible))
		(line (pt 32 16)(pt 48 16))
	)
	(drawing
		(line (pt 14 7)(pt 32 16))
		(line (pt 14 25)(pt 14 7))
		(line (pt 14 25)(pt 32 16))
	)
)
(symbol
	(rect 1576 1392 1608 1424)
	(text "GND" (rect 6 8 21 39)(font "Arial" (font_size 6))(vertical))
	(text "inst42" (rect -1 3 15 47)(font "Arial" )(vertical)(invisible))
	(port
		(pt 32 16)
		(output)
		(text "1" (rect 18 0 27 16)(font "Courier New" (bold))(invisible))
		(text "1" (rect 20 18 36 27)(font "Courier New" (bold))(vertical)(invisible))
		(line (pt 24 16)(pt 32 16))
	)
	(drawing
		(line (pt 24 8)(pt 16 16))
		(line (pt 16 16)(pt 24 24))
		(line (pt 24 8)(pt 24 24))
	)
	(rotate270)
)
(symbol
	(rect 1624 1440 1672 1472)
	(text "WIRE" (rect 1 0 37 15)(font "Arial" (font_size 6)))
	(text "inst47" (rect 3 21 47 37)(font "Arial" ))
	(port
		(pt 0 16)
		(input)
		(text "IN" (rect 2 7 20 23)(font "Courier New" (bold))(invisible))
		(text "IN" (rect 2 7 20 23)(font "Courier New" (bold))(invisible))
		(line (pt 0 16)(pt 14 16))
	)
	(port
		(pt 48 16)
		(output)
		(text "OUT" (rect 32 7 60 23)(font "Courier New" (bold))(invisible))
		(text "OUT" (rect 32 7 60 23)(font "Courier New" (bold))(invisible))
		(line (pt 32 16)(pt 48 16))
	)
	(drawing
		(line (pt 14 7)(pt 32 16))
		(line (pt 14 25)(pt 14 7))
		(line (pt 14 25)(pt 32 16))
	)
)
(symbol
	(rect 1576 1440 1608 1472)
	(text "GND" (rect 6 8 21 39)(font "Arial" (font_size 6))(vertical))
	(text "inst48" (rect -1 3 15 47)(font "Arial" )(vertical)(invisible))
	(port
		(pt 32 16)
		(output)
		(text "1" (rect 18 0 27 16)(font "Courier New" (bold))(invisible))
		(text "1" (rect 20 18 36 27)(font "Courier New" (bold))(vertical)(invisible))
		(line (pt 24 16)(pt 32 16))
	)
	(drawing
		(line (pt 24 8)(pt 16 16))
		(line (pt 16 16)(pt 24 24))
		(line (pt 24 8)(pt 24 24))
	)
	(rotate270)
)
(symbol
	(rect 1536 1672 1696 1768)
	(text "PS_SUB" (rect 54 1 149 24)(font "Arial" (font_size 10)))
	(text "inst49" (rect 8 80 52 96)(font "Arial" ))
	(port
		(pt 0 40)
		(input)
		(text "dataa[9..0]" (rect 0 0 87 18)(font "Arial" (font_size 8)))
		(text "dataa[9..0]" (rect 4 27 91 45)(font "Arial" (font_size 8)))
		(line (pt 0 40)(pt 64 40)(line_width 3))
	)
	(port
		(pt 0 72)
		(input)
		(text "datab[9..0]" (rect 0 0 87 18)(font "Arial" (font_size 8)))
		(text "datab[9..0]" (rect 4 59 91 77)(font "Arial" (font_size 8)))
		(line (pt 0 72)(pt 64 72)(line_width 3))
	)
	(port
		(pt 160 56)
		(output)
		(text "result[9..0]" (rect 0 0 83 18)(font "Arial" (font_size 8)))
		(text "result[9..0]" (rect 106 43 189 61)(font "Arial" (font_size 8)))
		(line (pt 160 56)(pt 96 56)(line_width 3))
	)
	(drawing
		(text "A" (rect 66 34 80 52)(font "Arial" (font_size 8)))
		(text "B" (rect 66 66 80 84)(font "Arial" (font_size 8)))
		(text "A-B" (rect 75 50 109 68)(font "Arial" (font_size 8)))
		(line (pt 64 32)(pt 96 40))
		(line (pt 96 40)(pt 96 72))
		(line (pt 96 72)(pt 64 80))
		(line (pt 64 80)(pt 64 32))
	)
)
(symbol
	(rect 2168 1648 2296 1744)
	(text "PS_Compare_14" (rect 15 1 196 24)(font "Arial" (font_size 10)))
	(text "inst43" (rect 8 80 52 96)(font "Arial" ))
	(port
		(pt 0 48)
		(input)
		(text "dataa[13..0]" (rect 0 0 97 18)(font "Arial" (font_size 8)))
		(text "dataa[13..0]" (rect 20 42 117 60)(font "Arial" (font_size 8)))
		(line (pt 0 48)(pt 16 48)(line_width 3))
	)
	(port
		(pt 0 64)
		(input)
		(text "datab[13..0]" (rect 0 0 97 18)(font "Arial" (font_size 8)))
		(text "datab[13..0]" (rect 20 58 117 76)(font "Arial" (font_size 8)))
		(line (pt 0 64)(pt 16 64)(line_width 3))
	)
	(port
		(pt 128 56)
		(output)
		(text "agb" (rect 0 0 31 18)(font "Arial" (font_size 8)))
		(text "agb" (rect 91 50 122 68)(font "Arial" (font_size 8)))
		(line (pt 128 56)(pt 112 56))
	)
	(drawing
		(text "unsigned compare" (rect 36 17 174 33)(font "Arial" ))
		(line (pt 16 16)(pt 112 16))
		(line (pt 112 16)(pt 112 80))
		(line (pt 112 80)(pt 16 80))
		(line (pt 16 80)(pt 16 16))
	)
)
(symbol
	(rect 2168 1776 2296 1872)
	(text "PS_COMPARE_10" (rect 8 1 219 24)(font "Arial" (font_size 10)))
	(text "inst51" (rect 8 80 52 96)(font "Arial" ))
	(port
		(pt 0 48)
		(input)
		(text "dataa[9..0]" (rect 0 0 87 18)(font "Arial" (font_size 8)))
		(text "dataa[9..0]" (rect 20 42 107 60)(font "Arial" (font_size 8)))
		(line (pt 0 48)(pt 16 48)(line_width 3))
	)
	(port
		(pt 0 64)
		(input)
		(text "datab[9..0]" (rect 0 0 87 18)(font "Arial" (font_size 8)))
		(text "datab[9..0]" (rect 20 58 107 76)(font "Arial" (font_size 8)))
		(line (pt 0 64)(pt 16 64)(line_width 3))
	)
	(port
		(pt 128 56)
		(output)
		(text "ageb" (rect 0 0 42 18)(font "Arial" (font_size 8)))
		(text "ageb" (rect 85 50 127 68)(font "Arial" (font_size 8)))
		(line (pt 128 56)(pt 112 56))
	)
	(drawing
		(text "unsigned compare" (rect 36 17 174 33)(font "Arial" ))
		(line (pt 16 16)(pt 112 16))
		(line (pt 112 16)(pt 112 80))
		(line (pt 112 80)(pt 16 80))
		(line (pt 16 80)(pt 16 16))
	)
)
(symbol
	(rect 2488 1520 2632 1616)
	(text "PS_FF_1" (rect 45 79 147 102)(font "Arial" (font_size 10)))
	(text "inst50" (rect 8 4 52 20)(font "Arial" ))
	(port
		(pt 0 64)
		(input)
		(text "data" (rect 0 0 36 18)(font "Arial" (font_size 8)))
		(text "data" (rect 20 56 56 74)(font "Arial" (font_size 8)))
		(line (pt 0 64)(pt 16 64))
	)
	(port
		(pt 0 48)
		(input)
		(text "clock" (rect 0 0 42 18)(font "Arial" (font_size 8)))
		(text "clock" (rect 26 40 68 58)(font "Arial" (font_size 8)))
		(line (pt 0 48)(pt 16 48))
	)
	(port
		(pt 0 32)
		(input)
		(text "enable" (rect 0 0 55 18)(font "Arial" (font_size 8)))
		(text "enable" (rect 20 24 75 42)(font "Arial" (font_size 8)))
		(line (pt 0 32)(pt 16 32))
	)
	(port
		(pt 80 0)
		(input)
		(text "aclr" (rect 0 0 18 29)(font "Arial" (font_size 8))(vertical))
		(text "aclr" (rect 73 16 91 45)(font "Arial" (font_size 8))(vertical))
		(line (pt 80 0)(pt 80 16))
	)
	(port
		(pt 144 56)
		(output)
		(text "q" (rect 0 0 10 18)(font "Arial" (font_size 8)))
		(text "q" (rect 119 48 129 66)(font "Arial" (font_size 8)))
		(line (pt 144 56)(pt 128 56))
	)
	(drawing
		(text "DFF" (rect 109 67 142 83)(font "Arial" ))
		(line (pt 16 80)(pt 128 80))
		(line (pt 128 80)(pt 128 16))
		(line (pt 128 16)(pt 16 16))
		(line (pt 16 16)(pt 16 80))
		(line (pt 16 54)(pt 22 48))
		(line (pt 22 48)(pt 16 42))
	)
	(flipx)
)
(symbol
	(rect 2760 1600 2824 1648)
	(text "OR3" (rect 1 0 30 15)(font "Arial" (font_size 6)))
	(text "inst52" (rect 3 37 47 53)(font "Arial" ))
	(port
		(pt 0 24)
		(input)
		(text "IN2" (rect 2 15 30 31)(font "Courier New" (bold))(invisible))
		(text "IN2" (rect 2 15 30 31)(font "Courier New" (bold))(invisible))
		(line (pt 0 24)(pt 18 24))
	)
	(port
		(pt 0 32)
		(input)
		(text "IN3" (rect 2 24 30 40)(font "Courier New" (bold))(invisible))
		(text "IN3" (rect 2 24 30 40)(font "Courier New" (bold))(invisible))
		(line (pt 0 32)(pt 16 32))
	)
	(port
		(pt 0 16)
		(input)
		(text "IN1" (rect 2 7 30 23)(font "Courier New" (bold))(invisible))
		(text "IN1" (rect 2 7 30 23)(font "Courier New" (bold))(invisible))
		(line (pt 0 16)(pt 16 16))
	)
	(port
		(pt 64 24)
		(output)
		(text "OUT" (rect 47 15 75 31)(font "Courier New" (bold))(invisible))
		(text "OUT" (rect 47 15 75 31)(font "Courier New" (bold))(invisible))
		(line (pt 49 24)(pt 64 24))
	)
	(drawing
		(line (pt 14 13)(pt 25 13))
		(line (pt 14 36)(pt 25 36))
		(arc (pt 7 29)(pt 7 19)(rect -14 8 19 41))
		(arc (pt 49 24)(pt 25 13)(rect -6 13 57 76))
		(arc (pt 25 35)(pt 49 24)(rect -6 -27 57 36))
	)
)
(symbol
	(rect 2496 1672 2640 1768)
	(text "PS_FF_1" (rect 45 79 147 102)(font "Arial" (font_size 10)))
	(text "inst56" (rect 8 4 52 20)(font "Arial" ))
	(port
		(pt 0 64)
		(input)
		(text "data" (rect 0 0 36 18)(font "Arial" (font_size 8)))
		(text "data" (rect 20 56 56 74)(font "Arial" (font_size 8)))
		(line (pt 0 64)(pt 16 64))
	)
	(port
		(pt 0 48)
		(input)
		(text "clock" (rect 0 0 42 18)(font "Arial" (font_size 8)))
		(text "clock" (rect 26 40 68 58)(font "Arial" (font_size 8)))
		(line (pt 0 48)(pt 16 48))
	)
	(port
		(pt 0 32)
		(input)
		(text "enable" (rect 0 0 55 18)(font "Arial" (font_size 8)))
		(text "enable" (rect 20 24 75 42)(font "Arial" (font_size 8)))
		(line (pt 0 32)(pt 16 32))
	)
	(port
		(pt 80 0)
		(input)
		(text "aclr" (rect 0 0 18 29)(font "Arial" (font_size 8))(vertical))
		(text "aclr" (rect 73 16 91 45)(font "Arial" (font_size 8))(vertical))
		(line (pt 80 0)(pt 80 16))
	)
	(port
		(pt 144 56)
		(output)
		(text "q" (rect 0 0 10 18)(font "Arial" (font_size 8)))
		(text "q" (rect 119 48 129 66)(font "Arial" (font_size 8)))
		(line (pt 144 56)(pt 128 56))
	)
	(drawing
		(text "DFF" (rect 109 67 142 83)(font "Arial" ))
		(line (pt 16 80)(pt 128 80))
		(line (pt 128 80)(pt 128 16))
		(line (pt 128 16)(pt 16 16))
		(line (pt 16 16)(pt 16 80))
		(line (pt 16 54)(pt 22 48))
		(line (pt 22 48)(pt 16 42))
	)
	(flipx)
)
(symbol
	(rect 2368 1280 2400 1296)
	(text "VCC" (rect 7 0 36 15)(font "Arial" (font_size 6)))
	(text "inst55" (rect 3 5 47 21)(font "Arial" )(invisible))
	(port
		(pt 16 16)
		(output)
		(text "1" (rect 19 7 28 23)(font "Courier New" (bold))(invisible))
		(text "1" (rect 19 7 28 23)(font "Courier New" (bold))(invisible))
		(line (pt 16 16)(pt 16 8))
	)
	(drawing
		(line (pt 8 8)(pt 24 8))
	)
)
(symbol
	(rect 2688 976 2720 992)
	(text "VCC" (rect 7 0 36 15)(font "Arial" (font_size 6)))
	(text "inst57" (rect 3 5 47 21)(font "Arial" )(invisible))
	(port
		(pt 16 16)
		(output)
		(text "1" (rect 19 7 28 23)(font "Courier New" (bold))(invisible))
		(text "1" (rect 19 7 28 23)(font "Courier New" (bold))(invisible))
		(line (pt 16 16)(pt 16 8))
	)
	(drawing
		(line (pt 8 8)(pt 24 8))
	)
)
(symbol
	(rect 2152 120 2296 184)
	(text "PS_Counter_2_BIT" (rect 18 0 225 23)(font "Arial" (font_size 10)))
	(text "inst14" (rect 8 48 48 63)(font "Arial" (font_size 6)))
	(port
		(pt 0 32)
		(input)
		(text "clock" (rect 0 0 42 18)(font "Arial" (font_size 8)))
		(text "clock" (rect 26 25 68 43)(font "Arial" (font_size 8)))
		(line (pt 0 32)(pt 16 32))
	)
	(port
		(pt 144 40)
		(output)
		(text "q[1..0]" (rect 0 0 50 18)(font "Arial" (font_size 8)))
		(text "q[1..0]" (rect 95 33 145 51)(font "Arial" (font_size 8)))
		(line (pt 144 40)(pt 128 40)(line_width 3))
	)
	(drawing
		(text "up counter" (rect 84 22 164 38)(font "Arial" ))
		(line (pt 16 16)(pt 16 48))
		(line (pt 16 16)(pt 128 16))
		(line (pt 16 48)(pt 128 48))
		(line (pt 128 16)(pt 128 48))
		(line (pt 0 0)(pt 146 0))
		(line (pt 146 0)(pt 146 66))
		(line (pt 0 66)(pt 146 66))
		(line (pt 0 0)(pt 0 66))
		(line (pt 16 26)(pt 22 32))
		(line (pt 22 32)(pt 16 38))
		(line (pt 0 0)(pt 0 0))
		(line (pt 0 0)(pt 0 0))
		(line (pt 0 0)(pt 0 0))
		(line (pt 0 0)(pt 0 0))
	)
)
(connector
	(pt 1384 352)
	(pt 1328 352)
)
(connector
	(pt 1384 336)
	(pt 1296 336)
)
(connector
	(pt 3360 992)
	(pt 3336 992)
)
(connector
	(pt 1480 336)
	(pt 1640 336)
)
(connector
	(pt 1824 344)
	(pt 1720 344)
)
(connector
	(pt 3360 880)
	(pt 3376 880)
)
(connector
	(pt 3360 992)
	(pt 3360 880)
)
(connector
	(pt 3360 864)
	(pt 3376 864)
)
(connector
	(pt 3360 808)
	(pt 3360 864)
)
(connector
	(pt 3448 848)
	(pt 3456 848)
)
(connector
	(pt 3448 872)
	(pt 3448 848)
)
(connector
	(pt 3504 848)
	(pt 3512 848)
)
(connector
	(pt 3512 824)
	(pt 3520 824)
)
(connector
	(pt 3512 848)
	(pt 3512 824)
)
(connector
	(pt 3584 816)
	(pt 3608 816)
)
(connector
	(pt 3360 808)
	(pt 3520 808)
)
(connector
	(pt 2528 408)
	(pt 2480 408)
	(bus)
)
(connector
	(pt 2760 1632)
	(pt 2736 1632)
)
(connector
	(pt 2720 1728)
	(pt 2720 1624)
)
(connector
	(pt 2760 1624)
	(pt 2720 1624)
)
(connector
	(pt 2720 1576)
	(pt 2720 1616)
)
(connector
	(pt 2760 1616)
	(pt 2720 1616)
)
(connector
	(text "clock" (rect 2450 1552 2487 1568)(font "Arial" ))
	(pt 2488 1568)
	(pt 2440 1568)
)
(connector
	(pt 2632 1576)
	(pt 2720 1576)
)
(connector
	(pt 2720 1576)
	(pt 3064 1576)
)
(connector
	(pt 2488 1552)
	(pt 2296 1552)
)
(connector
	(pt 1320 1448)
	(pt 1304 1448)
)
(connector
	(pt 1624 1408)
	(pt 1608 1408)
)
(connector
	(pt 1624 1456)
	(pt 1608 1456)
)
(connector
	(text "TH_DIFF[9..0]" (rect 1338 1736 1497 1760)(font "Arial" (font_size 10)(bold)))
	(pt 1440 1744)
	(pt 1536 1744)
	(bus)
)
(connector
	(text "TH_DIFF[9..0]" (rect 1450 1592 1609 1616)(font "Arial" (font_size 10)(bold)))
	(pt 1440 1608)
	(pt 1536 1608)
	(bus)
)
(connector
	(text "TH[9..0]" (rect 1360 1688 1450 1712)(font "Arial" (font_size 10)(bold)))
	(pt 1438 1712)
	(pt 1536 1712)
	(bus)
)
(connector
	(text "TH[9..0]" (rect 1360 1552 1450 1576)(font "Arial" (font_size 10)(bold)))
	(pt 1438 1576)
	(pt 1536 1576)
	(bus)
)
(connector
	(text "TH_SUB_RESULT[9..0]" (rect 1706 1712 1975 1736)(font "Arial" (font_size 10)(bold)))
	(pt 1696 1728)
	(pt 1792 1728)
	(bus)
)
(connector
	(text "TH_ADD_RESULT[9..0]" (rect 1706 1576 1975 1600)(font "Arial" (font_size 10)(bold)))
	(pt 1696 1592)
	(pt 1792 1592)
	(bus)
)
(connector
	(text "TH_ADD_RESULT[10]" (rect 1706 1616 1960 1640)(font "Arial" (font_size 10)(bold)))
	(pt 1696 1632)
	(pt 1792 1632)
	(bus)
)
(connector
	(text "TH_ADD_RESULT[13..11]" (rect 1682 1392 1977 1416)(font "Arial" (font_size 10)(bold)))
	(pt 1672 1408)
	(pt 1768 1408)
	(bus)
)
(connector
	(text "TH_SUB_RESULT[13..10]" (rect 1682 1440 1977 1464)(font "Arial" (font_size 10)(bold)))
	(pt 1672 1456)
	(pt 1768 1456)
	(bus)
)
(connector
	(text "TH_DIFF[9..4]" (rect 1378 1432 1537 1456)(font "Arial" (font_size 10)(bold)))
	(pt 1368 1448)
	(pt 1464 1448)
	(bus)
)
(connector
	(text "TH_DIFF[3..0]" (rect 1378 1384 1537 1408)(font "Arial" (font_size 10)(bold)))
	(pt 1368 1400)
	(pt 1464 1400)
	(bus)
)
(connector
	(text "TH[13..10]" (rect 1200 1368 1316 1392)(font "Arial" (font_size 10)(bold)))
	(pt 1222 1400)
	(pt 1320 1400)
	(bus)
)
(connector
	(pt 2736 1832)
	(pt 2296 1832)
)
(connector
	(pt 2736 1632)
	(pt 2736 1832)
)
(connector
	(text "TH_DIFF[9..0]" (rect 1938 1808 2097 1832)(font "Arial" (font_size 10)(bold)))
	(pt 2072 1824)
	(pt 2168 1824)
	(bus)
)
(connector
	(text "TH[9..0]" (rect 2008 1848 2098 1872)(font "Arial" (font_size 10)(bold)))
	(pt 2070 1840)
	(pt 2168 1840)
	(bus)
)
(connector
	(pt 2920 1352)
	(pt 2872 1352)
)
(connector
	(pt 2896 1176)
	(pt 2872 1176)
)
(connector
	(pt 2728 1048)
	(pt 2704 1048)
)
(connector
	(pt 2704 1184)
	(pt 2728 1184)
)
(connector
	(pt 2704 1360)
	(pt 2728 1360)
)
(connector
	(pt 2704 1184)
	(pt 2704 1360)
)
(connector
	(pt 2384 1584)
	(pt 2488 1584)
)
(connector
	(pt 2408 1400)
	(pt 2384 1400)
)
(connector
	(pt 2384 1296)
	(pt 2384 1400)
)
(connector
	(pt 2568 1496)
	(pt 2568 1520)
)
(connector
	(pt 2576 1640)
	(pt 2576 1672)
)
(connector
	(pt 2640 1728)
	(pt 2720 1728)
)
(connector
	(pt 2720 1728)
	(pt 3064 1728)
)
(connector
	(pt 2384 1400)
	(pt 2384 1584)
)
(connector
	(pt 2384 1584)
	(pt 2384 1736)
)
(connector
	(pt 2440 1456)
	(pt 2440 1568)
)
(connector
	(pt 2440 1568)
	(pt 2440 1720)
)
(connector
	(pt 2384 1736)
	(pt 2496 1736)
)
(connector
	(text "clock" (rect 2458 1704 2495 1720)(font "Arial" ))
	(pt 2440 1720)
	(pt 2496 1720)
)
(connector
	(pt 2296 1704)
	(pt 2496 1704)
)
(connector
	(pt 2808 1296)
	(pt 2808 1272)
)
(connector
	(pt 2808 1120)
	(pt 2808 1104)
)
(connector
	(pt 2488 1336)
	(pt 2488 1272)
)
(connector
	(pt 2728 1152)
	(pt 2608 1152)
)
(connector
	(pt 2544 1160)
	(pt 2496 1160)
)
(connector
	(pt 2496 1200)
	(pt 2464 1200)
)
(connector
	(pt 2496 1160)
	(pt 2496 1200)
)
(connector
	(text "clock" (rect 2298 1184 2335 1200)(font "Arial" ))
	(pt 2320 1200)
	(pt 2280 1200)
)
(connector
	(text "clock" (rect 2330 1368 2367 1384)(font "Arial" ))
	(pt 2280 1384)
	(pt 2408 1384)
)
(connector
	(pt 2280 1456)
	(pt 2440 1456)
)
(connector
	(pt 2280 1384)
	(pt 2280 1456)
)
(connector
	(pt 2256 1144)
	(pt 2544 1144)
)
(connector
	(pt 2256 1184)
	(pt 2320 1184)
)
(connector
	(pt 2256 1016)
	(pt 2256 1144)
)
(connector
	(pt 2256 1144)
	(pt 2256 1184)
)
(connector
	(pt 2408 1368)
	(pt 2256 1368)
)
(connector
	(pt 2232 1016)
	(pt 2256 1016)
)
(connector
	(pt 2256 1016)
	(pt 2728 1016)
)
(connector
	(text "TH_ADD_RESULT[13..0]" (rect 1882 1552 2164 1576)(font "Arial" (font_size 10)(bold)))
	(pt 2048 1560)
	(pt 2168 1560)
	(bus)
)
(connector
	(text "TH_SUB_RESULT[13..0]" (rect 1880 1688 2162 1712)(font "Arial" (font_size 10)(bold)))
	(pt 2168 1696)
	(pt 2048 1696)
	(bus)
)
(connector
	(pt 1952 1008)
	(pt 2072 1008)
	(bus)
)
(connector
	(text "ADC_IN[13..0]" (rect 1970 992 2075 1008)(font "Arial" ))
	(pt 2072 1008)
	(pt 2104 1008)
	(bus)
)
(connector
	(text "TH[13..0]" (rect 1970 1024 2038 1040)(font "Arial" ))
	(pt 2104 1024)
	(pt 1952 1024)
	(bus)
)
(connector
	(pt 2280 1200)
	(pt 2280 1384)
)
(connector
	(pt 3192 1000)
	(pt 3088 1000)
)
(connector
	(pt 3088 808)
	(pt 3088 1000)
)
(connector
	(pt 2944 992)
	(pt 2960 992)
)
(connector
	(pt 2880 1040)
	(pt 2880 976)
)
(connector
	(pt 2872 1040)
	(pt 2880 1040)
)
(connector
	(pt 2880 976)
	(pt 2960 976)
)
(connector
	(pt 2920 960)
	(pt 2960 960)
)
(connector
	(pt 2896 944)
	(pt 2960 944)
)
(connector
	(pt 2944 1624)
	(pt 2944 992)
)
(connector
	(pt 2920 1352)
	(pt 2920 960)
)
(connector
	(pt 2896 1176)
	(pt 2896 944)
)
(connector
	(pt 3048 968)
	(pt 3192 968)
)
(connector
	(pt 2824 1624)
	(pt 2944 1624)
)
(connector
	(pt 2944 1624)
	(pt 3064 1624)
)
(connector
	(pt 3000 1072)
	(pt 3376 1072)
	(bus)
)
(connector
	(pt 3000 1016)
	(pt 3000 1072)
	(bus)
)
(connector
	(text "clock" (rect 3168 968 3205 984)(font "Arial" ))
	(pt 3144 984)
	(pt 3192 984)
)
(connector
	(pt 2552 1392)
	(pt 2568 1392)
)
(connector
	(pt 2256 1320)
	(pt 2576 1320)
)
(connector
	(pt 2568 1392)
	(pt 2568 1336)
)
(connector
	(pt 2568 1336)
	(pt 2576 1336)
)
(connector
	(pt 2256 1184)
	(pt 2256 1320)
)
(connector
	(pt 2256 1320)
	(pt 2256 1368)
)
(connector
	(pt 2640 1328)
	(pt 2728 1328)
)
(connector
	(pt 2656 1104)
	(pt 2808 1104)
)
(connector
	(pt 2488 1272)
	(pt 2656 1272)
)
(connector
	(pt 2656 1272)
	(pt 2808 1272)
)
(connector
	(pt 2568 1496)
	(pt 2656 1496)
)
(connector
	(pt 2656 1104)
	(pt 2656 1272)
)
(connector
	(pt 2576 1640)
	(pt 2656 1640)
)
(connector
	(pt 2656 1272)
	(pt 2656 1496)
)
(connector
	(pt 2656 1496)
	(pt 2656 1640)
)
(connector
	(pt 2440 1456)
	(pt 2680 1456)
)
(connector
	(pt 2680 1456)
	(pt 3144 1456)
)
(connector
	(text "clock" (rect 2690 1328 2727 1344)(font "Arial" ))
	(pt 2680 1344)
	(pt 2728 1344)
)
(connector
	(pt 2680 1344)
	(pt 2680 1456)
)
(connector
	(text "clock" (rect 2690 1016 2727 1032)(font "Arial" ))
	(pt 2728 1032)
	(pt 2680 1032)
)
(connector
	(text "clock" (rect 2690 1152 2727 1168)(font "Arial" ))
	(pt 2680 1168)
	(pt 2728 1168)
)
(connector
	(pt 2680 1168)
	(pt 2680 1344)
)
(connector
	(text "clock" (rect 2306 648 2343 664)(font "Arial" ))
	(pt 2280 664)
	(pt 2344 664)
)
(connector
	(text "clock" (rect 1786 344 1823 360)(font "Arial" ))
	(pt 1792 360)
	(pt 1824 360)
)
(connector
	(text "clock" (rect 2754 808 2791 824)(font "Arial" ))
	(pt 2680 824)
	(pt 2784 824)
)
(connector
	(pt 3088 808)
	(pt 3360 808)
)
(connector
	(pt 2680 824)
	(pt 2680 1032)
)
(connector
	(pt 2680 1032)
	(pt 2680 1168)
)
(connector
	(pt 2880 808)
	(pt 3088 808)
)
(connector
	(pt 2280 952)
	(pt 2280 1200)
)
(connector
	(pt 2808 984)
	(pt 2808 952)
)
(connector
	(pt 2656 952)
	(pt 2656 1104)
)
(connector
	(text "XXX" (rect 2498 936 2526 952)(font "Arial" ))
	(pt 2488 952)
	(pt 2656 952)
)
(connector
	(pt 2656 952)
	(pt 2808 952)
)
(connector
	(pt 2704 992)
	(pt 2704 1048)
)
(connector
	(pt 2704 1048)
	(pt 2704 1184)
)
(connector
	(pt 2128 936)
	(pt 2184 936)
)
(connector
	(pt 2128 808)
	(pt 2128 936)
)
(connector
	(pt 2344 936)
	(pt 2232 936)
)
(connector
	(pt 3272 936)
	(pt 3272 888)
)
(connector
	(text "trigger" (rect 3242 872 3290 888)(font "Arial" ))
	(pt 1296 888)
	(pt 3272 888)
)
(connector
	(pt 1848 808)
	(pt 2128 808)
)
(connector
	(pt 1992 736)
	(pt 1992 704)
)
(connector
	(pt 1248 736)
	(pt 1992 736)
)
(connector
	(pt 1848 672)
	(pt 1880 672)
)
(connector
	(pt 1848 808)
	(pt 1848 672)
)
(connector
	(pt 2024 632)
	(pt 2344 632)
	(bus)
)
(connector
	(pt 2344 648)
	(pt 2256 648)
	(bus)
)
(connector
	(pt 2256 704)
	(pt 2232 704)
	(bus)
)
(connector
	(pt 2256 648)
	(pt 2256 704)
	(bus)
)
(connector
	(text "ADC_IN[13..0]" (rect 2240 392 2345 408)(font "Arial" ))
	(pt 2072 408)
	(pt 2328 408)
	(bus)
)
(connector
	(pt 2840 520)
	(pt 2832 520)
	(bus)
)
(connector
	(pt 2832 520)
	(pt 2832 488)
	(bus)
)
(connector
	(pt 2832 488)
	(pt 2752 488)
	(bus)
)
(connector
	(pt 2528 480)
	(pt 2600 480)
	(bus)
)
(connector
	(pt 2528 408)
	(pt 2528 480)
	(bus)
)
(connector
	(text "ADC_IN[13..0]" (rect 2752 536 2857 552)(font "Arial" ))
	(pt 2072 536)
	(pt 2840 536)
	(bus)
)
(connector
	(pt 2072 408)
	(pt 2072 536)
	(bus)
)
(connector
	(pt 2072 536)
	(pt 2072 1008)
	(bus)
)
(connector
	(text "clock" (rect 2298 408 2335 424)(font "Arial" ))
	(pt 2280 424)
	(pt 2328 424)
)
(connector
	(pt 2280 424)
	(pt 2280 664)
)
(connector
	(pt 2280 664)
	(pt 2280 952)
)
(connector
	(pt 2544 648)
	(pt 2544 808)
)
(connector
	(pt 2472 648)
	(pt 2544 648)
)
(connector
	(pt 2544 648)
	(pt 2856 648)
)
(connector
	(pt 2128 808)
	(pt 2544 808)
)
(connector
	(pt 2544 808)
	(pt 2784 808)
)
(connector
	(pt 2680 744)
	(pt 2680 520)
)
(connector
	(pt 2680 744)
	(pt 3688 744)
)
(connector
	(pt 3688 744)
	(pt 3688 816)
)
(connector
	(pt 3656 816)
	(pt 3688 816)
)
(connector
	(pt 3440 872)
	(pt 3448 872)
)
(connector
	(pt 3448 872)
	(pt 3608 872)
)
(connector
	(text "enable" (rect 1602 336 1652 352)(font "Arial" ))
	(pt 1584 352)
	(pt 1640 352)
)
(connector
	(pt 1584 352)
	(pt 1584 440)
)
(connector
	(pt 3312 544)
	(pt 3336 544)
	(bus)
)
(connector
	(pt 2992 528)
	(pt 3168 528)
	(bus)
)
(connector
	(pt 3168 544)
	(pt 3144 544)
)
(connector
	(pt 3144 544)
	(pt 3144 984)
)
(connector
	(pt 3144 984)
	(pt 3144 1456)
)
(connector
	(text "PS_Constant[13..0]" (rect 2386 488 2531 504)(font "Arial" ))
	(pt 2496 496)
	(pt 2600 496)
	(bus)
)
(connector
	(pt 2344 288)
	(pt 2280 288)
	(bus)
)
(connector
	(pt 1792 640)
	(pt 1880 640)
)
(connector
	(text "clock" (rect 2306 936 2343 952)(font "Arial" ))
	(pt 2280 952)
	(pt 2344 952)
)
(connector
	(pt 1968 360)
	(pt 3320 360)
)
(connector
	(pt 1792 360)
	(pt 1792 640)
)
(connector
	(pt 1792 640)
	(pt 1792 952)
)
(connector
	(pt 1792 952)
	(pt 2280 952)
)
(connector
	(text "clock" (rect 1250 936 1287 952)(font "Arial" ))
	(pt 1240 952)
	(pt 1328 952)
)
(connector
	(pt 1328 952)
	(pt 1792 952)
)
(connector
	(pt 1296 616)
	(pt 1656 616)
)
(connector
	(pt 1296 616)
	(pt 1296 888)
)
(connector
	(pt 1656 600)
	(pt 1632 600)
)
(connector
	(pt 1632 600)
	(pt 1632 568)
)
(connector
	(pt 1632 568)
	(pt 1608 568)
)
(connector
	(pt 1328 568)
	(pt 1368 568)
)
(connector
	(pt 1296 552)
	(pt 1296 616)
)
(connector
	(pt 1328 352)
	(pt 1328 568)
)
(connector
	(pt 1328 568)
	(pt 1328 952)
)
(connector
	(pt 1512 568)
	(pt 1560 568)
)
(connector
	(pt 1296 336)
	(pt 1296 552)
)
(connector
	(pt 1248 552)
	(pt 1296 552)
)
(connector
	(pt 1296 552)
	(pt 1368 552)
)
(connector
	(pt 2920 560)
	(pt 2920 568)
)
(connector
	(pt 2920 568)
	(pt 2040 568)
)
(connector
	(pt 2040 440)
	(pt 2040 568)
)
(connector
	(pt 1248 440)
	(pt 1584 440)
)
(connector
	(pt 1584 440)
	(pt 2040 440)
)
(connector
	(text "ADC_IN[13..0]" (rect 2074 1520 2233 1544)(font "Arial" (font_size 10)(bold)))
	(pt 2072 1544)
	(pt 2168 1544)
	(bus)
)
(connector
	(text "ADC_IN[13..0]" (rect 1992 1720 2151 1744)(font "Arial" (font_size 10)(bold)))
	(pt 2168 1712)
	(pt 2072 1712)
	(bus)
)
(connector
	(pt 2072 1008)
	(pt 2072 1544)
	(bus)
)
(connector
	(pt 2072 1544)
	(pt 2072 1712)
	(bus)
)
(connector
	(pt 2344 232)
	(pt 2280 232)
	(bus)
)
(connector
	(pt 2336 160)
	(pt 2296 160)
	(bus)
)
(connector
	(text "PS_Constant[13..12]" (rect 2392 144 2546 160)(font "Arial" ))
	(pt 2384 160)
	(pt 2448 160)
	(bus)
)
(connector
	(text "PS_Constant[3..0]" (rect 2392 216 2527 232)(font "Arial" ))
	(pt 2392 232)
	(pt 2456 232)
	(bus)
)
(connector
	(text "PS_Constant[11..4]" (rect 2400 272 2545 288)(font "Arial" ))
	(pt 2392 288)
	(pt 2456 288)
	(bus)
)
(connector
	(text "clock" (rect 2064 16 2101 32)(font "Arial" ))
	(pt 2118 24)
	(pt 2152 24)
)
(connector
	(pt 1768 608)
	(pt 1768 152)
)
(connector
	(pt 1768 152)
	(pt 2152 152)
)
(connector
	(pt 1720 608)
	(pt 1768 608)
)
(connector
	(pt 1768 608)
	(pt 1880 608)
)
(junction (pt 3448 872))
(junction (pt 3360 808))
(junction (pt 2944 1624))
(junction (pt 2720 1728))
(junction (pt 2720 1576))
(junction (pt 2704 1048))
(junction (pt 2704 1184))
(junction (pt 2384 1584))
(junction (pt 2384 1400))
(junction (pt 2440 1568))
(junction (pt 2440 1456))
(junction (pt 2280 1384))
(junction (pt 2256 1016))
(junction (pt 2256 1144))
(junction (pt 2256 1184))
(junction (pt 2256 1320))
(junction (pt 2072 1008))
(junction (pt 2072 1544))
(junction (pt 2280 1200))
(junction (pt 3088 808))
(junction (pt 2128 808))
(junction (pt 2656 1104))
(junction (pt 2656 1272))
(junction (pt 2656 1496))
(junction (pt 2680 1456))
(junction (pt 2680 1344))
(junction (pt 2680 1168))
(junction (pt 1792 640))
(junction (pt 2680 1032))
(junction (pt 2280 952))
(junction (pt 2656 952))
(junction (pt 2072 536))
(junction (pt 2280 664))
(junction (pt 2544 648))
(junction (pt 2544 808))
(junction (pt 1584 440))
(junction (pt 3144 984))
(junction (pt 1792 952))
(junction (pt 1328 952))
(junction (pt 1296 616))
(junction (pt 1296 552))
(junction (pt 1328 568))
(junction (pt 1768 608))
