/*
WARNING: Do NOT edit the input and output ports in this file in a text
editor if you plan to continue editing the block that represents it in
the Block Editor! File corruption is VERY likely to occur.
*/
/*
Copyright (C) 1991-2010 Altera Corporation
Your use of Altera Corporation's design tools, logic functions 
and other software and tools, and its AMPP partner logic 
functions, and any output files from any of the foregoing 
(including device programming or simulation files), and any 
associated documentation or information are expressly subject 
to the terms and conditions of the Altera Program License 
Subscription Agreement, Altera MegaCore Function License 
Agreement, or other applicable license agreement, including, 
without limitation, that your use is for the sole purpose of 
programming logic devices manufactured by Altera and sold by 
Altera or its authorized distributors.  Please refer to the 
applicable agreement for further details.
*/
//#pragma file_not_in_maxplusii_format
(header "graphic" (version "1.3"))
(pin
	(input)
	(rect 888 448 1056 464)
	(text "INPUT" (rect 133 0 161 10)(font "Arial" (font_size 6)))
	(text "IN" (rect 5 0 16 12)(font "Arial" ))
	(pt 168 8)
	(drawing
		(line (pt 92 12)(pt 117 12)(line_width 1))
		(line (pt 92 4)(pt 117 4)(line_width 1))
		(line (pt 121 8)(pt 168 8)(line_width 1))
		(line (pt 92 12)(pt 92 4)(line_width 1))
		(line (pt 117 4)(pt 121 8)(line_width 1))
		(line (pt 117 12)(pt 121 8)(line_width 1))
	)
	(text "VCC" (rect 136 7 156 17)(font "Arial" (font_size 6)))
)
(pin
	(input)
	(rect 888 504 1056 520)
	(text "INPUT" (rect 133 0 161 10)(font "Arial" (font_size 6)))
	(text "clock" (rect 5 0 30 12)(font "Arial" ))
	(pt 168 8)
	(drawing
		(line (pt 92 12)(pt 117 12)(line_width 1))
		(line (pt 92 4)(pt 117 4)(line_width 1))
		(line (pt 121 8)(pt 168 8)(line_width 1))
		(line (pt 92 12)(pt 92 4)(line_width 1))
		(line (pt 117 4)(pt 121 8)(line_width 1))
		(line (pt 117 12)(pt 121 8)(line_width 1))
	)
	(text "VCC" (rect 136 7 156 17)(font "Arial" (font_size 6)))
)
(pin
	(input)
	(rect 888 536 1056 552)
	(text "INPUT" (rect 133 0 161 10)(font "Arial" (font_size 6)))
	(text "enable" (rect 5 0 36 12)(font "Arial" ))
	(pt 168 8)
	(drawing
		(line (pt 92 12)(pt 117 12)(line_width 1))
		(line (pt 92 4)(pt 117 4)(line_width 1))
		(line (pt 121 8)(pt 168 8)(line_width 1))
		(line (pt 92 12)(pt 92 4)(line_width 1))
		(line (pt 117 4)(pt 121 8)(line_width 1))
		(line (pt 117 12)(pt 121 8)(line_width 1))
	)
	(text "VCC" (rect 136 7 156 17)(font "Arial" (font_size 6)))
)
(pin
	(output)
	(rect 1800 472 1976 488)
	(text "OUTPUT" (rect 1 0 39 10)(font "Arial" (font_size 6)))
	(text "OUT" (rect 90 0 112 12)(font "Arial" ))
	(pt 0 8)
	(drawing
		(line (pt 0 8)(pt 52 8)(line_width 1))
		(line (pt 52 4)(pt 78 4)(line_width 1))
		(line (pt 52 12)(pt 78 12)(line_width 1))
		(line (pt 52 12)(pt 52 4)(line_width 1))
		(line (pt 78 4)(pt 82 8)(line_width 1))
		(line (pt 82 8)(pt 78 12)(line_width 1))
		(line (pt 78 12)(pt 82 8)(line_width 1))
	)
)
(symbol
	(rect 1608 432 1752 512)
	(text "PS_DFF_1" (rect 40 1 115 17)(font "Arial" (font_size 10)))
	(text "inst35" (rect 8 64 37 76)(font "Arial" ))
	(port
		(pt 0 32)
		(input)
		(text "data" (rect 0 0 24 14)(font "Arial" (font_size 8)))
		(text "data" (rect 20 26 44 40)(font "Arial" (font_size 8)))
		(line (pt 0 32)(pt 16 32)(line_width 1))
	)
	(port
		(pt 0 48)
		(input)
		(text "clock" (rect 0 0 29 14)(font "Arial" (font_size 8)))
		(text "clock" (rect 26 42 55 56)(font "Arial" (font_size 8)))
		(line (pt 0 48)(pt 16 48)(line_width 1))
	)
	(port
		(pt 144 48)
		(output)
		(text "q" (rect 0 0 7 14)(font "Arial" (font_size 8)))
		(text "q" (rect 119 42 126 56)(font "Arial" (font_size 8)))
		(line (pt 144 48)(pt 128 48)(line_width 1))
	)
	(drawing
		(text "DFF" (rect 109 17 131 29)(font "Arial" ))
		(line (pt 16 16)(pt 128 16)(line_width 1))
		(line (pt 128 16)(pt 128 64)(line_width 1))
		(line (pt 128 64)(pt 16 64)(line_width 1))
		(line (pt 16 64)(pt 16 16)(line_width 1))
		(line (pt 16 42)(pt 22 48)(line_width 1))
		(line (pt 22 48)(pt 16 54)(line_width 1))
	)
)
(symbol
	(rect 1168 424 1264 520)
	(text "PS_DFF_1x65" (rect 5 0 85 14)(font "Arial" (font_size 8)))
	(text "inst36" (rect 8 80 37 92)(font "Arial" ))
	(port
		(pt 0 32)
		(input)
		(text "in" (rect 0 0 9 14)(font "Arial" (font_size 8)))
		(text "in" (rect 21 27 30 41)(font "Arial" (font_size 8)))
		(line (pt 0 32)(pt 16 32)(line_width 1))
	)
	(port
		(pt 0 48)
		(input)
		(text "ck" (rect 0 0 12 14)(font "Arial" (font_size 8)))
		(text "ck" (rect 21 43 33 57)(font "Arial" (font_size 8)))
		(line (pt 0 48)(pt 16 48)(line_width 1))
	)
	(port
		(pt 96 32)
		(output)
		(text "out" (rect 0 0 17 14)(font "Arial" (font_size 8)))
		(text "out" (rect 58 27 75 41)(font "Arial" (font_size 8)))
		(line (pt 96 32)(pt 80 32)(line_width 1))
	)
	(drawing
		(rectangle (rect 16 16 80 80)(line_width 1))
	)
)
(symbol
	(rect 1424 416 1504 496)
	(text "PS_MUX_1" (rect 7 2 84 18)(font "Arial" (font_size 10)))
	(text "inst37" (rect 8 64 37 76)(font "Arial" ))
	(port
		(pt 0 40)
		(input)
		(text "data1" (rect 0 0 31 14)(font "Arial" (font_size 8)))
		(text "data1" (rect 4 27 35 41)(font "Arial" (font_size 8)))
		(line (pt 0 40)(pt 32 40)(line_width 1))
	)
	(port
		(pt 0 56)
		(input)
		(text "data0" (rect 0 0 31 14)(font "Arial" (font_size 8)))
		(text "data0" (rect 4 43 35 57)(font "Arial" (font_size 8)))
		(line (pt 0 56)(pt 32 56)(line_width 1))
	)
	(port
		(pt 40 80)
		(input)
		(text "sel" (rect 0 0 16 14)(font "Arial" (font_size 8)))
		(text "sel" (rect 44 67 60 81)(font "Arial" (font_size 8)))
		(line (pt 40 80)(pt 40 68)(line_width 1))
	)
	(port
		(pt 80 48)
		(output)
		(text "result" (rect 0 0 31 14)(font "Arial" (font_size 8)))
		(text "result" (rect 50 35 81 49)(font "Arial" (font_size 8)))
		(line (pt 80 48)(pt 48 48)(line_width 1))
	)
	(drawing
		(line (pt 32 24)(pt 32 72)(line_width 1))
		(line (pt 48 32)(pt 48 64)(line_width 1))
		(line (pt 32 24)(pt 48 32)(line_width 1))
		(line (pt 32 72)(pt 48 64)(line_width 1))
	)
)
(connector
	(text "clock" (rect 1570 464 1595 476)(font "Arial" ))
	(pt 1608 480)
	(pt 1560 480)
)
(connector
	(pt 1752 480)
	(pt 1800 480)
)
(connector
	(pt 1264 456)
	(pt 1424 456)
)
(connector
	(pt 1504 464)
	(pt 1608 464)
)
(connector
	(pt 1464 496)
	(pt 1464 520)
)
(connector
	(text "enable" (rect 1442 504 1473 516)(font "Arial" ))
	(pt 1464 520)
	(pt 1432 520)
)
(connector
	(text "clock" (rect 1066 456 1091 468)(font "Arial" ))
	(pt 1056 472)
	(pt 1168 472)
)
(connector
	(pt 1424 472)
	(pt 1328 472)
)
(connector
	(pt 1328 472)
	(pt 1328 368)
)
(connector
	(pt 1328 368)
	(pt 1120 368)
)
(connector
	(pt 1120 368)
	(pt 1120 456)
)
(connector
	(pt 1056 456)
	(pt 1120 456)
)
(connector
	(pt 1120 456)
	(pt 1168 456)
)
(junction (pt 1120 456))
