/*
WARNING: Do NOT edit the input and output ports in this file in a text
editor if you plan to continue editing the block that represents it in
the Block Editor! File corruption is VERY likely to occur.
*/
/*
Copyright (C) 1991-2012 Altera Corporation
Your use of Altera Corporation's design tools, logic functions 
and other software and tools, and its AMPP partner logic 
functions, and any output files from any of the foregoing 
(including device programming or simulation files), and any 
associated documentation or information are expressly subject 
to the terms and conditions of the Altera Program License 
Subscription Agreement, Altera MegaCore Function License 
Agreement, or other applicable license agreement, including, 
without limitation, that your use is for the sole purpose of 
programming logic devices manufactured by Altera and sold by 
Altera or its authorized distributors.  Please refer to the 
applicable agreement for further details.
*/
//#pragma file_not_in_maxplusii_format
(header "graphic" (version "1.4"))
(pin
	(input)
	(rect -128 64 40 80)
	(text "INPUT" (rect 133 0 161 10)(font "Arial" (font_size 6)))
	(text "in[223..0]" (rect 5 0 51 12)(font "Arial" ))
	(pt 168 8)
	(drawing
		(line (pt 92 12)(pt 117 12))
		(line (pt 92 4)(pt 117 4))
		(line (pt 121 8)(pt 168 8))
		(line (pt 92 12)(pt 92 4))
		(line (pt 117 4)(pt 121 8))
		(line (pt 117 12)(pt 121 8))
	)
	(text "VCC" (rect 136 7 156 17)(font "Arial" (font_size 6)))
)
(pin
	(input)
	(rect -128 80 40 96)
	(text "INPUT" (rect 133 0 161 10)(font "Arial" (font_size 6)))
	(text "clock" (rect 5 0 30 12)(font "Arial" ))
	(pt 168 8)
	(drawing
		(line (pt 92 12)(pt 117 12))
		(line (pt 92 4)(pt 117 4))
		(line (pt 121 8)(pt 168 8))
		(line (pt 92 12)(pt 92 4))
		(line (pt 117 4)(pt 121 8))
		(line (pt 117 12)(pt 121 8))
	)
	(text "VCC" (rect 136 7 156 17)(font "Arial" (font_size 6)))
)
(pin
	(output)
	(rect 1592 1848 1768 1864)
	(text "OUTPUT" (rect 1 0 39 10)(font "Arial" (font_size 6)))
	(text "out[223..0]" (rect 90 0 143 12)(font "Arial" ))
	(pt 0 8)
	(drawing
		(line (pt 0 8)(pt 52 8))
		(line (pt 52 4)(pt 78 4))
		(line (pt 52 12)(pt 78 12))
		(line (pt 52 12)(pt 52 4))
		(line (pt 78 4)(pt 82 8))
		(line (pt 82 8)(pt 78 12))
		(line (pt 78 12)(pt 82 8))
	)
)
(symbol
	(rect 136 40 280 120)
	(text "dff224" (rect 55 1 95 17)(font "Arial" (font_size 10)))
	(text "inst" (rect 8 64 25 76)(font "Arial" ))
	(port
		(pt 0 32)
		(input)
		(text "data[223..0]" (rect 0 0 67 14)(font "Arial" (font_size 8)))
		(text "data[223..0]" (rect 20 26 87 40)(font "Arial" (font_size 8)))
		(line (pt 0 32)(pt 16 32)(line_width 3))
	)
	(port
		(pt 0 48)
		(input)
		(text "clock" (rect 0 0 29 14)(font "Arial" (font_size 8)))
		(text "clock" (rect 26 42 55 56)(font "Arial" (font_size 8)))
		(line (pt 0 48)(pt 16 48))
	)
	(port
		(pt 144 48)
		(output)
		(text "q[223..0]" (rect 0 0 49 14)(font "Arial" (font_size 8)))
		(text "q[223..0]" (rect 83 42 132 56)(font "Arial" (font_size 8)))
		(line (pt 144 48)(pt 128 48)(line_width 3))
	)
	(drawing
		(text "DFF" (rect 109 17 131 29)(font "Arial" ))
		(line (pt 16 16)(pt 128 16))
		(line (pt 128 16)(pt 128 64))
		(line (pt 128 64)(pt 16 64))
		(line (pt 16 64)(pt 16 16))
		(line (pt 16 42)(pt 22 48))
		(line (pt 22 48)(pt 16 54))
	)
)
(symbol
	(rect 312 56 456 136)
	(text "dff224" (rect 55 1 95 17)(font "Arial" (font_size 10)))
	(text "inst1" (rect 8 64 31 76)(font "Arial" ))
	(port
		(pt 0 32)
		(input)
		(text "data[223..0]" (rect 0 0 67 14)(font "Arial" (font_size 8)))
		(text "data[223..0]" (rect 20 26 87 40)(font "Arial" (font_size 8)))
		(line (pt 0 32)(pt 16 32)(line_width 3))
	)
	(port
		(pt 0 48)
		(input)
		(text "clock" (rect 0 0 29 14)(font "Arial" (font_size 8)))
		(text "clock" (rect 26 42 55 56)(font "Arial" (font_size 8)))
		(line (pt 0 48)(pt 16 48))
	)
	(port
		(pt 144 48)
		(output)
		(text "q[223..0]" (rect 0 0 49 14)(font "Arial" (font_size 8)))
		(text "q[223..0]" (rect 83 42 132 56)(font "Arial" (font_size 8)))
		(line (pt 144 48)(pt 128 48)(line_width 3))
	)
	(drawing
		(text "DFF" (rect 109 17 131 29)(font "Arial" ))
		(line (pt 16 16)(pt 128 16))
		(line (pt 128 16)(pt 128 64))
		(line (pt 128 64)(pt 16 64))
		(line (pt 16 64)(pt 16 16))
		(line (pt 16 42)(pt 22 48))
		(line (pt 22 48)(pt 16 54))
	)
)
(symbol
	(rect 488 72 632 152)
	(text "dff224" (rect 55 1 95 17)(font "Arial" (font_size 10)))
	(text "inst2" (rect 8 64 31 76)(font "Arial" ))
	(port
		(pt 0 32)
		(input)
		(text "data[223..0]" (rect 0 0 67 14)(font "Arial" (font_size 8)))
		(text "data[223..0]" (rect 20 26 87 40)(font "Arial" (font_size 8)))
		(line (pt 0 32)(pt 16 32)(line_width 3))
	)
	(port
		(pt 0 48)
		(input)
		(text "clock" (rect 0 0 29 14)(font "Arial" (font_size 8)))
		(text "clock" (rect 26 42 55 56)(font "Arial" (font_size 8)))
		(line (pt 0 48)(pt 16 48))
	)
	(port
		(pt 144 48)
		(output)
		(text "q[223..0]" (rect 0 0 49 14)(font "Arial" (font_size 8)))
		(text "q[223..0]" (rect 83 42 132 56)(font "Arial" (font_size 8)))
		(line (pt 144 48)(pt 128 48)(line_width 3))
	)
	(drawing
		(text "DFF" (rect 109 17 131 29)(font "Arial" ))
		(line (pt 16 16)(pt 128 16))
		(line (pt 128 16)(pt 128 64))
		(line (pt 128 64)(pt 16 64))
		(line (pt 16 64)(pt 16 16))
		(line (pt 16 42)(pt 22 48))
		(line (pt 22 48)(pt 16 54))
	)
)
(symbol
	(rect 664 88 808 168)
	(text "dff224" (rect 55 1 95 17)(font "Arial" (font_size 10)))
	(text "inst3" (rect 8 64 31 76)(font "Arial" ))
	(port
		(pt 0 32)
		(input)
		(text "data[223..0]" (rect 0 0 67 14)(font "Arial" (font_size 8)))
		(text "data[223..0]" (rect 20 26 87 40)(font "Arial" (font_size 8)))
		(line (pt 0 32)(pt 16 32)(line_width 3))
	)
	(port
		(pt 0 48)
		(input)
		(text "clock" (rect 0 0 29 14)(font "Arial" (font_size 8)))
		(text "clock" (rect 26 42 55 56)(font "Arial" (font_size 8)))
		(line (pt 0 48)(pt 16 48))
	)
	(port
		(pt 144 48)
		(output)
		(text "q[223..0]" (rect 0 0 49 14)(font "Arial" (font_size 8)))
		(text "q[223..0]" (rect 83 42 132 56)(font "Arial" (font_size 8)))
		(line (pt 144 48)(pt 128 48)(line_width 3))
	)
	(drawing
		(text "DFF" (rect 109 17 131 29)(font "Arial" ))
		(line (pt 16 16)(pt 128 16))
		(line (pt 128 16)(pt 128 64))
		(line (pt 128 64)(pt 16 64))
		(line (pt 16 64)(pt 16 16))
		(line (pt 16 42)(pt 22 48))
		(line (pt 22 48)(pt 16 54))
	)
)
(symbol
	(rect 840 104 984 184)
	(text "dff224" (rect 55 1 95 17)(font "Arial" (font_size 10)))
	(text "inst4" (rect 8 64 31 76)(font "Arial" ))
	(port
		(pt 0 32)
		(input)
		(text "data[223..0]" (rect 0 0 67 14)(font "Arial" (font_size 8)))
		(text "data[223..0]" (rect 20 26 87 40)(font "Arial" (font_size 8)))
		(line (pt 0 32)(pt 16 32)(line_width 3))
	)
	(port
		(pt 0 48)
		(input)
		(text "clock" (rect 0 0 29 14)(font "Arial" (font_size 8)))
		(text "clock" (rect 26 42 55 56)(font "Arial" (font_size 8)))
		(line (pt 0 48)(pt 16 48))
	)
	(port
		(pt 144 48)
		(output)
		(text "q[223..0]" (rect 0 0 49 14)(font "Arial" (font_size 8)))
		(text "q[223..0]" (rect 83 42 132 56)(font "Arial" (font_size 8)))
		(line (pt 144 48)(pt 128 48)(line_width 3))
	)
	(drawing
		(text "DFF" (rect 109 17 131 29)(font "Arial" ))
		(line (pt 16 16)(pt 128 16))
		(line (pt 128 16)(pt 128 64))
		(line (pt 128 64)(pt 16 64))
		(line (pt 16 64)(pt 16 16))
		(line (pt 16 42)(pt 22 48))
		(line (pt 22 48)(pt 16 54))
	)
)
(symbol
	(rect 1016 120 1160 200)
	(text "dff224" (rect 55 1 95 17)(font "Arial" (font_size 10)))
	(text "inst5" (rect 8 64 31 76)(font "Arial" ))
	(port
		(pt 0 32)
		(input)
		(text "data[223..0]" (rect 0 0 67 14)(font "Arial" (font_size 8)))
		(text "data[223..0]" (rect 20 26 87 40)(font "Arial" (font_size 8)))
		(line (pt 0 32)(pt 16 32)(line_width 3))
	)
	(port
		(pt 0 48)
		(input)
		(text "clock" (rect 0 0 29 14)(font "Arial" (font_size 8)))
		(text "clock" (rect 26 42 55 56)(font "Arial" (font_size 8)))
		(line (pt 0 48)(pt 16 48))
	)
	(port
		(pt 144 48)
		(output)
		(text "q[223..0]" (rect 0 0 49 14)(font "Arial" (font_size 8)))
		(text "q[223..0]" (rect 83 42 132 56)(font "Arial" (font_size 8)))
		(line (pt 144 48)(pt 128 48)(line_width 3))
	)
	(drawing
		(text "DFF" (rect 109 17 131 29)(font "Arial" ))
		(line (pt 16 16)(pt 128 16))
		(line (pt 128 16)(pt 128 64))
		(line (pt 128 64)(pt 16 64))
		(line (pt 16 64)(pt 16 16))
		(line (pt 16 42)(pt 22 48))
		(line (pt 22 48)(pt 16 54))
	)
)
(symbol
	(rect 1192 136 1336 216)
	(text "dff224" (rect 55 1 95 17)(font "Arial" (font_size 10)))
	(text "inst6" (rect 8 64 31 76)(font "Arial" ))
	(port
		(pt 0 32)
		(input)
		(text "data[223..0]" (rect 0 0 67 14)(font "Arial" (font_size 8)))
		(text "data[223..0]" (rect 20 26 87 40)(font "Arial" (font_size 8)))
		(line (pt 0 32)(pt 16 32)(line_width 3))
	)
	(port
		(pt 0 48)
		(input)
		(text "clock" (rect 0 0 29 14)(font "Arial" (font_size 8)))
		(text "clock" (rect 26 42 55 56)(font "Arial" (font_size 8)))
		(line (pt 0 48)(pt 16 48))
	)
	(port
		(pt 144 48)
		(output)
		(text "q[223..0]" (rect 0 0 49 14)(font "Arial" (font_size 8)))
		(text "q[223..0]" (rect 83 42 132 56)(font "Arial" (font_size 8)))
		(line (pt 144 48)(pt 128 48)(line_width 3))
	)
	(drawing
		(text "DFF" (rect 109 17 131 29)(font "Arial" ))
		(line (pt 16 16)(pt 128 16))
		(line (pt 128 16)(pt 128 64))
		(line (pt 128 64)(pt 16 64))
		(line (pt 16 64)(pt 16 16))
		(line (pt 16 42)(pt 22 48))
		(line (pt 22 48)(pt 16 54))
	)
)
(symbol
	(rect 1368 152 1512 232)
	(text "dff224" (rect 55 1 95 17)(font "Arial" (font_size 10)))
	(text "inst7" (rect 8 64 31 76)(font "Arial" ))
	(port
		(pt 0 32)
		(input)
		(text "data[223..0]" (rect 0 0 67 14)(font "Arial" (font_size 8)))
		(text "data[223..0]" (rect 20 26 87 40)(font "Arial" (font_size 8)))
		(line (pt 0 32)(pt 16 32)(line_width 3))
	)
	(port
		(pt 0 48)
		(input)
		(text "clock" (rect 0 0 29 14)(font "Arial" (font_size 8)))
		(text "clock" (rect 26 42 55 56)(font "Arial" (font_size 8)))
		(line (pt 0 48)(pt 16 48))
	)
	(port
		(pt 144 48)
		(output)
		(text "q[223..0]" (rect 0 0 49 14)(font "Arial" (font_size 8)))
		(text "q[223..0]" (rect 83 42 132 56)(font "Arial" (font_size 8)))
		(line (pt 144 48)(pt 128 48)(line_width 3))
	)
	(drawing
		(text "DFF" (rect 109 17 131 29)(font "Arial" ))
		(line (pt 16 16)(pt 128 16))
		(line (pt 128 16)(pt 128 64))
		(line (pt 128 64)(pt 16 64))
		(line (pt 16 64)(pt 16 16))
		(line (pt 16 42)(pt 22 48))
		(line (pt 22 48)(pt 16 54))
	)
)
(symbol
	(rect 136 272 280 352)
	(text "dff224" (rect 55 1 95 17)(font "Arial" (font_size 10)))
	(text "inst8" (rect 8 64 31 76)(font "Arial" ))
	(port
		(pt 0 32)
		(input)
		(text "data[223..0]" (rect 0 0 67 14)(font "Arial" (font_size 8)))
		(text "data[223..0]" (rect 20 26 87 40)(font "Arial" (font_size 8)))
		(line (pt 0 32)(pt 16 32)(line_width 3))
	)
	(port
		(pt 0 48)
		(input)
		(text "clock" (rect 0 0 29 14)(font "Arial" (font_size 8)))
		(text "clock" (rect 26 42 55 56)(font "Arial" (font_size 8)))
		(line (pt 0 48)(pt 16 48))
	)
	(port
		(pt 144 48)
		(output)
		(text "q[223..0]" (rect 0 0 49 14)(font "Arial" (font_size 8)))
		(text "q[223..0]" (rect 83 42 132 56)(font "Arial" (font_size 8)))
		(line (pt 144 48)(pt 128 48)(line_width 3))
	)
	(drawing
		(text "DFF" (rect 109 17 131 29)(font "Arial" ))
		(line (pt 16 16)(pt 128 16))
		(line (pt 128 16)(pt 128 64))
		(line (pt 128 64)(pt 16 64))
		(line (pt 16 64)(pt 16 16))
		(line (pt 16 42)(pt 22 48))
		(line (pt 22 48)(pt 16 54))
	)
)
(symbol
	(rect 312 288 456 368)
	(text "dff224" (rect 55 1 95 17)(font "Arial" (font_size 10)))
	(text "inst9" (rect 8 64 31 76)(font "Arial" ))
	(port
		(pt 0 32)
		(input)
		(text "data[223..0]" (rect 0 0 67 14)(font "Arial" (font_size 8)))
		(text "data[223..0]" (rect 20 26 87 40)(font "Arial" (font_size 8)))
		(line (pt 0 32)(pt 16 32)(line_width 3))
	)
	(port
		(pt 0 48)
		(input)
		(text "clock" (rect 0 0 29 14)(font "Arial" (font_size 8)))
		(text "clock" (rect 26 42 55 56)(font "Arial" (font_size 8)))
		(line (pt 0 48)(pt 16 48))
	)
	(port
		(pt 144 48)
		(output)
		(text "q[223..0]" (rect 0 0 49 14)(font "Arial" (font_size 8)))
		(text "q[223..0]" (rect 83 42 132 56)(font "Arial" (font_size 8)))
		(line (pt 144 48)(pt 128 48)(line_width 3))
	)
	(drawing
		(text "DFF" (rect 109 17 131 29)(font "Arial" ))
		(line (pt 16 16)(pt 128 16))
		(line (pt 128 16)(pt 128 64))
		(line (pt 128 64)(pt 16 64))
		(line (pt 16 64)(pt 16 16))
		(line (pt 16 42)(pt 22 48))
		(line (pt 22 48)(pt 16 54))
	)
)
(symbol
	(rect 488 304 632 384)
	(text "dff224" (rect 55 1 95 17)(font "Arial" (font_size 10)))
	(text "inst10" (rect 8 64 37 76)(font "Arial" ))
	(port
		(pt 0 32)
		(input)
		(text "data[223..0]" (rect 0 0 67 14)(font "Arial" (font_size 8)))
		(text "data[223..0]" (rect 20 26 87 40)(font "Arial" (font_size 8)))
		(line (pt 0 32)(pt 16 32)(line_width 3))
	)
	(port
		(pt 0 48)
		(input)
		(text "clock" (rect 0 0 29 14)(font "Arial" (font_size 8)))
		(text "clock" (rect 26 42 55 56)(font "Arial" (font_size 8)))
		(line (pt 0 48)(pt 16 48))
	)
	(port
		(pt 144 48)
		(output)
		(text "q[223..0]" (rect 0 0 49 14)(font "Arial" (font_size 8)))
		(text "q[223..0]" (rect 83 42 132 56)(font "Arial" (font_size 8)))
		(line (pt 144 48)(pt 128 48)(line_width 3))
	)
	(drawing
		(text "DFF" (rect 109 17 131 29)(font "Arial" ))
		(line (pt 16 16)(pt 128 16))
		(line (pt 128 16)(pt 128 64))
		(line (pt 128 64)(pt 16 64))
		(line (pt 16 64)(pt 16 16))
		(line (pt 16 42)(pt 22 48))
		(line (pt 22 48)(pt 16 54))
	)
)
(symbol
	(rect 664 320 808 400)
	(text "dff224" (rect 55 1 95 17)(font "Arial" (font_size 10)))
	(text "inst11" (rect 8 64 37 76)(font "Arial" ))
	(port
		(pt 0 32)
		(input)
		(text "data[223..0]" (rect 0 0 67 14)(font "Arial" (font_size 8)))
		(text "data[223..0]" (rect 20 26 87 40)(font "Arial" (font_size 8)))
		(line (pt 0 32)(pt 16 32)(line_width 3))
	)
	(port
		(pt 0 48)
		(input)
		(text "clock" (rect 0 0 29 14)(font "Arial" (font_size 8)))
		(text "clock" (rect 26 42 55 56)(font "Arial" (font_size 8)))
		(line (pt 0 48)(pt 16 48))
	)
	(port
		(pt 144 48)
		(output)
		(text "q[223..0]" (rect 0 0 49 14)(font "Arial" (font_size 8)))
		(text "q[223..0]" (rect 83 42 132 56)(font "Arial" (font_size 8)))
		(line (pt 144 48)(pt 128 48)(line_width 3))
	)
	(drawing
		(text "DFF" (rect 109 17 131 29)(font "Arial" ))
		(line (pt 16 16)(pt 128 16))
		(line (pt 128 16)(pt 128 64))
		(line (pt 128 64)(pt 16 64))
		(line (pt 16 64)(pt 16 16))
		(line (pt 16 42)(pt 22 48))
		(line (pt 22 48)(pt 16 54))
	)
)
(symbol
	(rect 840 336 984 416)
	(text "dff224" (rect 55 1 95 17)(font "Arial" (font_size 10)))
	(text "inst12" (rect 8 64 37 76)(font "Arial" ))
	(port
		(pt 0 32)
		(input)
		(text "data[223..0]" (rect 0 0 67 14)(font "Arial" (font_size 8)))
		(text "data[223..0]" (rect 20 26 87 40)(font "Arial" (font_size 8)))
		(line (pt 0 32)(pt 16 32)(line_width 3))
	)
	(port
		(pt 0 48)
		(input)
		(text "clock" (rect 0 0 29 14)(font "Arial" (font_size 8)))
		(text "clock" (rect 26 42 55 56)(font "Arial" (font_size 8)))
		(line (pt 0 48)(pt 16 48))
	)
	(port
		(pt 144 48)
		(output)
		(text "q[223..0]" (rect 0 0 49 14)(font "Arial" (font_size 8)))
		(text "q[223..0]" (rect 83 42 132 56)(font "Arial" (font_size 8)))
		(line (pt 144 48)(pt 128 48)(line_width 3))
	)
	(drawing
		(text "DFF" (rect 109 17 131 29)(font "Arial" ))
		(line (pt 16 16)(pt 128 16))
		(line (pt 128 16)(pt 128 64))
		(line (pt 128 64)(pt 16 64))
		(line (pt 16 64)(pt 16 16))
		(line (pt 16 42)(pt 22 48))
		(line (pt 22 48)(pt 16 54))
	)
)
(symbol
	(rect 1016 352 1160 432)
	(text "dff224" (rect 55 1 95 17)(font "Arial" (font_size 10)))
	(text "inst13" (rect 8 64 37 76)(font "Arial" ))
	(port
		(pt 0 32)
		(input)
		(text "data[223..0]" (rect 0 0 67 14)(font "Arial" (font_size 8)))
		(text "data[223..0]" (rect 20 26 87 40)(font "Arial" (font_size 8)))
		(line (pt 0 32)(pt 16 32)(line_width 3))
	)
	(port
		(pt 0 48)
		(input)
		(text "clock" (rect 0 0 29 14)(font "Arial" (font_size 8)))
		(text "clock" (rect 26 42 55 56)(font "Arial" (font_size 8)))
		(line (pt 0 48)(pt 16 48))
	)
	(port
		(pt 144 48)
		(output)
		(text "q[223..0]" (rect 0 0 49 14)(font "Arial" (font_size 8)))
		(text "q[223..0]" (rect 83 42 132 56)(font "Arial" (font_size 8)))
		(line (pt 144 48)(pt 128 48)(line_width 3))
	)
	(drawing
		(text "DFF" (rect 109 17 131 29)(font "Arial" ))
		(line (pt 16 16)(pt 128 16))
		(line (pt 128 16)(pt 128 64))
		(line (pt 128 64)(pt 16 64))
		(line (pt 16 64)(pt 16 16))
		(line (pt 16 42)(pt 22 48))
		(line (pt 22 48)(pt 16 54))
	)
)
(symbol
	(rect 1192 368 1336 448)
	(text "dff224" (rect 55 1 95 17)(font "Arial" (font_size 10)))
	(text "inst14" (rect 8 64 37 76)(font "Arial" ))
	(port
		(pt 0 32)
		(input)
		(text "data[223..0]" (rect 0 0 67 14)(font "Arial" (font_size 8)))
		(text "data[223..0]" (rect 20 26 87 40)(font "Arial" (font_size 8)))
		(line (pt 0 32)(pt 16 32)(line_width 3))
	)
	(port
		(pt 0 48)
		(input)
		(text "clock" (rect 0 0 29 14)(font "Arial" (font_size 8)))
		(text "clock" (rect 26 42 55 56)(font "Arial" (font_size 8)))
		(line (pt 0 48)(pt 16 48))
	)
	(port
		(pt 144 48)
		(output)
		(text "q[223..0]" (rect 0 0 49 14)(font "Arial" (font_size 8)))
		(text "q[223..0]" (rect 83 42 132 56)(font "Arial" (font_size 8)))
		(line (pt 144 48)(pt 128 48)(line_width 3))
	)
	(drawing
		(text "DFF" (rect 109 17 131 29)(font "Arial" ))
		(line (pt 16 16)(pt 128 16))
		(line (pt 128 16)(pt 128 64))
		(line (pt 128 64)(pt 16 64))
		(line (pt 16 64)(pt 16 16))
		(line (pt 16 42)(pt 22 48))
		(line (pt 22 48)(pt 16 54))
	)
)
(symbol
	(rect 1368 384 1512 464)
	(text "dff224" (rect 55 1 95 17)(font "Arial" (font_size 10)))
	(text "inst15" (rect 8 64 37 76)(font "Arial" ))
	(port
		(pt 0 32)
		(input)
		(text "data[223..0]" (rect 0 0 67 14)(font "Arial" (font_size 8)))
		(text "data[223..0]" (rect 20 26 87 40)(font "Arial" (font_size 8)))
		(line (pt 0 32)(pt 16 32)(line_width 3))
	)
	(port
		(pt 0 48)
		(input)
		(text "clock" (rect 0 0 29 14)(font "Arial" (font_size 8)))
		(text "clock" (rect 26 42 55 56)(font "Arial" (font_size 8)))
		(line (pt 0 48)(pt 16 48))
	)
	(port
		(pt 144 48)
		(output)
		(text "q[223..0]" (rect 0 0 49 14)(font "Arial" (font_size 8)))
		(text "q[223..0]" (rect 83 42 132 56)(font "Arial" (font_size 8)))
		(line (pt 144 48)(pt 128 48)(line_width 3))
	)
	(drawing
		(text "DFF" (rect 109 17 131 29)(font "Arial" ))
		(line (pt 16 16)(pt 128 16))
		(line (pt 128 16)(pt 128 64))
		(line (pt 128 64)(pt 16 64))
		(line (pt 16 64)(pt 16 16))
		(line (pt 16 42)(pt 22 48))
		(line (pt 22 48)(pt 16 54))
	)
)
(symbol
	(rect 136 520 280 600)
	(text "dff224" (rect 55 1 95 17)(font "Arial" (font_size 10)))
	(text "inst16" (rect 8 64 37 76)(font "Arial" ))
	(port
		(pt 0 32)
		(input)
		(text "data[223..0]" (rect 0 0 67 14)(font "Arial" (font_size 8)))
		(text "data[223..0]" (rect 20 26 87 40)(font "Arial" (font_size 8)))
		(line (pt 0 32)(pt 16 32)(line_width 3))
	)
	(port
		(pt 0 48)
		(input)
		(text "clock" (rect 0 0 29 14)(font "Arial" (font_size 8)))
		(text "clock" (rect 26 42 55 56)(font "Arial" (font_size 8)))
		(line (pt 0 48)(pt 16 48))
	)
	(port
		(pt 144 48)
		(output)
		(text "q[223..0]" (rect 0 0 49 14)(font "Arial" (font_size 8)))
		(text "q[223..0]" (rect 83 42 132 56)(font "Arial" (font_size 8)))
		(line (pt 144 48)(pt 128 48)(line_width 3))
	)
	(drawing
		(text "DFF" (rect 109 17 131 29)(font "Arial" ))
		(line (pt 16 16)(pt 128 16))
		(line (pt 128 16)(pt 128 64))
		(line (pt 128 64)(pt 16 64))
		(line (pt 16 64)(pt 16 16))
		(line (pt 16 42)(pt 22 48))
		(line (pt 22 48)(pt 16 54))
	)
)
(symbol
	(rect 312 536 456 616)
	(text "dff224" (rect 55 1 95 17)(font "Arial" (font_size 10)))
	(text "inst17" (rect 8 64 37 76)(font "Arial" ))
	(port
		(pt 0 32)
		(input)
		(text "data[223..0]" (rect 0 0 67 14)(font "Arial" (font_size 8)))
		(text "data[223..0]" (rect 20 26 87 40)(font "Arial" (font_size 8)))
		(line (pt 0 32)(pt 16 32)(line_width 3))
	)
	(port
		(pt 0 48)
		(input)
		(text "clock" (rect 0 0 29 14)(font "Arial" (font_size 8)))
		(text "clock" (rect 26 42 55 56)(font "Arial" (font_size 8)))
		(line (pt 0 48)(pt 16 48))
	)
	(port
		(pt 144 48)
		(output)
		(text "q[223..0]" (rect 0 0 49 14)(font "Arial" (font_size 8)))
		(text "q[223..0]" (rect 83 42 132 56)(font "Arial" (font_size 8)))
		(line (pt 144 48)(pt 128 48)(line_width 3))
	)
	(drawing
		(text "DFF" (rect 109 17 131 29)(font "Arial" ))
		(line (pt 16 16)(pt 128 16))
		(line (pt 128 16)(pt 128 64))
		(line (pt 128 64)(pt 16 64))
		(line (pt 16 64)(pt 16 16))
		(line (pt 16 42)(pt 22 48))
		(line (pt 22 48)(pt 16 54))
	)
)
(symbol
	(rect 488 552 632 632)
	(text "dff224" (rect 55 1 95 17)(font "Arial" (font_size 10)))
	(text "inst18" (rect 8 64 37 76)(font "Arial" ))
	(port
		(pt 0 32)
		(input)
		(text "data[223..0]" (rect 0 0 67 14)(font "Arial" (font_size 8)))
		(text "data[223..0]" (rect 20 26 87 40)(font "Arial" (font_size 8)))
		(line (pt 0 32)(pt 16 32)(line_width 3))
	)
	(port
		(pt 0 48)
		(input)
		(text "clock" (rect 0 0 29 14)(font "Arial" (font_size 8)))
		(text "clock" (rect 26 42 55 56)(font "Arial" (font_size 8)))
		(line (pt 0 48)(pt 16 48))
	)
	(port
		(pt 144 48)
		(output)
		(text "q[223..0]" (rect 0 0 49 14)(font "Arial" (font_size 8)))
		(text "q[223..0]" (rect 83 42 132 56)(font "Arial" (font_size 8)))
		(line (pt 144 48)(pt 128 48)(line_width 3))
	)
	(drawing
		(text "DFF" (rect 109 17 131 29)(font "Arial" ))
		(line (pt 16 16)(pt 128 16))
		(line (pt 128 16)(pt 128 64))
		(line (pt 128 64)(pt 16 64))
		(line (pt 16 64)(pt 16 16))
		(line (pt 16 42)(pt 22 48))
		(line (pt 22 48)(pt 16 54))
	)
)
(symbol
	(rect 664 568 808 648)
	(text "dff224" (rect 55 1 95 17)(font "Arial" (font_size 10)))
	(text "inst19" (rect 8 64 37 76)(font "Arial" ))
	(port
		(pt 0 32)
		(input)
		(text "data[223..0]" (rect 0 0 67 14)(font "Arial" (font_size 8)))
		(text "data[223..0]" (rect 20 26 87 40)(font "Arial" (font_size 8)))
		(line (pt 0 32)(pt 16 32)(line_width 3))
	)
	(port
		(pt 0 48)
		(input)
		(text "clock" (rect 0 0 29 14)(font "Arial" (font_size 8)))
		(text "clock" (rect 26 42 55 56)(font "Arial" (font_size 8)))
		(line (pt 0 48)(pt 16 48))
	)
	(port
		(pt 144 48)
		(output)
		(text "q[223..0]" (rect 0 0 49 14)(font "Arial" (font_size 8)))
		(text "q[223..0]" (rect 83 42 132 56)(font "Arial" (font_size 8)))
		(line (pt 144 48)(pt 128 48)(line_width 3))
	)
	(drawing
		(text "DFF" (rect 109 17 131 29)(font "Arial" ))
		(line (pt 16 16)(pt 128 16))
		(line (pt 128 16)(pt 128 64))
		(line (pt 128 64)(pt 16 64))
		(line (pt 16 64)(pt 16 16))
		(line (pt 16 42)(pt 22 48))
		(line (pt 22 48)(pt 16 54))
	)
)
(symbol
	(rect 840 584 984 664)
	(text "dff224" (rect 55 1 95 17)(font "Arial" (font_size 10)))
	(text "inst20" (rect 8 64 37 76)(font "Arial" ))
	(port
		(pt 0 32)
		(input)
		(text "data[223..0]" (rect 0 0 67 14)(font "Arial" (font_size 8)))
		(text "data[223..0]" (rect 20 26 87 40)(font "Arial" (font_size 8)))
		(line (pt 0 32)(pt 16 32)(line_width 3))
	)
	(port
		(pt 0 48)
		(input)
		(text "clock" (rect 0 0 29 14)(font "Arial" (font_size 8)))
		(text "clock" (rect 26 42 55 56)(font "Arial" (font_size 8)))
		(line (pt 0 48)(pt 16 48))
	)
	(port
		(pt 144 48)
		(output)
		(text "q[223..0]" (rect 0 0 49 14)(font "Arial" (font_size 8)))
		(text "q[223..0]" (rect 83 42 132 56)(font "Arial" (font_size 8)))
		(line (pt 144 48)(pt 128 48)(line_width 3))
	)
	(drawing
		(text "DFF" (rect 109 17 131 29)(font "Arial" ))
		(line (pt 16 16)(pt 128 16))
		(line (pt 128 16)(pt 128 64))
		(line (pt 128 64)(pt 16 64))
		(line (pt 16 64)(pt 16 16))
		(line (pt 16 42)(pt 22 48))
		(line (pt 22 48)(pt 16 54))
	)
)
(symbol
	(rect 1016 600 1160 680)
	(text "dff224" (rect 55 1 95 17)(font "Arial" (font_size 10)))
	(text "inst21" (rect 8 64 37 76)(font "Arial" ))
	(port
		(pt 0 32)
		(input)
		(text "data[223..0]" (rect 0 0 67 14)(font "Arial" (font_size 8)))
		(text "data[223..0]" (rect 20 26 87 40)(font "Arial" (font_size 8)))
		(line (pt 0 32)(pt 16 32)(line_width 3))
	)
	(port
		(pt 0 48)
		(input)
		(text "clock" (rect 0 0 29 14)(font "Arial" (font_size 8)))
		(text "clock" (rect 26 42 55 56)(font "Arial" (font_size 8)))
		(line (pt 0 48)(pt 16 48))
	)
	(port
		(pt 144 48)
		(output)
		(text "q[223..0]" (rect 0 0 49 14)(font "Arial" (font_size 8)))
		(text "q[223..0]" (rect 83 42 132 56)(font "Arial" (font_size 8)))
		(line (pt 144 48)(pt 128 48)(line_width 3))
	)
	(drawing
		(text "DFF" (rect 109 17 131 29)(font "Arial" ))
		(line (pt 16 16)(pt 128 16))
		(line (pt 128 16)(pt 128 64))
		(line (pt 128 64)(pt 16 64))
		(line (pt 16 64)(pt 16 16))
		(line (pt 16 42)(pt 22 48))
		(line (pt 22 48)(pt 16 54))
	)
)
(symbol
	(rect 1192 616 1336 696)
	(text "dff224" (rect 55 1 95 17)(font "Arial" (font_size 10)))
	(text "inst22" (rect 8 64 37 76)(font "Arial" ))
	(port
		(pt 0 32)
		(input)
		(text "data[223..0]" (rect 0 0 67 14)(font "Arial" (font_size 8)))
		(text "data[223..0]" (rect 20 26 87 40)(font "Arial" (font_size 8)))
		(line (pt 0 32)(pt 16 32)(line_width 3))
	)
	(port
		(pt 0 48)
		(input)
		(text "clock" (rect 0 0 29 14)(font "Arial" (font_size 8)))
		(text "clock" (rect 26 42 55 56)(font "Arial" (font_size 8)))
		(line (pt 0 48)(pt 16 48))
	)
	(port
		(pt 144 48)
		(output)
		(text "q[223..0]" (rect 0 0 49 14)(font "Arial" (font_size 8)))
		(text "q[223..0]" (rect 83 42 132 56)(font "Arial" (font_size 8)))
		(line (pt 144 48)(pt 128 48)(line_width 3))
	)
	(drawing
		(text "DFF" (rect 109 17 131 29)(font "Arial" ))
		(line (pt 16 16)(pt 128 16))
		(line (pt 128 16)(pt 128 64))
		(line (pt 128 64)(pt 16 64))
		(line (pt 16 64)(pt 16 16))
		(line (pt 16 42)(pt 22 48))
		(line (pt 22 48)(pt 16 54))
	)
)
(symbol
	(rect 1368 632 1512 712)
	(text "dff224" (rect 55 1 95 17)(font "Arial" (font_size 10)))
	(text "inst23" (rect 8 64 37 76)(font "Arial" ))
	(port
		(pt 0 32)
		(input)
		(text "data[223..0]" (rect 0 0 67 14)(font "Arial" (font_size 8)))
		(text "data[223..0]" (rect 20 26 87 40)(font "Arial" (font_size 8)))
		(line (pt 0 32)(pt 16 32)(line_width 3))
	)
	(port
		(pt 0 48)
		(input)
		(text "clock" (rect 0 0 29 14)(font "Arial" (font_size 8)))
		(text "clock" (rect 26 42 55 56)(font "Arial" (font_size 8)))
		(line (pt 0 48)(pt 16 48))
	)
	(port
		(pt 144 48)
		(output)
		(text "q[223..0]" (rect 0 0 49 14)(font "Arial" (font_size 8)))
		(text "q[223..0]" (rect 83 42 132 56)(font "Arial" (font_size 8)))
		(line (pt 144 48)(pt 128 48)(line_width 3))
	)
	(drawing
		(text "DFF" (rect 109 17 131 29)(font "Arial" ))
		(line (pt 16 16)(pt 128 16))
		(line (pt 128 16)(pt 128 64))
		(line (pt 128 64)(pt 16 64))
		(line (pt 16 64)(pt 16 16))
		(line (pt 16 42)(pt 22 48))
		(line (pt 22 48)(pt 16 54))
	)
)
(symbol
	(rect 136 752 280 832)
	(text "dff224" (rect 55 1 95 17)(font "Arial" (font_size 10)))
	(text "inst24" (rect 8 64 37 76)(font "Arial" ))
	(port
		(pt 0 32)
		(input)
		(text "data[223..0]" (rect 0 0 67 14)(font "Arial" (font_size 8)))
		(text "data[223..0]" (rect 20 26 87 40)(font "Arial" (font_size 8)))
		(line (pt 0 32)(pt 16 32)(line_width 3))
	)
	(port
		(pt 0 48)
		(input)
		(text "clock" (rect 0 0 29 14)(font "Arial" (font_size 8)))
		(text "clock" (rect 26 42 55 56)(font "Arial" (font_size 8)))
		(line (pt 0 48)(pt 16 48))
	)
	(port
		(pt 144 48)
		(output)
		(text "q[223..0]" (rect 0 0 49 14)(font "Arial" (font_size 8)))
		(text "q[223..0]" (rect 83 42 132 56)(font "Arial" (font_size 8)))
		(line (pt 144 48)(pt 128 48)(line_width 3))
	)
	(drawing
		(text "DFF" (rect 109 17 131 29)(font "Arial" ))
		(line (pt 16 16)(pt 128 16))
		(line (pt 128 16)(pt 128 64))
		(line (pt 128 64)(pt 16 64))
		(line (pt 16 64)(pt 16 16))
		(line (pt 16 42)(pt 22 48))
		(line (pt 22 48)(pt 16 54))
	)
)
(symbol
	(rect 312 768 456 848)
	(text "dff224" (rect 55 1 95 17)(font "Arial" (font_size 10)))
	(text "inst25" (rect 8 64 37 76)(font "Arial" ))
	(port
		(pt 0 32)
		(input)
		(text "data[223..0]" (rect 0 0 67 14)(font "Arial" (font_size 8)))
		(text "data[223..0]" (rect 20 26 87 40)(font "Arial" (font_size 8)))
		(line (pt 0 32)(pt 16 32)(line_width 3))
	)
	(port
		(pt 0 48)
		(input)
		(text "clock" (rect 0 0 29 14)(font "Arial" (font_size 8)))
		(text "clock" (rect 26 42 55 56)(font "Arial" (font_size 8)))
		(line (pt 0 48)(pt 16 48))
	)
	(port
		(pt 144 48)
		(output)
		(text "q[223..0]" (rect 0 0 49 14)(font "Arial" (font_size 8)))
		(text "q[223..0]" (rect 83 42 132 56)(font "Arial" (font_size 8)))
		(line (pt 144 48)(pt 128 48)(line_width 3))
	)
	(drawing
		(text "DFF" (rect 109 17 131 29)(font "Arial" ))
		(line (pt 16 16)(pt 128 16))
		(line (pt 128 16)(pt 128 64))
		(line (pt 128 64)(pt 16 64))
		(line (pt 16 64)(pt 16 16))
		(line (pt 16 42)(pt 22 48))
		(line (pt 22 48)(pt 16 54))
	)
)
(symbol
	(rect 488 784 632 864)
	(text "dff224" (rect 55 1 95 17)(font "Arial" (font_size 10)))
	(text "inst26" (rect 8 64 37 76)(font "Arial" ))
	(port
		(pt 0 32)
		(input)
		(text "data[223..0]" (rect 0 0 67 14)(font "Arial" (font_size 8)))
		(text "data[223..0]" (rect 20 26 87 40)(font "Arial" (font_size 8)))
		(line (pt 0 32)(pt 16 32)(line_width 3))
	)
	(port
		(pt 0 48)
		(input)
		(text "clock" (rect 0 0 29 14)(font "Arial" (font_size 8)))
		(text "clock" (rect 26 42 55 56)(font "Arial" (font_size 8)))
		(line (pt 0 48)(pt 16 48))
	)
	(port
		(pt 144 48)
		(output)
		(text "q[223..0]" (rect 0 0 49 14)(font "Arial" (font_size 8)))
		(text "q[223..0]" (rect 83 42 132 56)(font "Arial" (font_size 8)))
		(line (pt 144 48)(pt 128 48)(line_width 3))
	)
	(drawing
		(text "DFF" (rect 109 17 131 29)(font "Arial" ))
		(line (pt 16 16)(pt 128 16))
		(line (pt 128 16)(pt 128 64))
		(line (pt 128 64)(pt 16 64))
		(line (pt 16 64)(pt 16 16))
		(line (pt 16 42)(pt 22 48))
		(line (pt 22 48)(pt 16 54))
	)
)
(symbol
	(rect 664 800 808 880)
	(text "dff224" (rect 55 1 95 17)(font "Arial" (font_size 10)))
	(text "inst27" (rect 8 64 37 76)(font "Arial" ))
	(port
		(pt 0 32)
		(input)
		(text "data[223..0]" (rect 0 0 67 14)(font "Arial" (font_size 8)))
		(text "data[223..0]" (rect 20 26 87 40)(font "Arial" (font_size 8)))
		(line (pt 0 32)(pt 16 32)(line_width 3))
	)
	(port
		(pt 0 48)
		(input)
		(text "clock" (rect 0 0 29 14)(font "Arial" (font_size 8)))
		(text "clock" (rect 26 42 55 56)(font "Arial" (font_size 8)))
		(line (pt 0 48)(pt 16 48))
	)
	(port
		(pt 144 48)
		(output)
		(text "q[223..0]" (rect 0 0 49 14)(font "Arial" (font_size 8)))
		(text "q[223..0]" (rect 83 42 132 56)(font "Arial" (font_size 8)))
		(line (pt 144 48)(pt 128 48)(line_width 3))
	)
	(drawing
		(text "DFF" (rect 109 17 131 29)(font "Arial" ))
		(line (pt 16 16)(pt 128 16))
		(line (pt 128 16)(pt 128 64))
		(line (pt 128 64)(pt 16 64))
		(line (pt 16 64)(pt 16 16))
		(line (pt 16 42)(pt 22 48))
		(line (pt 22 48)(pt 16 54))
	)
)
(symbol
	(rect 840 816 984 896)
	(text "dff224" (rect 55 1 95 17)(font "Arial" (font_size 10)))
	(text "inst28" (rect 8 64 37 76)(font "Arial" ))
	(port
		(pt 0 32)
		(input)
		(text "data[223..0]" (rect 0 0 67 14)(font "Arial" (font_size 8)))
		(text "data[223..0]" (rect 20 26 87 40)(font "Arial" (font_size 8)))
		(line (pt 0 32)(pt 16 32)(line_width 3))
	)
	(port
		(pt 0 48)
		(input)
		(text "clock" (rect 0 0 29 14)(font "Arial" (font_size 8)))
		(text "clock" (rect 26 42 55 56)(font "Arial" (font_size 8)))
		(line (pt 0 48)(pt 16 48))
	)
	(port
		(pt 144 48)
		(output)
		(text "q[223..0]" (rect 0 0 49 14)(font "Arial" (font_size 8)))
		(text "q[223..0]" (rect 83 42 132 56)(font "Arial" (font_size 8)))
		(line (pt 144 48)(pt 128 48)(line_width 3))
	)
	(drawing
		(text "DFF" (rect 109 17 131 29)(font "Arial" ))
		(line (pt 16 16)(pt 128 16))
		(line (pt 128 16)(pt 128 64))
		(line (pt 128 64)(pt 16 64))
		(line (pt 16 64)(pt 16 16))
		(line (pt 16 42)(pt 22 48))
		(line (pt 22 48)(pt 16 54))
	)
)
(symbol
	(rect 1016 832 1160 912)
	(text "dff224" (rect 55 1 95 17)(font "Arial" (font_size 10)))
	(text "inst29" (rect 8 64 37 76)(font "Arial" ))
	(port
		(pt 0 32)
		(input)
		(text "data[223..0]" (rect 0 0 67 14)(font "Arial" (font_size 8)))
		(text "data[223..0]" (rect 20 26 87 40)(font "Arial" (font_size 8)))
		(line (pt 0 32)(pt 16 32)(line_width 3))
	)
	(port
		(pt 0 48)
		(input)
		(text "clock" (rect 0 0 29 14)(font "Arial" (font_size 8)))
		(text "clock" (rect 26 42 55 56)(font "Arial" (font_size 8)))
		(line (pt 0 48)(pt 16 48))
	)
	(port
		(pt 144 48)
		(output)
		(text "q[223..0]" (rect 0 0 49 14)(font "Arial" (font_size 8)))
		(text "q[223..0]" (rect 83 42 132 56)(font "Arial" (font_size 8)))
		(line (pt 144 48)(pt 128 48)(line_width 3))
	)
	(drawing
		(text "DFF" (rect 109 17 131 29)(font "Arial" ))
		(line (pt 16 16)(pt 128 16))
		(line (pt 128 16)(pt 128 64))
		(line (pt 128 64)(pt 16 64))
		(line (pt 16 64)(pt 16 16))
		(line (pt 16 42)(pt 22 48))
		(line (pt 22 48)(pt 16 54))
	)
)
(symbol
	(rect 1192 848 1336 928)
	(text "dff224" (rect 55 1 95 17)(font "Arial" (font_size 10)))
	(text "inst30" (rect 8 64 37 76)(font "Arial" ))
	(port
		(pt 0 32)
		(input)
		(text "data[223..0]" (rect 0 0 67 14)(font "Arial" (font_size 8)))
		(text "data[223..0]" (rect 20 26 87 40)(font "Arial" (font_size 8)))
		(line (pt 0 32)(pt 16 32)(line_width 3))
	)
	(port
		(pt 0 48)
		(input)
		(text "clock" (rect 0 0 29 14)(font "Arial" (font_size 8)))
		(text "clock" (rect 26 42 55 56)(font "Arial" (font_size 8)))
		(line (pt 0 48)(pt 16 48))
	)
	(port
		(pt 144 48)
		(output)
		(text "q[223..0]" (rect 0 0 49 14)(font "Arial" (font_size 8)))
		(text "q[223..0]" (rect 83 42 132 56)(font "Arial" (font_size 8)))
		(line (pt 144 48)(pt 128 48)(line_width 3))
	)
	(drawing
		(text "DFF" (rect 109 17 131 29)(font "Arial" ))
		(line (pt 16 16)(pt 128 16))
		(line (pt 128 16)(pt 128 64))
		(line (pt 128 64)(pt 16 64))
		(line (pt 16 64)(pt 16 16))
		(line (pt 16 42)(pt 22 48))
		(line (pt 22 48)(pt 16 54))
	)
)
(symbol
	(rect 1368 864 1512 944)
	(text "dff224" (rect 55 1 95 17)(font "Arial" (font_size 10)))
	(text "inst31" (rect 8 64 37 76)(font "Arial" ))
	(port
		(pt 0 32)
		(input)
		(text "data[223..0]" (rect 0 0 67 14)(font "Arial" (font_size 8)))
		(text "data[223..0]" (rect 20 26 87 40)(font "Arial" (font_size 8)))
		(line (pt 0 32)(pt 16 32)(line_width 3))
	)
	(port
		(pt 0 48)
		(input)
		(text "clock" (rect 0 0 29 14)(font "Arial" (font_size 8)))
		(text "clock" (rect 26 42 55 56)(font "Arial" (font_size 8)))
		(line (pt 0 48)(pt 16 48))
	)
	(port
		(pt 144 48)
		(output)
		(text "q[223..0]" (rect 0 0 49 14)(font "Arial" (font_size 8)))
		(text "q[223..0]" (rect 83 42 132 56)(font "Arial" (font_size 8)))
		(line (pt 144 48)(pt 128 48)(line_width 3))
	)
	(drawing
		(text "DFF" (rect 109 17 131 29)(font "Arial" ))
		(line (pt 16 16)(pt 128 16))
		(line (pt 128 16)(pt 128 64))
		(line (pt 128 64)(pt 16 64))
		(line (pt 16 64)(pt 16 16))
		(line (pt 16 42)(pt 22 48))
		(line (pt 22 48)(pt 16 54))
	)
)
(symbol
	(rect 136 984 280 1064)
	(text "dff224" (rect 55 1 95 17)(font "Arial" (font_size 10)))
	(text "inst32" (rect 8 64 37 76)(font "Arial" ))
	(port
		(pt 0 32)
		(input)
		(text "data[223..0]" (rect 0 0 67 14)(font "Arial" (font_size 8)))
		(text "data[223..0]" (rect 20 26 87 40)(font "Arial" (font_size 8)))
		(line (pt 0 32)(pt 16 32)(line_width 3))
	)
	(port
		(pt 0 48)
		(input)
		(text "clock" (rect 0 0 29 14)(font "Arial" (font_size 8)))
		(text "clock" (rect 26 42 55 56)(font "Arial" (font_size 8)))
		(line (pt 0 48)(pt 16 48))
	)
	(port
		(pt 144 48)
		(output)
		(text "q[223..0]" (rect 0 0 49 14)(font "Arial" (font_size 8)))
		(text "q[223..0]" (rect 83 42 132 56)(font "Arial" (font_size 8)))
		(line (pt 144 48)(pt 128 48)(line_width 3))
	)
	(drawing
		(text "DFF" (rect 109 17 131 29)(font "Arial" ))
		(line (pt 16 16)(pt 128 16))
		(line (pt 128 16)(pt 128 64))
		(line (pt 128 64)(pt 16 64))
		(line (pt 16 64)(pt 16 16))
		(line (pt 16 42)(pt 22 48))
		(line (pt 22 48)(pt 16 54))
	)
)
(symbol
	(rect 312 1000 456 1080)
	(text "dff224" (rect 55 1 95 17)(font "Arial" (font_size 10)))
	(text "inst33" (rect 8 64 37 76)(font "Arial" ))
	(port
		(pt 0 32)
		(input)
		(text "data[223..0]" (rect 0 0 67 14)(font "Arial" (font_size 8)))
		(text "data[223..0]" (rect 20 26 87 40)(font "Arial" (font_size 8)))
		(line (pt 0 32)(pt 16 32)(line_width 3))
	)
	(port
		(pt 0 48)
		(input)
		(text "clock" (rect 0 0 29 14)(font "Arial" (font_size 8)))
		(text "clock" (rect 26 42 55 56)(font "Arial" (font_size 8)))
		(line (pt 0 48)(pt 16 48))
	)
	(port
		(pt 144 48)
		(output)
		(text "q[223..0]" (rect 0 0 49 14)(font "Arial" (font_size 8)))
		(text "q[223..0]" (rect 83 42 132 56)(font "Arial" (font_size 8)))
		(line (pt 144 48)(pt 128 48)(line_width 3))
	)
	(drawing
		(text "DFF" (rect 109 17 131 29)(font "Arial" ))
		(line (pt 16 16)(pt 128 16))
		(line (pt 128 16)(pt 128 64))
		(line (pt 128 64)(pt 16 64))
		(line (pt 16 64)(pt 16 16))
		(line (pt 16 42)(pt 22 48))
		(line (pt 22 48)(pt 16 54))
	)
)
(symbol
	(rect 488 1016 632 1096)
	(text "dff224" (rect 55 1 95 17)(font "Arial" (font_size 10)))
	(text "inst34" (rect 8 64 37 76)(font "Arial" ))
	(port
		(pt 0 32)
		(input)
		(text "data[223..0]" (rect 0 0 67 14)(font "Arial" (font_size 8)))
		(text "data[223..0]" (rect 20 26 87 40)(font "Arial" (font_size 8)))
		(line (pt 0 32)(pt 16 32)(line_width 3))
	)
	(port
		(pt 0 48)
		(input)
		(text "clock" (rect 0 0 29 14)(font "Arial" (font_size 8)))
		(text "clock" (rect 26 42 55 56)(font "Arial" (font_size 8)))
		(line (pt 0 48)(pt 16 48))
	)
	(port
		(pt 144 48)
		(output)
		(text "q[223..0]" (rect 0 0 49 14)(font "Arial" (font_size 8)))
		(text "q[223..0]" (rect 83 42 132 56)(font "Arial" (font_size 8)))
		(line (pt 144 48)(pt 128 48)(line_width 3))
	)
	(drawing
		(text "DFF" (rect 109 17 131 29)(font "Arial" ))
		(line (pt 16 16)(pt 128 16))
		(line (pt 128 16)(pt 128 64))
		(line (pt 128 64)(pt 16 64))
		(line (pt 16 64)(pt 16 16))
		(line (pt 16 42)(pt 22 48))
		(line (pt 22 48)(pt 16 54))
	)
)
(symbol
	(rect 664 1032 808 1112)
	(text "dff224" (rect 55 1 95 17)(font "Arial" (font_size 10)))
	(text "inst35" (rect 8 64 37 76)(font "Arial" ))
	(port
		(pt 0 32)
		(input)
		(text "data[223..0]" (rect 0 0 67 14)(font "Arial" (font_size 8)))
		(text "data[223..0]" (rect 20 26 87 40)(font "Arial" (font_size 8)))
		(line (pt 0 32)(pt 16 32)(line_width 3))
	)
	(port
		(pt 0 48)
		(input)
		(text "clock" (rect 0 0 29 14)(font "Arial" (font_size 8)))
		(text "clock" (rect 26 42 55 56)(font "Arial" (font_size 8)))
		(line (pt 0 48)(pt 16 48))
	)
	(port
		(pt 144 48)
		(output)
		(text "q[223..0]" (rect 0 0 49 14)(font "Arial" (font_size 8)))
		(text "q[223..0]" (rect 83 42 132 56)(font "Arial" (font_size 8)))
		(line (pt 144 48)(pt 128 48)(line_width 3))
	)
	(drawing
		(text "DFF" (rect 109 17 131 29)(font "Arial" ))
		(line (pt 16 16)(pt 128 16))
		(line (pt 128 16)(pt 128 64))
		(line (pt 128 64)(pt 16 64))
		(line (pt 16 64)(pt 16 16))
		(line (pt 16 42)(pt 22 48))
		(line (pt 22 48)(pt 16 54))
	)
)
(symbol
	(rect 840 1048 984 1128)
	(text "dff224" (rect 55 1 95 17)(font "Arial" (font_size 10)))
	(text "inst36" (rect 8 64 37 76)(font "Arial" ))
	(port
		(pt 0 32)
		(input)
		(text "data[223..0]" (rect 0 0 67 14)(font "Arial" (font_size 8)))
		(text "data[223..0]" (rect 20 26 87 40)(font "Arial" (font_size 8)))
		(line (pt 0 32)(pt 16 32)(line_width 3))
	)
	(port
		(pt 0 48)
		(input)
		(text "clock" (rect 0 0 29 14)(font "Arial" (font_size 8)))
		(text "clock" (rect 26 42 55 56)(font "Arial" (font_size 8)))
		(line (pt 0 48)(pt 16 48))
	)
	(port
		(pt 144 48)
		(output)
		(text "q[223..0]" (rect 0 0 49 14)(font "Arial" (font_size 8)))
		(text "q[223..0]" (rect 83 42 132 56)(font "Arial" (font_size 8)))
		(line (pt 144 48)(pt 128 48)(line_width 3))
	)
	(drawing
		(text "DFF" (rect 109 17 131 29)(font "Arial" ))
		(line (pt 16 16)(pt 128 16))
		(line (pt 128 16)(pt 128 64))
		(line (pt 128 64)(pt 16 64))
		(line (pt 16 64)(pt 16 16))
		(line (pt 16 42)(pt 22 48))
		(line (pt 22 48)(pt 16 54))
	)
)
(symbol
	(rect 1016 1064 1160 1144)
	(text "dff224" (rect 55 1 95 17)(font "Arial" (font_size 10)))
	(text "inst37" (rect 8 64 37 76)(font "Arial" ))
	(port
		(pt 0 32)
		(input)
		(text "data[223..0]" (rect 0 0 67 14)(font "Arial" (font_size 8)))
		(text "data[223..0]" (rect 20 26 87 40)(font "Arial" (font_size 8)))
		(line (pt 0 32)(pt 16 32)(line_width 3))
	)
	(port
		(pt 0 48)
		(input)
		(text "clock" (rect 0 0 29 14)(font "Arial" (font_size 8)))
		(text "clock" (rect 26 42 55 56)(font "Arial" (font_size 8)))
		(line (pt 0 48)(pt 16 48))
	)
	(port
		(pt 144 48)
		(output)
		(text "q[223..0]" (rect 0 0 49 14)(font "Arial" (font_size 8)))
		(text "q[223..0]" (rect 83 42 132 56)(font "Arial" (font_size 8)))
		(line (pt 144 48)(pt 128 48)(line_width 3))
	)
	(drawing
		(text "DFF" (rect 109 17 131 29)(font "Arial" ))
		(line (pt 16 16)(pt 128 16))
		(line (pt 128 16)(pt 128 64))
		(line (pt 128 64)(pt 16 64))
		(line (pt 16 64)(pt 16 16))
		(line (pt 16 42)(pt 22 48))
		(line (pt 22 48)(pt 16 54))
	)
)
(symbol
	(rect 1192 1080 1336 1160)
	(text "dff224" (rect 55 1 95 17)(font "Arial" (font_size 10)))
	(text "inst38" (rect 8 64 37 76)(font "Arial" ))
	(port
		(pt 0 32)
		(input)
		(text "data[223..0]" (rect 0 0 67 14)(font "Arial" (font_size 8)))
		(text "data[223..0]" (rect 20 26 87 40)(font "Arial" (font_size 8)))
		(line (pt 0 32)(pt 16 32)(line_width 3))
	)
	(port
		(pt 0 48)
		(input)
		(text "clock" (rect 0 0 29 14)(font "Arial" (font_size 8)))
		(text "clock" (rect 26 42 55 56)(font "Arial" (font_size 8)))
		(line (pt 0 48)(pt 16 48))
	)
	(port
		(pt 144 48)
		(output)
		(text "q[223..0]" (rect 0 0 49 14)(font "Arial" (font_size 8)))
		(text "q[223..0]" (rect 83 42 132 56)(font "Arial" (font_size 8)))
		(line (pt 144 48)(pt 128 48)(line_width 3))
	)
	(drawing
		(text "DFF" (rect 109 17 131 29)(font "Arial" ))
		(line (pt 16 16)(pt 128 16))
		(line (pt 128 16)(pt 128 64))
		(line (pt 128 64)(pt 16 64))
		(line (pt 16 64)(pt 16 16))
		(line (pt 16 42)(pt 22 48))
		(line (pt 22 48)(pt 16 54))
	)
)
(symbol
	(rect 1368 1096 1512 1176)
	(text "dff224" (rect 55 1 95 17)(font "Arial" (font_size 10)))
	(text "inst39" (rect 8 64 37 76)(font "Arial" ))
	(port
		(pt 0 32)
		(input)
		(text "data[223..0]" (rect 0 0 67 14)(font "Arial" (font_size 8)))
		(text "data[223..0]" (rect 20 26 87 40)(font "Arial" (font_size 8)))
		(line (pt 0 32)(pt 16 32)(line_width 3))
	)
	(port
		(pt 0 48)
		(input)
		(text "clock" (rect 0 0 29 14)(font "Arial" (font_size 8)))
		(text "clock" (rect 26 42 55 56)(font "Arial" (font_size 8)))
		(line (pt 0 48)(pt 16 48))
	)
	(port
		(pt 144 48)
		(output)
		(text "q[223..0]" (rect 0 0 49 14)(font "Arial" (font_size 8)))
		(text "q[223..0]" (rect 83 42 132 56)(font "Arial" (font_size 8)))
		(line (pt 144 48)(pt 128 48)(line_width 3))
	)
	(drawing
		(text "DFF" (rect 109 17 131 29)(font "Arial" ))
		(line (pt 16 16)(pt 128 16))
		(line (pt 128 16)(pt 128 64))
		(line (pt 128 64)(pt 16 64))
		(line (pt 16 64)(pt 16 16))
		(line (pt 16 42)(pt 22 48))
		(line (pt 22 48)(pt 16 54))
	)
)
(symbol
	(rect 136 1216 280 1296)
	(text "dff224" (rect 55 1 95 17)(font "Arial" (font_size 10)))
	(text "inst40" (rect 8 64 37 76)(font "Arial" ))
	(port
		(pt 0 32)
		(input)
		(text "data[223..0]" (rect 0 0 67 14)(font "Arial" (font_size 8)))
		(text "data[223..0]" (rect 20 26 87 40)(font "Arial" (font_size 8)))
		(line (pt 0 32)(pt 16 32)(line_width 3))
	)
	(port
		(pt 0 48)
		(input)
		(text "clock" (rect 0 0 29 14)(font "Arial" (font_size 8)))
		(text "clock" (rect 26 42 55 56)(font "Arial" (font_size 8)))
		(line (pt 0 48)(pt 16 48))
	)
	(port
		(pt 144 48)
		(output)
		(text "q[223..0]" (rect 0 0 49 14)(font "Arial" (font_size 8)))
		(text "q[223..0]" (rect 83 42 132 56)(font "Arial" (font_size 8)))
		(line (pt 144 48)(pt 128 48)(line_width 3))
	)
	(drawing
		(text "DFF" (rect 109 17 131 29)(font "Arial" ))
		(line (pt 16 16)(pt 128 16))
		(line (pt 128 16)(pt 128 64))
		(line (pt 128 64)(pt 16 64))
		(line (pt 16 64)(pt 16 16))
		(line (pt 16 42)(pt 22 48))
		(line (pt 22 48)(pt 16 54))
	)
)
(symbol
	(rect 312 1232 456 1312)
	(text "dff224" (rect 55 1 95 17)(font "Arial" (font_size 10)))
	(text "inst41" (rect 8 64 37 76)(font "Arial" ))
	(port
		(pt 0 32)
		(input)
		(text "data[223..0]" (rect 0 0 67 14)(font "Arial" (font_size 8)))
		(text "data[223..0]" (rect 20 26 87 40)(font "Arial" (font_size 8)))
		(line (pt 0 32)(pt 16 32)(line_width 3))
	)
	(port
		(pt 0 48)
		(input)
		(text "clock" (rect 0 0 29 14)(font "Arial" (font_size 8)))
		(text "clock" (rect 26 42 55 56)(font "Arial" (font_size 8)))
		(line (pt 0 48)(pt 16 48))
	)
	(port
		(pt 144 48)
		(output)
		(text "q[223..0]" (rect 0 0 49 14)(font "Arial" (font_size 8)))
		(text "q[223..0]" (rect 83 42 132 56)(font "Arial" (font_size 8)))
		(line (pt 144 48)(pt 128 48)(line_width 3))
	)
	(drawing
		(text "DFF" (rect 109 17 131 29)(font "Arial" ))
		(line (pt 16 16)(pt 128 16))
		(line (pt 128 16)(pt 128 64))
		(line (pt 128 64)(pt 16 64))
		(line (pt 16 64)(pt 16 16))
		(line (pt 16 42)(pt 22 48))
		(line (pt 22 48)(pt 16 54))
	)
)
(symbol
	(rect 488 1248 632 1328)
	(text "dff224" (rect 55 1 95 17)(font "Arial" (font_size 10)))
	(text "inst42" (rect 8 64 37 76)(font "Arial" ))
	(port
		(pt 0 32)
		(input)
		(text "data[223..0]" (rect 0 0 67 14)(font "Arial" (font_size 8)))
		(text "data[223..0]" (rect 20 26 87 40)(font "Arial" (font_size 8)))
		(line (pt 0 32)(pt 16 32)(line_width 3))
	)
	(port
		(pt 0 48)
		(input)
		(text "clock" (rect 0 0 29 14)(font "Arial" (font_size 8)))
		(text "clock" (rect 26 42 55 56)(font "Arial" (font_size 8)))
		(line (pt 0 48)(pt 16 48))
	)
	(port
		(pt 144 48)
		(output)
		(text "q[223..0]" (rect 0 0 49 14)(font "Arial" (font_size 8)))
		(text "q[223..0]" (rect 83 42 132 56)(font "Arial" (font_size 8)))
		(line (pt 144 48)(pt 128 48)(line_width 3))
	)
	(drawing
		(text "DFF" (rect 109 17 131 29)(font "Arial" ))
		(line (pt 16 16)(pt 128 16))
		(line (pt 128 16)(pt 128 64))
		(line (pt 128 64)(pt 16 64))
		(line (pt 16 64)(pt 16 16))
		(line (pt 16 42)(pt 22 48))
		(line (pt 22 48)(pt 16 54))
	)
)
(symbol
	(rect 664 1264 808 1344)
	(text "dff224" (rect 55 1 95 17)(font "Arial" (font_size 10)))
	(text "inst43" (rect 8 64 37 76)(font "Arial" ))
	(port
		(pt 0 32)
		(input)
		(text "data[223..0]" (rect 0 0 67 14)(font "Arial" (font_size 8)))
		(text "data[223..0]" (rect 20 26 87 40)(font "Arial" (font_size 8)))
		(line (pt 0 32)(pt 16 32)(line_width 3))
	)
	(port
		(pt 0 48)
		(input)
		(text "clock" (rect 0 0 29 14)(font "Arial" (font_size 8)))
		(text "clock" (rect 26 42 55 56)(font "Arial" (font_size 8)))
		(line (pt 0 48)(pt 16 48))
	)
	(port
		(pt 144 48)
		(output)
		(text "q[223..0]" (rect 0 0 49 14)(font "Arial" (font_size 8)))
		(text "q[223..0]" (rect 83 42 132 56)(font "Arial" (font_size 8)))
		(line (pt 144 48)(pt 128 48)(line_width 3))
	)
	(drawing
		(text "DFF" (rect 109 17 131 29)(font "Arial" ))
		(line (pt 16 16)(pt 128 16))
		(line (pt 128 16)(pt 128 64))
		(line (pt 128 64)(pt 16 64))
		(line (pt 16 64)(pt 16 16))
		(line (pt 16 42)(pt 22 48))
		(line (pt 22 48)(pt 16 54))
	)
)
(symbol
	(rect 840 1280 984 1360)
	(text "dff224" (rect 55 1 95 17)(font "Arial" (font_size 10)))
	(text "inst44" (rect 8 64 37 76)(font "Arial" ))
	(port
		(pt 0 32)
		(input)
		(text "data[223..0]" (rect 0 0 67 14)(font "Arial" (font_size 8)))
		(text "data[223..0]" (rect 20 26 87 40)(font "Arial" (font_size 8)))
		(line (pt 0 32)(pt 16 32)(line_width 3))
	)
	(port
		(pt 0 48)
		(input)
		(text "clock" (rect 0 0 29 14)(font "Arial" (font_size 8)))
		(text "clock" (rect 26 42 55 56)(font "Arial" (font_size 8)))
		(line (pt 0 48)(pt 16 48))
	)
	(port
		(pt 144 48)
		(output)
		(text "q[223..0]" (rect 0 0 49 14)(font "Arial" (font_size 8)))
		(text "q[223..0]" (rect 83 42 132 56)(font "Arial" (font_size 8)))
		(line (pt 144 48)(pt 128 48)(line_width 3))
	)
	(drawing
		(text "DFF" (rect 109 17 131 29)(font "Arial" ))
		(line (pt 16 16)(pt 128 16))
		(line (pt 128 16)(pt 128 64))
		(line (pt 128 64)(pt 16 64))
		(line (pt 16 64)(pt 16 16))
		(line (pt 16 42)(pt 22 48))
		(line (pt 22 48)(pt 16 54))
	)
)
(symbol
	(rect 1016 1296 1160 1376)
	(text "dff224" (rect 55 1 95 17)(font "Arial" (font_size 10)))
	(text "inst45" (rect 8 64 37 76)(font "Arial" ))
	(port
		(pt 0 32)
		(input)
		(text "data[223..0]" (rect 0 0 67 14)(font "Arial" (font_size 8)))
		(text "data[223..0]" (rect 20 26 87 40)(font "Arial" (font_size 8)))
		(line (pt 0 32)(pt 16 32)(line_width 3))
	)
	(port
		(pt 0 48)
		(input)
		(text "clock" (rect 0 0 29 14)(font "Arial" (font_size 8)))
		(text "clock" (rect 26 42 55 56)(font "Arial" (font_size 8)))
		(line (pt 0 48)(pt 16 48))
	)
	(port
		(pt 144 48)
		(output)
		(text "q[223..0]" (rect 0 0 49 14)(font "Arial" (font_size 8)))
		(text "q[223..0]" (rect 83 42 132 56)(font "Arial" (font_size 8)))
		(line (pt 144 48)(pt 128 48)(line_width 3))
	)
	(drawing
		(text "DFF" (rect 109 17 131 29)(font "Arial" ))
		(line (pt 16 16)(pt 128 16))
		(line (pt 128 16)(pt 128 64))
		(line (pt 128 64)(pt 16 64))
		(line (pt 16 64)(pt 16 16))
		(line (pt 16 42)(pt 22 48))
		(line (pt 22 48)(pt 16 54))
	)
)
(symbol
	(rect 1192 1312 1336 1392)
	(text "dff224" (rect 55 1 95 17)(font "Arial" (font_size 10)))
	(text "inst46" (rect 8 64 37 76)(font "Arial" ))
	(port
		(pt 0 32)
		(input)
		(text "data[223..0]" (rect 0 0 67 14)(font "Arial" (font_size 8)))
		(text "data[223..0]" (rect 20 26 87 40)(font "Arial" (font_size 8)))
		(line (pt 0 32)(pt 16 32)(line_width 3))
	)
	(port
		(pt 0 48)
		(input)
		(text "clock" (rect 0 0 29 14)(font "Arial" (font_size 8)))
		(text "clock" (rect 26 42 55 56)(font "Arial" (font_size 8)))
		(line (pt 0 48)(pt 16 48))
	)
	(port
		(pt 144 48)
		(output)
		(text "q[223..0]" (rect 0 0 49 14)(font "Arial" (font_size 8)))
		(text "q[223..0]" (rect 83 42 132 56)(font "Arial" (font_size 8)))
		(line (pt 144 48)(pt 128 48)(line_width 3))
	)
	(drawing
		(text "DFF" (rect 109 17 131 29)(font "Arial" ))
		(line (pt 16 16)(pt 128 16))
		(line (pt 128 16)(pt 128 64))
		(line (pt 128 64)(pt 16 64))
		(line (pt 16 64)(pt 16 16))
		(line (pt 16 42)(pt 22 48))
		(line (pt 22 48)(pt 16 54))
	)
)
(symbol
	(rect 1368 1328 1512 1408)
	(text "dff224" (rect 55 1 95 17)(font "Arial" (font_size 10)))
	(text "inst47" (rect 8 64 37 76)(font "Arial" ))
	(port
		(pt 0 32)
		(input)
		(text "data[223..0]" (rect 0 0 67 14)(font "Arial" (font_size 8)))
		(text "data[223..0]" (rect 20 26 87 40)(font "Arial" (font_size 8)))
		(line (pt 0 32)(pt 16 32)(line_width 3))
	)
	(port
		(pt 0 48)
		(input)
		(text "clock" (rect 0 0 29 14)(font "Arial" (font_size 8)))
		(text "clock" (rect 26 42 55 56)(font "Arial" (font_size 8)))
		(line (pt 0 48)(pt 16 48))
	)
	(port
		(pt 144 48)
		(output)
		(text "q[223..0]" (rect 0 0 49 14)(font "Arial" (font_size 8)))
		(text "q[223..0]" (rect 83 42 132 56)(font "Arial" (font_size 8)))
		(line (pt 144 48)(pt 128 48)(line_width 3))
	)
	(drawing
		(text "DFF" (rect 109 17 131 29)(font "Arial" ))
		(line (pt 16 16)(pt 128 16))
		(line (pt 128 16)(pt 128 64))
		(line (pt 128 64)(pt 16 64))
		(line (pt 16 64)(pt 16 16))
		(line (pt 16 42)(pt 22 48))
		(line (pt 22 48)(pt 16 54))
	)
)
(symbol
	(rect 136 1464 280 1544)
	(text "dff224" (rect 55 1 95 17)(font "Arial" (font_size 10)))
	(text "inst48" (rect 8 64 37 76)(font "Arial" ))
	(port
		(pt 0 32)
		(input)
		(text "data[223..0]" (rect 0 0 67 14)(font "Arial" (font_size 8)))
		(text "data[223..0]" (rect 20 26 87 40)(font "Arial" (font_size 8)))
		(line (pt 0 32)(pt 16 32)(line_width 3))
	)
	(port
		(pt 0 48)
		(input)
		(text "clock" (rect 0 0 29 14)(font "Arial" (font_size 8)))
		(text "clock" (rect 26 42 55 56)(font "Arial" (font_size 8)))
		(line (pt 0 48)(pt 16 48))
	)
	(port
		(pt 144 48)
		(output)
		(text "q[223..0]" (rect 0 0 49 14)(font "Arial" (font_size 8)))
		(text "q[223..0]" (rect 83 42 132 56)(font "Arial" (font_size 8)))
		(line (pt 144 48)(pt 128 48)(line_width 3))
	)
	(drawing
		(text "DFF" (rect 109 17 131 29)(font "Arial" ))
		(line (pt 16 16)(pt 128 16))
		(line (pt 128 16)(pt 128 64))
		(line (pt 128 64)(pt 16 64))
		(line (pt 16 64)(pt 16 16))
		(line (pt 16 42)(pt 22 48))
		(line (pt 22 48)(pt 16 54))
	)
)
(symbol
	(rect 312 1480 456 1560)
	(text "dff224" (rect 55 1 95 17)(font "Arial" (font_size 10)))
	(text "inst49" (rect 8 64 37 76)(font "Arial" ))
	(port
		(pt 0 32)
		(input)
		(text "data[223..0]" (rect 0 0 67 14)(font "Arial" (font_size 8)))
		(text "data[223..0]" (rect 20 26 87 40)(font "Arial" (font_size 8)))
		(line (pt 0 32)(pt 16 32)(line_width 3))
	)
	(port
		(pt 0 48)
		(input)
		(text "clock" (rect 0 0 29 14)(font "Arial" (font_size 8)))
		(text "clock" (rect 26 42 55 56)(font "Arial" (font_size 8)))
		(line (pt 0 48)(pt 16 48))
	)
	(port
		(pt 144 48)
		(output)
		(text "q[223..0]" (rect 0 0 49 14)(font "Arial" (font_size 8)))
		(text "q[223..0]" (rect 83 42 132 56)(font "Arial" (font_size 8)))
		(line (pt 144 48)(pt 128 48)(line_width 3))
	)
	(drawing
		(text "DFF" (rect 109 17 131 29)(font "Arial" ))
		(line (pt 16 16)(pt 128 16))
		(line (pt 128 16)(pt 128 64))
		(line (pt 128 64)(pt 16 64))
		(line (pt 16 64)(pt 16 16))
		(line (pt 16 42)(pt 22 48))
		(line (pt 22 48)(pt 16 54))
	)
)
(symbol
	(rect 488 1496 632 1576)
	(text "dff224" (rect 55 1 95 17)(font "Arial" (font_size 10)))
	(text "inst50" (rect 8 64 37 76)(font "Arial" ))
	(port
		(pt 0 32)
		(input)
		(text "data[223..0]" (rect 0 0 67 14)(font "Arial" (font_size 8)))
		(text "data[223..0]" (rect 20 26 87 40)(font "Arial" (font_size 8)))
		(line (pt 0 32)(pt 16 32)(line_width 3))
	)
	(port
		(pt 0 48)
		(input)
		(text "clock" (rect 0 0 29 14)(font "Arial" (font_size 8)))
		(text "clock" (rect 26 42 55 56)(font "Arial" (font_size 8)))
		(line (pt 0 48)(pt 16 48))
	)
	(port
		(pt 144 48)
		(output)
		(text "q[223..0]" (rect 0 0 49 14)(font "Arial" (font_size 8)))
		(text "q[223..0]" (rect 83 42 132 56)(font "Arial" (font_size 8)))
		(line (pt 144 48)(pt 128 48)(line_width 3))
	)
	(drawing
		(text "DFF" (rect 109 17 131 29)(font "Arial" ))
		(line (pt 16 16)(pt 128 16))
		(line (pt 128 16)(pt 128 64))
		(line (pt 128 64)(pt 16 64))
		(line (pt 16 64)(pt 16 16))
		(line (pt 16 42)(pt 22 48))
		(line (pt 22 48)(pt 16 54))
	)
)
(symbol
	(rect 664 1512 808 1592)
	(text "dff224" (rect 55 1 95 17)(font "Arial" (font_size 10)))
	(text "inst51" (rect 8 64 37 76)(font "Arial" ))
	(port
		(pt 0 32)
		(input)
		(text "data[223..0]" (rect 0 0 67 14)(font "Arial" (font_size 8)))
		(text "data[223..0]" (rect 20 26 87 40)(font "Arial" (font_size 8)))
		(line (pt 0 32)(pt 16 32)(line_width 3))
	)
	(port
		(pt 0 48)
		(input)
		(text "clock" (rect 0 0 29 14)(font "Arial" (font_size 8)))
		(text "clock" (rect 26 42 55 56)(font "Arial" (font_size 8)))
		(line (pt 0 48)(pt 16 48))
	)
	(port
		(pt 144 48)
		(output)
		(text "q[223..0]" (rect 0 0 49 14)(font "Arial" (font_size 8)))
		(text "q[223..0]" (rect 83 42 132 56)(font "Arial" (font_size 8)))
		(line (pt 144 48)(pt 128 48)(line_width 3))
	)
	(drawing
		(text "DFF" (rect 109 17 131 29)(font "Arial" ))
		(line (pt 16 16)(pt 128 16))
		(line (pt 128 16)(pt 128 64))
		(line (pt 128 64)(pt 16 64))
		(line (pt 16 64)(pt 16 16))
		(line (pt 16 42)(pt 22 48))
		(line (pt 22 48)(pt 16 54))
	)
)
(symbol
	(rect 840 1528 984 1608)
	(text "dff224" (rect 55 1 95 17)(font "Arial" (font_size 10)))
	(text "inst52" (rect 8 64 37 76)(font "Arial" ))
	(port
		(pt 0 32)
		(input)
		(text "data[223..0]" (rect 0 0 67 14)(font "Arial" (font_size 8)))
		(text "data[223..0]" (rect 20 26 87 40)(font "Arial" (font_size 8)))
		(line (pt 0 32)(pt 16 32)(line_width 3))
	)
	(port
		(pt 0 48)
		(input)
		(text "clock" (rect 0 0 29 14)(font "Arial" (font_size 8)))
		(text "clock" (rect 26 42 55 56)(font "Arial" (font_size 8)))
		(line (pt 0 48)(pt 16 48))
	)
	(port
		(pt 144 48)
		(output)
		(text "q[223..0]" (rect 0 0 49 14)(font "Arial" (font_size 8)))
		(text "q[223..0]" (rect 83 42 132 56)(font "Arial" (font_size 8)))
		(line (pt 144 48)(pt 128 48)(line_width 3))
	)
	(drawing
		(text "DFF" (rect 109 17 131 29)(font "Arial" ))
		(line (pt 16 16)(pt 128 16))
		(line (pt 128 16)(pt 128 64))
		(line (pt 128 64)(pt 16 64))
		(line (pt 16 64)(pt 16 16))
		(line (pt 16 42)(pt 22 48))
		(line (pt 22 48)(pt 16 54))
	)
)
(symbol
	(rect 1016 1544 1160 1624)
	(text "dff224" (rect 55 1 95 17)(font "Arial" (font_size 10)))
	(text "inst53" (rect 8 64 37 76)(font "Arial" ))
	(port
		(pt 0 32)
		(input)
		(text "data[223..0]" (rect 0 0 67 14)(font "Arial" (font_size 8)))
		(text "data[223..0]" (rect 20 26 87 40)(font "Arial" (font_size 8)))
		(line (pt 0 32)(pt 16 32)(line_width 3))
	)
	(port
		(pt 0 48)
		(input)
		(text "clock" (rect 0 0 29 14)(font "Arial" (font_size 8)))
		(text "clock" (rect 26 42 55 56)(font "Arial" (font_size 8)))
		(line (pt 0 48)(pt 16 48))
	)
	(port
		(pt 144 48)
		(output)
		(text "q[223..0]" (rect 0 0 49 14)(font "Arial" (font_size 8)))
		(text "q[223..0]" (rect 83 42 132 56)(font "Arial" (font_size 8)))
		(line (pt 144 48)(pt 128 48)(line_width 3))
	)
	(drawing
		(text "DFF" (rect 109 17 131 29)(font "Arial" ))
		(line (pt 16 16)(pt 128 16))
		(line (pt 128 16)(pt 128 64))
		(line (pt 128 64)(pt 16 64))
		(line (pt 16 64)(pt 16 16))
		(line (pt 16 42)(pt 22 48))
		(line (pt 22 48)(pt 16 54))
	)
)
(symbol
	(rect 1192 1560 1336 1640)
	(text "dff224" (rect 55 1 95 17)(font "Arial" (font_size 10)))
	(text "inst54" (rect 8 64 37 76)(font "Arial" ))
	(port
		(pt 0 32)
		(input)
		(text "data[223..0]" (rect 0 0 67 14)(font "Arial" (font_size 8)))
		(text "data[223..0]" (rect 20 26 87 40)(font "Arial" (font_size 8)))
		(line (pt 0 32)(pt 16 32)(line_width 3))
	)
	(port
		(pt 0 48)
		(input)
		(text "clock" (rect 0 0 29 14)(font "Arial" (font_size 8)))
		(text "clock" (rect 26 42 55 56)(font "Arial" (font_size 8)))
		(line (pt 0 48)(pt 16 48))
	)
	(port
		(pt 144 48)
		(output)
		(text "q[223..0]" (rect 0 0 49 14)(font "Arial" (font_size 8)))
		(text "q[223..0]" (rect 83 42 132 56)(font "Arial" (font_size 8)))
		(line (pt 144 48)(pt 128 48)(line_width 3))
	)
	(drawing
		(text "DFF" (rect 109 17 131 29)(font "Arial" ))
		(line (pt 16 16)(pt 128 16))
		(line (pt 128 16)(pt 128 64))
		(line (pt 128 64)(pt 16 64))
		(line (pt 16 64)(pt 16 16))
		(line (pt 16 42)(pt 22 48))
		(line (pt 22 48)(pt 16 54))
	)
)
(symbol
	(rect 1368 1576 1512 1656)
	(text "dff224" (rect 55 1 95 17)(font "Arial" (font_size 10)))
	(text "inst55" (rect 8 64 37 76)(font "Arial" ))
	(port
		(pt 0 32)
		(input)
		(text "data[223..0]" (rect 0 0 67 14)(font "Arial" (font_size 8)))
		(text "data[223..0]" (rect 20 26 87 40)(font "Arial" (font_size 8)))
		(line (pt 0 32)(pt 16 32)(line_width 3))
	)
	(port
		(pt 0 48)
		(input)
		(text "clock" (rect 0 0 29 14)(font "Arial" (font_size 8)))
		(text "clock" (rect 26 42 55 56)(font "Arial" (font_size 8)))
		(line (pt 0 48)(pt 16 48))
	)
	(port
		(pt 144 48)
		(output)
		(text "q[223..0]" (rect 0 0 49 14)(font "Arial" (font_size 8)))
		(text "q[223..0]" (rect 83 42 132 56)(font "Arial" (font_size 8)))
		(line (pt 144 48)(pt 128 48)(line_width 3))
	)
	(drawing
		(text "DFF" (rect 109 17 131 29)(font "Arial" ))
		(line (pt 16 16)(pt 128 16))
		(line (pt 128 16)(pt 128 64))
		(line (pt 128 64)(pt 16 64))
		(line (pt 16 64)(pt 16 16))
		(line (pt 16 42)(pt 22 48))
		(line (pt 22 48)(pt 16 54))
	)
)
(symbol
	(rect 136 1696 280 1776)
	(text "dff224" (rect 55 1 95 17)(font "Arial" (font_size 10)))
	(text "inst56" (rect 8 64 37 76)(font "Arial" ))
	(port
		(pt 0 32)
		(input)
		(text "data[223..0]" (rect 0 0 67 14)(font "Arial" (font_size 8)))
		(text "data[223..0]" (rect 20 26 87 40)(font "Arial" (font_size 8)))
		(line (pt 0 32)(pt 16 32)(line_width 3))
	)
	(port
		(pt 0 48)
		(input)
		(text "clock" (rect 0 0 29 14)(font "Arial" (font_size 8)))
		(text "clock" (rect 26 42 55 56)(font "Arial" (font_size 8)))
		(line (pt 0 48)(pt 16 48))
	)
	(port
		(pt 144 48)
		(output)
		(text "q[223..0]" (rect 0 0 49 14)(font "Arial" (font_size 8)))
		(text "q[223..0]" (rect 83 42 132 56)(font "Arial" (font_size 8)))
		(line (pt 144 48)(pt 128 48)(line_width 3))
	)
	(drawing
		(text "DFF" (rect 109 17 131 29)(font "Arial" ))
		(line (pt 16 16)(pt 128 16))
		(line (pt 128 16)(pt 128 64))
		(line (pt 128 64)(pt 16 64))
		(line (pt 16 64)(pt 16 16))
		(line (pt 16 42)(pt 22 48))
		(line (pt 22 48)(pt 16 54))
	)
)
(symbol
	(rect 312 1712 456 1792)
	(text "dff224" (rect 55 1 95 17)(font "Arial" (font_size 10)))
	(text "inst57" (rect 8 64 37 76)(font "Arial" ))
	(port
		(pt 0 32)
		(input)
		(text "data[223..0]" (rect 0 0 67 14)(font "Arial" (font_size 8)))
		(text "data[223..0]" (rect 20 26 87 40)(font "Arial" (font_size 8)))
		(line (pt 0 32)(pt 16 32)(line_width 3))
	)
	(port
		(pt 0 48)
		(input)
		(text "clock" (rect 0 0 29 14)(font "Arial" (font_size 8)))
		(text "clock" (rect 26 42 55 56)(font "Arial" (font_size 8)))
		(line (pt 0 48)(pt 16 48))
	)
	(port
		(pt 144 48)
		(output)
		(text "q[223..0]" (rect 0 0 49 14)(font "Arial" (font_size 8)))
		(text "q[223..0]" (rect 83 42 132 56)(font "Arial" (font_size 8)))
		(line (pt 144 48)(pt 128 48)(line_width 3))
	)
	(drawing
		(text "DFF" (rect 109 17 131 29)(font "Arial" ))
		(line (pt 16 16)(pt 128 16))
		(line (pt 128 16)(pt 128 64))
		(line (pt 128 64)(pt 16 64))
		(line (pt 16 64)(pt 16 16))
		(line (pt 16 42)(pt 22 48))
		(line (pt 22 48)(pt 16 54))
	)
)
(symbol
	(rect 488 1728 632 1808)
	(text "dff224" (rect 55 1 95 17)(font "Arial" (font_size 10)))
	(text "inst58" (rect 8 64 37 76)(font "Arial" ))
	(port
		(pt 0 32)
		(input)
		(text "data[223..0]" (rect 0 0 67 14)(font "Arial" (font_size 8)))
		(text "data[223..0]" (rect 20 26 87 40)(font "Arial" (font_size 8)))
		(line (pt 0 32)(pt 16 32)(line_width 3))
	)
	(port
		(pt 0 48)
		(input)
		(text "clock" (rect 0 0 29 14)(font "Arial" (font_size 8)))
		(text "clock" (rect 26 42 55 56)(font "Arial" (font_size 8)))
		(line (pt 0 48)(pt 16 48))
	)
	(port
		(pt 144 48)
		(output)
		(text "q[223..0]" (rect 0 0 49 14)(font "Arial" (font_size 8)))
		(text "q[223..0]" (rect 83 42 132 56)(font "Arial" (font_size 8)))
		(line (pt 144 48)(pt 128 48)(line_width 3))
	)
	(drawing
		(text "DFF" (rect 109 17 131 29)(font "Arial" ))
		(line (pt 16 16)(pt 128 16))
		(line (pt 128 16)(pt 128 64))
		(line (pt 128 64)(pt 16 64))
		(line (pt 16 64)(pt 16 16))
		(line (pt 16 42)(pt 22 48))
		(line (pt 22 48)(pt 16 54))
	)
)
(symbol
	(rect 664 1744 808 1824)
	(text "dff224" (rect 55 1 95 17)(font "Arial" (font_size 10)))
	(text "inst59" (rect 8 64 37 76)(font "Arial" ))
	(port
		(pt 0 32)
		(input)
		(text "data[223..0]" (rect 0 0 67 14)(font "Arial" (font_size 8)))
		(text "data[223..0]" (rect 20 26 87 40)(font "Arial" (font_size 8)))
		(line (pt 0 32)(pt 16 32)(line_width 3))
	)
	(port
		(pt 0 48)
		(input)
		(text "clock" (rect 0 0 29 14)(font "Arial" (font_size 8)))
		(text "clock" (rect 26 42 55 56)(font "Arial" (font_size 8)))
		(line (pt 0 48)(pt 16 48))
	)
	(port
		(pt 144 48)
		(output)
		(text "q[223..0]" (rect 0 0 49 14)(font "Arial" (font_size 8)))
		(text "q[223..0]" (rect 83 42 132 56)(font "Arial" (font_size 8)))
		(line (pt 144 48)(pt 128 48)(line_width 3))
	)
	(drawing
		(text "DFF" (rect 109 17 131 29)(font "Arial" ))
		(line (pt 16 16)(pt 128 16))
		(line (pt 128 16)(pt 128 64))
		(line (pt 128 64)(pt 16 64))
		(line (pt 16 64)(pt 16 16))
		(line (pt 16 42)(pt 22 48))
		(line (pt 22 48)(pt 16 54))
	)
)
(symbol
	(rect 840 1760 984 1840)
	(text "dff224" (rect 55 1 95 17)(font "Arial" (font_size 10)))
	(text "inst60" (rect 8 64 37 76)(font "Arial" ))
	(port
		(pt 0 32)
		(input)
		(text "data[223..0]" (rect 0 0 67 14)(font "Arial" (font_size 8)))
		(text "data[223..0]" (rect 20 26 87 40)(font "Arial" (font_size 8)))
		(line (pt 0 32)(pt 16 32)(line_width 3))
	)
	(port
		(pt 0 48)
		(input)
		(text "clock" (rect 0 0 29 14)(font "Arial" (font_size 8)))
		(text "clock" (rect 26 42 55 56)(font "Arial" (font_size 8)))
		(line (pt 0 48)(pt 16 48))
	)
	(port
		(pt 144 48)
		(output)
		(text "q[223..0]" (rect 0 0 49 14)(font "Arial" (font_size 8)))
		(text "q[223..0]" (rect 83 42 132 56)(font "Arial" (font_size 8)))
		(line (pt 144 48)(pt 128 48)(line_width 3))
	)
	(drawing
		(text "DFF" (rect 109 17 131 29)(font "Arial" ))
		(line (pt 16 16)(pt 128 16))
		(line (pt 128 16)(pt 128 64))
		(line (pt 128 64)(pt 16 64))
		(line (pt 16 64)(pt 16 16))
		(line (pt 16 42)(pt 22 48))
		(line (pt 22 48)(pt 16 54))
	)
)
(symbol
	(rect 1016 1776 1160 1856)
	(text "dff224" (rect 55 1 95 17)(font "Arial" (font_size 10)))
	(text "inst61" (rect 8 64 37 76)(font "Arial" ))
	(port
		(pt 0 32)
		(input)
		(text "data[223..0]" (rect 0 0 67 14)(font "Arial" (font_size 8)))
		(text "data[223..0]" (rect 20 26 87 40)(font "Arial" (font_size 8)))
		(line (pt 0 32)(pt 16 32)(line_width 3))
	)
	(port
		(pt 0 48)
		(input)
		(text "clock" (rect 0 0 29 14)(font "Arial" (font_size 8)))
		(text "clock" (rect 26 42 55 56)(font "Arial" (font_size 8)))
		(line (pt 0 48)(pt 16 48))
	)
	(port
		(pt 144 48)
		(output)
		(text "q[223..0]" (rect 0 0 49 14)(font "Arial" (font_size 8)))
		(text "q[223..0]" (rect 83 42 132 56)(font "Arial" (font_size 8)))
		(line (pt 144 48)(pt 128 48)(line_width 3))
	)
	(drawing
		(text "DFF" (rect 109 17 131 29)(font "Arial" ))
		(line (pt 16 16)(pt 128 16))
		(line (pt 128 16)(pt 128 64))
		(line (pt 128 64)(pt 16 64))
		(line (pt 16 64)(pt 16 16))
		(line (pt 16 42)(pt 22 48))
		(line (pt 22 48)(pt 16 54))
	)
)
(symbol
	(rect 1192 1792 1336 1872)
	(text "dff224" (rect 55 1 95 17)(font "Arial" (font_size 10)))
	(text "inst62" (rect 8 64 37 76)(font "Arial" ))
	(port
		(pt 0 32)
		(input)
		(text "data[223..0]" (rect 0 0 67 14)(font "Arial" (font_size 8)))
		(text "data[223..0]" (rect 20 26 87 40)(font "Arial" (font_size 8)))
		(line (pt 0 32)(pt 16 32)(line_width 3))
	)
	(port
		(pt 0 48)
		(input)
		(text "clock" (rect 0 0 29 14)(font "Arial" (font_size 8)))
		(text "clock" (rect 26 42 55 56)(font "Arial" (font_size 8)))
		(line (pt 0 48)(pt 16 48))
	)
	(port
		(pt 144 48)
		(output)
		(text "q[223..0]" (rect 0 0 49 14)(font "Arial" (font_size 8)))
		(text "q[223..0]" (rect 83 42 132 56)(font "Arial" (font_size 8)))
		(line (pt 144 48)(pt 128 48)(line_width 3))
	)
	(drawing
		(text "DFF" (rect 109 17 131 29)(font "Arial" ))
		(line (pt 16 16)(pt 128 16))
		(line (pt 128 16)(pt 128 64))
		(line (pt 128 64)(pt 16 64))
		(line (pt 16 64)(pt 16 16))
		(line (pt 16 42)(pt 22 48))
		(line (pt 22 48)(pt 16 54))
	)
)
(symbol
	(rect 1368 1808 1512 1888)
	(text "dff224" (rect 55 1 95 17)(font "Arial" (font_size 10)))
	(text "inst63" (rect 8 64 37 76)(font "Arial" ))
	(port
		(pt 0 32)
		(input)
		(text "data[223..0]" (rect 0 0 67 14)(font "Arial" (font_size 8)))
		(text "data[223..0]" (rect 20 26 87 40)(font "Arial" (font_size 8)))
		(line (pt 0 32)(pt 16 32)(line_width 3))
	)
	(port
		(pt 0 48)
		(input)
		(text "clock" (rect 0 0 29 14)(font "Arial" (font_size 8)))
		(text "clock" (rect 26 42 55 56)(font "Arial" (font_size 8)))
		(line (pt 0 48)(pt 16 48))
	)
	(port
		(pt 144 48)
		(output)
		(text "q[223..0]" (rect 0 0 49 14)(font "Arial" (font_size 8)))
		(text "q[223..0]" (rect 83 42 132 56)(font "Arial" (font_size 8)))
		(line (pt 144 48)(pt 128 48)(line_width 3))
	)
	(drawing
		(text "DFF" (rect 109 17 131 29)(font "Arial" ))
		(line (pt 16 16)(pt 128 16))
		(line (pt 128 16)(pt 128 64))
		(line (pt 128 64)(pt 16 64))
		(line (pt 16 64)(pt 16 16))
		(line (pt 16 42)(pt 22 48))
		(line (pt 22 48)(pt 16 54))
	)
)
(connector
	(pt 280 88)
	(pt 312 88)
	(bus)
)
(connector
	(pt 456 104)
	(pt 488 104)
	(bus)
)
(connector
	(pt 632 120)
	(pt 664 120)
	(bus)
)
(connector
	(pt 808 136)
	(pt 840 136)
	(bus)
)
(connector
	(pt 984 152)
	(pt 1016 152)
	(bus)
)
(connector
	(pt 1160 168)
	(pt 1192 168)
	(bus)
)
(connector
	(pt 1336 184)
	(pt 1368 184)
	(bus)
)
(connector
	(pt 1368 200)
	(pt 1352 200)
)
(connector
	(pt 1352 200)
	(pt 1352 232)
)
(connector
	(pt 312 104)
	(pt 296 104)
)
(connector
	(pt 296 104)
	(pt 296 232)
)
(connector
	(pt 296 232)
	(pt 112 232)
)
(connector
	(pt 488 120)
	(pt 464 120)
)
(connector
	(pt 464 120)
	(pt 464 232)
)
(connector
	(pt 464 232)
	(pt 296 232)
)
(connector
	(pt 664 136)
	(pt 648 136)
)
(connector
	(pt 648 136)
	(pt 648 232)
)
(connector
	(pt 648 232)
	(pt 464 232)
)
(connector
	(pt 840 152)
	(pt 824 152)
)
(connector
	(pt 824 152)
	(pt 824 232)
)
(connector
	(pt 824 232)
	(pt 648 232)
)
(connector
	(pt 1016 168)
	(pt 1000 168)
)
(connector
	(pt 1000 168)
	(pt 1000 232)
)
(connector
	(pt 1000 232)
	(pt 824 232)
)
(connector
	(pt 1192 184)
	(pt 1176 184)
)
(connector
	(pt 1176 184)
	(pt 1176 232)
)
(connector
	(pt 1352 232)
	(pt 1176 232)
)
(connector
	(pt 1176 232)
	(pt 1000 232)
)
(connector
	(pt 280 320)
	(pt 312 320)
	(bus)
)
(connector
	(pt 456 336)
	(pt 488 336)
	(bus)
)
(connector
	(pt 632 352)
	(pt 664 352)
	(bus)
)
(connector
	(pt 808 368)
	(pt 840 368)
	(bus)
)
(connector
	(pt 984 384)
	(pt 1016 384)
	(bus)
)
(connector
	(pt 1160 400)
	(pt 1192 400)
	(bus)
)
(connector
	(pt 1336 416)
	(pt 1368 416)
	(bus)
)
(connector
	(pt 1368 432)
	(pt 1352 432)
)
(connector
	(pt 1352 432)
	(pt 1352 464)
)
(connector
	(pt 312 336)
	(pt 296 336)
)
(connector
	(pt 296 336)
	(pt 296 464)
)
(connector
	(pt 488 352)
	(pt 464 352)
)
(connector
	(pt 464 352)
	(pt 464 464)
)
(connector
	(pt 664 368)
	(pt 648 368)
)
(connector
	(pt 648 368)
	(pt 648 464)
)
(connector
	(pt 840 384)
	(pt 824 384)
)
(connector
	(pt 824 384)
	(pt 824 464)
)
(connector
	(pt 1016 400)
	(pt 1000 400)
)
(connector
	(pt 1000 400)
	(pt 1000 464)
)
(connector
	(pt 1192 416)
	(pt 1176 416)
)
(connector
	(pt 1176 416)
	(pt 1176 464)
)
(connector
	(pt 112 320)
	(pt 136 320)
)
(connector
	(pt 112 464)
	(pt 296 464)
)
(connector
	(pt 296 464)
	(pt 464 464)
)
(connector
	(pt 464 464)
	(pt 648 464)
)
(connector
	(pt 648 464)
	(pt 824 464)
)
(connector
	(pt 824 464)
	(pt 1000 464)
)
(connector
	(pt 1000 464)
	(pt 1176 464)
)
(connector
	(pt 1176 464)
	(pt 1352 464)
)
(connector
	(pt 1512 200)
	(pt 1536 200)
	(bus)
)
(connector
	(pt 1536 200)
	(pt 1536 256)
	(bus)
)
(connector
	(pt 112 88)
	(pt 112 232)
)
(connector
	(pt 112 232)
	(pt 112 320)
)
(connector
	(pt 1536 256)
	(pt 128 256)
	(bus)
)
(connector
	(pt 136 304)
	(pt 128 304)
	(bus)
)
(connector
	(pt 128 256)
	(pt 128 304)
	(bus)
)
(connector
	(pt 280 568)
	(pt 312 568)
	(bus)
)
(connector
	(pt 456 584)
	(pt 488 584)
	(bus)
)
(connector
	(pt 632 600)
	(pt 664 600)
	(bus)
)
(connector
	(pt 808 616)
	(pt 840 616)
	(bus)
)
(connector
	(pt 984 632)
	(pt 1016 632)
	(bus)
)
(connector
	(pt 1160 648)
	(pt 1192 648)
	(bus)
)
(connector
	(pt 1336 664)
	(pt 1368 664)
	(bus)
)
(connector
	(pt 1368 680)
	(pt 1352 680)
)
(connector
	(pt 1352 680)
	(pt 1352 712)
)
(connector
	(pt 112 568)
	(pt 136 568)
)
(connector
	(pt 312 584)
	(pt 296 584)
)
(connector
	(pt 296 584)
	(pt 296 712)
)
(connector
	(pt 488 600)
	(pt 464 600)
)
(connector
	(pt 464 600)
	(pt 464 712)
)
(connector
	(pt 664 616)
	(pt 648 616)
)
(connector
	(pt 648 616)
	(pt 648 712)
)
(connector
	(pt 840 632)
	(pt 824 632)
)
(connector
	(pt 824 632)
	(pt 824 712)
)
(connector
	(pt 1016 648)
	(pt 1000 648)
)
(connector
	(pt 1000 648)
	(pt 1000 712)
)
(connector
	(pt 1192 664)
	(pt 1176 664)
)
(connector
	(pt 1176 664)
	(pt 1176 712)
)
(connector
	(pt 280 800)
	(pt 312 800)
	(bus)
)
(connector
	(pt 456 816)
	(pt 488 816)
	(bus)
)
(connector
	(pt 632 832)
	(pt 664 832)
	(bus)
)
(connector
	(pt 808 848)
	(pt 840 848)
	(bus)
)
(connector
	(pt 984 864)
	(pt 1016 864)
	(bus)
)
(connector
	(pt 1160 880)
	(pt 1192 880)
	(bus)
)
(connector
	(pt 1336 896)
	(pt 1368 896)
	(bus)
)
(connector
	(pt 1368 912)
	(pt 1352 912)
)
(connector
	(pt 1352 912)
	(pt 1352 944)
)
(connector
	(pt 312 816)
	(pt 296 816)
)
(connector
	(pt 296 816)
	(pt 296 944)
)
(connector
	(pt 488 832)
	(pt 464 832)
)
(connector
	(pt 464 832)
	(pt 464 944)
)
(connector
	(pt 664 848)
	(pt 648 848)
)
(connector
	(pt 648 848)
	(pt 648 944)
)
(connector
	(pt 840 864)
	(pt 824 864)
)
(connector
	(pt 824 864)
	(pt 824 944)
)
(connector
	(pt 1016 880)
	(pt 1000 880)
)
(connector
	(pt 1000 880)
	(pt 1000 944)
)
(connector
	(pt 1192 896)
	(pt 1176 896)
)
(connector
	(pt 1176 896)
	(pt 1176 944)
)
(connector
	(pt 112 800)
	(pt 136 800)
)
(connector
	(pt 1512 680)
	(pt 1536 680)
	(bus)
)
(connector
	(pt 1536 680)
	(pt 1536 736)
	(bus)
)
(connector
	(pt 1536 736)
	(pt 128 736)
	(bus)
)
(connector
	(pt 136 784)
	(pt 128 784)
	(bus)
)
(connector
	(pt 128 736)
	(pt 128 784)
	(bus)
)
(connector
	(pt 112 712)
	(pt 296 712)
)
(connector
	(pt 296 712)
	(pt 464 712)
)
(connector
	(pt 464 712)
	(pt 648 712)
)
(connector
	(pt 648 712)
	(pt 824 712)
)
(connector
	(pt 824 712)
	(pt 1000 712)
)
(connector
	(pt 1000 712)
	(pt 1176 712)
)
(connector
	(pt 1176 712)
	(pt 1352 712)
)
(connector
	(pt 112 944)
	(pt 296 944)
)
(connector
	(pt 296 944)
	(pt 464 944)
)
(connector
	(pt 464 944)
	(pt 648 944)
)
(connector
	(pt 648 944)
	(pt 824 944)
)
(connector
	(pt 824 944)
	(pt 1000 944)
)
(connector
	(pt 1000 944)
	(pt 1176 944)
)
(connector
	(pt 1176 944)
	(pt 1352 944)
)
(connector
	(pt 112 712)
	(pt 112 800)
)
(connector
	(pt 120 552)
	(pt 120 496)
	(bus)
)
(connector
	(pt 136 552)
	(pt 120 552)
	(bus)
)
(connector
	(pt 120 496)
	(pt 1536 496)
	(bus)
)
(connector
	(pt 1512 432)
	(pt 1536 432)
	(bus)
)
(connector
	(pt 1536 432)
	(pt 1536 496)
	(bus)
)
(connector
	(pt 112 320)
	(pt 112 464)
)
(connector
	(pt 112 464)
	(pt 112 568)
)
(connector
	(pt 112 568)
	(pt 112 712)
)
(connector
	(pt 280 1032)
	(pt 312 1032)
	(bus)
)
(connector
	(pt 456 1048)
	(pt 488 1048)
	(bus)
)
(connector
	(pt 632 1064)
	(pt 664 1064)
	(bus)
)
(connector
	(pt 808 1080)
	(pt 840 1080)
	(bus)
)
(connector
	(pt 984 1096)
	(pt 1016 1096)
	(bus)
)
(connector
	(pt 1160 1112)
	(pt 1192 1112)
	(bus)
)
(connector
	(pt 1336 1128)
	(pt 1368 1128)
	(bus)
)
(connector
	(pt 1368 1144)
	(pt 1352 1144)
)
(connector
	(pt 1352 1144)
	(pt 1352 1176)
)
(connector
	(pt 112 1032)
	(pt 136 1032)
)
(connector
	(pt 312 1048)
	(pt 296 1048)
)
(connector
	(pt 296 1048)
	(pt 296 1176)
)
(connector
	(pt 488 1064)
	(pt 464 1064)
)
(connector
	(pt 464 1064)
	(pt 464 1176)
)
(connector
	(pt 664 1080)
	(pt 648 1080)
)
(connector
	(pt 648 1080)
	(pt 648 1176)
)
(connector
	(pt 840 1096)
	(pt 824 1096)
)
(connector
	(pt 824 1096)
	(pt 824 1176)
)
(connector
	(pt 1016 1112)
	(pt 1000 1112)
)
(connector
	(pt 1000 1112)
	(pt 1000 1176)
)
(connector
	(pt 1192 1128)
	(pt 1176 1128)
)
(connector
	(pt 1176 1128)
	(pt 1176 1176)
)
(connector
	(pt 280 1264)
	(pt 312 1264)
	(bus)
)
(connector
	(pt 456 1280)
	(pt 488 1280)
	(bus)
)
(connector
	(pt 632 1296)
	(pt 664 1296)
	(bus)
)
(connector
	(pt 808 1312)
	(pt 840 1312)
	(bus)
)
(connector
	(pt 984 1328)
	(pt 1016 1328)
	(bus)
)
(connector
	(pt 1160 1344)
	(pt 1192 1344)
	(bus)
)
(connector
	(pt 1336 1360)
	(pt 1368 1360)
	(bus)
)
(connector
	(pt 1368 1376)
	(pt 1352 1376)
)
(connector
	(pt 1352 1376)
	(pt 1352 1408)
)
(connector
	(pt 312 1280)
	(pt 296 1280)
)
(connector
	(pt 296 1280)
	(pt 296 1408)
)
(connector
	(pt 488 1296)
	(pt 464 1296)
)
(connector
	(pt 464 1296)
	(pt 464 1408)
)
(connector
	(pt 664 1312)
	(pt 648 1312)
)
(connector
	(pt 648 1312)
	(pt 648 1408)
)
(connector
	(pt 840 1328)
	(pt 824 1328)
)
(connector
	(pt 824 1328)
	(pt 824 1408)
)
(connector
	(pt 1016 1344)
	(pt 1000 1344)
)
(connector
	(pt 1000 1344)
	(pt 1000 1408)
)
(connector
	(pt 1192 1360)
	(pt 1176 1360)
)
(connector
	(pt 1176 1360)
	(pt 1176 1408)
)
(connector
	(pt 112 1264)
	(pt 136 1264)
)
(connector
	(pt 1512 1144)
	(pt 1536 1144)
	(bus)
)
(connector
	(pt 1536 1144)
	(pt 1536 1200)
	(bus)
)
(connector
	(pt 1536 1200)
	(pt 128 1200)
	(bus)
)
(connector
	(pt 136 1248)
	(pt 128 1248)
	(bus)
)
(connector
	(pt 128 1200)
	(pt 128 1248)
	(bus)
)
(connector
	(pt 280 1512)
	(pt 312 1512)
	(bus)
)
(connector
	(pt 456 1528)
	(pt 488 1528)
	(bus)
)
(connector
	(pt 632 1544)
	(pt 664 1544)
	(bus)
)
(connector
	(pt 808 1560)
	(pt 840 1560)
	(bus)
)
(connector
	(pt 984 1576)
	(pt 1016 1576)
	(bus)
)
(connector
	(pt 1160 1592)
	(pt 1192 1592)
	(bus)
)
(connector
	(pt 1336 1608)
	(pt 1368 1608)
	(bus)
)
(connector
	(pt 1368 1624)
	(pt 1352 1624)
)
(connector
	(pt 1352 1624)
	(pt 1352 1656)
)
(connector
	(pt 112 1512)
	(pt 136 1512)
)
(connector
	(pt 312 1528)
	(pt 296 1528)
)
(connector
	(pt 296 1528)
	(pt 296 1656)
)
(connector
	(pt 488 1544)
	(pt 464 1544)
)
(connector
	(pt 464 1544)
	(pt 464 1656)
)
(connector
	(pt 664 1560)
	(pt 648 1560)
)
(connector
	(pt 648 1560)
	(pt 648 1656)
)
(connector
	(pt 840 1576)
	(pt 824 1576)
)
(connector
	(pt 824 1576)
	(pt 824 1656)
)
(connector
	(pt 1016 1592)
	(pt 1000 1592)
)
(connector
	(pt 1000 1592)
	(pt 1000 1656)
)
(connector
	(pt 1192 1608)
	(pt 1176 1608)
)
(connector
	(pt 1176 1608)
	(pt 1176 1656)
)
(connector
	(pt 280 1744)
	(pt 312 1744)
	(bus)
)
(connector
	(pt 456 1760)
	(pt 488 1760)
	(bus)
)
(connector
	(pt 632 1776)
	(pt 664 1776)
	(bus)
)
(connector
	(pt 808 1792)
	(pt 840 1792)
	(bus)
)
(connector
	(pt 984 1808)
	(pt 1016 1808)
	(bus)
)
(connector
	(pt 312 1760)
	(pt 296 1760)
)
(connector
	(pt 296 1760)
	(pt 296 1888)
)
(connector
	(pt 488 1776)
	(pt 464 1776)
)
(connector
	(pt 464 1776)
	(pt 464 1888)
)
(connector
	(pt 664 1792)
	(pt 648 1792)
)
(connector
	(pt 648 1792)
	(pt 648 1888)
)
(connector
	(pt 840 1808)
	(pt 824 1808)
)
(connector
	(pt 824 1808)
	(pt 824 1888)
)
(connector
	(pt 1016 1824)
	(pt 1000 1824)
)
(connector
	(pt 1000 1824)
	(pt 1000 1888)
)
(connector
	(pt 112 1744)
	(pt 136 1744)
)
(connector
	(pt 1512 1624)
	(pt 1536 1624)
	(bus)
)
(connector
	(pt 1536 1624)
	(pt 1536 1680)
	(bus)
)
(connector
	(pt 1536 1680)
	(pt 128 1680)
	(bus)
)
(connector
	(pt 136 1728)
	(pt 128 1728)
	(bus)
)
(connector
	(pt 128 1680)
	(pt 128 1728)
	(bus)
)
(connector
	(pt 120 1496)
	(pt 120 1440)
	(bus)
)
(connector
	(pt 136 1496)
	(pt 120 1496)
	(bus)
)
(connector
	(pt 120 1440)
	(pt 1536 1440)
	(bus)
)
(connector
	(pt 1512 1376)
	(pt 1536 1376)
	(bus)
)
(connector
	(pt 1536 1376)
	(pt 1536 1440)
	(bus)
)
(connector
	(pt 112 1176)
	(pt 296 1176)
)
(connector
	(pt 296 1176)
	(pt 464 1176)
)
(connector
	(pt 464 1176)
	(pt 648 1176)
)
(connector
	(pt 648 1176)
	(pt 824 1176)
)
(connector
	(pt 824 1176)
	(pt 1000 1176)
)
(connector
	(pt 1000 1176)
	(pt 1176 1176)
)
(connector
	(pt 1176 1176)
	(pt 1352 1176)
)
(connector
	(pt 112 1408)
	(pt 296 1408)
)
(connector
	(pt 296 1408)
	(pt 464 1408)
)
(connector
	(pt 464 1408)
	(pt 648 1408)
)
(connector
	(pt 648 1408)
	(pt 824 1408)
)
(connector
	(pt 824 1408)
	(pt 1000 1408)
)
(connector
	(pt 1000 1408)
	(pt 1176 1408)
)
(connector
	(pt 1176 1408)
	(pt 1352 1408)
)
(connector
	(pt 112 1656)
	(pt 296 1656)
)
(connector
	(pt 296 1656)
	(pt 464 1656)
)
(connector
	(pt 464 1656)
	(pt 648 1656)
)
(connector
	(pt 648 1656)
	(pt 824 1656)
)
(connector
	(pt 824 1656)
	(pt 1000 1656)
)
(connector
	(pt 1000 1656)
	(pt 1176 1656)
)
(connector
	(pt 1176 1656)
	(pt 1352 1656)
)
(connector
	(pt 112 1888)
	(pt 296 1888)
)
(connector
	(pt 296 1888)
	(pt 464 1888)
)
(connector
	(pt 464 1888)
	(pt 648 1888)
)
(connector
	(pt 648 1888)
	(pt 824 1888)
)
(connector
	(pt 112 1744)
	(pt 112 1888)
)
(connector
	(pt 112 1176)
	(pt 112 1264)
)
(connector
	(pt 112 1264)
	(pt 112 1408)
)
(connector
	(pt 112 1408)
	(pt 112 1512)
)
(connector
	(pt 112 1512)
	(pt 112 1656)
)
(connector
	(pt 112 1656)
	(pt 112 1744)
)
(connector
	(pt 112 800)
	(pt 112 944)
)
(connector
	(pt 112 944)
	(pt 112 1032)
)
(connector
	(pt 112 1032)
	(pt 112 1176)
)
(connector
	(pt 136 1016)
	(pt 128 1016)
	(bus)
)
(connector
	(pt 128 1016)
	(pt 128 960)
	(bus)
)
(connector
	(pt 128 960)
	(pt 1536 960)
	(bus)
)
(connector
	(pt 1536 960)
	(pt 1536 912)
	(bus)
)
(connector
	(pt 1512 912)
	(pt 1536 912)
	(bus)
)
(connector
	(pt 40 88)
	(pt 112 88)
)
(connector
	(pt 112 88)
	(pt 136 88)
)
(connector
	(pt 136 72)
	(pt 40 72)
	(bus)
)
(connector
	(pt 1160 1824)
	(pt 1192 1824)
	(bus)
)
(connector
	(pt 1336 1840)
	(pt 1368 1840)
	(bus)
)
(connector
	(pt 1368 1856)
	(pt 1352 1856)
)
(connector
	(pt 1352 1856)
	(pt 1352 1888)
)
(connector
	(pt 1192 1840)
	(pt 1176 1840)
)
(connector
	(pt 1176 1840)
	(pt 1176 1888)
)
(connector
	(pt 824 1888)
	(pt 1000 1888)
)
(connector
	(pt 1000 1888)
	(pt 1176 1888)
)
(connector
	(pt 1176 1888)
	(pt 1352 1888)
)
(connector
	(pt 1512 1856)
	(pt 1592 1856)
	(bus)
)
(junction (pt 296 232))
(junction (pt 464 232))
(junction (pt 648 232))
(junction (pt 824 232))
(junction (pt 1000 232))
(junction (pt 1176 232))
(junction (pt 112 320))
(junction (pt 296 464))
(junction (pt 464 464))
(junction (pt 648 464))
(junction (pt 824 464))
(junction (pt 1000 464))
(junction (pt 1176 464))
(junction (pt 112 232))
(junction (pt 296 712))
(junction (pt 464 712))
(junction (pt 648 712))
(junction (pt 824 712))
(junction (pt 1000 712))
(junction (pt 1176 712))
(junction (pt 296 944))
(junction (pt 464 944))
(junction (pt 648 944))
(junction (pt 824 944))
(junction (pt 1000 944))
(junction (pt 1176 944))
(junction (pt 112 712))
(junction (pt 112 800))
(junction (pt 112 464))
(junction (pt 112 568))
(junction (pt 296 1176))
(junction (pt 464 1176))
(junction (pt 648 1176))
(junction (pt 824 1176))
(junction (pt 1000 1176))
(junction (pt 1176 1176))
(junction (pt 296 1408))
(junction (pt 464 1408))
(junction (pt 648 1408))
(junction (pt 824 1408))
(junction (pt 1000 1408))
(junction (pt 1176 1408))
(junction (pt 112 1176))
(junction (pt 112 1264))
(junction (pt 296 1656))
(junction (pt 464 1656))
(junction (pt 648 1656))
(junction (pt 824 1656))
(junction (pt 1000 1656))
(junction (pt 1176 1656))
(junction (pt 296 1888))
(junction (pt 464 1888))
(junction (pt 648 1888))
(junction (pt 824 1888))
(junction (pt 112 1744))
(junction (pt 112 1656))
(junction (pt 112 1408))
(junction (pt 112 1512))
(junction (pt 112 944))
(junction (pt 112 1032))
(junction (pt 112 88))
(junction (pt 1176 1888))
(junction (pt 1000 1888))
