/*
WARNING: Do NOT edit the input and output ports in this file in a text
editor if you plan to continue editing the block that represents it in
the Block Editor! File corruption is VERY likely to occur.
*/
/*
Copyright (C) 1991-2009 Altera Corporation
Your use of Altera Corporation's design tools, logic functions 
and other software and tools, and its AMPP partner logic 
functions, and any output files from any of the foregoing 
(including device programming or simulation files), and any 
associated documentation or information are expressly subject 
to the terms and conditions of the Altera Program License 
Subscription Agreement, Altera MegaCore Function License 
Agreement, or other applicable license agreement, including, 
without limitation, that your use is for the sole purpose of 
programming logic devices manufactured by Altera and sold by 
Altera or its authorized distributors.  Please refer to the 
applicable agreement for further details.
*/
//#pragma file_not_in_maxplusii_format
(header "graphic" (version "1.3"))
(properties
	(page_setup "header_footer\nDate: %D\n%f\nProject: %j\n\nPage %p of %P\nRevision: %a\nmargin\n1\n1\n1\n1\norientation\n2\npaper_size\n1\npaper_source\n7\nfit_page_wide\n1\nfit_page_tall\n1\n")
)
(pin
	(input)
	(rect 3640 2392 3815 2408)
	(text "INPUT" (rect 7 6 35 16)(font "Arial" (font_size 6)))
	(text "vme_ga[4..0]" (rect 104 4 170 16)(font "Arial" ))
	(pt 0 8)
	(drawing
		(line (pt 76 4)(pt 51 4)(line_width 1))
		(line (pt 76 12)(pt 51 12)(line_width 1))
		(line (pt 47 8)(pt 0 8)(line_width 1))
		(line (pt 76 4)(pt 76 12)(line_width 1))
		(line (pt 51 12)(pt 47 8)(line_width 1))
		(line (pt 51 4)(pt 47 8)(line_width 1))
	)
	(rotate180)
	(text "VCC" (rect 12 -1 32 9)(font "Arial" (font_size 6)))
)
(pin
	(input)
	(rect 3640 2120 3808 2136)
	(text "INPUT" (rect 7 6 35 16)(font "Arial" (font_size 6)))
	(text "vme_as" (rect 104 4 144 16)(font "Arial" ))
	(pt 0 8)
	(drawing
		(line (pt 76 4)(pt 51 4)(line_width 1))
		(line (pt 76 12)(pt 51 12)(line_width 1))
		(line (pt 47 8)(pt 0 8)(line_width 1))
		(line (pt 76 4)(pt 76 12)(line_width 1))
		(line (pt 51 12)(pt 47 8)(line_width 1))
		(line (pt 51 4)(pt 47 8)(line_width 1))
	)
	(rotate180)
	(text "VCC" (rect 12 -1 32 9)(font "Arial" (font_size 6)))
)
(pin
	(input)
	(rect 3640 2184 3818 2200)
	(text "INPUT" (rect 7 6 35 16)(font "Arial" (font_size 6)))
	(text "vme_am[5..0]" (rect 104 4 173 16)(font "Arial" ))
	(pt 0 8)
	(drawing
		(line (pt 76 4)(pt 51 4)(line_width 1))
		(line (pt 76 12)(pt 51 12)(line_width 1))
		(line (pt 47 8)(pt 0 8)(line_width 1))
		(line (pt 76 4)(pt 76 12)(line_width 1))
		(line (pt 51 12)(pt 47 8)(line_width 1))
		(line (pt 51 4)(pt 47 8)(line_width 1))
	)
	(rotate180)
	(text "VCC" (rect 12 -1 32 9)(font "Arial" (font_size 6)))
)
(pin
	(input)
	(rect 3640 2672 3808 2688)
	(text "INPUT" (rect 7 6 35 16)(font "Arial" (font_size 6)))
	(text "vme_lword" (rect 104 4 157 16)(font "Arial" ))
	(pt 0 8)
	(drawing
		(line (pt 76 4)(pt 51 4)(line_width 1))
		(line (pt 76 12)(pt 51 12)(line_width 1))
		(line (pt 47 8)(pt 0 8)(line_width 1))
		(line (pt 76 4)(pt 76 12)(line_width 1))
		(line (pt 51 12)(pt 47 8)(line_width 1))
		(line (pt 51 4)(pt 47 8)(line_width 1))
	)
	(rotate180)
	(text "VCC" (rect 12 -1 32 9)(font "Arial" (font_size 6)))
)
(pin
	(input)
	(rect 3640 1696 3810 1712)
	(text "INPUT" (rect 7 6 35 16)(font "Arial" (font_size 6)))
	(text "vme_sysclk" (rect 104 4 165 16)(font "Arial" ))
	(pt 0 8)
	(drawing
		(line (pt 76 4)(pt 51 4)(line_width 1))
		(line (pt 76 12)(pt 51 12)(line_width 1))
		(line (pt 47 8)(pt 0 8)(line_width 1))
		(line (pt 76 4)(pt 76 12)(line_width 1))
		(line (pt 51 12)(pt 47 8)(line_width 1))
		(line (pt 51 4)(pt 47 8)(line_width 1))
	)
	(rotate180)
	(text "VCC" (rect 12 -1 32 9)(font "Arial" (font_size 6)))
)
(pin
	(input)
	(rect 3640 1728 3808 1744)
	(text "INPUT" (rect 7 6 35 16)(font "Arial" (font_size 6)))
	(text "vme_berrin" (rect 104 4 159 16)(font "Arial" ))
	(pt 0 8)
	(drawing
		(line (pt 76 4)(pt 51 4)(line_width 1))
		(line (pt 76 12)(pt 51 12)(line_width 1))
		(line (pt 47 8)(pt 0 8)(line_width 1))
		(line (pt 76 4)(pt 76 12)(line_width 1))
		(line (pt 51 12)(pt 47 8)(line_width 1))
		(line (pt 51 4)(pt 47 8)(line_width 1))
	)
	(rotate180)
	(text "VCC" (rect 12 -1 32 9)(font "Arial" (font_size 6)))
)
(pin
	(input)
	(rect 3640 1712 3808 1728)
	(text "INPUT" (rect 7 6 35 16)(font "Arial" (font_size 6)))
	(text "vme_iack" (rect 104 4 152 16)(font "Arial" ))
	(pt 0 8)
	(drawing
		(line (pt 76 4)(pt 51 4)(line_width 1))
		(line (pt 76 12)(pt 51 12)(line_width 1))
		(line (pt 47 8)(pt 0 8)(line_width 1))
		(line (pt 76 4)(pt 76 12)(line_width 1))
		(line (pt 51 12)(pt 47 8)(line_width 1))
		(line (pt 51 4)(pt 47 8)(line_width 1))
	)
	(rotate180)
	(text "VCC" (rect 12 -1 32 9)(font "Arial" (font_size 6)))
)
(pin
	(input)
	(rect 3640 1776 3808 1792)
	(text "INPUT" (rect 7 6 35 16)(font "Arial" (font_size 6)))
	(text "vme_iackin" (rect 104 4 160 16)(font "Arial" ))
	(pt 0 8)
	(drawing
		(line (pt 76 4)(pt 51 4)(line_width 1))
		(line (pt 76 12)(pt 51 12)(line_width 1))
		(line (pt 47 8)(pt 0 8)(line_width 1))
		(line (pt 76 4)(pt 76 12)(line_width 1))
		(line (pt 51 12)(pt 47 8)(line_width 1))
		(line (pt 51 4)(pt 47 8)(line_width 1))
	)
	(rotate180)
	(text "VCC" (rect 12 -1 32 9)(font "Arial" (font_size 6)))
)
(pin
	(input)
	(rect 3632 1600 3800 1616)
	(text "INPUT" (rect 7 6 35 16)(font "Arial" (font_size 6)))
	(text "vme_write" (rect 104 4 154 16)(font "Arial" ))
	(pt 0 8)
	(drawing
		(line (pt 76 4)(pt 51 4)(line_width 1))
		(line (pt 76 12)(pt 51 12)(line_width 1))
		(line (pt 47 8)(pt 0 8)(line_width 1))
		(line (pt 76 4)(pt 76 12)(line_width 1))
		(line (pt 51 12)(pt 47 8)(line_width 1))
		(line (pt 51 4)(pt 47 8)(line_width 1))
	)
	(rotate180)
	(text "VCC" (rect 12 -1 32 9)(font "Arial" (font_size 6)))
)
(pin
	(input)
	(rect 3664 1440 3832 1456)
	(text "INPUT" (rect 7 6 35 16)(font "Arial" (font_size 6)))
	(text "vme_ds1" (rect 104 4 150 16)(font "Arial" ))
	(pt 0 8)
	(drawing
		(line (pt 76 4)(pt 51 4)(line_width 1))
		(line (pt 76 12)(pt 51 12)(line_width 1))
		(line (pt 47 8)(pt 0 8)(line_width 1))
		(line (pt 76 4)(pt 76 12)(line_width 1))
		(line (pt 51 12)(pt 47 8)(line_width 1))
		(line (pt 51 4)(pt 47 8)(line_width 1))
	)
	(rotate180)
	(text "VCC" (rect 12 -1 32 9)(font "Arial" (font_size 6)))
)
(pin
	(input)
	(rect 3664 1424 3832 1440)
	(text "INPUT" (rect 7 6 35 16)(font "Arial" (font_size 6)))
	(text "vme_ds0" (rect 104 4 150 16)(font "Arial" ))
	(pt 0 8)
	(drawing
		(line (pt 76 4)(pt 51 4)(line_width 1))
		(line (pt 76 12)(pt 51 12)(line_width 1))
		(line (pt 47 8)(pt 0 8)(line_width 1))
		(line (pt 76 4)(pt 76 12)(line_width 1))
		(line (pt 51 12)(pt 47 8)(line_width 1))
		(line (pt 51 4)(pt 47 8)(line_width 1))
	)
	(rotate180)
	(text "VCC" (rect 12 -1 32 9)(font "Arial" (font_size 6)))
)
(pin
	(input)
	(rect 3640 1184 3808 1200)
	(text "INPUT" (rect 4 6 32 16)(font "Arial" (font_size 6)))
	(text "clk_125mhz" (rect 106 4 163 16)(font "Arial" ))
	(pt 0 8)
	(drawing
		(line (pt 73 4)(pt 48 4)(line_width 1))
		(line (pt 73 12)(pt 48 12)(line_width 1))
		(line (pt 44 8)(pt -3 8)(line_width 1))
		(line (pt 73 4)(pt 73 12)(line_width 1))
		(line (pt 48 12)(pt 44 8)(line_width 1))
		(line (pt 48 4)(pt 44 8)(line_width 1))
	)
	(rotate180)
	(text "VCC" (rect 9 -1 29 9)(font "Arial" (font_size 6)))
)
(pin
	(input)
	(rect 3640 2560 3848 2576)
	(text "INPUT" (rect 7 6 35 16)(font "Arial" (font_size 6)))
	(text "vme_address[31..2]" (rect 104 4 203 16)(font "Arial" ))
	(pt 0 8)
	(drawing
		(line (pt 76 4)(pt 51 4)(line_width 1))
		(line (pt 76 12)(pt 51 12)(line_width 1))
		(line (pt 47 8)(pt 0 8)(line_width 1))
		(line (pt 76 4)(pt 76 12)(line_width 1))
		(line (pt 51 12)(pt 47 8)(line_width 1))
		(line (pt 51 4)(pt 47 8)(line_width 1))
	)
	(rotate180)
	(text "VCC" (rect 12 -1 32 9)(font "Arial" (font_size 6)))
)
(pin
	(input)
	(rect 2536 1944 2704 1960)
	(text "INPUT" (rect 133 6 161 16)(font "Arial" (font_size 6)))
	(text "dout[31..0]" (rect 5 4 58 16)(font "Arial" ))
	(pt 168 8)
	(drawing
		(line (pt 92 4)(pt 117 4)(line_width 1))
		(line (pt 92 12)(pt 117 12)(line_width 1))
		(line (pt 121 8)(pt 168 8)(line_width 1))
		(line (pt 92 4)(pt 92 12)(line_width 1))
		(line (pt 117 12)(pt 121 8)(line_width 1))
		(line (pt 117 4)(pt 121 8)(line_width 1))
	)
	(flipx)
	(text "VCC" (rect 136 -1 156 9)(font "Arial" (font_size 6)))
)
(pin
	(output)
	(rect 3640 1672 3816 1688)
	(text "OUTPUT" (rect 1 0 39 10)(font "Arial" (font_size 6)))
	(text "vme_berr" (rect 90 0 137 12)(font "Arial" ))
	(pt 0 8)
	(drawing
		(line (pt 0 8)(pt 52 8)(line_width 1))
		(line (pt 52 4)(pt 78 4)(line_width 1))
		(line (pt 52 12)(pt 78 12)(line_width 1))
		(line (pt 52 12)(pt 52 4)(line_width 1))
		(line (pt 78 4)(pt 82 8)(line_width 1))
		(line (pt 82 8)(pt 78 12)(line_width 1))
		(line (pt 78 12)(pt 82 8)(line_width 1))
	)
)
(pin
	(output)
	(rect 2576 1616 2752 1632)
	(text "OUTPUT" (rect 137 0 175 10)(font "Arial" (font_size 6)))
	(text "vme_dir" (rect 5 0 45 12)(font "Arial" ))
	(pt 176 8)
	(drawing
		(line (pt 176 8)(pt 124 8)(line_width 1))
		(line (pt 124 4)(pt 98 4)(line_width 1))
		(line (pt 124 12)(pt 98 12)(line_width 1))
		(line (pt 124 12)(pt 124 4)(line_width 1))
		(line (pt 98 4)(pt 94 8)(line_width 1))
		(line (pt 94 8)(pt 98 12)(line_width 1))
		(line (pt 98 12)(pt 94 8)(line_width 1))
	)
	(flipy)
)
(pin
	(output)
	(rect 3640 1216 3816 1232)
	(text "OUTPUT" (rect 1 0 39 10)(font "Arial" (font_size 6)))
	(text "vme_dtack" (rect 90 0 145 12)(font "Arial" ))
	(pt 0 8)
	(drawing
		(line (pt 0 8)(pt 52 8)(line_width 1))
		(line (pt 52 4)(pt 78 4)(line_width 1))
		(line (pt 52 12)(pt 78 12)(line_width 1))
		(line (pt 52 12)(pt 52 4)(line_width 1))
		(line (pt 78 4)(pt 82 8)(line_width 1))
		(line (pt 82 8)(pt 78 12)(line_width 1))
		(line (pt 78 12)(pt 82 8)(line_width 1))
	)
)
(pin
	(output)
	(rect 2560 1520 2736 1536)
	(text "OUTPUT" (rect 137 0 175 10)(font "Arial" (font_size 6)))
	(text "vme_oe" (rect 5 0 45 12)(font "Arial" ))
	(pt 176 8)
	(drawing
		(line (pt 176 8)(pt 124 8)(line_width 1))
		(line (pt 124 4)(pt 98 4)(line_width 1))
		(line (pt 124 12)(pt 98 12)(line_width 1))
		(line (pt 124 12)(pt 124 4)(line_width 1))
		(line (pt 98 4)(pt 94 8)(line_width 1))
		(line (pt 94 8)(pt 98 12)(line_width 1))
		(line (pt 98 12)(pt 94 8)(line_width 1))
	)
	(flipy)
)
(pin
	(output)
	(rect 3640 1760 3816 1776)
	(text "OUTPUT" (rect 1 0 39 10)(font "Arial" (font_size 6)))
	(text "vme_iackout" (rect 90 0 153 12)(font "Arial" ))
	(pt 0 8)
	(drawing
		(line (pt 0 8)(pt 52 8)(line_width 1))
		(line (pt 52 4)(pt 78 4)(line_width 1))
		(line (pt 52 12)(pt 78 12)(line_width 1))
		(line (pt 52 12)(pt 52 4)(line_width 1))
		(line (pt 78 4)(pt 82 8)(line_width 1))
		(line (pt 82 8)(pt 78 12)(line_width 1))
		(line (pt 78 12)(pt 82 8)(line_width 1))
	)
)
(pin
	(output)
	(rect 2904 2288 3088 2304)
	(text "OUTPUT" (rect 145 0 183 10)(font "Arial" (font_size 6)))
	(text "slot_number[4..0]" (rect 5 0 91 12)(font "Arial" ))
	(pt 184 8)
	(drawing
		(line (pt 184 8)(pt 132 8)(line_width 1))
		(line (pt 132 4)(pt 106 4)(line_width 1))
		(line (pt 132 12)(pt 106 12)(line_width 1))
		(line (pt 132 12)(pt 132 4)(line_width 1))
		(line (pt 106 4)(pt 102 8)(line_width 1))
		(line (pt 102 8)(pt 106 12)(line_width 1))
		(line (pt 106 12)(pt 102 8)(line_width 1))
	)
	(flipy)
)
(pin
	(output)
	(rect 2552 1328 2728 1344)
	(text "OUTPUT" (rect 137 0 175 10)(font "Arial" (font_size 6)))
	(text "write_clock" (rect 5 0 59 12)(font "Arial" ))
	(pt 176 8)
	(drawing
		(line (pt 176 8)(pt 124 8)(line_width 1))
		(line (pt 124 4)(pt 98 4)(line_width 1))
		(line (pt 124 12)(pt 98 12)(line_width 1))
		(line (pt 124 12)(pt 124 4)(line_width 1))
		(line (pt 98 4)(pt 94 8)(line_width 1))
		(line (pt 94 8)(pt 98 12)(line_width 1))
		(line (pt 98 12)(pt 94 8)(line_width 1))
	)
	(flipy)
)
(pin
	(output)
	(rect 2560 1480 2736 1496)
	(text "OUTPUT" (rect 137 0 175 10)(font "Arial" (font_size 6)))
	(text "read_clock" (rect 5 0 58 12)(font "Arial" ))
	(pt 176 8)
	(drawing
		(line (pt 176 8)(pt 124 8)(line_width 1))
		(line (pt 124 4)(pt 98 4)(line_width 1))
		(line (pt 124 12)(pt 98 12)(line_width 1))
		(line (pt 124 12)(pt 124 4)(line_width 1))
		(line (pt 98 4)(pt 94 8)(line_width 1))
		(line (pt 94 8)(pt 98 12)(line_width 1))
		(line (pt 98 12)(pt 94 8)(line_width 1))
	)
	(flipy)
)
(pin
	(output)
	(rect 2480 2424 2656 2440)
	(text "OUTPUT" (rect 137 0 175 10)(font "Arial" (font_size 6)))
	(text "add_enable" (rect 5 0 60 12)(font "Arial" ))
	(pt 176 8)
	(drawing
		(line (pt 176 8)(pt 124 8)(line_width 1))
		(line (pt 124 4)(pt 98 4)(line_width 1))
		(line (pt 124 12)(pt 98 12)(line_width 1))
		(line (pt 124 12)(pt 124 4)(line_width 1))
		(line (pt 98 4)(pt 94 8)(line_width 1))
		(line (pt 94 8)(pt 98 12)(line_width 1))
		(line (pt 98 12)(pt 94 8)(line_width 1))
	)
	(flipy)
)
(pin
	(output)
	(rect 2432 2528 2608 2544)
	(text "OUTPUT" (rect 137 0 175 10)(font "Arial" (font_size 6)))
	(text "address[4..0]" (rect 5 0 69 12)(font "Arial" ))
	(pt 176 8)
	(drawing
		(line (pt 176 8)(pt 124 8)(line_width 1))
		(line (pt 124 4)(pt 98 4)(line_width 1))
		(line (pt 124 12)(pt 98 12)(line_width 1))
		(line (pt 124 12)(pt 124 4)(line_width 1))
		(line (pt 98 4)(pt 94 8)(line_width 1))
		(line (pt 94 8)(pt 98 12)(line_width 1))
		(line (pt 98 12)(pt 94 8)(line_width 1))
	)
	(flipy)
)
(pin
	(output)
	(rect 2528 1928 2704 1944)
	(text "OUTPUT" (rect 137 0 175 10)(font "Arial" (font_size 6)))
	(text "din[31..0]" (rect 5 0 51 12)(font "Arial" ))
	(pt 176 8)
	(drawing
		(line (pt 176 8)(pt 124 8)(line_width 1))
		(line (pt 124 4)(pt 98 4)(line_width 1))
		(line (pt 124 12)(pt 98 12)(line_width 1))
		(line (pt 124 12)(pt 124 4)(line_width 1))
		(line (pt 98 4)(pt 94 8)(line_width 1))
		(line (pt 94 8)(pt 98 12)(line_width 1))
		(line (pt 98 12)(pt 94 8)(line_width 1))
	)
	(flipy)
)
(pin
	(bidir)
	(rect 3640 1944 3816 1960)
	(text "BIDIR" (rect 1 0 25 10)(font "Arial" (font_size 6)))
	(text "vme_data[31..0]" (rect 90 0 171 12)(font "Arial" ))
	(pt 0 8)
	(drawing
		(line (pt 56 4)(pt 78 4)(line_width 1))
		(line (pt 0 8)(pt 52 8)(line_width 1))
		(line (pt 56 12)(pt 78 12)(line_width 1))
		(line (pt 78 4)(pt 82 8)(line_width 1))
		(line (pt 78 12)(pt 82 8)(line_width 1))
		(line (pt 56 4)(pt 52 8)(line_width 1))
		(line (pt 52 8)(pt 56 12)(line_width 1))
	)
	(text "VCC" (rect 4 7 24 17)(font "Arial" (font_size 6)))
)
(symbol
	(rect 2888 2336 3016 2432)
	(text "compare5" (rect 25 1 92 17)(font "Arial" (font_size 10)))
	(text "inst83" (rect 91 80 120 92)(font "Arial" ))
	(port
		(pt 128 48)
		(input)
		(text "dataa[4..0]" (rect 0 0 60 14)(font "Arial" (font_size 8)))
		(text "dataa[4..0]" (rect 48 42 108 56)(font "Arial" (font_size 8)))
		(line (pt 128 48)(pt 112 48)(line_width 3))
	)
	(port
		(pt 128 64)
		(input)
		(text "datab[4..0]" (rect 0 0 60 14)(font "Arial" (font_size 8)))
		(text "datab[4..0]" (rect 48 58 108 72)(font "Arial" (font_size 8)))
		(line (pt 128 64)(pt 112 64)(line_width 3))
	)
	(port
		(pt 0 56)
		(output)
		(text "aeb" (rect 0 0 21 14)(font "Arial" (font_size 8)))
		(text "aeb" (rect 16 50 37 64)(font "Arial" (font_size 8)))
		(line (pt 0 56)(pt 16 56)(line_width 1))
	)
	(drawing
		(text "compare" (rect 10 17 52 29)(font "Arial" ))
		(line (pt 112 16)(pt 16 16)(line_width 1))
		(line (pt 16 16)(pt 16 80)(line_width 1))
		(line (pt 16 80)(pt 112 80)(line_width 1))
		(line (pt 112 80)(pt 112 16)(line_width 1))
	)
	(flipy)
)
(symbol
	(rect 2904 2448 2968 2504)
	(text "or20b" (rect 11 39 48 55)(font "Arial" (font_size 10)))
	(text "inst88" (rect 27 4 56 16)(font "Arial" ))
	(port
		(pt 64 24)
		(input)
		(text "data[19..0][0..0]" (rect 0 0 88 14)(font "Arial" (font_size 8)))
		(text "data[19..0][0..0]" (rect -28 85 60 99)(font "Arial" (font_size 8))(invisible))
		(line (pt 64 24)(pt 44 24)(line_width 3))
	)
	(port
		(pt 0 24)
		(output)
		(text "result" (rect 0 0 31 14)(font "Arial" (font_size 8)))
		(text "result" (rect -28 35 3 49)(font "Arial" (font_size 8))(invisible))
		(line (pt 0 24)(pt 13 24)(line_width 1))
	)
	(drawing
		(text "20" (rect 49 24 60 36)(font "Arial" ))
		(line (pt 48 36)(pt 36 36)(line_width 1))
		(line (pt 48 12)(pt 36 12)(line_width 1))
		(line (pt 60 20)(pt 52 28)(line_width 1))
		(arc (pt 48 12)(pt 48 36)(rect 43 3 85 45)(line_width 1))
		(arc (pt 12 24)(pt 36 36)(rect 6 -24 66 36)(line_width 1))
		(arc (pt 36 12)(pt 12 24)(rect 6 12 66 72)(line_width 1))
	)
	(rotate180)
)
(symbol
	(rect 2808 2456 2888 2496)
	(text "inv1" (rect 26 23 51 39)(font "Arial" (font_size 10)))
	(text "inst201" (rect 37 4 72 16)(font "Arial" ))
	(port
		(pt 80 16)
		(input)
		(text "data" (rect 0 0 24 14)(font "Arial" (font_size 8)))
		(text "data" (rect 52 23 76 37)(font "Arial" (font_size 8))(invisible))
		(line (pt 80 16)(pt 56 16)(line_width 1))
	)
	(port
		(pt 0 16)
		(output)
		(text "result" (rect 0 0 31 14)(font "Arial" (font_size 8)))
		(text "result" (rect -28 27 3 41)(font "Arial" (font_size 8))(invisible))
		(line (pt 0 16)(pt 34 16)(line_width 1))
	)
	(drawing
		(line (pt 56 24)(pt 40 16)(line_width 1))
		(line (pt 40 16)(pt 56 8)(line_width 1))
		(line (pt 56 8)(pt 56 24)(line_width 1))
		(circle (rect 34 13 40 19)(line_width 1))
	)
	(rotate180)
)
(symbol
	(rect 3608 1656 3640 1672)
	(text "VCC" (rect 7 0 27 10)(font "Arial" (font_size 6)))
	(text "inst27" (rect 3 5 32 17)(font "Arial" )(invisible))
	(port
		(pt 16 16)
		(output)
		(text "1" (rect 19 7 24 19)(font "Courier New" (bold))(invisible))
		(text "1" (rect 19 7 24 19)(font "Courier New" (bold))(invisible))
		(line (pt 16 16)(pt 16 8)(line_width 1))
	)
	(drawing
		(line (pt 8 8)(pt 24 8)(line_width 1))
	)
)
(symbol
	(rect 2712 2392 2776 2472)
	(text "AND4" (rect 39 70 63 80)(font "Arial" (font_size 6)))
	(text "inst19" (rect 32 -1 61 11)(font "Arial" ))
	(port
		(pt 64 64)
		(input)
		(text "IN1" (rect 2 7 19 19)(font "Courier New" (bold))(invisible))
		(text "IN1" (rect 45 61 62 73)(font "Courier New" (bold))(invisible))
		(line (pt 64 64)(pt 46 64)(line_width 1))
	)
	(port
		(pt 64 48)
		(input)
		(text "IN2" (rect 2 23 19 35)(font "Courier New" (bold))(invisible))
		(text "IN2" (rect 45 45 62 57)(font "Courier New" (bold))(invisible))
		(line (pt 64 48)(pt 46 48)(line_width 1))
	)
	(port
		(pt 64 32)
		(input)
		(text "IN3" (rect 2 39 19 51)(font "Courier New" (bold))(invisible))
		(text "IN3" (rect 45 29 62 41)(font "Courier New" (bold))(invisible))
		(line (pt 64 32)(pt 46 32)(line_width 1))
	)
	(port
		(pt 64 16)
		(input)
		(text "IN4" (rect 2 55 19 67)(font "Courier New" (bold))(invisible))
		(text "IN4" (rect 45 13 62 25)(font "Courier New" (bold))(invisible))
		(line (pt 64 16)(pt 46 16)(line_width 1))
	)
	(port
		(pt 0 40)
		(output)
		(text "OUT" (rect 48 31 65 43)(font "Courier New" (bold))(invisible))
		(text "OUT" (rect -1 37 16 49)(font "Courier New" (bold))(invisible))
		(line (pt 18 40)(pt 0 40)(line_width 1))
	)
	(drawing
		(line (pt 46 52)(pt 30 52)(line_width 1))
		(line (pt 46 28)(pt 46 52)(line_width 1))
		(line (pt 46 13)(pt 46 67)(line_width 1))
		(line (pt 30 27)(pt 46 27)(line_width 1))
		(arc (pt 30 28)(pt 30 52)(rect 17 27 42 52)(line_width 1))
	)
	(rotate180)
)
(symbol
	(rect 3184 2144 3328 2224)
	(text "vme_amreg" (rect 28 63 105 79)(font "Arial" (font_size 10)))
	(text "inst3" (rect 113 4 136 16)(font "Arial" ))
	(port
		(pt 144 48)
		(input)
		(text "data[5..0]" (rect 0 0 53 14)(font "Arial" (font_size 8)))
		(text "data[5..0]" (rect 71 40 124 54)(font "Arial" (font_size 8)))
		(line (pt 144 48)(pt 128 48)(line_width 3))
	)
	(port
		(pt 144 32)
		(input)
		(text "clock" (rect 0 0 29 14)(font "Arial" (font_size 8)))
		(text "clock" (rect 89 24 118 38)(font "Arial" (font_size 8)))
		(line (pt 144 32)(pt 128 32)(line_width 1))
	)
	(port
		(pt 0 32)
		(output)
		(text "q[5..0]" (rect 0 0 35 14)(font "Arial" (font_size 8)))
		(text "q[5..0]" (rect 14 24 49 38)(font "Arial" (font_size 8)))
		(line (pt 0 32)(pt 16 32)(line_width 3))
	)
	(drawing
		(text "DFF" (rect 13 51 35 63)(font "Arial" ))
		(line (pt 128 64)(pt 16 64)(line_width 1))
		(line (pt 16 64)(pt 16 16)(line_width 1))
		(line (pt 16 16)(pt 128 16)(line_width 1))
		(line (pt 128 16)(pt 128 64)(line_width 1))
		(line (pt 128 38)(pt 122 32)(line_width 1))
		(line (pt 122 32)(pt 128 26)(line_width 1))
	)
	(rotate180)
)
(symbol
	(rect 3184 2632 3328 2712)
	(text "ff3" (rect 63 63 78 79)(font "Arial" (font_size 10)))
	(text "inst100" (rect 101 4 136 16)(font "Arial" ))
	(port
		(pt 144 48)
		(input)
		(text "data" (rect 0 0 24 14)(font "Arial" (font_size 8)))
		(text "data" (rect 100 40 124 54)(font "Arial" (font_size 8)))
		(line (pt 144 48)(pt 128 48)(line_width 1))
	)
	(port
		(pt 144 32)
		(input)
		(text "clock" (rect 0 0 29 14)(font "Arial" (font_size 8)))
		(text "clock" (rect 89 24 118 38)(font "Arial" (font_size 8)))
		(line (pt 144 32)(pt 128 32)(line_width 1))
	)
	(port
		(pt 0 32)
		(output)
		(text "q" (rect 0 0 7 14)(font "Arial" (font_size 8)))
		(text "q" (rect 18 24 25 38)(font "Arial" (font_size 8)))
		(line (pt 0 32)(pt 16 32)(line_width 1))
	)
	(drawing
		(text "DFF" (rect 13 51 35 63)(font "Arial" ))
		(line (pt 128 64)(pt 16 64)(line_width 1))
		(line (pt 16 64)(pt 16 16)(line_width 1))
		(line (pt 16 16)(pt 128 16)(line_width 1))
		(line (pt 128 16)(pt 128 64)(line_width 1))
		(line (pt 128 38)(pt 122 32)(line_width 1))
		(line (pt 122 32)(pt 128 26)(line_width 1))
	)
	(rotate180)
)
(symbol
	(rect 3576 1416 3640 1464)
	(text "NAND2" (rect 32 38 63 48)(font "Arial" (font_size 6)))
	(text "inst133" (rect 26 -1 61 11)(font "Arial" ))
	(port
		(pt 64 16)
		(input)
		(text "IN2" (rect 2 23 19 35)(font "Courier New" (bold))(invisible))
		(text "IN2" (rect 45 13 62 25)(font "Courier New" (bold))(invisible))
		(line (pt 64 16)(pt 49 16)(line_width 1))
	)
	(port
		(pt 64 32)
		(input)
		(text "IN1" (rect 2 7 19 19)(font "Courier New" (bold))(invisible))
		(text "IN1" (rect 45 29 62 41)(font "Courier New" (bold))(invisible))
		(line (pt 64 32)(pt 49 32)(line_width 1))
	)
	(port
		(pt 0 24)
		(output)
		(text "OUT" (rect 48 15 65 27)(font "Courier New" (bold))(invisible))
		(text "OUT" (rect -1 21 16 33)(font "Courier New" (bold))(invisible))
		(line (pt 12 24)(pt 0 24)(line_width 1))
	)
	(drawing
		(line (pt 49 11)(pt 32 11)(line_width 1))
		(line (pt 49 36)(pt 32 36)(line_width 1))
		(line (pt 49 12)(pt 49 36)(line_width 1))
		(arc (pt 32 12)(pt 32 36)(rect 19 11 44 36)(line_width 1))
		(circle (rect 12 20 20 28)(line_width 1))
	)
	(rotate180)
)
(symbol
	(rect 2968 1360 3008 1440)
	(text "inv1" (rect 1 26 17 51)(font "Arial" (font_size 10))(vertical))
	(text "inst212" (rect 24 37 36 72)(font "Arial" )(vertical))
	(port
		(pt 24 80)
		(input)
		(text "data" (rect 0 0 24 14)(font "Arial" (font_size 8)))
		(text "data" (rect 3 52 17 76)(font "Arial" (font_size 8))(vertical)(invisible))
		(line (pt 24 80)(pt 24 56)(line_width 1))
	)
	(port
		(pt 24 0)
		(output)
		(text "result" (rect 0 0 31 14)(font "Arial" (font_size 8)))
		(text "result" (rect -1 -28 13 3)(font "Arial" (font_size 8))(vertical)(invisible))
		(line (pt 24 0)(pt 24 34)(line_width 1))
	)
	(drawing
		(line (pt 16 56)(pt 24 40)(line_width 1))
		(line (pt 24 40)(pt 32 56)(line_width 1))
		(line (pt 32 56)(pt 16 56)(line_width 1))
		(circle (rect 21 34 27 40)(line_width 1))
	)
	(rotate90)
)
(symbol
	(rect 2912 1912 3008 1968)
	(text "tribuf32" (rect 49 1 98 17)(font "Arial" (font_size 10)))
	(text "inst1" (rect 8 40 31 52)(font "Arial" ))
	(port
		(pt 40 56)
		(input)
		(text "enabledt" (rect 0 0 48 14)(font "Arial" (font_size 8)))
		(text "enabledt" (rect 40 10 88 24)(font "Arial" (font_size 8))(invisible))
		(line (pt 40 56)(pt 40 44)(line_width 1))
	)
	(port
		(pt 0 40)
		(input)
		(text "data[31..0]" (rect 0 0 60 14)(font "Arial" (font_size 8)))
		(text "data[31..0]" (rect -3 -11 57 3)(font "Arial" (font_size 8))(invisible))
		(line (pt 0 40)(pt 32 40)(line_width 3))
	)
	(port
		(pt 40 0)
		(input)
		(text "enabletr" (rect 0 0 46 14)(font "Arial" (font_size 8)))
		(text "enabletr" (rect 40 -36 86 -22)(font "Arial" (font_size 8))(invisible))
	)
	(port
		(pt 0 24)
		(output)
		(text "result[31..0]" (rect 0 0 67 14)(font "Arial" (font_size 8)))
		(text "result[31..0]" (rect -3 -31 64 -17)(font "Arial" (font_size 8))(invisible))
		(line (pt 0 24)(pt 32 24)(line_width 3))
	)
	(port
		(pt 96 40)
		(bidir)
		(text "tridata[31..0]" (rect 0 0 70 14)(font "Arial" (font_size 8)))
		(text "tridata[31..0]" (rect 100 -20 170 -6)(font "Arial" (font_size 8))(invisible))
		(line (pt 96 40)(pt 48 40)(line_width 3))
	)
	(drawing
		(text "32" (rect 69 41 80 53)(font "Arial" ))
		(text "32" (rect 13 41 24 53)(font "Arial" ))
		(text "32" (rect 13 25 24 37)(font "Arial" ))
		(line (pt 48 16)(pt 32 24)(line_width 1))
		(line (pt 32 24)(pt 48 32)(line_width 1))
		(line (pt 48 32)(pt 48 16)(line_width 1))
		(line (pt 32 32)(pt 48 40)(line_width 1))
		(line (pt 48 40)(pt 32 48)(line_width 1))
		(line (pt 32 48)(pt 32 32)(line_width 1))
		(line (pt 48 24)(pt 56 24)(line_width 3))
		(line (pt 56 24)(pt 56 40)(line_width 3))
		(line (pt 64 44)(pt 72 36)(line_width 1))
		(line (pt 8 44)(pt 16 36)(line_width 1))
		(line (pt 8 28)(pt 16 20)(line_width 1))
		(line (pt 40 0)(pt 40 20)(line_width 1))
	)
)
(symbol
	(rect 2848 2648 2928 2688)
	(text "inv1" (rect 26 23 51 39)(font "Arial" (font_size 10)))
	(text "inst203" (rect 37 4 72 16)(font "Arial" ))
	(port
		(pt 80 16)
		(input)
		(text "data" (rect 0 0 24 14)(font "Arial" (font_size 8)))
		(text "data" (rect 52 23 76 37)(font "Arial" (font_size 8))(invisible))
		(line (pt 80 16)(pt 56 16)(line_width 1))
	)
	(port
		(pt 0 16)
		(output)
		(text "result" (rect 0 0 31 14)(font "Arial" (font_size 8)))
		(text "result" (rect -28 27 3 41)(font "Arial" (font_size 8))(invisible))
		(line (pt 0 16)(pt 34 16)(line_width 1))
	)
	(drawing
		(line (pt 56 24)(pt 40 16)(line_width 1))
		(line (pt 40 16)(pt 56 8)(line_width 1))
		(line (pt 56 8)(pt 56 24)(line_width 1))
		(circle (rect 34 13 40 19)(line_width 1))
	)
	(rotate180)
)
(symbol
	(rect 2832 1872 2912 1912)
	(text "inv1" (rect 29 1 54 17)(font "Arial" (font_size 10)))
	(text "inst214" (rect 8 24 43 36)(font "Arial" ))
	(port
		(pt 0 24)
		(input)
		(text "data" (rect 0 0 24 14)(font "Arial" (font_size 8)))
		(text "data" (rect 4 3 28 17)(font "Arial" (font_size 8))(invisible))
		(line (pt 0 24)(pt 24 24)(line_width 1))
	)
	(port
		(pt 80 24)
		(output)
		(text "result" (rect 0 0 31 14)(font "Arial" (font_size 8)))
		(text "result" (rect 77 -1 108 13)(font "Arial" (font_size 8))(invisible))
		(line (pt 80 24)(pt 46 24)(line_width 1))
	)
	(drawing
		(line (pt 24 16)(pt 40 24)(line_width 1))
		(line (pt 40 24)(pt 24 32)(line_width 1))
		(line (pt 24 32)(pt 24 16)(line_width 1))
		(circle (rect 40 21 46 27)(line_width 1))
	)
)
(symbol
	(rect 3184 2536 3328 2616)
	(text "vme_addreg" (rect 25 63 106 79)(font "Arial" (font_size 10)))
	(text "inst2" (rect 113 4 136 16)(font "Arial" ))
	(port
		(pt 144 48)
		(input)
		(text "data[31..0]" (rect 0 0 60 14)(font "Arial" (font_size 8)))
		(text "data[31..0]" (rect 64 40 124 54)(font "Arial" (font_size 8)))
		(line (pt 144 48)(pt 128 48)(line_width 3))
	)
	(port
		(pt 144 32)
		(input)
		(text "clock" (rect 0 0 29 14)(font "Arial" (font_size 8)))
		(text "clock" (rect 89 24 118 38)(font "Arial" (font_size 8)))
		(line (pt 144 32)(pt 128 32)(line_width 1))
	)
	(port
		(pt 0 32)
		(output)
		(text "q[31..0]" (rect 0 0 42 14)(font "Arial" (font_size 8)))
		(text "q[31..0]" (rect 13 24 55 38)(font "Arial" (font_size 8)))
		(line (pt 0 32)(pt 16 32)(line_width 3))
	)
	(drawing
		(text "DFF" (rect 13 51 35 63)(font "Arial" ))
		(line (pt 128 64)(pt 16 64)(line_width 1))
		(line (pt 16 64)(pt 16 16)(line_width 1))
		(line (pt 16 16)(pt 128 16)(line_width 1))
		(line (pt 128 16)(pt 128 64)(line_width 1))
		(line (pt 128 38)(pt 122 32)(line_width 1))
		(line (pt 122 32)(pt 128 26)(line_width 1))
	)
	(rotate180)
)
(symbol
	(rect 3504 2608 3536 2640)
	(text "GND" (rect 8 16 29 26)(font "Arial" (font_size 6)))
	(text "inst92" (rect 3 21 32 33)(font "Arial" )(invisible))
	(port
		(pt 16 0)
		(output)
		(text "1" (rect 18 0 23 12)(font "Courier New" (bold))(invisible))
		(text "1" (rect 18 0 23 12)(font "Courier New" (bold))(invisible))
		(line (pt 16 8)(pt 16 0)(line_width 1))
	)
	(drawing
		(line (pt 8 8)(pt 16 16)(line_width 1))
		(line (pt 16 16)(pt 24 8)(line_width 1))
		(line (pt 8 8)(pt 24 8)(line_width 1))
	)
)
(symbol
	(rect 3184 2352 3328 2432)
	(text "vme_reg3" (rect 35 63 99 79)(font "Arial" (font_size 10)))
	(text "inst11" (rect 107 4 136 16)(font "Arial" ))
	(port
		(pt 144 48)
		(input)
		(text "data[4..0]" (rect 0 0 53 14)(font "Arial" (font_size 8)))
		(text "data[4..0]" (rect 71 40 124 54)(font "Arial" (font_size 8)))
		(line (pt 144 48)(pt 128 48)(line_width 3))
	)
	(port
		(pt 144 32)
		(input)
		(text "clock" (rect 0 0 29 14)(font "Arial" (font_size 8)))
		(text "clock" (rect 89 24 118 38)(font "Arial" (font_size 8)))
		(line (pt 144 32)(pt 128 32)(line_width 1))
	)
	(port
		(pt 0 32)
		(output)
		(text "q[4..0]" (rect 0 0 35 14)(font "Arial" (font_size 8)))
		(text "q[4..0]" (rect 14 24 49 38)(font "Arial" (font_size 8)))
		(line (pt 0 32)(pt 16 32)(line_width 3))
	)
	(drawing
		(text "DFF" (rect 13 51 35 63)(font "Arial" ))
		(line (pt 128 64)(pt 16 64)(line_width 1))
		(line (pt 16 64)(pt 16 16)(line_width 1))
		(line (pt 16 16)(pt 128 16)(line_width 1))
		(line (pt 128 16)(pt 128 64)(line_width 1))
		(line (pt 128 38)(pt 122 32)(line_width 1))
		(line (pt 122 32)(pt 128 26)(line_width 1))
	)
	(rotate180)
)
(symbol
	(rect 2896 1592 2960 1640)
	(text "AND3" (rect 39 38 63 48)(font "Arial" (font_size 6)))
	(text "inst166" (rect 32 -1 67 11)(font "Arial" ))
	(port
		(pt 64 32)
		(input)
		(text "IN1" (rect 2 7 19 19)(font "Courier New" (bold))(invisible))
		(text "IN1" (rect 45 29 62 41)(font "Courier New" (bold))(invisible))
		(line (pt 64 32)(pt 48 32)(line_width 1))
	)
	(port
		(pt 64 24)
		(input)
		(text "IN2" (rect 2 15 19 27)(font "Courier New" (bold))(invisible))
		(text "IN2" (rect 45 21 62 33)(font "Courier New" (bold))(invisible))
		(line (pt 64 24)(pt 48 24)(line_width 1))
	)
	(port
		(pt 64 16)
		(input)
		(text "IN3" (rect 2 23 19 35)(font "Courier New" (bold))(invisible))
		(text "IN3" (rect 45 13 62 25)(font "Courier New" (bold))(invisible))
		(line (pt 64 16)(pt 48 16)(line_width 1))
	)
	(port
		(pt 0 24)
		(output)
		(text "OUT" (rect 48 15 65 27)(font "Courier New" (bold))(invisible))
		(text "OUT" (rect -1 21 16 33)(font "Courier New" (bold))(invisible))
		(line (pt 21 24)(pt 0 24)(line_width 1))
	)
	(drawing
		(line (pt 48 36)(pt 33 36)(line_width 1))
		(line (pt 48 11)(pt 33 11)(line_width 1))
		(line (pt 48 36)(pt 48 11)(line_width 1))
		(arc (pt 33 12)(pt 33 36)(rect 20 11 45 36)(line_width 1))
	)
	(rotate180)
)
(symbol
	(rect 2894 1320 2958 1368)
	(text "AND3" (rect 39 38 63 48)(font "Arial" (font_size 6)))
	(text "inst173" (rect 32 -1 67 11)(font "Arial" ))
	(port
		(pt 64 32)
		(input)
		(text "IN1" (rect 2 7 19 19)(font "Courier New" (bold))(invisible))
		(text "IN1" (rect 45 29 62 41)(font "Courier New" (bold))(invisible))
		(line (pt 64 32)(pt 48 32)(line_width 1))
	)
	(port
		(pt 64 24)
		(input)
		(text "IN2" (rect 2 15 19 27)(font "Courier New" (bold))(invisible))
		(text "IN2" (rect 45 21 62 33)(font "Courier New" (bold))(invisible))
		(line (pt 64 24)(pt 48 24)(line_width 1))
	)
	(port
		(pt 64 16)
		(input)
		(text "IN3" (rect 2 23 19 35)(font "Courier New" (bold))(invisible))
		(text "IN3" (rect 45 13 62 25)(font "Courier New" (bold))(invisible))
		(line (pt 64 16)(pt 48 16)(line_width 1))
	)
	(port
		(pt 0 24)
		(output)
		(text "OUT" (rect 48 15 65 27)(font "Courier New" (bold))(invisible))
		(text "OUT" (rect -1 21 16 33)(font "Courier New" (bold))(invisible))
		(line (pt 21 24)(pt 0 24)(line_width 1))
	)
	(drawing
		(line (pt 48 36)(pt 33 36)(line_width 1))
		(line (pt 48 11)(pt 33 11)(line_width 1))
		(line (pt 48 36)(pt 48 11)(line_width 1))
		(arc (pt 33 12)(pt 33 36)(rect 20 11 45 36)(line_width 1))
	)
	(rotate180)
)
(symbol
	(rect 2894 1456 2958 1504)
	(text "AND3" (rect 39 38 63 48)(font "Arial" (font_size 6)))
	(text "inst174" (rect 32 -1 67 11)(font "Arial" ))
	(port
		(pt 64 32)
		(input)
		(text "IN1" (rect 2 7 19 19)(font "Courier New" (bold))(invisible))
		(text "IN1" (rect 45 29 62 41)(font "Courier New" (bold))(invisible))
		(line (pt 64 32)(pt 48 32)(line_width 1))
	)
	(port
		(pt 64 24)
		(input)
		(text "IN2" (rect 2 15 19 27)(font "Courier New" (bold))(invisible))
		(text "IN2" (rect 45 21 62 33)(font "Courier New" (bold))(invisible))
		(line (pt 64 24)(pt 48 24)(line_width 1))
	)
	(port
		(pt 64 16)
		(input)
		(text "IN3" (rect 2 23 19 35)(font "Courier New" (bold))(invisible))
		(text "IN3" (rect 45 13 62 25)(font "Courier New" (bold))(invisible))
		(line (pt 64 16)(pt 48 16)(line_width 1))
	)
	(port
		(pt 0 24)
		(output)
		(text "OUT" (rect 48 15 65 27)(font "Courier New" (bold))(invisible))
		(text "OUT" (rect -1 21 16 33)(font "Courier New" (bold))(invisible))
		(line (pt 21 24)(pt 0 24)(line_width 1))
	)
	(drawing
		(line (pt 48 36)(pt 33 36)(line_width 1))
		(line (pt 48 11)(pt 33 11)(line_width 1))
		(line (pt 48 36)(pt 48 11)(line_width 1))
		(arc (pt 33 12)(pt 33 36)(rect 20 11 45 36)(line_width 1))
	)
	(rotate180)
)
(symbol
	(rect 2784 2032 2832 2096)
	(text "AND2" (rect 0 39 10 63)(font "Arial" (font_size 6))(vertical))
	(text "inst175" (rect 37 32 49 67)(font "Arial" )(vertical))
	(port
		(pt 16 64)
		(input)
		(text "IN1" (rect 2 7 19 19)(font "Courier New" (bold))(invisible))
		(text "IN1" (rect 7 45 19 62)(font "Courier New" (bold))(vertical)(invisible))
		(line (pt 16 64)(pt 16 50)(line_width 1))
	)
	(port
		(pt 32 64)
		(input)
		(text "IN2" (rect 2 23 19 35)(font "Courier New" (bold))(invisible))
		(text "IN2" (rect 23 45 35 62)(font "Courier New" (bold))(vertical)(invisible))
		(line (pt 32 64)(pt 32 50)(line_width 1))
	)
	(port
		(pt 24 0)
		(output)
		(text "OUT" (rect 48 15 65 27)(font "Courier New" (bold))(invisible))
		(text "OUT" (rect 15 -1 27 16)(font "Courier New" (bold))(vertical)(invisible))
		(line (pt 24 22)(pt 24 0)(line_width 1))
	)
	(drawing
		(line (pt 12 50)(pt 12 34)(line_width 1))
		(line (pt 37 50)(pt 37 33)(line_width 1))
		(line (pt 12 50)(pt 37 50)(line_width 1))
		(arc (pt 37 33)(pt 12 34)(rect 12 21 37 46)(line_width 1))
	)
	(rotate90)
)
(symbol
	(rect 3184 1576 3328 1656)
	(text "ff3" (rect 63 1 78 17)(font "Arial" (font_size 10)))
	(text "inst14" (rect 113 64 142 76)(font "Arial" ))
	(port
		(pt 144 32)
		(input)
		(text "data" (rect 0 0 24 14)(font "Arial" (font_size 8)))
		(text "data" (rect 100 26 124 40)(font "Arial" (font_size 8)))
		(line (pt 144 32)(pt 128 32)(line_width 1))
	)
	(port
		(pt 144 48)
		(input)
		(text "clock" (rect 0 0 29 14)(font "Arial" (font_size 8)))
		(text "clock" (rect 89 42 118 56)(font "Arial" (font_size 8)))
		(line (pt 144 48)(pt 128 48)(line_width 1))
	)
	(port
		(pt 0 48)
		(output)
		(text "q" (rect 0 0 7 14)(font "Arial" (font_size 8)))
		(text "q" (rect 18 42 25 56)(font "Arial" (font_size 8)))
		(line (pt 0 48)(pt 16 48)(line_width 1))
	)
	(drawing
		(text "DFF" (rect 13 17 35 29)(font "Arial" ))
		(line (pt 128 16)(pt 16 16)(line_width 1))
		(line (pt 16 16)(pt 16 64)(line_width 1))
		(line (pt 16 64)(pt 128 64)(line_width 1))
		(line (pt 128 64)(pt 128 16)(line_width 1))
		(line (pt 128 42)(pt 122 48)(line_width 1))
		(line (pt 122 48)(pt 128 54)(line_width 1))
	)
	(flipy)
)
(symbol
	(rect 2798 1600 2862 1648)
	(text "AND2" (rect 39 38 63 48)(font "Arial" (font_size 6)))
	(text "inst177" (rect 32 -1 67 11)(font "Arial" ))
	(port
		(pt 64 32)
		(input)
		(text "IN1" (rect 2 7 19 19)(font "Courier New" (bold))(invisible))
		(text "IN1" (rect 45 29 62 41)(font "Courier New" (bold))(invisible))
		(line (pt 64 32)(pt 50 32)(line_width 1))
	)
	(port
		(pt 64 16)
		(input)
		(text "IN2" (rect 2 23 19 35)(font "Courier New" (bold))(invisible))
		(text "IN2" (rect 45 13 62 25)(font "Courier New" (bold))(invisible))
		(line (pt 64 16)(pt 50 16)(line_width 1))
	)
	(port
		(pt 0 24)
		(output)
		(text "OUT" (rect 48 15 65 27)(font "Courier New" (bold))(invisible))
		(text "OUT" (rect -1 21 16 33)(font "Courier New" (bold))(invisible))
		(line (pt 22 24)(pt 0 24)(line_width 1))
	)
	(drawing
		(line (pt 50 36)(pt 34 36)(line_width 1))
		(line (pt 50 11)(pt 33 11)(line_width 1))
		(line (pt 50 36)(pt 50 11)(line_width 1))
		(arc (pt 33 11)(pt 34 36)(rect 21 11 46 36)(line_width 1))
	)
	(rotate180)
)
(symbol
	(rect 2798 1464 2862 1512)
	(text "AND2" (rect 39 38 63 48)(font "Arial" (font_size 6)))
	(text "inst178" (rect 32 -1 67 11)(font "Arial" ))
	(port
		(pt 64 32)
		(input)
		(text "IN1" (rect 2 7 19 19)(font "Courier New" (bold))(invisible))
		(text "IN1" (rect 45 29 62 41)(font "Courier New" (bold))(invisible))
		(line (pt 64 32)(pt 50 32)(line_width 1))
	)
	(port
		(pt 64 16)
		(input)
		(text "IN2" (rect 2 23 19 35)(font "Courier New" (bold))(invisible))
		(text "IN2" (rect 45 13 62 25)(font "Courier New" (bold))(invisible))
		(line (pt 64 16)(pt 50 16)(line_width 1))
	)
	(port
		(pt 0 24)
		(output)
		(text "OUT" (rect 48 15 65 27)(font "Courier New" (bold))(invisible))
		(text "OUT" (rect -1 21 16 33)(font "Courier New" (bold))(invisible))
		(line (pt 22 24)(pt 0 24)(line_width 1))
	)
	(drawing
		(line (pt 50 36)(pt 34 36)(line_width 1))
		(line (pt 50 11)(pt 33 11)(line_width 1))
		(line (pt 50 36)(pt 50 11)(line_width 1))
		(arc (pt 33 11)(pt 34 36)(rect 21 11 46 36)(line_width 1))
	)
	(rotate180)
)
(symbol
	(rect 2736 1544 2768 1576)
	(text "GND" (rect 8 16 29 26)(font "Arial" (font_size 6)))
	(text "inst93" (rect 3 21 32 33)(font "Arial" )(invisible))
	(port
		(pt 16 0)
		(output)
		(text "1" (rect 18 0 23 12)(font "Courier New" (bold))(invisible))
		(text "1" (rect 18 0 23 12)(font "Courier New" (bold))(invisible))
		(line (pt 16 8)(pt 16 0)(line_width 1))
	)
	(drawing
		(line (pt 8 8)(pt 16 16)(line_width 1))
		(line (pt 16 16)(pt 24 8)(line_width 1))
		(line (pt 8 8)(pt 24 8)(line_width 1))
	)
)
(symbol
	(rect 3384 2384 3464 2424)
	(text "inv5b" (rect 20 23 54 39)(font "Arial" (font_size 10)))
	(text "inst97" (rect 43 4 72 16)(font "Arial" ))
	(port
		(pt 80 16)
		(input)
		(text "data[4..0]" (rect 0 0 53 14)(font "Arial" (font_size 8)))
		(text "data[4..0]" (rect 23 47 76 61)(font "Arial" (font_size 8))(invisible))
		(line (pt 80 16)(pt 56 16)(line_width 3))
	)
	(port
		(pt 0 16)
		(output)
		(text "result[4..0]" (rect 0 0 60 14)(font "Arial" (font_size 8)))
		(text "result[4..0]" (rect -57 51 3 65)(font "Arial" (font_size 8))(invisible))
		(line (pt 0 16)(pt 34 16)(line_width 3))
	)
	(drawing
		(text "5" (rect 64 3 69 15)(font "Arial" ))
		(text "5" (rect 13 3 18 15)(font "Arial" ))
		(line (pt 56 24)(pt 40 16)(line_width 1))
		(line (pt 40 16)(pt 56 8)(line_width 1))
		(line (pt 56 8)(pt 56 24)(line_width 1))
		(line (pt 74 12)(pt 66 20)(line_width 1))
		(line (pt 23 12)(pt 15 20)(line_width 1))
		(circle (rect 34 13 40 19)(line_width 1))
	)
	(rotate180)
)
(symbol
	(rect 3184 2264 3328 2344)
	(text "vme_reg3" (rect 35 63 99 79)(font "Arial" (font_size 10)))
	(text "inst84" (rect 107 4 136 16)(font "Arial" ))
	(port
		(pt 144 48)
		(input)
		(text "data[4..0]" (rect 0 0 53 14)(font "Arial" (font_size 8)))
		(text "data[4..0]" (rect 71 40 124 54)(font "Arial" (font_size 8)))
		(line (pt 144 48)(pt 128 48)(line_width 3))
	)
	(port
		(pt 144 32)
		(input)
		(text "clock" (rect 0 0 29 14)(font "Arial" (font_size 8)))
		(text "clock" (rect 89 24 118 38)(font "Arial" (font_size 8)))
		(line (pt 144 32)(pt 128 32)(line_width 1))
	)
	(port
		(pt 0 32)
		(output)
		(text "q[4..0]" (rect 0 0 35 14)(font "Arial" (font_size 8)))
		(text "q[4..0]" (rect 14 24 49 38)(font "Arial" (font_size 8)))
		(line (pt 0 32)(pt 16 32)(line_width 3))
	)
	(drawing
		(text "DFF" (rect 13 51 35 63)(font "Arial" ))
		(line (pt 128 64)(pt 16 64)(line_width 1))
		(line (pt 16 64)(pt 16 16)(line_width 1))
		(line (pt 16 16)(pt 128 16)(line_width 1))
		(line (pt 128 16)(pt 128 64)(line_width 1))
		(line (pt 128 38)(pt 122 32)(line_width 1))
		(line (pt 122 32)(pt 128 26)(line_width 1))
	)
	(rotate180)
)
(symbol
	(rect 2960 2056 3088 2152)
	(text "compare6_13" (rect 11 1 103 17)(font "Arial" (font_size 10)))
	(text "inst148" (rect 85 80 120 92)(font "Arial" ))
	(port
		(pt 128 48)
		(input)
		(text "dataa[5..0]" (rect 0 0 60 14)(font "Arial" (font_size 8)))
		(text "dataa[5..0]" (rect 48 42 108 56)(font "Arial" (font_size 8)))
		(line (pt 128 48)(pt 112 48)(line_width 3))
	)
	(port
		(pt 0 56)
		(output)
		(text "aeb" (rect 0 0 21 14)(font "Arial" (font_size 8)))
		(text "aeb" (rect 16 50 37 64)(font "Arial" (font_size 8)))
		(line (pt 0 56)(pt 16 56)(line_width 1))
	)
	(drawing
		(text "compare" (rect 10 17 52 29)(font "Arial" ))
		(text "datab[]=13" (rect 48 58 108 72)(font "Arial" (font_size 8)))
		(line (pt 112 16)(pt 16 16)(line_width 1))
		(line (pt 16 16)(pt 16 80)(line_width 1))
		(line (pt 16 80)(pt 112 80)(line_width 1))
		(line (pt 112 80)(pt 112 16)(line_width 1))
	)
	(flipy)
)
(symbol
	(rect 2832 2152 2896 2200)
	(text "OR2" (rect 45 38 63 48)(font "Arial" (font_size 6)))
	(text "inst181" (rect 26 -1 61 11)(font "Arial" ))
	(port
		(pt 64 16)
		(input)
		(text "IN2" (rect 2 23 19 35)(font "Courier New" (bold))(invisible))
		(text "IN2" (rect 45 13 62 25)(font "Courier New" (bold))(invisible))
		(line (pt 64 16)(pt 49 16)(line_width 1))
	)
	(port
		(pt 64 32)
		(input)
		(text "IN1" (rect 2 7 19 19)(font "Courier New" (bold))(invisible))
		(text "IN1" (rect 45 29 62 41)(font "Courier New" (bold))(invisible))
		(line (pt 64 32)(pt 49 32)(line_width 1))
	)
	(port
		(pt 0 24)
		(output)
		(text "OUT" (rect 48 15 65 27)(font "Courier New" (bold))(invisible))
		(text "OUT" (rect -1 21 16 33)(font "Courier New" (bold))(invisible))
		(line (pt 16 24)(pt 0 24)(line_width 1))
	)
	(drawing
		(line (pt 50 12)(pt 39 12)(line_width 1))
		(line (pt 50 35)(pt 39 35)(line_width 1))
		(arc (pt 57 19)(pt 57 29)(rect 45 7 78 40)(line_width 1))
		(arc (pt 15 24)(pt 39 35)(rect 7 -28 70 35)(line_width 1))
		(arc (pt 39 13)(pt 15 24)(rect 7 12 70 75)(line_width 1))
	)
	(rotate180)
)
(symbol
	(rect 2960 2168 3088 2264)
	(text "compare6_15" (rect 11 1 103 17)(font "Arial" (font_size 10)))
	(text "inst149" (rect 85 80 120 92)(font "Arial" ))
	(port
		(pt 128 48)
		(input)
		(text "dataa[5..0]" (rect 0 0 60 14)(font "Arial" (font_size 8)))
		(text "dataa[5..0]" (rect 48 42 108 56)(font "Arial" (font_size 8)))
		(line (pt 128 48)(pt 112 48)(line_width 3))
	)
	(port
		(pt 0 56)
		(output)
		(text "aeb" (rect 0 0 21 14)(font "Arial" (font_size 8)))
		(text "aeb" (rect 16 50 37 64)(font "Arial" (font_size 8)))
		(line (pt 0 56)(pt 16 56)(line_width 1))
	)
	(drawing
		(text "compare" (rect 10 17 52 29)(font "Arial" ))
		(text "datab[]=15" (rect 48 58 108 72)(font "Arial" (font_size 8)))
		(line (pt 112 16)(pt 16 16)(line_width 1))
		(line (pt 16 16)(pt 16 80)(line_width 1))
		(line (pt 16 80)(pt 112 80)(line_width 1))
		(line (pt 112 80)(pt 112 16)(line_width 1))
	)
	(flipy)
)
(symbol
	(rect 3384 2112 3464 2152)
	(text "inv1" (rect 26 23 51 39)(font "Arial" (font_size 10)))
	(text "inst216" (rect 37 4 72 16)(font "Arial" ))
	(port
		(pt 80 16)
		(input)
		(text "data" (rect 0 0 24 14)(font "Arial" (font_size 8)))
		(text "data" (rect 52 23 76 37)(font "Arial" (font_size 8))(invisible))
		(line (pt 80 16)(pt 56 16)(line_width 1))
	)
	(port
		(pt 0 16)
		(output)
		(text "result" (rect 0 0 31 14)(font "Arial" (font_size 8)))
		(text "result" (rect -28 27 3 41)(font "Arial" (font_size 8))(invisible))
		(line (pt 0 16)(pt 34 16)(line_width 1))
	)
	(drawing
		(line (pt 56 24)(pt 40 16)(line_width 1))
		(line (pt 40 16)(pt 56 8)(line_width 1))
		(line (pt 56 8)(pt 56 24)(line_width 1))
		(circle (rect 34 13 40 19)(line_width 1))
	)
	(rotate180)
)
(symbol
	(rect 2624 2504 2760 2584)
	(text "mux2x5" (rect 33 62 87 78)(font "Arial" (font_size 10)))
	(text "inst185" (rect 93 4 128 16)(font "Arial" ))
	(port
		(pt 136 40)
		(input)
		(text "data1x[4..0]" (rect 0 0 67 14)(font "Arial" (font_size 8)))
		(text "data1x[4..0]" (rect 65 39 132 53)(font "Arial" (font_size 8)))
		(line (pt 136 40)(pt 72 40)(line_width 3))
	)
	(port
		(pt 136 24)
		(input)
		(text "data0x[4..0]" (rect 0 0 67 14)(font "Arial" (font_size 8)))
		(text "data0x[4..0]" (rect 65 23 132 37)(font "Arial" (font_size 8)))
		(line (pt 136 24)(pt 72 24)(line_width 3))
	)
	(port
		(pt 64 0)
		(input)
		(text "sel" (rect 0 0 16 14)(font "Arial" (font_size 8)))
		(text "sel" (rect 44 -1 60 13)(font "Arial" (font_size 8)))
		(line (pt 64 0)(pt 64 12)(line_width 1))
	)
	(port
		(pt 0 32)
		(output)
		(text "result[4..0]" (rect 0 0 60 14)(font "Arial" (font_size 8)))
		(text "result[4..0]" (rect -6 31 54 45)(font "Arial" (font_size 8)))
		(line (pt 0 32)(pt 56 32)(line_width 3))
	)
	(drawing
		(line (pt 72 56)(pt 72 8)(line_width 1))
		(line (pt 56 48)(pt 56 16)(line_width 1))
		(line (pt 72 56)(pt 56 48)(line_width 1))
		(line (pt 72 8)(pt 56 16)(line_width 1))
	)
	(rotate180)
)
(symbol
	(rect 2856 2544 2968 2592)
	(text "const_buffer_addr" (rect -13 1 107 17)(font "Arial" (font_size 10)))
	(text "inst186" (rect 69 32 104 44)(font "Arial" ))
	(port
		(pt 0 24)
		(output)
		(text "result[4..0]" (rect 0 0 60 14)(font "Arial" (font_size 8)))
		(text "result[4..0]" (rect -57 -25 3 -11)(font "Arial" (font_size 8))(invisible))
		(line (pt 0 24)(pt 16 24)(line_width 3))
	)
	(drawing
		(text "22" (rect 15 18 26 30)(font "Arial" ))
		(text "5" (rect 4 25 9 37)(font "Arial" ))
		(line (pt 96 16)(pt 16 16)(line_width 1))
		(line (pt 16 16)(pt 16 32)(line_width 1))
		(line (pt 16 32)(pt 96 32)(line_width 1))
		(line (pt 96 32)(pt 96 16)(line_width 1))
		(line (pt 14 28)(pt 6 20)(line_width 1))
	)
	(flipy)
)
(symbol
	(rect 2816 1096 2960 1176)
	(text "ff3" (rect 63 1 78 17)(font "Arial" (font_size 10)))
	(text "inst17" (rect 113 64 142 76)(font "Arial" ))
	(port
		(pt 144 32)
		(input)
		(text "data" (rect 0 0 24 14)(font "Arial" (font_size 8)))
		(text "data" (rect 100 26 124 40)(font "Arial" (font_size 8)))
		(line (pt 144 32)(pt 128 32)(line_width 1))
	)
	(port
		(pt 144 48)
		(input)
		(text "clock" (rect 0 0 29 14)(font "Arial" (font_size 8)))
		(text "clock" (rect 89 42 118 56)(font "Arial" (font_size 8)))
		(line (pt 144 48)(pt 128 48)(line_width 1))
	)
	(port
		(pt 0 48)
		(output)
		(text "q" (rect 0 0 7 14)(font "Arial" (font_size 8)))
		(text "q" (rect 18 42 25 56)(font "Arial" (font_size 8)))
		(line (pt 0 48)(pt 16 48)(line_width 1))
	)
	(drawing
		(text "DFF" (rect 13 17 35 29)(font "Arial" ))
		(line (pt 128 16)(pt 16 16)(line_width 1))
		(line (pt 16 16)(pt 16 64)(line_width 1))
		(line (pt 16 64)(pt 128 64)(line_width 1))
		(line (pt 128 64)(pt 128 16)(line_width 1))
		(line (pt 128 42)(pt 122 48)(line_width 1))
		(line (pt 122 48)(pt 128 54)(line_width 1))
	)
	(flipy)
)
(symbol
	(rect 3072 1424 3216 1504)
	(text "ff3" (rect 63 1 78 17)(font "Arial" (font_size 10)))
	(text "inst20" (rect 113 64 142 76)(font "Arial" ))
	(port
		(pt 144 32)
		(input)
		(text "data" (rect 0 0 24 14)(font "Arial" (font_size 8)))
		(text "data" (rect 100 26 124 40)(font "Arial" (font_size 8)))
		(line (pt 144 32)(pt 128 32)(line_width 1))
	)
	(port
		(pt 144 48)
		(input)
		(text "clock" (rect 0 0 29 14)(font "Arial" (font_size 8)))
		(text "clock" (rect 89 42 118 56)(font "Arial" (font_size 8)))
		(line (pt 144 48)(pt 128 48)(line_width 1))
	)
	(port
		(pt 0 48)
		(output)
		(text "q" (rect 0 0 7 14)(font "Arial" (font_size 8)))
		(text "q" (rect 18 42 25 56)(font "Arial" (font_size 8)))
		(line (pt 0 48)(pt 16 48)(line_width 1))
	)
	(drawing
		(text "DFF" (rect 13 17 35 29)(font "Arial" ))
		(line (pt 128 16)(pt 16 16)(line_width 1))
		(line (pt 16 16)(pt 16 64)(line_width 1))
		(line (pt 16 64)(pt 128 64)(line_width 1))
		(line (pt 128 64)(pt 128 16)(line_width 1))
		(line (pt 128 42)(pt 122 48)(line_width 1))
		(line (pt 122 48)(pt 128 54)(line_width 1))
	)
	(flipy)
)
(symbol
	(rect 3280 1408 3424 1488)
	(text "ff3" (rect 63 1 78 17)(font "Arial" (font_size 10)))
	(text "inst22" (rect 113 64 142 76)(font "Arial" ))
	(port
		(pt 144 32)
		(input)
		(text "data" (rect 0 0 24 14)(font "Arial" (font_size 8)))
		(text "data" (rect 100 26 124 40)(font "Arial" (font_size 8)))
		(line (pt 144 32)(pt 128 32)(line_width 1))
	)
	(port
		(pt 144 48)
		(input)
		(text "clock" (rect 0 0 29 14)(font "Arial" (font_size 8)))
		(text "clock" (rect 89 42 118 56)(font "Arial" (font_size 8)))
		(line (pt 144 48)(pt 128 48)(line_width 1))
	)
	(port
		(pt 0 48)
		(output)
		(text "q" (rect 0 0 7 14)(font "Arial" (font_size 8)))
		(text "q" (rect 18 42 25 56)(font "Arial" (font_size 8)))
		(line (pt 0 48)(pt 16 48)(line_width 1))
	)
	(drawing
		(text "DFF" (rect 13 17 35 29)(font "Arial" ))
		(line (pt 128 16)(pt 16 16)(line_width 1))
		(line (pt 16 16)(pt 16 64)(line_width 1))
		(line (pt 16 64)(pt 128 64)(line_width 1))
		(line (pt 128 64)(pt 128 16)(line_width 1))
		(line (pt 128 42)(pt 122 48)(line_width 1))
		(line (pt 122 48)(pt 128 54)(line_width 1))
	)
	(flipy)
)
(symbol
	(rect 2976 1104 3040 1152)
	(text "AND2" (rect 39 38 63 48)(font "Arial" (font_size 6)))
	(text "inst180" (rect 32 -1 67 11)(font "Arial" ))
	(port
		(pt 64 32)
		(input)
		(text "IN1" (rect 2 7 19 19)(font "Courier New" (bold))(invisible))
		(text "IN1" (rect 45 29 62 41)(font "Courier New" (bold))(invisible))
		(line (pt 64 32)(pt 50 32)(line_width 1))
	)
	(port
		(pt 64 16)
		(input)
		(text "IN2" (rect 2 23 19 35)(font "Courier New" (bold))(invisible))
		(text "IN2" (rect 45 13 62 25)(font "Courier New" (bold))(invisible))
		(line (pt 64 16)(pt 50 16)(line_width 1))
	)
	(port
		(pt 0 24)
		(output)
		(text "OUT" (rect 48 15 65 27)(font "Courier New" (bold))(invisible))
		(text "OUT" (rect -1 21 16 33)(font "Courier New" (bold))(invisible))
		(line (pt 22 24)(pt 0 24)(line_width 1))
	)
	(drawing
		(line (pt 50 36)(pt 34 36)(line_width 1))
		(line (pt 50 11)(pt 33 11)(line_width 1))
		(line (pt 50 36)(pt 50 11)(line_width 1))
		(arc (pt 33 11)(pt 34 36)(rect 21 11 46 36)(line_width 1))
	)
	(rotate180)
)
(symbol
	(rect 3056 1088 3200 1168)
	(text "ff3" (rect 63 1 78 17)(font "Arial" (font_size 10)))
	(text "inst18" (rect 113 64 142 76)(font "Arial" ))
	(port
		(pt 144 32)
		(input)
		(text "data" (rect 0 0 24 14)(font "Arial" (font_size 8)))
		(text "data" (rect 100 26 124 40)(font "Arial" (font_size 8)))
		(line (pt 144 32)(pt 128 32)(line_width 1))
	)
	(port
		(pt 144 48)
		(input)
		(text "clock" (rect 0 0 29 14)(font "Arial" (font_size 8)))
		(text "clock" (rect 89 42 118 56)(font "Arial" (font_size 8)))
		(line (pt 144 48)(pt 128 48)(line_width 1))
	)
	(port
		(pt 0 48)
		(output)
		(text "q" (rect 0 0 7 14)(font "Arial" (font_size 8)))
		(text "q" (rect 18 42 25 56)(font "Arial" (font_size 8)))
		(line (pt 0 48)(pt 16 48)(line_width 1))
	)
	(drawing
		(text "DFF" (rect 13 17 35 29)(font "Arial" ))
		(line (pt 128 16)(pt 16 16)(line_width 1))
		(line (pt 16 16)(pt 16 64)(line_width 1))
		(line (pt 16 64)(pt 128 64)(line_width 1))
		(line (pt 128 64)(pt 128 16)(line_width 1))
		(line (pt 128 42)(pt 122 48)(line_width 1))
		(line (pt 122 48)(pt 128 54)(line_width 1))
	)
	(flipy)
)
(symbol
	(rect 2576 1104 2720 1184)
	(text "ff3" (rect 63 1 78 17)(font "Arial" (font_size 10)))
	(text "inst21" (rect 113 64 142 76)(font "Arial" ))
	(port
		(pt 144 32)
		(input)
		(text "data" (rect 0 0 24 14)(font "Arial" (font_size 8)))
		(text "data" (rect 100 26 124 40)(font "Arial" (font_size 8)))
		(line (pt 144 32)(pt 128 32)(line_width 1))
	)
	(port
		(pt 144 48)
		(input)
		(text "clock" (rect 0 0 29 14)(font "Arial" (font_size 8)))
		(text "clock" (rect 89 42 118 56)(font "Arial" (font_size 8)))
		(line (pt 144 48)(pt 128 48)(line_width 1))
	)
	(port
		(pt 0 48)
		(output)
		(text "q" (rect 0 0 7 14)(font "Arial" (font_size 8)))
		(text "q" (rect 18 42 25 56)(font "Arial" (font_size 8)))
		(line (pt 0 48)(pt 16 48)(line_width 1))
	)
	(drawing
		(text "DFF" (rect 13 17 35 29)(font "Arial" ))
		(line (pt 128 16)(pt 16 16)(line_width 1))
		(line (pt 16 16)(pt 16 64)(line_width 1))
		(line (pt 16 64)(pt 128 64)(line_width 1))
		(line (pt 128 64)(pt 128 16)(line_width 1))
		(line (pt 128 42)(pt 122 48)(line_width 1))
		(line (pt 122 48)(pt 128 54)(line_width 1))
	)
	(flipy)
)
(symbol
	(rect 2736 1112 2800 1160)
	(text "AND2" (rect 39 38 63 48)(font "Arial" (font_size 6)))
	(text "inst182" (rect 32 -1 67 11)(font "Arial" ))
	(port
		(pt 64 32)
		(input)
		(text "IN1" (rect 2 7 19 19)(font "Courier New" (bold))(invisible))
		(text "IN1" (rect 45 29 62 41)(font "Courier New" (bold))(invisible))
		(line (pt 64 32)(pt 50 32)(line_width 1))
	)
	(port
		(pt 64 16)
		(input)
		(text "IN2" (rect 2 23 19 35)(font "Courier New" (bold))(invisible))
		(text "IN2" (rect 45 13 62 25)(font "Courier New" (bold))(invisible))
		(line (pt 64 16)(pt 50 16)(line_width 1))
	)
	(port
		(pt 0 24)
		(output)
		(text "OUT" (rect 48 15 65 27)(font "Courier New" (bold))(invisible))
		(text "OUT" (rect -1 21 16 33)(font "Courier New" (bold))(invisible))
		(line (pt 22 24)(pt 0 24)(line_width 1))
	)
	(drawing
		(line (pt 50 36)(pt 34 36)(line_width 1))
		(line (pt 50 11)(pt 33 11)(line_width 1))
		(line (pt 50 36)(pt 50 11)(line_width 1))
		(arc (pt 33 11)(pt 34 36)(rect 21 11 46 36)(line_width 1))
	)
	(rotate180)
)
(symbol
	(rect 3216 1096 3280 1144)
	(text "AND2" (rect 39 38 63 48)(font "Arial" (font_size 6)))
	(text "inst183" (rect 32 -1 67 11)(font "Arial" ))
	(port
		(pt 64 32)
		(input)
		(text "IN1" (rect 2 7 19 19)(font "Courier New" (bold))(invisible))
		(text "IN1" (rect 45 29 62 41)(font "Courier New" (bold))(invisible))
		(line (pt 64 32)(pt 50 32)(line_width 1))
	)
	(port
		(pt 64 16)
		(input)
		(text "IN2" (rect 2 23 19 35)(font "Courier New" (bold))(invisible))
		(text "IN2" (rect 45 13 62 25)(font "Courier New" (bold))(invisible))
		(line (pt 64 16)(pt 50 16)(line_width 1))
	)
	(port
		(pt 0 24)
		(output)
		(text "OUT" (rect 48 15 65 27)(font "Courier New" (bold))(invisible))
		(text "OUT" (rect -1 21 16 33)(font "Courier New" (bold))(invisible))
		(line (pt 22 24)(pt 0 24)(line_width 1))
	)
	(drawing
		(line (pt 50 36)(pt 34 36)(line_width 1))
		(line (pt 50 11)(pt 33 11)(line_width 1))
		(line (pt 50 36)(pt 50 11)(line_width 1))
		(arc (pt 33 11)(pt 34 36)(rect 21 11 46 36)(line_width 1))
	)
	(rotate180)
)
(symbol
	(rect 3296 1080 3440 1160)
	(text "ff3" (rect 63 1 78 17)(font "Arial" (font_size 10)))
	(text "inst23" (rect 113 64 142 76)(font "Arial" ))
	(port
		(pt 144 32)
		(input)
		(text "data" (rect 0 0 24 14)(font "Arial" (font_size 8)))
		(text "data" (rect 100 26 124 40)(font "Arial" (font_size 8)))
		(line (pt 144 32)(pt 128 32)(line_width 1))
	)
	(port
		(pt 144 48)
		(input)
		(text "clock" (rect 0 0 29 14)(font "Arial" (font_size 8)))
		(text "clock" (rect 89 42 118 56)(font "Arial" (font_size 8)))
		(line (pt 144 48)(pt 128 48)(line_width 1))
	)
	(port
		(pt 0 48)
		(output)
		(text "q" (rect 0 0 7 14)(font "Arial" (font_size 8)))
		(text "q" (rect 18 42 25 56)(font "Arial" (font_size 8)))
		(line (pt 0 48)(pt 16 48)(line_width 1))
	)
	(drawing
		(text "DFF" (rect 13 17 35 29)(font "Arial" ))
		(line (pt 128 16)(pt 16 16)(line_width 1))
		(line (pt 16 16)(pt 16 64)(line_width 1))
		(line (pt 16 64)(pt 128 64)(line_width 1))
		(line (pt 128 64)(pt 128 16)(line_width 1))
		(line (pt 128 42)(pt 122 48)(line_width 1))
		(line (pt 122 48)(pt 128 54)(line_width 1))
	)
	(flipy)
)
(symbol
	(rect 2728 1200 2808 1240)
	(text "inv1" (rect 29 1 54 17)(font "Arial" (font_size 10)))
	(text "inst213" (rect 8 24 43 36)(font "Arial" ))
	(port
		(pt 0 24)
		(input)
		(text "data" (rect 0 0 24 14)(font "Arial" (font_size 8)))
		(text "data" (rect 4 3 28 17)(font "Arial" (font_size 8))(invisible))
		(line (pt 0 24)(pt 24 24)(line_width 1))
	)
	(port
		(pt 80 24)
		(output)
		(text "result" (rect 0 0 31 14)(font "Arial" (font_size 8)))
		(text "result" (rect 77 -1 108 13)(font "Arial" (font_size 8))(invisible))
		(line (pt 80 24)(pt 46 24)(line_width 1))
	)
	(drawing
		(line (pt 24 16)(pt 40 24)(line_width 1))
		(line (pt 40 24)(pt 24 32)(line_width 1))
		(line (pt 24 32)(pt 24 16)(line_width 1))
		(circle (rect 40 21 46 27)(line_width 1))
	)
)
(symbol
	(rect 2792 1312 2856 1360)
	(text "AND2" (rect 39 38 63 48)(font "Arial" (font_size 6)))
	(text "inst179" (rect 32 -1 67 11)(font "Arial" ))
	(port
		(pt 64 32)
		(input)
		(text "IN1" (rect 2 7 19 19)(font "Courier New" (bold))(invisible))
		(text "IN1" (rect 45 29 62 41)(font "Courier New" (bold))(invisible))
		(line (pt 64 32)(pt 50 32)(line_width 1))
	)
	(port
		(pt 64 16)
		(input)
		(text "IN2" (rect 2 23 19 35)(font "Courier New" (bold))(invisible))
		(text "IN2" (rect 45 13 62 25)(font "Courier New" (bold))(invisible))
		(line (pt 64 16)(pt 50 16)(line_width 1))
	)
	(port
		(pt 0 24)
		(output)
		(text "OUT" (rect 48 15 65 27)(font "Courier New" (bold))(invisible))
		(text "OUT" (rect -1 21 16 33)(font "Courier New" (bold))(invisible))
		(line (pt 22 24)(pt 0 24)(line_width 1))
	)
	(drawing
		(line (pt 50 36)(pt 34 36)(line_width 1))
		(line (pt 50 11)(pt 33 11)(line_width 1))
		(line (pt 50 36)(pt 50 11)(line_width 1))
		(arc (pt 33 11)(pt 34 36)(rect 21 11 46 36)(line_width 1))
	)
	(rotate180)
)
(symbol
	(rect 3128 1312 3192 1360)
	(text "AND2" (rect 39 38 63 48)(font "Arial" (font_size 6)))
	(text "inst184" (rect 32 -1 67 11)(font "Arial" ))
	(port
		(pt 64 32)
		(input)
		(text "IN1" (rect 2 7 19 19)(font "Courier New" (bold))(invisible))
		(text "IN1" (rect 45 29 62 41)(font "Courier New" (bold))(invisible))
		(line (pt 64 32)(pt 50 32)(line_width 1))
	)
	(port
		(pt 64 16)
		(input)
		(text "IN2" (rect 2 23 19 35)(font "Courier New" (bold))(invisible))
		(text "IN2" (rect 45 13 62 25)(font "Courier New" (bold))(invisible))
		(line (pt 64 16)(pt 50 16)(line_width 1))
	)
	(port
		(pt 0 24)
		(output)
		(text "OUT" (rect 48 15 65 27)(font "Courier New" (bold))(invisible))
		(text "OUT" (rect -1 21 16 33)(font "Courier New" (bold))(invisible))
		(line (pt 22 24)(pt 0 24)(line_width 1))
	)
	(drawing
		(line (pt 50 36)(pt 34 36)(line_width 1))
		(line (pt 50 11)(pt 33 11)(line_width 1))
		(line (pt 50 36)(pt 50 11)(line_width 1))
		(arc (pt 33 11)(pt 34 36)(rect 21 11 46 36)(line_width 1))
	)
	(rotate180)
)
(connector
	(pt 2952 1968)
	(pt 2952 1992)
)
(connector
	(pt 2952 1912)
	(pt 2952 1896)
)
(connector
	(pt 2912 1896)
	(pt 2952 1896)
)
(connector
	(pt 2952 1992)
	(pt 2784 1992)
)
(connector
	(pt 3344 2568)
	(pt 3328 2568)
)
(connector
	(pt 3328 2664)
	(pt 3344 2664)
)
(connector
	(text "add[31..0]" (rect 3362 2568 3411 2580)(font "Arial" ))
	(pt 3328 2584)
	(pt 3440 2584)
	(bus)
)
(connector
	(pt 3520 2600)
	(pt 3520 2608)
	(bus)
)
(connector
	(text "add[1..0]" (rect 3450 2584 3493 2596)(font "Arial" ))
	(pt 3440 2600)
	(pt 3520 2600)
	(bus)
)
(connector
	(pt 3328 2384)
	(pt 3344 2384)
)
(connector
	(pt 2800 2472)
	(pt 2808 2472)
)
(connector
	(pt 2800 2408)
	(pt 2776 2408)
)
(connector
	(pt 2816 2424)
	(pt 2776 2424)
)
(connector
	(pt 2784 2456)
	(pt 2776 2456)
)
(connector
	(pt 2776 2440)
	(pt 2800 2440)
)
(connector
	(text "vme_add[31..27]" (rect 3018 2384 3101 2396)(font "Arial" ))
	(pt 3016 2400)
	(pt 3104 2400)
	(bus)
)
(connector
	(text "vme_add[26..7]" (rect 3002 2456 3079 2468)(font "Arial" ))
	(pt 2968 2472)
	(pt 3104 2472)
	(bus)
)
(connector
	(pt 2816 2392)
	(pt 2888 2392)
)
(connector
	(pt 2888 2472)
	(pt 2904 2472)
)
(connector
	(text "vme_add[31..0]" (rect 3114 2552 3191 2564)(font "Arial" ))
	(pt 3104 2568)
	(pt 3184 2568)
	(bus)
)
(connector
	(pt 3104 2400)
	(pt 3104 2472)
	(bus)
)
(connector
	(text "din[31..0]" (rect 2714 1920 2760 1932)(font "Arial" ))
	(pt 2704 1936)
	(pt 2912 1936)
	(bus)
)
(connector
	(pt 2784 1896)
	(pt 2832 1896)
)
(connector
	(pt 3344 2568)
	(pt 3344 2664)
)
(connector
	(pt 2800 2440)
	(pt 2800 2472)
)
(connector
	(pt 2784 2664)
	(pt 2848 2664)
)
(connector
	(pt 3016 2384)
	(pt 3184 2384)
	(bus)
)
(connector
	(pt 2928 2664)
	(pt 3184 2664)
)
(connector
	(pt 2784 2456)
	(pt 2784 2664)
)
(connector
	(pt 3344 2384)
	(pt 3344 2568)
)
(connector
	(pt 3368 2400)
	(pt 3368 2312)
	(bus)
)
(connector
	(pt 3368 2312)
	(pt 3328 2312)
	(bus)
)
(connector
	(pt 3328 2400)
	(pt 3368 2400)
	(bus)
)
(connector
	(pt 3368 2400)
	(pt 3384 2400)
	(bus)
)
(connector
	(pt 3088 2296)
	(pt 3184 2296)
	(bus)
)
(connector
	(pt 2808 2008)
	(pt 2808 2032)
)
(connector
	(pt 2800 2176)
	(pt 2800 2408)
)
(connector
	(pt 2816 2392)
	(pt 2816 2424)
)
(connector
	(pt 2800 2096)
	(pt 2800 2176)
)
(connector
	(pt 2816 2096)
	(pt 2816 2392)
)
(connector
	(pt 2800 2176)
	(pt 2832 2176)
)
(connector
	(pt 2928 2224)
	(pt 2928 2184)
)
(connector
	(pt 2928 2184)
	(pt 2896 2184)
)
(connector
	(pt 2896 2168)
	(pt 2928 2168)
)
(connector
	(pt 2928 2168)
	(pt 2928 2112)
)
(connector
	(pt 2928 2112)
	(pt 2960 2112)
)
(connector
	(pt 3088 2216)
	(pt 3104 2216)
	(bus)
)
(connector
	(pt 3104 2104)
	(pt 3088 2104)
	(bus)
)
(connector
	(pt 3184 2176)
	(pt 3104 2176)
	(bus)
)
(connector
	(pt 3104 2216)
	(pt 3104 2176)
	(bus)
)
(connector
	(pt 3104 2176)
	(pt 3104 2104)
	(bus)
)
(connector
	(pt 3328 2176)
	(pt 3344 2176)
)
(connector
	(pt 3344 2128)
	(pt 3384 2128)
)
(connector
	(pt 3344 2128)
	(pt 3344 2176)
)
(connector
	(pt 3344 2176)
	(pt 3344 2384)
)
(connector
	(text "vme_add[6..2]" (rect 3002 2512 3073 2524)(font "Arial" ))
	(pt 3104 2528)
	(pt 2760 2528)
	(bus)
)
(connector
	(pt 3104 2472)
	(pt 3104 2528)
	(bus)
)
(connector
	(pt 3104 2528)
	(pt 3104 2568)
	(bus)
)
(connector
	(pt 2760 2544)
	(pt 2816 2544)
	(bus)
)
(connector
	(pt 2688 2504)
	(pt 2688 2224)
)
(connector
	(pt 2856 2568)
	(pt 2816 2568)
	(bus)
)
(connector
	(pt 2816 2568)
	(pt 2816 2544)
	(bus)
)
(connector
	(pt 2688 2224)
	(pt 2928 2224)
)
(connector
	(pt 2928 2224)
	(pt 2960 2224)
)
(connector
	(pt 3328 2680)
	(pt 3640 2680)
)
(connector
	(pt 3440 2568)
	(pt 3440 2584)
	(bus)
)
(connector
	(pt 3440 2584)
	(pt 3440 2600)
	(bus)
)
(connector
	(text "add[31..2]" (rect 3602 2552 3651 2564)(font "Arial" ))
	(pt 3440 2568)
	(pt 3640 2568)
	(bus)
)
(connector
	(pt 3464 2400)
	(pt 3640 2400)
	(bus)
)
(connector
	(pt 3328 2192)
	(pt 3640 2192)
	(bus)
)
(connector
	(pt 3464 2128)
	(pt 3640 2128)
)
(connector
	(pt 3008 1952)
	(pt 3640 1952)
	(bus)
)
(connector
	(pt 3640 1680)
	(pt 3624 1680)
)
(connector
	(pt 3624 1680)
	(pt 3624 1672)
)
(connector
	(pt 3624 1784)
	(pt 3640 1784)
)
(connector
	(pt 3624 1784)
	(pt 3624 1768)
)
(connector
	(pt 3624 1768)
	(pt 3640 1768)
)
(connector
	(pt 2712 2432)
	(pt 2656 2432)
)
(connector
	(pt 2624 2536)
	(pt 2608 2536)
	(bus)
)
(connector
	(pt 2862 1496)
	(pt 2880 1496)
)
(connector
	(pt 2862 1632)
	(pt 2880 1632)
)
(connector
	(pt 2862 1616)
	(pt 2896 1616)
)
(connector
	(pt 2862 1480)
	(pt 2894 1480)
)
(connector
	(pt 2992 1352)
	(pt 2992 1360)
)
(connector
	(pt 2958 1488)
	(pt 2992 1488)
)
(connector
	(pt 2808 2008)
	(pt 3024 2008)
)
(connector
	(pt 2960 1616)
	(pt 3024 1616)
)
(connector
	(pt 2958 1480)
	(pt 3024 1480)
)
(connector
	(pt 2958 1344)
	(pt 3024 1344)
)
(connector
	(pt 3520 1624)
	(pt 3328 1624)
)
(connector
	(pt 3328 1608)
	(pt 3632 1608)
)
(connector
	(pt 2880 1688)
	(pt 3520 1688)
)
(connector
	(pt 2856 1344)
	(pt 2894 1344)
)
(connector
	(pt 2728 1336)
	(pt 2792 1336)
)
(connector
	(pt 2736 1488)
	(pt 2798 1488)
)
(connector
	(pt 2752 1624)
	(pt 2784 1624)
)
(connector
	(pt 2784 1624)
	(pt 2798 1624)
)
(connector
	(pt 2784 1624)
	(pt 2784 1896)
)
(connector
	(pt 2784 1896)
	(pt 2784 1992)
)
(connector
	(pt 3024 1344)
	(pt 3024 1480)
)
(connector
	(pt 3024 1480)
	(pt 3024 1616)
)
(connector
	(pt 3024 1616)
	(pt 3024 2008)
)
(connector
	(pt 2992 1440)
	(pt 2992 1488)
)
(connector
	(pt 2992 1488)
	(pt 2992 1624)
)
(connector
	(pt 2960 1624)
	(pt 2992 1624)
)
(connector
	(pt 2992 1624)
	(pt 3184 1624)
)
(connector
	(pt 2880 1496)
	(pt 2880 1632)
)
(connector
	(pt 2880 1632)
	(pt 2880 1688)
)
(connector
	(pt 3520 1624)
	(pt 3520 1688)
)
(connector
	(pt 2958 1352)
	(pt 2992 1352)
)
(connector
	(pt 2976 1128)
	(pt 2960 1128)
)
(connector
	(pt 2968 1144)
	(pt 2960 1144)
)
(connector
	(pt 3040 1120)
	(pt 3048 1120)
)
(connector
	(pt 3040 1136)
	(pt 3056 1136)
)
(connector
	(pt 2736 1136)
	(pt 2720 1136)
)
(connector
	(pt 2728 1152)
	(pt 2720 1152)
)
(connector
	(pt 2800 1128)
	(pt 2808 1128)
)
(connector
	(pt 2800 1144)
	(pt 2816 1144)
)
(connector
	(pt 2968 1144)
	(pt 2968 1192)
)
(connector
	(pt 2728 1152)
	(pt 2728 1192)
)
(connector
	(pt 3200 1136)
	(pt 3208 1136)
)
(connector
	(pt 3208 1136)
	(pt 3208 1192)
)
(connector
	(pt 3440 1128)
	(pt 3448 1128)
)
(connector
	(pt 3448 1192)
	(pt 3448 1128)
)
(connector
	(pt 2576 1152)
	(pt 2560 1152)
)
(connector
	(pt 3288 1064)
	(pt 3288 1112)
)
(connector
	(pt 3280 1112)
	(pt 3288 1112)
)
(connector
	(pt 3200 1120)
	(pt 3216 1120)
)
(connector
	(pt 3440 1112)
	(pt 3464 1112)
)
(connector
	(pt 3048 1064)
	(pt 3048 1120)
)
(connector
	(pt 2856 1328)
	(pt 2872 1328)
)
(connector
	(pt 2560 1152)
	(pt 2560 1224)
)
(connector
	(pt 2560 1224)
	(pt 2728 1224)
)
(connector
	(pt 2872 1328)
	(pt 2872 1224)
)
(connector
	(pt 2728 1192)
	(pt 2968 1192)
)
(connector
	(pt 2808 1064)
	(pt 3048 1064)
)
(connector
	(pt 3048 1064)
	(pt 3288 1064)
)
(connector
	(pt 3288 1064)
	(pt 3464 1064)
)
(connector
	(pt 2808 1224)
	(pt 2872 1224)
)
(connector
	(pt 2872 1224)
	(pt 3640 1224)
)
(connector
	(pt 2968 1192)
	(pt 3208 1192)
)
(connector
	(pt 3208 1192)
	(pt 3448 1192)
)
(connector
	(pt 2808 1064)
	(pt 2808 1128)
)
(connector
	(pt 2960 1608)
	(pt 3048 1608)
)
(connector
	(pt 3328 2296)
	(pt 3488 2296)
)
(connector
	(pt 3048 1472)
	(pt 3048 1608)
)
(connector
	(pt 2958 1472)
	(pt 3048 1472)
)
(connector
	(pt 3048 1472)
	(pt 3072 1472)
)
(connector
	(pt 3448 1192)
	(pt 3488 1192)
)
(connector
	(pt 3488 1192)
	(pt 3640 1192)
)
(connector
	(pt 3424 1456)
	(pt 3440 1456)
)
(connector
	(pt 3440 1504)
	(pt 3440 1456)
)
(connector
	(pt 3464 1392)
	(pt 3264 1392)
)
(connector
	(pt 3520 1440)
	(pt 3520 1624)
)
(connector
	(pt 3488 1504)
	(pt 3488 2296)
)
(connector
	(pt 3464 1064)
	(pt 3464 1112)
)
(connector
	(pt 3464 1112)
	(pt 3464 1392)
)
(connector
	(pt 3264 1456)
	(pt 3280 1456)
)
(connector
	(pt 3216 1456)
	(pt 3264 1456)
)
(connector
	(pt 3488 1192)
	(pt 3488 1504)
)
(connector
	(pt 3280 1128)
	(pt 3288 1128)
)
(connector
	(pt 3288 1128)
	(pt 3296 1128)
)
(connector
	(pt 2958 1336)
	(pt 3128 1336)
)
(connector
	(pt 3192 1328)
	(pt 3288 1328)
)
(connector
	(pt 3288 1128)
	(pt 3288 1328)
)
(connector
	(pt 3192 1344)
	(pt 3264 1344)
)
(connector
	(pt 3264 1344)
	(pt 3264 1392)
)
(connector
	(pt 3264 1392)
	(pt 3264 1456)
)
(connector
	(pt 3216 1472)
	(pt 3232 1472)
)
(connector
	(pt 3232 1472)
	(pt 3232 1504)
)
(connector
	(pt 3232 1504)
	(pt 3440 1504)
)
(connector
	(pt 3440 1504)
	(pt 3488 1504)
)
(connector
	(text "dout[31..0]" (rect 2714 1960 2767 1972)(font "Arial" ))
	(pt 2704 1952)
	(pt 2912 1952)
	(bus)
)
(connector
	(pt 2736 1528)
	(pt 2752 1528)
)
(connector
	(pt 2752 1528)
	(pt 2752 1544)
)
(connector
	(pt 3640 1448)
	(pt 3664 1448)
)
(connector
	(pt 3640 1432)
	(pt 3664 1432)
)
(connector
	(pt 3424 1440)
	(pt 3520 1440)
)
(connector
	(pt 3520 1440)
	(pt 3576 1440)
)
(junction (pt 2784 1896))
(junction (pt 3440 2584))
(junction (pt 3104 2472))
(junction (pt 3104 2528))
(junction (pt 3344 2568))
(junction (pt 2816 2392))
(junction (pt 3344 2384))
(junction (pt 3368 2400))
(junction (pt 2800 2176))
(junction (pt 3344 2176))
(junction (pt 3104 2176))
(junction (pt 2928 2224))
(junction (pt 2784 1624))
(junction (pt 2992 1488))
(junction (pt 3024 1480))
(junction (pt 3024 1616))
(junction (pt 2992 1624))
(junction (pt 2880 1632))
(junction (pt 3520 1624))
(junction (pt 2968 1192))
(junction (pt 3208 1192))
(junction (pt 3048 1064))
(junction (pt 3288 1064))
(junction (pt 3464 1112))
(junction (pt 2872 1224))
(junction (pt 3448 1192))
(junction (pt 3488 1192))
(junction (pt 3048 1472))
(junction (pt 3520 1440))
(junction (pt 3488 1504))
(junction (pt 3440 1504))
(junction (pt 3264 1456))
(junction (pt 3288 1128))
(junction (pt 3264 1392))
(text "Quad Byte transfer LWORD=low" (rect 3616 2696 3802 2710)(font "Arial" (font_size 8)))
(text "If block access VME_A32SB" (rect 2544 2592 2706 2606)(font "Arial" (font_size 8)))
(text "VME_A32SB" (rect 2872 2240 2945 2254)(font "Arial" (font_size 8)))
(text "VME_A342SD" (rect 2872 2088 2952 2102)(font "Arial" (font_size 8)))
(text "map address space to 22 data buffer fifo" (rect 2544 2608 2778 2622)(font "Arial" (font_size 8)))
(rectangle (rect 2416 1008 3848 2728)(color 0 255 0)(line_width 2))
