/*
WARNING: Do NOT edit the input and output ports in this file in a text
editor if you plan to continue editing the block that represents it in
the Block Editor! File corruption is VERY likely to occur.
*/
/*
Copyright (C) 1991-2012 Altera Corporation
Your use of Altera Corporation's design tools, logic functions 
and other software and tools, and its AMPP partner logic 
functions, and any output files from any of the foregoing 
(including device programming or simulation files), and any 
associated documentation or information are expressly subject 
to the terms and conditions of the Altera Program License 
Subscription Agreement, Altera MegaCore Function License 
Agreement, or other applicable license agreement, including, 
without limitation, that your use is for the sole purpose of 
programming logic devices manufactured by Altera and sold by 
Altera or its authorized distributors.  Please refer to the 
applicable agreement for further details.
*/
//#pragma file_not_in_maxplusii_format
(header "graphic" (version "1.4"))
(properties
	(page_setup "header_footer\nDate: %D\n%f\nProject: %j\n\nPage %p of %P\nRevision: %a\nmargin\n1\n1\n1\n1\norientation\n2\npaper_size\n1\npaper_source\n7\nfit_page_wide\n1\nfit_page_tall\n1\n")
)
(pin
	(input)
	(rect 1688 1560 1863 1576)
	(text "INPUT" (rect 7 6 49 21)(font "Arial" (font_size 6)))
	(text "vme_ga[4..0]" (rect 104 4 200 20)(font "Arial" ))
	(pt 0 8)
	(drawing
		(line (pt 76 4)(pt 51 4))
		(line (pt 76 12)(pt 51 12))
		(line (pt 47 8)(pt 0 8))
		(line (pt 76 4)(pt 76 12))
		(line (pt 51 12)(pt 47 8))
		(line (pt 51 4)(pt 47 8))
	)
	(rotate180)
	(text "VCC" (rect 12 -1 41 14)(font "Arial" (font_size 6)))
)
(pin
	(input)
	(rect 1688 1288 1856 1304)
	(text "INPUT" (rect 7 6 49 21)(font "Arial" (font_size 6)))
	(text "vme_as" (rect 104 4 161 20)(font "Arial" ))
	(pt 0 8)
	(drawing
		(line (pt 76 4)(pt 51 4))
		(line (pt 76 12)(pt 51 12))
		(line (pt 47 8)(pt 0 8))
		(line (pt 76 4)(pt 76 12))
		(line (pt 51 12)(pt 47 8))
		(line (pt 51 4)(pt 47 8))
	)
	(rotate180)
	(text "VCC" (rect 12 -1 41 14)(font "Arial" (font_size 6)))
)
(pin
	(input)
	(rect 1688 1352 1866 1368)
	(text "INPUT" (rect 7 6 49 21)(font "Arial" (font_size 6)))
	(text "vme_am[5..0]" (rect 104 4 204 20)(font "Arial" ))
	(pt 0 8)
	(drawing
		(line (pt 76 4)(pt 51 4))
		(line (pt 76 12)(pt 51 12))
		(line (pt 47 8)(pt 0 8))
		(line (pt 76 4)(pt 76 12))
		(line (pt 51 12)(pt 47 8))
		(line (pt 51 4)(pt 47 8))
	)
	(rotate180)
	(text "VCC" (rect 12 -1 41 14)(font "Arial" (font_size 6)))
)
(pin
	(input)
	(rect 1688 1840 1856 1856)
	(text "INPUT" (rect 7 6 49 21)(font "Arial" (font_size 6)))
	(text "vme_lword" (rect 104 4 183 20)(font "Arial" ))
	(pt 0 8)
	(drawing
		(line (pt 76 4)(pt 51 4))
		(line (pt 76 12)(pt 51 12))
		(line (pt 47 8)(pt 0 8))
		(line (pt 76 4)(pt 76 12))
		(line (pt 51 12)(pt 47 8))
		(line (pt 51 4)(pt 47 8))
	)
	(rotate180)
	(text "VCC" (rect 12 -1 41 14)(font "Arial" (font_size 6)))
)
(pin
	(input)
	(rect 1688 864 1858 880)
	(text "INPUT" (rect 7 6 49 21)(font "Arial" (font_size 6)))
	(text "vme_sysclk" (rect 104 4 188 20)(font "Arial" ))
	(pt 0 8)
	(drawing
		(line (pt 76 4)(pt 51 4))
		(line (pt 76 12)(pt 51 12))
		(line (pt 47 8)(pt 0 8))
		(line (pt 76 4)(pt 76 12))
		(line (pt 51 12)(pt 47 8))
		(line (pt 51 4)(pt 47 8))
	)
	(rotate180)
	(text "VCC" (rect 12 -1 41 14)(font "Arial" (font_size 6)))
)
(pin
	(input)
	(rect 1688 896 1856 912)
	(text "INPUT" (rect 7 6 49 21)(font "Arial" (font_size 6)))
	(text "vme_berrin" (rect 104 4 187 20)(font "Arial" ))
	(pt 0 8)
	(drawing
		(line (pt 76 4)(pt 51 4))
		(line (pt 76 12)(pt 51 12))
		(line (pt 47 8)(pt 0 8))
		(line (pt 76 4)(pt 76 12))
		(line (pt 51 12)(pt 47 8))
		(line (pt 51 4)(pt 47 8))
	)
	(rotate180)
	(text "VCC" (rect 12 -1 41 14)(font "Arial" (font_size 6)))
)
(pin
	(input)
	(rect 1688 880 1856 896)
	(text "INPUT" (rect 7 6 49 21)(font "Arial" (font_size 6)))
	(text "vme_iack" (rect 104 4 173 20)(font "Arial" ))
	(pt 0 8)
	(drawing
		(line (pt 76 4)(pt 51 4))
		(line (pt 76 12)(pt 51 12))
		(line (pt 47 8)(pt 0 8))
		(line (pt 76 4)(pt 76 12))
		(line (pt 51 12)(pt 47 8))
		(line (pt 51 4)(pt 47 8))
	)
	(rotate180)
	(text "VCC" (rect 12 -1 41 14)(font "Arial" (font_size 6)))
)
(pin
	(input)
	(rect 1688 944 1856 960)
	(text "INPUT" (rect 7 6 49 21)(font "Arial" (font_size 6)))
	(text "vme_iackin" (rect 104 4 186 20)(font "Arial" ))
	(pt 0 8)
	(drawing
		(line (pt 76 4)(pt 51 4))
		(line (pt 76 12)(pt 51 12))
		(line (pt 47 8)(pt 0 8))
		(line (pt 76 4)(pt 76 12))
		(line (pt 51 12)(pt 47 8))
		(line (pt 51 4)(pt 47 8))
	)
	(rotate180)
	(text "VCC" (rect 12 -1 41 14)(font "Arial" (font_size 6)))
)
(pin
	(input)
	(rect 1680 768 1848 784)
	(text "INPUT" (rect 7 6 49 21)(font "Arial" (font_size 6)))
	(text "vme_write" (rect 104 4 178 20)(font "Arial" ))
	(pt 0 8)
	(drawing
		(line (pt 76 4)(pt 51 4))
		(line (pt 76 12)(pt 51 12))
		(line (pt 47 8)(pt 0 8))
		(line (pt 76 4)(pt 76 12))
		(line (pt 51 12)(pt 47 8))
		(line (pt 51 4)(pt 47 8))
	)
	(rotate180)
	(text "VCC" (rect 12 -1 41 14)(font "Arial" (font_size 6)))
)
(pin
	(input)
	(rect 1712 608 1880 624)
	(text "INPUT" (rect 7 6 49 21)(font "Arial" (font_size 6)))
	(text "vme_ds1" (rect 104 4 171 20)(font "Arial" ))
	(pt 0 8)
	(drawing
		(line (pt 76 4)(pt 51 4))
		(line (pt 76 12)(pt 51 12))
		(line (pt 47 8)(pt 0 8))
		(line (pt 76 4)(pt 76 12))
		(line (pt 51 12)(pt 47 8))
		(line (pt 51 4)(pt 47 8))
	)
	(rotate180)
	(text "VCC" (rect 12 -1 41 14)(font "Arial" (font_size 6)))
)
(pin
	(input)
	(rect 1712 592 1880 608)
	(text "INPUT" (rect 7 6 49 21)(font "Arial" (font_size 6)))
	(text "vme_ds0" (rect 104 4 171 20)(font "Arial" ))
	(pt 0 8)
	(drawing
		(line (pt 76 4)(pt 51 4))
		(line (pt 76 12)(pt 51 12))
		(line (pt 47 8)(pt 0 8))
		(line (pt 76 4)(pt 76 12))
		(line (pt 51 12)(pt 47 8))
		(line (pt 51 4)(pt 47 8))
	)
	(rotate180)
	(text "VCC" (rect 12 -1 41 14)(font "Arial" (font_size 6)))
)
(pin
	(input)
	(rect 1688 352 1856 368)
	(text "INPUT" (rect 4 6 46 21)(font "Arial" (font_size 6)))
	(text "clk_125mhz" (rect 106 4 193 20)(font "Arial" ))
	(pt 0 8)
	(drawing
		(line (pt 73 4)(pt 48 4))
		(line (pt 73 12)(pt 48 12))
		(line (pt 44 8)(pt -3 8))
		(line (pt 73 4)(pt 73 12))
		(line (pt 48 12)(pt 44 8))
		(line (pt 48 4)(pt 44 8))
	)
	(rotate180)
	(text "VCC" (rect 9 -1 38 14)(font "Arial" (font_size 6)))
)
(pin
	(input)
	(rect 1688 1728 1896 1744)
	(text "INPUT" (rect 7 6 49 21)(font "Arial" (font_size 6)))
	(text "vme_address[31..2]" (rect 104 4 251 20)(font "Arial" ))
	(pt 0 8)
	(drawing
		(line (pt 76 4)(pt 51 4))
		(line (pt 76 12)(pt 51 12))
		(line (pt 47 8)(pt 0 8))
		(line (pt 76 4)(pt 76 12))
		(line (pt 51 12)(pt 47 8))
		(line (pt 51 4)(pt 47 8))
	)
	(rotate180)
	(text "VCC" (rect 12 -1 41 14)(font "Arial" (font_size 6)))
)
(pin
	(input)
	(rect 584 1112 752 1128)
	(text "INPUT" (rect 133 6 175 21)(font "Arial" (font_size 6)))
	(text "dout[31..0]" (rect 5 4 85 20)(font "Arial" ))
	(pt 168 8)
	(drawing
		(line (pt 92 4)(pt 117 4))
		(line (pt 92 12)(pt 117 12))
		(line (pt 121 8)(pt 168 8))
		(line (pt 92 4)(pt 92 12))
		(line (pt 117 12)(pt 121 8))
		(line (pt 117 4)(pt 121 8))
	)
	(flipx)
	(text "VCC" (rect 136 -1 165 14)(font "Arial" (font_size 6)))
)
(pin
	(output)
	(rect 1688 840 1864 856)
	(text "OUTPUT" (rect 1 0 58 15)(font "Arial" (font_size 6)))
	(text "vme_berr" (rect 90 0 160 16)(font "Arial" ))
	(pt 0 8)
	(drawing
		(line (pt 0 8)(pt 52 8))
		(line (pt 52 4)(pt 78 4))
		(line (pt 52 12)(pt 78 12))
		(line (pt 52 12)(pt 52 4))
		(line (pt 78 4)(pt 82 8))
		(line (pt 82 8)(pt 78 12))
		(line (pt 78 12)(pt 82 8))
	)
)
(pin
	(output)
	(rect 624 784 800 800)
	(text "OUTPUT" (rect 137 0 194 15)(font "Arial" (font_size 6)))
	(text "vme_dir" (rect 5 0 64 16)(font "Arial" ))
	(pt 176 8)
	(drawing
		(line (pt 176 8)(pt 124 8))
		(line (pt 124 4)(pt 98 4))
		(line (pt 124 12)(pt 98 12))
		(line (pt 124 12)(pt 124 4))
		(line (pt 98 4)(pt 94 8))
		(line (pt 94 8)(pt 98 12))
		(line (pt 98 12)(pt 94 8))
	)
	(flipy)
)
(pin
	(output)
	(rect 1688 384 1864 400)
	(text "OUTPUT" (rect 1 0 58 15)(font "Arial" (font_size 6)))
	(text "vme_dtack" (rect 90 0 170 16)(font "Arial" ))
	(pt 0 8)
	(drawing
		(line (pt 0 8)(pt 52 8))
		(line (pt 52 4)(pt 78 4))
		(line (pt 52 12)(pt 78 12))
		(line (pt 52 12)(pt 52 4))
		(line (pt 78 4)(pt 82 8))
		(line (pt 82 8)(pt 78 12))
		(line (pt 78 12)(pt 82 8))
	)
)
(pin
	(output)
	(rect 608 688 784 704)
	(text "OUTPUT" (rect 137 0 194 15)(font "Arial" (font_size 6)))
	(text "vme_oe" (rect 5 0 64 16)(font "Arial" ))
	(pt 176 8)
	(drawing
		(line (pt 176 8)(pt 124 8))
		(line (pt 124 4)(pt 98 4))
		(line (pt 124 12)(pt 98 12))
		(line (pt 124 12)(pt 124 4))
		(line (pt 98 4)(pt 94 8))
		(line (pt 94 8)(pt 98 12))
		(line (pt 98 12)(pt 94 8))
	)
	(flipy)
)
(pin
	(output)
	(rect 1688 928 1864 944)
	(text "OUTPUT" (rect 1 0 58 15)(font "Arial" (font_size 6)))
	(text "vme_iackout" (rect 90 0 183 16)(font "Arial" ))
	(pt 0 8)
	(drawing
		(line (pt 0 8)(pt 52 8))
		(line (pt 52 4)(pt 78 4))
		(line (pt 52 12)(pt 78 12))
		(line (pt 52 12)(pt 52 4))
		(line (pt 78 4)(pt 82 8))
		(line (pt 82 8)(pt 78 12))
		(line (pt 78 12)(pt 82 8))
	)
)
(pin
	(output)
	(rect 952 1456 1136 1472)
	(text "OUTPUT" (rect 145 0 202 15)(font "Arial" (font_size 6)))
	(text "slot_number[4..0]" (rect 5 0 134 16)(font "Arial" ))
	(pt 184 8)
	(drawing
		(line (pt 184 8)(pt 132 8))
		(line (pt 132 4)(pt 106 4))
		(line (pt 132 12)(pt 106 12))
		(line (pt 132 12)(pt 132 4))
		(line (pt 106 4)(pt 102 8))
		(line (pt 102 8)(pt 106 12))
		(line (pt 106 12)(pt 102 8))
	)
	(flipy)
)
(pin
	(output)
	(rect 600 496 776 512)
	(text "OUTPUT" (rect 137 0 194 15)(font "Arial" (font_size 6)))
	(text "write_clock" (rect 5 0 86 16)(font "Arial" ))
	(pt 176 8)
	(drawing
		(line (pt 176 8)(pt 124 8))
		(line (pt 124 4)(pt 98 4))
		(line (pt 124 12)(pt 98 12))
		(line (pt 124 12)(pt 124 4))
		(line (pt 98 4)(pt 94 8))
		(line (pt 94 8)(pt 98 12))
		(line (pt 98 12)(pt 94 8))
	)
	(flipy)
)
(pin
	(output)
	(rect 608 648 784 664)
	(text "OUTPUT" (rect 137 0 194 15)(font "Arial" (font_size 6)))
	(text "read_clock" (rect 5 0 86 16)(font "Arial" ))
	(pt 176 8)
	(drawing
		(line (pt 176 8)(pt 124 8))
		(line (pt 124 4)(pt 98 4))
		(line (pt 124 12)(pt 98 12))
		(line (pt 124 12)(pt 124 4))
		(line (pt 98 4)(pt 94 8))
		(line (pt 94 8)(pt 98 12))
		(line (pt 98 12)(pt 94 8))
	)
	(flipy)
)
(pin
	(output)
	(rect 496 1592 672 1608)
	(text "OUTPUT" (rect 137 0 194 15)(font "Arial" (font_size 6)))
	(text "add_enable" (rect 5 0 93 16)(font "Arial" ))
	(pt 176 8)
	(drawing
		(line (pt 176 8)(pt 124 8))
		(line (pt 124 4)(pt 98 4))
		(line (pt 124 12)(pt 98 12))
		(line (pt 124 12)(pt 124 4))
		(line (pt 98 4)(pt 94 8))
		(line (pt 94 8)(pt 98 12))
		(line (pt 98 12)(pt 94 8))
	)
	(flipy)
)
(pin
	(output)
	(rect 576 1096 752 1112)
	(text "OUTPUT" (rect 137 0 194 15)(font "Arial" (font_size 6)))
	(text "din[31..0]" (rect 5 0 74 16)(font "Arial" ))
	(pt 176 8)
	(drawing
		(line (pt 176 8)(pt 124 8))
		(line (pt 124 4)(pt 98 4))
		(line (pt 124 12)(pt 98 12))
		(line (pt 124 12)(pt 124 4))
		(line (pt 98 4)(pt 94 8))
		(line (pt 94 8)(pt 98 12))
		(line (pt 98 12)(pt 94 8))
	)
	(flipy)
)
(pin
	(output)
	(rect 400 1696 592 1712)
	(text "OUTPUT" (rect 153 0 210 15)(font "Arial" (font_size 6)))
	(text "address[5..0]" (rect 5 0 103 16)(font "Arial" ))
	(pt 192 8)
	(drawing
		(line (pt 192 8)(pt 140 8))
		(line (pt 140 4)(pt 114 4))
		(line (pt 140 12)(pt 114 12))
		(line (pt 140 12)(pt 140 4))
		(line (pt 114 4)(pt 110 8))
		(line (pt 110 8)(pt 114 12))
		(line (pt 114 12)(pt 110 8))
	)
	(flipy)
)
(pin
	(bidir)
	(rect 1688 1112 1864 1128)
	(text "BIDIR" (rect 1 0 38 15)(font "Arial" (font_size 6)))
	(text "vme_data[31..0]" (rect 90 0 210 16)(font "Arial" ))
	(pt 0 8)
	(drawing
		(line (pt 56 4)(pt 78 4))
		(line (pt 0 8)(pt 52 8))
		(line (pt 56 12)(pt 78 12))
		(line (pt 78 4)(pt 82 8))
		(line (pt 78 12)(pt 82 8))
		(line (pt 56 4)(pt 52 8))
		(line (pt 52 8)(pt 56 12))
	)
	(text "VCC" (rect 4 7 33 22)(font "Arial" (font_size 6)))
)
(symbol
	(rect 1000 1616 1064 1672)
	(text "or20b" (rect 11 39 71 62)(font "Arial" (font_size 10)))
	(text "inst88" (rect 27 4 71 20)(font "Arial" ))
	(port
		(pt 64 24)
		(input)
		(text "data[19..0][0..0]" (rect 0 0 127 18)(font "Arial" (font_size 8)))
		(text "data[19..0][0..0]" (rect -28 85 99 103)(font "Arial" (font_size 8))(invisible))
		(line (pt 64 24)(pt 44 24)(line_width 3))
	)
	(port
		(pt 0 24)
		(output)
		(text "result" (rect 0 0 43 18)(font "Arial" (font_size 8)))
		(text "result" (rect -28 35 15 53)(font "Arial" (font_size 8))(invisible))
		(line (pt 0 24)(pt 13 24))
	)
	(drawing
		(text "20" (rect 49 24 67 40)(font "Arial" ))
		(line (pt 48 36)(pt 36 36))
		(line (pt 48 12)(pt 36 12))
		(line (pt 60 20)(pt 52 28))
		(arc (pt 48 12)(pt 48 36)(rect 43 3 85 45))
		(arc (pt 12 24)(pt 36 36)(rect 6 -24 66 36))
		(arc (pt 36 12)(pt 12 24)(rect 6 12 66 72))
	)
	(rotate180)
)
(symbol
	(rect 912 1624 992 1664)
	(text "inv1" (rect 26 23 66 46)(font "Arial" (font_size 10)))
	(text "inst201" (rect 37 4 91 20)(font "Arial" ))
	(port
		(pt 80 16)
		(input)
		(text "data" (rect 0 0 36 18)(font "Arial" (font_size 8)))
		(text "data" (rect 52 23 88 41)(font "Arial" (font_size 8))(invisible))
		(line (pt 80 16)(pt 56 16))
	)
	(port
		(pt 0 16)
		(output)
		(text "result" (rect 0 0 43 18)(font "Arial" (font_size 8)))
		(text "result" (rect -28 27 15 45)(font "Arial" (font_size 8))(invisible))
		(line (pt 0 16)(pt 34 16))
	)
	(drawing
		(line (pt 56 24)(pt 40 16))
		(line (pt 40 16)(pt 56 8))
		(line (pt 56 8)(pt 56 24))
		(circle (rect 34 13 40 19))
	)
	(rotate180)
)
(symbol
	(rect 1656 824 1688 840)
	(text "VCC" (rect 7 0 36 15)(font "Arial" (font_size 6)))
	(text "inst27" (rect 3 5 47 21)(font "Arial" )(invisible))
	(port
		(pt 16 16)
		(output)
		(text "1" (rect 19 7 28 23)(font "Courier New" (bold))(invisible))
		(text "1" (rect 19 7 28 23)(font "Courier New" (bold))(invisible))
		(line (pt 16 16)(pt 16 8))
	)
	(drawing
		(line (pt 8 8)(pt 24 8))
	)
)
(symbol
	(rect 728 1560 792 1640)
	(text "AND4" (rect 39 70 76 85)(font "Arial" (font_size 6)))
	(text "inst19" (rect 32 -1 76 15)(font "Arial" ))
	(port
		(pt 64 64)
		(input)
		(text "IN1" (rect 2 7 30 23)(font "Courier New" (bold))(invisible))
		(text "IN1" (rect 45 61 73 77)(font "Courier New" (bold))(invisible))
		(line (pt 64 64)(pt 46 64))
	)
	(port
		(pt 64 48)
		(input)
		(text "IN2" (rect 2 23 30 39)(font "Courier New" (bold))(invisible))
		(text "IN2" (rect 45 45 73 61)(font "Courier New" (bold))(invisible))
		(line (pt 64 48)(pt 46 48))
	)
	(port
		(pt 64 32)
		(input)
		(text "IN3" (rect 2 39 30 55)(font "Courier New" (bold))(invisible))
		(text "IN3" (rect 45 29 73 45)(font "Courier New" (bold))(invisible))
		(line (pt 64 32)(pt 46 32))
	)
	(port
		(pt 64 16)
		(input)
		(text "IN4" (rect 2 55 30 71)(font "Courier New" (bold))(invisible))
		(text "IN4" (rect 45 13 73 29)(font "Courier New" (bold))(invisible))
		(line (pt 64 16)(pt 46 16))
	)
	(port
		(pt 0 40)
		(output)
		(text "OUT" (rect 48 31 76 47)(font "Courier New" (bold))(invisible))
		(text "OUT" (rect -1 37 27 53)(font "Courier New" (bold))(invisible))
		(line (pt 18 40)(pt 0 40))
	)
	(drawing
		(line (pt 46 52)(pt 30 52))
		(line (pt 46 28)(pt 46 52))
		(line (pt 46 13)(pt 46 67))
		(line (pt 30 27)(pt 46 27))
		(arc (pt 30 28)(pt 30 52)(rect 17 27 42 52))
	)
	(rotate180)
)
(symbol
	(rect 1232 1312 1376 1392)
	(text "vme_amreg" (rect 28 63 149 86)(font "Arial" (font_size 10)))
	(text "inst3" (rect 113 4 148 20)(font "Arial" ))
	(port
		(pt 144 48)
		(input)
		(text "data[5..0]" (rect 0 0 76 18)(font "Arial" (font_size 8)))
		(text "data[5..0]" (rect 71 40 147 58)(font "Arial" (font_size 8)))
		(line (pt 144 48)(pt 128 48)(line_width 3))
	)
	(port
		(pt 144 32)
		(input)
		(text "clock" (rect 0 0 42 18)(font "Arial" (font_size 8)))
		(text "clock" (rect 89 24 131 42)(font "Arial" (font_size 8)))
		(line (pt 144 32)(pt 128 32))
	)
	(port
		(pt 0 32)
		(output)
		(text "q[5..0]" (rect 0 0 50 18)(font "Arial" (font_size 8)))
		(text "q[5..0]" (rect 14 24 64 42)(font "Arial" (font_size 8)))
		(line (pt 0 32)(pt 16 32)(line_width 3))
	)
	(drawing
		(text "DFF" (rect 13 51 46 67)(font "Arial" ))
		(line (pt 128 64)(pt 16 64))
		(line (pt 16 64)(pt 16 16))
		(line (pt 16 16)(pt 128 16))
		(line (pt 128 16)(pt 128 64))
		(line (pt 128 38)(pt 122 32))
		(line (pt 122 32)(pt 128 26))
	)
	(rotate180)
)
(symbol
	(rect 1232 1800 1376 1880)
	(text "ff3" (rect 63 63 90 86)(font "Arial" (font_size 10)))
	(text "inst100" (rect 101 4 155 20)(font "Arial" ))
	(port
		(pt 144 48)
		(input)
		(text "data" (rect 0 0 36 18)(font "Arial" (font_size 8)))
		(text "data" (rect 100 40 136 58)(font "Arial" (font_size 8)))
		(line (pt 144 48)(pt 128 48))
	)
	(port
		(pt 144 32)
		(input)
		(text "clock" (rect 0 0 42 18)(font "Arial" (font_size 8)))
		(text "clock" (rect 89 24 131 42)(font "Arial" (font_size 8)))
		(line (pt 144 32)(pt 128 32))
	)
	(port
		(pt 0 32)
		(output)
		(text "q" (rect 0 0 10 18)(font "Arial" (font_size 8)))
		(text "q" (rect 18 24 28 42)(font "Arial" (font_size 8)))
		(line (pt 0 32)(pt 16 32))
	)
	(drawing
		(text "DFF" (rect 13 51 46 67)(font "Arial" ))
		(line (pt 128 64)(pt 16 64))
		(line (pt 16 64)(pt 16 16))
		(line (pt 16 16)(pt 128 16))
		(line (pt 128 16)(pt 128 64))
		(line (pt 128 38)(pt 122 32))
		(line (pt 122 32)(pt 128 26))
	)
	(rotate180)
)
(symbol
	(rect 1624 584 1688 632)
	(text "NAND2" (rect 32 38 80 53)(font "Arial" (font_size 6)))
	(text "inst133" (rect 26 -1 80 15)(font "Arial" ))
	(port
		(pt 64 16)
		(input)
		(text "IN2" (rect 2 23 30 39)(font "Courier New" (bold))(invisible))
		(text "IN2" (rect 45 13 73 29)(font "Courier New" (bold))(invisible))
		(line (pt 64 16)(pt 49 16))
	)
	(port
		(pt 64 32)
		(input)
		(text "IN1" (rect 2 7 30 23)(font "Courier New" (bold))(invisible))
		(text "IN1" (rect 45 29 73 45)(font "Courier New" (bold))(invisible))
		(line (pt 64 32)(pt 49 32))
	)
	(port
		(pt 0 24)
		(output)
		(text "OUT" (rect 48 15 76 31)(font "Courier New" (bold))(invisible))
		(text "OUT" (rect -1 21 27 37)(font "Courier New" (bold))(invisible))
		(line (pt 12 24)(pt 0 24))
	)
	(drawing
		(line (pt 49 11)(pt 32 11))
		(line (pt 49 36)(pt 32 36))
		(line (pt 49 12)(pt 49 36))
		(arc (pt 32 12)(pt 32 36)(rect 19 11 44 36))
		(circle (rect 12 20 20 28))
	)
	(rotate180)
)
(symbol
	(rect 1016 528 1056 608)
	(text "inv1" (rect 1 26 24 66)(font "Arial" (font_size 10))(vertical))
	(text "inst212" (rect 24 37 40 91)(font "Arial" )(vertical))
	(port
		(pt 24 80)
		(input)
		(text "data" (rect 0 0 36 18)(font "Arial" (font_size 8)))
		(text "data" (rect 3 52 21 88)(font "Arial" (font_size 8))(vertical)(invisible))
		(line (pt 24 80)(pt 24 56))
	)
	(port
		(pt 24 0)
		(output)
		(text "result" (rect 0 0 43 18)(font "Arial" (font_size 8)))
		(text "result" (rect -1 -28 17 15)(font "Arial" (font_size 8))(vertical)(invisible))
		(line (pt 24 0)(pt 24 34))
	)
	(drawing
		(line (pt 16 56)(pt 24 40))
		(line (pt 24 40)(pt 32 56))
		(line (pt 32 56)(pt 16 56))
		(circle (rect 21 34 27 40))
	)
	(rotate90)
)
(symbol
	(rect 960 1080 1056 1136)
	(text "tribuf32" (rect 49 1 126 24)(font "Arial" (font_size 10)))
	(text "inst1" (rect 8 40 43 56)(font "Arial" ))
	(port
		(pt 40 56)
		(input)
		(text "enabledt" (rect 0 0 70 18)(font "Arial" (font_size 8)))
		(text "enabledt" (rect 40 10 110 28)(font "Arial" (font_size 8))(invisible))
		(line (pt 40 56)(pt 40 44))
	)
	(port
		(pt 0 40)
		(input)
		(text "data[31..0]" (rect 0 0 87 18)(font "Arial" (font_size 8)))
		(text "data[31..0]" (rect -3 -11 84 7)(font "Arial" (font_size 8))(invisible))
		(line (pt 0 40)(pt 32 40)(line_width 3))
	)
	(port
		(pt 40 0)
		(input)
		(text "enabletr" (rect 0 0 66 18)(font "Arial" (font_size 8)))
		(text "enabletr" (rect 40 -36 106 -18)(font "Arial" (font_size 8))(invisible))
	)
	(port
		(pt 0 24)
		(output)
		(text "result[31..0]" (rect 0 0 94 18)(font "Arial" (font_size 8)))
		(text "result[31..0]" (rect -3 -31 91 -13)(font "Arial" (font_size 8))(invisible))
		(line (pt 0 24)(pt 32 24)(line_width 3))
	)
	(port
		(pt 96 40)
		(bidir)
		(text "tridata[31..0]" (rect 0 0 102 18)(font "Arial" (font_size 8)))
		(text "tridata[31..0]" (rect 100 -20 202 -2)(font "Arial" (font_size 8))(invisible))
		(line (pt 96 40)(pt 48 40)(line_width 3))
	)
	(drawing
		(text "32" (rect 69 41 87 57)(font "Arial" ))
		(text "32" (rect 13 41 31 57)(font "Arial" ))
		(text "32" (rect 13 25 31 41)(font "Arial" ))
		(line (pt 48 16)(pt 32 24))
		(line (pt 32 24)(pt 48 32))
		(line (pt 48 32)(pt 48 16))
		(line (pt 32 32)(pt 48 40))
		(line (pt 48 40)(pt 32 48))
		(line (pt 32 48)(pt 32 32))
		(line (pt 48 24)(pt 56 24)(line_width 3))
		(line (pt 56 24)(pt 56 40)(line_width 3))
		(line (pt 64 44)(pt 72 36))
		(line (pt 8 44)(pt 16 36))
		(line (pt 8 28)(pt 16 20))
		(line (pt 40 0)(pt 40 20))
	)
)
(symbol
	(rect 896 1816 976 1856)
	(text "inv1" (rect 26 23 66 46)(font "Arial" (font_size 10)))
	(text "inst203" (rect 37 4 91 20)(font "Arial" ))
	(port
		(pt 80 16)
		(input)
		(text "data" (rect 0 0 36 18)(font "Arial" (font_size 8)))
		(text "data" (rect 52 23 88 41)(font "Arial" (font_size 8))(invisible))
		(line (pt 80 16)(pt 56 16))
	)
	(port
		(pt 0 16)
		(output)
		(text "result" (rect 0 0 43 18)(font "Arial" (font_size 8)))
		(text "result" (rect -28 27 15 45)(font "Arial" (font_size 8))(invisible))
		(line (pt 0 16)(pt 34 16))
	)
	(drawing
		(line (pt 56 24)(pt 40 16))
		(line (pt 40 16)(pt 56 8))
		(line (pt 56 8)(pt 56 24))
		(circle (rect 34 13 40 19))
	)
	(rotate180)
)
(symbol
	(rect 880 1040 960 1080)
	(text "inv1" (rect 29 1 69 24)(font "Arial" (font_size 10)))
	(text "inst214" (rect 8 24 62 40)(font "Arial" ))
	(port
		(pt 0 24)
		(input)
		(text "data" (rect 0 0 36 18)(font "Arial" (font_size 8)))
		(text "data" (rect 4 3 40 21)(font "Arial" (font_size 8))(invisible))
		(line (pt 0 24)(pt 24 24))
	)
	(port
		(pt 80 24)
		(output)
		(text "result" (rect 0 0 43 18)(font "Arial" (font_size 8)))
		(text "result" (rect 77 -1 120 17)(font "Arial" (font_size 8))(invisible))
		(line (pt 80 24)(pt 46 24))
	)
	(drawing
		(line (pt 24 16)(pt 40 24))
		(line (pt 40 24)(pt 24 32))
		(line (pt 24 32)(pt 24 16))
		(circle (rect 40 21 46 27))
	)
)
(symbol
	(rect 1232 1704 1376 1784)
	(text "vme_addreg" (rect 25 63 153 86)(font "Arial" (font_size 10)))
	(text "inst2" (rect 113 4 148 20)(font "Arial" ))
	(port
		(pt 144 48)
		(input)
		(text "data[31..0]" (rect 0 0 87 18)(font "Arial" (font_size 8)))
		(text "data[31..0]" (rect 64 40 151 58)(font "Arial" (font_size 8)))
		(line (pt 144 48)(pt 128 48)(line_width 3))
	)
	(port
		(pt 144 32)
		(input)
		(text "clock" (rect 0 0 42 18)(font "Arial" (font_size 8)))
		(text "clock" (rect 89 24 131 42)(font "Arial" (font_size 8)))
		(line (pt 144 32)(pt 128 32))
	)
	(port
		(pt 0 32)
		(output)
		(text "q[31..0]" (rect 0 0 61 18)(font "Arial" (font_size 8)))
		(text "q[31..0]" (rect 13 24 74 42)(font "Arial" (font_size 8)))
		(line (pt 0 32)(pt 16 32)(line_width 3))
	)
	(drawing
		(text "DFF" (rect 13 51 46 67)(font "Arial" ))
		(line (pt 128 64)(pt 16 64))
		(line (pt 16 64)(pt 16 16))
		(line (pt 16 16)(pt 128 16))
		(line (pt 128 16)(pt 128 64))
		(line (pt 128 38)(pt 122 32))
		(line (pt 122 32)(pt 128 26))
	)
	(rotate180)
)
(symbol
	(rect 1552 1776 1584 1808)
	(text "GND" (rect 8 16 39 31)(font "Arial" (font_size 6)))
	(text "inst92" (rect 3 21 47 37)(font "Arial" )(invisible))
	(port
		(pt 16 0)
		(output)
		(text "1" (rect 18 0 27 16)(font "Courier New" (bold))(invisible))
		(text "1" (rect 18 0 27 16)(font "Courier New" (bold))(invisible))
		(line (pt 16 8)(pt 16 0))
	)
	(drawing
		(line (pt 8 8)(pt 16 16))
		(line (pt 16 16)(pt 24 8))
		(line (pt 8 8)(pt 24 8))
	)
)
(symbol
	(rect 1232 1520 1376 1600)
	(text "vme_reg3" (rect 35 63 137 86)(font "Arial" (font_size 10)))
	(text "inst11" (rect 107 4 151 20)(font "Arial" ))
	(port
		(pt 144 48)
		(input)
		(text "data[4..0]" (rect 0 0 76 18)(font "Arial" (font_size 8)))
		(text "data[4..0]" (rect 71 40 147 58)(font "Arial" (font_size 8)))
		(line (pt 144 48)(pt 128 48)(line_width 3))
	)
	(port
		(pt 144 32)
		(input)
		(text "clock" (rect 0 0 42 18)(font "Arial" (font_size 8)))
		(text "clock" (rect 89 24 131 42)(font "Arial" (font_size 8)))
		(line (pt 144 32)(pt 128 32))
	)
	(port
		(pt 0 32)
		(output)
		(text "q[4..0]" (rect 0 0 50 18)(font "Arial" (font_size 8)))
		(text "q[4..0]" (rect 14 24 64 42)(font "Arial" (font_size 8)))
		(line (pt 0 32)(pt 16 32)(line_width 3))
	)
	(drawing
		(text "DFF" (rect 13 51 46 67)(font "Arial" ))
		(line (pt 128 64)(pt 16 64))
		(line (pt 16 64)(pt 16 16))
		(line (pt 16 16)(pt 128 16))
		(line (pt 128 16)(pt 128 64))
		(line (pt 128 38)(pt 122 32))
		(line (pt 122 32)(pt 128 26))
	)
	(rotate180)
)
(symbol
	(rect 944 760 1008 808)
	(text "AND3" (rect 39 38 76 53)(font "Arial" (font_size 6)))
	(text "inst166" (rect 32 -1 86 15)(font "Arial" ))
	(port
		(pt 64 32)
		(input)
		(text "IN1" (rect 2 7 30 23)(font "Courier New" (bold))(invisible))
		(text "IN1" (rect 45 29 73 45)(font "Courier New" (bold))(invisible))
		(line (pt 64 32)(pt 48 32))
	)
	(port
		(pt 64 24)
		(input)
		(text "IN2" (rect 2 15 30 31)(font "Courier New" (bold))(invisible))
		(text "IN2" (rect 45 21 73 37)(font "Courier New" (bold))(invisible))
		(line (pt 64 24)(pt 48 24))
	)
	(port
		(pt 64 16)
		(input)
		(text "IN3" (rect 2 23 30 39)(font "Courier New" (bold))(invisible))
		(text "IN3" (rect 45 13 73 29)(font "Courier New" (bold))(invisible))
		(line (pt 64 16)(pt 48 16))
	)
	(port
		(pt 0 24)
		(output)
		(text "OUT" (rect 48 15 76 31)(font "Courier New" (bold))(invisible))
		(text "OUT" (rect -1 21 27 37)(font "Courier New" (bold))(invisible))
		(line (pt 21 24)(pt 0 24))
	)
	(drawing
		(line (pt 48 36)(pt 33 36))
		(line (pt 48 11)(pt 33 11))
		(line (pt 48 36)(pt 48 11))
		(arc (pt 33 12)(pt 33 36)(rect 20 11 45 36))
	)
	(rotate180)
)
(symbol
	(rect 942 488 1006 536)
	(text "AND3" (rect 39 38 76 53)(font "Arial" (font_size 6)))
	(text "inst173" (rect 32 -1 86 15)(font "Arial" ))
	(port
		(pt 64 32)
		(input)
		(text "IN1" (rect 2 7 30 23)(font "Courier New" (bold))(invisible))
		(text "IN1" (rect 45 29 73 45)(font "Courier New" (bold))(invisible))
		(line (pt 64 32)(pt 48 32))
	)
	(port
		(pt 64 24)
		(input)
		(text "IN2" (rect 2 15 30 31)(font "Courier New" (bold))(invisible))
		(text "IN2" (rect 45 21 73 37)(font "Courier New" (bold))(invisible))
		(line (pt 64 24)(pt 48 24))
	)
	(port
		(pt 64 16)
		(input)
		(text "IN3" (rect 2 23 30 39)(font "Courier New" (bold))(invisible))
		(text "IN3" (rect 45 13 73 29)(font "Courier New" (bold))(invisible))
		(line (pt 64 16)(pt 48 16))
	)
	(port
		(pt 0 24)
		(output)
		(text "OUT" (rect 48 15 76 31)(font "Courier New" (bold))(invisible))
		(text "OUT" (rect -1 21 27 37)(font "Courier New" (bold))(invisible))
		(line (pt 21 24)(pt 0 24))
	)
	(drawing
		(line (pt 48 36)(pt 33 36))
		(line (pt 48 11)(pt 33 11))
		(line (pt 48 36)(pt 48 11))
		(arc (pt 33 12)(pt 33 36)(rect 20 11 45 36))
	)
	(rotate180)
)
(symbol
	(rect 942 624 1006 672)
	(text "AND3" (rect 39 38 76 53)(font "Arial" (font_size 6)))
	(text "inst174" (rect 32 -1 86 15)(font "Arial" ))
	(port
		(pt 64 32)
		(input)
		(text "IN1" (rect 2 7 30 23)(font "Courier New" (bold))(invisible))
		(text "IN1" (rect 45 29 73 45)(font "Courier New" (bold))(invisible))
		(line (pt 64 32)(pt 48 32))
	)
	(port
		(pt 64 24)
		(input)
		(text "IN2" (rect 2 15 30 31)(font "Courier New" (bold))(invisible))
		(text "IN2" (rect 45 21 73 37)(font "Courier New" (bold))(invisible))
		(line (pt 64 24)(pt 48 24))
	)
	(port
		(pt 64 16)
		(input)
		(text "IN3" (rect 2 23 30 39)(font "Courier New" (bold))(invisible))
		(text "IN3" (rect 45 13 73 29)(font "Courier New" (bold))(invisible))
		(line (pt 64 16)(pt 48 16))
	)
	(port
		(pt 0 24)
		(output)
		(text "OUT" (rect 48 15 76 31)(font "Courier New" (bold))(invisible))
		(text "OUT" (rect -1 21 27 37)(font "Courier New" (bold))(invisible))
		(line (pt 21 24)(pt 0 24))
	)
	(drawing
		(line (pt 48 36)(pt 33 36))
		(line (pt 48 11)(pt 33 11))
		(line (pt 48 36)(pt 48 11))
		(arc (pt 33 12)(pt 33 36)(rect 20 11 45 36))
	)
	(rotate180)
)
(symbol
	(rect 800 1208 848 1272)
	(text "AND2" (rect 0 39 15 76)(font "Arial" (font_size 6))(vertical))
	(text "inst175" (rect 37 32 53 86)(font "Arial" )(vertical))
	(port
		(pt 16 64)
		(input)
		(text "IN1" (rect 2 7 30 23)(font "Courier New" (bold))(invisible))
		(text "IN1" (rect 7 45 23 73)(font "Courier New" (bold))(vertical)(invisible))
		(line (pt 16 64)(pt 16 50))
	)
	(port
		(pt 32 64)
		(input)
		(text "IN2" (rect 2 23 30 39)(font "Courier New" (bold))(invisible))
		(text "IN2" (rect 23 45 39 73)(font "Courier New" (bold))(vertical)(invisible))
		(line (pt 32 64)(pt 32 50))
	)
	(port
		(pt 24 0)
		(output)
		(text "OUT" (rect 48 15 76 31)(font "Courier New" (bold))(invisible))
		(text "OUT" (rect 15 -1 31 27)(font "Courier New" (bold))(vertical)(invisible))
		(line (pt 24 22)(pt 24 0))
	)
	(drawing
		(line (pt 12 50)(pt 12 34))
		(line (pt 37 50)(pt 37 33))
		(line (pt 12 50)(pt 37 50))
		(arc (pt 37 33)(pt 12 34)(rect 12 21 37 46))
	)
	(rotate90)
)
(symbol
	(rect 1232 744 1376 824)
	(text "ff3" (rect 63 1 90 24)(font "Arial" (font_size 10)))
	(text "inst14" (rect 113 64 157 80)(font "Arial" ))
	(port
		(pt 144 32)
		(input)
		(text "data" (rect 0 0 36 18)(font "Arial" (font_size 8)))
		(text "data" (rect 100 26 136 44)(font "Arial" (font_size 8)))
		(line (pt 144 32)(pt 128 32))
	)
	(port
		(pt 144 48)
		(input)
		(text "clock" (rect 0 0 42 18)(font "Arial" (font_size 8)))
		(text "clock" (rect 89 42 131 60)(font "Arial" (font_size 8)))
		(line (pt 144 48)(pt 128 48))
	)
	(port
		(pt 0 48)
		(output)
		(text "q" (rect 0 0 10 18)(font "Arial" (font_size 8)))
		(text "q" (rect 18 42 28 60)(font "Arial" (font_size 8)))
		(line (pt 0 48)(pt 16 48))
	)
	(drawing
		(text "DFF" (rect 13 17 46 33)(font "Arial" ))
		(line (pt 128 16)(pt 16 16))
		(line (pt 16 16)(pt 16 64))
		(line (pt 16 64)(pt 128 64))
		(line (pt 128 64)(pt 128 16))
		(line (pt 128 42)(pt 122 48))
		(line (pt 122 48)(pt 128 54))
	)
	(flipy)
)
(symbol
	(rect 846 768 910 816)
	(text "AND2" (rect 39 38 76 53)(font "Arial" (font_size 6)))
	(text "inst177" (rect 32 -1 86 15)(font "Arial" ))
	(port
		(pt 64 32)
		(input)
		(text "IN1" (rect 2 7 30 23)(font "Courier New" (bold))(invisible))
		(text "IN1" (rect 45 29 73 45)(font "Courier New" (bold))(invisible))
		(line (pt 64 32)(pt 50 32))
	)
	(port
		(pt 64 16)
		(input)
		(text "IN2" (rect 2 23 30 39)(font "Courier New" (bold))(invisible))
		(text "IN2" (rect 45 13 73 29)(font "Courier New" (bold))(invisible))
		(line (pt 64 16)(pt 50 16))
	)
	(port
		(pt 0 24)
		(output)
		(text "OUT" (rect 48 15 76 31)(font "Courier New" (bold))(invisible))
		(text "OUT" (rect -1 21 27 37)(font "Courier New" (bold))(invisible))
		(line (pt 22 24)(pt 0 24))
	)
	(drawing
		(line (pt 50 36)(pt 34 36))
		(line (pt 50 11)(pt 33 11))
		(line (pt 50 36)(pt 50 11))
		(arc (pt 33 11)(pt 34 36)(rect 21 11 46 36))
	)
	(rotate180)
)
(symbol
	(rect 846 632 910 680)
	(text "AND2" (rect 39 38 76 53)(font "Arial" (font_size 6)))
	(text "inst178" (rect 32 -1 86 15)(font "Arial" ))
	(port
		(pt 64 32)
		(input)
		(text "IN1" (rect 2 7 30 23)(font "Courier New" (bold))(invisible))
		(text "IN1" (rect 45 29 73 45)(font "Courier New" (bold))(invisible))
		(line (pt 64 32)(pt 50 32))
	)
	(port
		(pt 64 16)
		(input)
		(text "IN2" (rect 2 23 30 39)(font "Courier New" (bold))(invisible))
		(text "IN2" (rect 45 13 73 29)(font "Courier New" (bold))(invisible))
		(line (pt 64 16)(pt 50 16))
	)
	(port
		(pt 0 24)
		(output)
		(text "OUT" (rect 48 15 76 31)(font "Courier New" (bold))(invisible))
		(text "OUT" (rect -1 21 27 37)(font "Courier New" (bold))(invisible))
		(line (pt 22 24)(pt 0 24))
	)
	(drawing
		(line (pt 50 36)(pt 34 36))
		(line (pt 50 11)(pt 33 11))
		(line (pt 50 36)(pt 50 11))
		(arc (pt 33 11)(pt 34 36)(rect 21 11 46 36))
	)
	(rotate180)
)
(symbol
	(rect 784 712 816 744)
	(text "GND" (rect 8 16 39 31)(font "Arial" (font_size 6)))
	(text "inst93" (rect 3 21 47 37)(font "Arial" )(invisible))
	(port
		(pt 16 0)
		(output)
		(text "1" (rect 18 0 27 16)(font "Courier New" (bold))(invisible))
		(text "1" (rect 18 0 27 16)(font "Courier New" (bold))(invisible))
		(line (pt 16 8)(pt 16 0))
	)
	(drawing
		(line (pt 8 8)(pt 16 16))
		(line (pt 16 16)(pt 24 8))
		(line (pt 8 8)(pt 24 8))
	)
)
(symbol
	(rect 1432 1552 1512 1592)
	(text "inv5b" (rect 20 23 73 46)(font "Arial" (font_size 10)))
	(text "inst97" (rect 43 4 87 20)(font "Arial" ))
	(port
		(pt 80 16)
		(input)
		(text "data[4..0]" (rect 0 0 76 18)(font "Arial" (font_size 8)))
		(text "data[4..0]" (rect 23 47 99 65)(font "Arial" (font_size 8))(invisible))
		(line (pt 80 16)(pt 56 16)(line_width 3))
	)
	(port
		(pt 0 16)
		(output)
		(text "result[4..0]" (rect 0 0 83 18)(font "Arial" (font_size 8)))
		(text "result[4..0]" (rect -57 51 26 69)(font "Arial" (font_size 8))(invisible))
		(line (pt 0 16)(pt 34 16)(line_width 3))
	)
	(drawing
		(text "5" (rect 64 3 73 19)(font "Arial" ))
		(text "5" (rect 13 3 22 19)(font "Arial" ))
		(line (pt 56 24)(pt 40 16))
		(line (pt 40 16)(pt 56 8))
		(line (pt 56 8)(pt 56 24))
		(line (pt 74 12)(pt 66 20))
		(line (pt 23 12)(pt 15 20))
		(circle (rect 34 13 40 19))
	)
	(rotate180)
)
(symbol
	(rect 1232 1432 1376 1512)
	(text "vme_reg3" (rect 35 63 137 86)(font "Arial" (font_size 10)))
	(text "inst84" (rect 107 4 151 20)(font "Arial" ))
	(port
		(pt 144 48)
		(input)
		(text "data[4..0]" (rect 0 0 76 18)(font "Arial" (font_size 8)))
		(text "data[4..0]" (rect 71 40 147 58)(font "Arial" (font_size 8)))
		(line (pt 144 48)(pt 128 48)(line_width 3))
	)
	(port
		(pt 144 32)
		(input)
		(text "clock" (rect 0 0 42 18)(font "Arial" (font_size 8)))
		(text "clock" (rect 89 24 131 42)(font "Arial" (font_size 8)))
		(line (pt 144 32)(pt 128 32))
	)
	(port
		(pt 0 32)
		(output)
		(text "q[4..0]" (rect 0 0 50 18)(font "Arial" (font_size 8)))
		(text "q[4..0]" (rect 14 24 64 42)(font "Arial" (font_size 8)))
		(line (pt 0 32)(pt 16 32)(line_width 3))
	)
	(drawing
		(text "DFF" (rect 13 51 46 67)(font "Arial" ))
		(line (pt 128 64)(pt 16 64))
		(line (pt 16 64)(pt 16 16))
		(line (pt 16 16)(pt 128 16))
		(line (pt 128 16)(pt 128 64))
		(line (pt 128 38)(pt 122 32))
		(line (pt 122 32)(pt 128 26))
	)
	(rotate180)
)
(symbol
	(rect 1008 1224 1136 1320)
	(text "compare6_13" (rect 11 1 153 24)(font "Arial" (font_size 10)))
	(text "inst148" (rect 85 80 139 96)(font "Arial" ))
	(port
		(pt 128 48)
		(input)
		(text "dataa[5..0]" (rect 0 0 87 18)(font "Arial" (font_size 8)))
		(text "dataa[5..0]" (rect 48 42 135 60)(font "Arial" (font_size 8)))
		(line (pt 128 48)(pt 112 48)(line_width 3))
	)
	(port
		(pt 0 56)
		(output)
		(text "aeb" (rect 0 0 31 18)(font "Arial" (font_size 8)))
		(text "aeb" (rect 16 50 47 68)(font "Arial" (font_size 8)))
		(line (pt 0 56)(pt 16 56))
	)
	(drawing
		(text "compare" (rect 10 17 74 33)(font "Arial" ))
		(text "datab[]=13" (rect 48 58 136 76)(font "Arial" (font_size 8)))
		(line (pt 112 16)(pt 16 16))
		(line (pt 16 16)(pt 16 80))
		(line (pt 16 80)(pt 112 80))
		(line (pt 112 80)(pt 112 16))
	)
	(flipy)
)
(symbol
	(rect 880 1320 944 1368)
	(text "OR2" (rect 45 38 74 53)(font "Arial" (font_size 6)))
	(text "inst181" (rect 26 -1 80 15)(font "Arial" ))
	(port
		(pt 64 16)
		(input)
		(text "IN2" (rect 2 23 30 39)(font "Courier New" (bold))(invisible))
		(text "IN2" (rect 45 13 73 29)(font "Courier New" (bold))(invisible))
		(line (pt 64 16)(pt 49 16))
	)
	(port
		(pt 64 32)
		(input)
		(text "IN1" (rect 2 7 30 23)(font "Courier New" (bold))(invisible))
		(text "IN1" (rect 45 29 73 45)(font "Courier New" (bold))(invisible))
		(line (pt 64 32)(pt 49 32))
	)
	(port
		(pt 0 24)
		(output)
		(text "OUT" (rect 48 15 76 31)(font "Courier New" (bold))(invisible))
		(text "OUT" (rect -1 21 27 37)(font "Courier New" (bold))(invisible))
		(line (pt 16 24)(pt 0 24))
	)
	(drawing
		(line (pt 50 12)(pt 39 12))
		(line (pt 50 35)(pt 39 35))
		(arc (pt 57 19)(pt 57 29)(rect 45 7 78 40))
		(arc (pt 15 24)(pt 39 35)(rect 7 -28 70 35))
		(arc (pt 39 13)(pt 15 24)(rect 7 12 70 75))
	)
	(rotate180)
)
(symbol
	(rect 1008 1336 1136 1432)
	(text "compare6_15" (rect 11 1 153 24)(font "Arial" (font_size 10)))
	(text "inst149" (rect 85 80 139 96)(font "Arial" ))
	(port
		(pt 128 48)
		(input)
		(text "dataa[5..0]" (rect 0 0 87 18)(font "Arial" (font_size 8)))
		(text "dataa[5..0]" (rect 48 42 135 60)(font "Arial" (font_size 8)))
		(line (pt 128 48)(pt 112 48)(line_width 3))
	)
	(port
		(pt 0 56)
		(output)
		(text "aeb" (rect 0 0 31 18)(font "Arial" (font_size 8)))
		(text "aeb" (rect 16 50 47 68)(font "Arial" (font_size 8)))
		(line (pt 0 56)(pt 16 56))
	)
	(drawing
		(text "compare" (rect 10 17 74 33)(font "Arial" ))
		(text "datab[]=15" (rect 48 58 136 76)(font "Arial" (font_size 8)))
		(line (pt 112 16)(pt 16 16))
		(line (pt 16 16)(pt 16 80))
		(line (pt 16 80)(pt 112 80))
		(line (pt 112 80)(pt 112 16))
	)
	(flipy)
)
(symbol
	(rect 1432 1280 1512 1320)
	(text "inv1" (rect 26 23 66 46)(font "Arial" (font_size 10)))
	(text "inst216" (rect 37 4 91 20)(font "Arial" ))
	(port
		(pt 80 16)
		(input)
		(text "data" (rect 0 0 36 18)(font "Arial" (font_size 8)))
		(text "data" (rect 52 23 88 41)(font "Arial" (font_size 8))(invisible))
		(line (pt 80 16)(pt 56 16))
	)
	(port
		(pt 0 16)
		(output)
		(text "result" (rect 0 0 43 18)(font "Arial" (font_size 8)))
		(text "result" (rect -28 27 15 45)(font "Arial" (font_size 8))(invisible))
		(line (pt 0 16)(pt 34 16))
	)
	(drawing
		(line (pt 56 24)(pt 40 16))
		(line (pt 40 16)(pt 56 8))
		(line (pt 56 8)(pt 56 24))
		(circle (rect 34 13 40 19))
	)
	(rotate180)
)
(symbol
	(rect 864 264 1008 344)
	(text "ff3" (rect 63 1 90 24)(font "Arial" (font_size 10)))
	(text "inst17" (rect 113 64 157 80)(font "Arial" ))
	(port
		(pt 144 32)
		(input)
		(text "data" (rect 0 0 36 18)(font "Arial" (font_size 8)))
		(text "data" (rect 100 26 136 44)(font "Arial" (font_size 8)))
		(line (pt 144 32)(pt 128 32))
	)
	(port
		(pt 144 48)
		(input)
		(text "clock" (rect 0 0 42 18)(font "Arial" (font_size 8)))
		(text "clock" (rect 89 42 131 60)(font "Arial" (font_size 8)))
		(line (pt 144 48)(pt 128 48))
	)
	(port
		(pt 0 48)
		(output)
		(text "q" (rect 0 0 10 18)(font "Arial" (font_size 8)))
		(text "q" (rect 18 42 28 60)(font "Arial" (font_size 8)))
		(line (pt 0 48)(pt 16 48))
	)
	(drawing
		(text "DFF" (rect 13 17 46 33)(font "Arial" ))
		(line (pt 128 16)(pt 16 16))
		(line (pt 16 16)(pt 16 64))
		(line (pt 16 64)(pt 128 64))
		(line (pt 128 64)(pt 128 16))
		(line (pt 128 42)(pt 122 48))
		(line (pt 122 48)(pt 128 54))
	)
	(flipy)
)
(symbol
	(rect 1120 592 1264 672)
	(text "ff3" (rect 63 1 90 24)(font "Arial" (font_size 10)))
	(text "inst20" (rect 113 64 157 80)(font "Arial" ))
	(port
		(pt 144 32)
		(input)
		(text "data" (rect 0 0 36 18)(font "Arial" (font_size 8)))
		(text "data" (rect 100 26 136 44)(font "Arial" (font_size 8)))
		(line (pt 144 32)(pt 128 32))
	)
	(port
		(pt 144 48)
		(input)
		(text "clock" (rect 0 0 42 18)(font "Arial" (font_size 8)))
		(text "clock" (rect 89 42 131 60)(font "Arial" (font_size 8)))
		(line (pt 144 48)(pt 128 48))
	)
	(port
		(pt 0 48)
		(output)
		(text "q" (rect 0 0 10 18)(font "Arial" (font_size 8)))
		(text "q" (rect 18 42 28 60)(font "Arial" (font_size 8)))
		(line (pt 0 48)(pt 16 48))
	)
	(drawing
		(text "DFF" (rect 13 17 46 33)(font "Arial" ))
		(line (pt 128 16)(pt 16 16))
		(line (pt 16 16)(pt 16 64))
		(line (pt 16 64)(pt 128 64))
		(line (pt 128 64)(pt 128 16))
		(line (pt 128 42)(pt 122 48))
		(line (pt 122 48)(pt 128 54))
	)
	(flipy)
)
(symbol
	(rect 1328 576 1472 656)
	(text "ff3" (rect 63 1 90 24)(font "Arial" (font_size 10)))
	(text "inst22" (rect 113 64 157 80)(font "Arial" ))
	(port
		(pt 144 32)
		(input)
		(text "data" (rect 0 0 36 18)(font "Arial" (font_size 8)))
		(text "data" (rect 100 26 136 44)(font "Arial" (font_size 8)))
		(line (pt 144 32)(pt 128 32))
	)
	(port
		(pt 144 48)
		(input)
		(text "clock" (rect 0 0 42 18)(font "Arial" (font_size 8)))
		(text "clock" (rect 89 42 131 60)(font "Arial" (font_size 8)))
		(line (pt 144 48)(pt 128 48))
	)
	(port
		(pt 0 48)
		(output)
		(text "q" (rect 0 0 10 18)(font "Arial" (font_size 8)))
		(text "q" (rect 18 42 28 60)(font "Arial" (font_size 8)))
		(line (pt 0 48)(pt 16 48))
	)
	(drawing
		(text "DFF" (rect 13 17 46 33)(font "Arial" ))
		(line (pt 128 16)(pt 16 16))
		(line (pt 16 16)(pt 16 64))
		(line (pt 16 64)(pt 128 64))
		(line (pt 128 64)(pt 128 16))
		(line (pt 128 42)(pt 122 48))
		(line (pt 122 48)(pt 128 54))
	)
	(flipy)
)
(symbol
	(rect 1024 272 1088 320)
	(text "AND2" (rect 39 38 76 53)(font "Arial" (font_size 6)))
	(text "inst180" (rect 32 -1 86 15)(font "Arial" ))
	(port
		(pt 64 32)
		(input)
		(text "IN1" (rect 2 7 30 23)(font "Courier New" (bold))(invisible))
		(text "IN1" (rect 45 29 73 45)(font "Courier New" (bold))(invisible))
		(line (pt 64 32)(pt 50 32))
	)
	(port
		(pt 64 16)
		(input)
		(text "IN2" (rect 2 23 30 39)(font "Courier New" (bold))(invisible))
		(text "IN2" (rect 45 13 73 29)(font "Courier New" (bold))(invisible))
		(line (pt 64 16)(pt 50 16))
	)
	(port
		(pt 0 24)
		(output)
		(text "OUT" (rect 48 15 76 31)(font "Courier New" (bold))(invisible))
		(text "OUT" (rect -1 21 27 37)(font "Courier New" (bold))(invisible))
		(line (pt 22 24)(pt 0 24))
	)
	(drawing
		(line (pt 50 36)(pt 34 36))
		(line (pt 50 11)(pt 33 11))
		(line (pt 50 36)(pt 50 11))
		(arc (pt 33 11)(pt 34 36)(rect 21 11 46 36))
	)
	(rotate180)
)
(symbol
	(rect 1104 256 1248 336)
	(text "ff3" (rect 63 1 90 24)(font "Arial" (font_size 10)))
	(text "inst18" (rect 113 64 157 80)(font "Arial" ))
	(port
		(pt 144 32)
		(input)
		(text "data" (rect 0 0 36 18)(font "Arial" (font_size 8)))
		(text "data" (rect 100 26 136 44)(font "Arial" (font_size 8)))
		(line (pt 144 32)(pt 128 32))
	)
	(port
		(pt 144 48)
		(input)
		(text "clock" (rect 0 0 42 18)(font "Arial" (font_size 8)))
		(text "clock" (rect 89 42 131 60)(font "Arial" (font_size 8)))
		(line (pt 144 48)(pt 128 48))
	)
	(port
		(pt 0 48)
		(output)
		(text "q" (rect 0 0 10 18)(font "Arial" (font_size 8)))
		(text "q" (rect 18 42 28 60)(font "Arial" (font_size 8)))
		(line (pt 0 48)(pt 16 48))
	)
	(drawing
		(text "DFF" (rect 13 17 46 33)(font "Arial" ))
		(line (pt 128 16)(pt 16 16))
		(line (pt 16 16)(pt 16 64))
		(line (pt 16 64)(pt 128 64))
		(line (pt 128 64)(pt 128 16))
		(line (pt 128 42)(pt 122 48))
		(line (pt 122 48)(pt 128 54))
	)
	(flipy)
)
(symbol
	(rect 624 272 768 352)
	(text "ff3" (rect 63 1 90 24)(font "Arial" (font_size 10)))
	(text "inst21" (rect 113 64 157 80)(font "Arial" ))
	(port
		(pt 144 32)
		(input)
		(text "data" (rect 0 0 36 18)(font "Arial" (font_size 8)))
		(text "data" (rect 100 26 136 44)(font "Arial" (font_size 8)))
		(line (pt 144 32)(pt 128 32))
	)
	(port
		(pt 144 48)
		(input)
		(text "clock" (rect 0 0 42 18)(font "Arial" (font_size 8)))
		(text "clock" (rect 89 42 131 60)(font "Arial" (font_size 8)))
		(line (pt 144 48)(pt 128 48))
	)
	(port
		(pt 0 48)
		(output)
		(text "q" (rect 0 0 10 18)(font "Arial" (font_size 8)))
		(text "q" (rect 18 42 28 60)(font "Arial" (font_size 8)))
		(line (pt 0 48)(pt 16 48))
	)
	(drawing
		(text "DFF" (rect 13 17 46 33)(font "Arial" ))
		(line (pt 128 16)(pt 16 16))
		(line (pt 16 16)(pt 16 64))
		(line (pt 16 64)(pt 128 64))
		(line (pt 128 64)(pt 128 16))
		(line (pt 128 42)(pt 122 48))
		(line (pt 122 48)(pt 128 54))
	)
	(flipy)
)
(symbol
	(rect 784 280 848 328)
	(text "AND2" (rect 39 38 76 53)(font "Arial" (font_size 6)))
	(text "inst182" (rect 32 -1 86 15)(font "Arial" ))
	(port
		(pt 64 32)
		(input)
		(text "IN1" (rect 2 7 30 23)(font "Courier New" (bold))(invisible))
		(text "IN1" (rect 45 29 73 45)(font "Courier New" (bold))(invisible))
		(line (pt 64 32)(pt 50 32))
	)
	(port
		(pt 64 16)
		(input)
		(text "IN2" (rect 2 23 30 39)(font "Courier New" (bold))(invisible))
		(text "IN2" (rect 45 13 73 29)(font "Courier New" (bold))(invisible))
		(line (pt 64 16)(pt 50 16))
	)
	(port
		(pt 0 24)
		(output)
		(text "OUT" (rect 48 15 76 31)(font "Courier New" (bold))(invisible))
		(text "OUT" (rect -1 21 27 37)(font "Courier New" (bold))(invisible))
		(line (pt 22 24)(pt 0 24))
	)
	(drawing
		(line (pt 50 36)(pt 34 36))
		(line (pt 50 11)(pt 33 11))
		(line (pt 50 36)(pt 50 11))
		(arc (pt 33 11)(pt 34 36)(rect 21 11 46 36))
	)
	(rotate180)
)
(symbol
	(rect 1264 264 1328 312)
	(text "AND2" (rect 39 38 76 53)(font "Arial" (font_size 6)))
	(text "inst183" (rect 32 -1 86 15)(font "Arial" ))
	(port
		(pt 64 32)
		(input)
		(text "IN1" (rect 2 7 30 23)(font "Courier New" (bold))(invisible))
		(text "IN1" (rect 45 29 73 45)(font "Courier New" (bold))(invisible))
		(line (pt 64 32)(pt 50 32))
	)
	(port
		(pt 64 16)
		(input)
		(text "IN2" (rect 2 23 30 39)(font "Courier New" (bold))(invisible))
		(text "IN2" (rect 45 13 73 29)(font "Courier New" (bold))(invisible))
		(line (pt 64 16)(pt 50 16))
	)
	(port
		(pt 0 24)
		(output)
		(text "OUT" (rect 48 15 76 31)(font "Courier New" (bold))(invisible))
		(text "OUT" (rect -1 21 27 37)(font "Courier New" (bold))(invisible))
		(line (pt 22 24)(pt 0 24))
	)
	(drawing
		(line (pt 50 36)(pt 34 36))
		(line (pt 50 11)(pt 33 11))
		(line (pt 50 36)(pt 50 11))
		(arc (pt 33 11)(pt 34 36)(rect 21 11 46 36))
	)
	(rotate180)
)
(symbol
	(rect 1344 248 1488 328)
	(text "ff3" (rect 63 1 90 24)(font "Arial" (font_size 10)))
	(text "inst23" (rect 113 64 157 80)(font "Arial" ))
	(port
		(pt 144 32)
		(input)
		(text "data" (rect 0 0 36 18)(font "Arial" (font_size 8)))
		(text "data" (rect 100 26 136 44)(font "Arial" (font_size 8)))
		(line (pt 144 32)(pt 128 32))
	)
	(port
		(pt 144 48)
		(input)
		(text "clock" (rect 0 0 42 18)(font "Arial" (font_size 8)))
		(text "clock" (rect 89 42 131 60)(font "Arial" (font_size 8)))
		(line (pt 144 48)(pt 128 48))
	)
	(port
		(pt 0 48)
		(output)
		(text "q" (rect 0 0 10 18)(font "Arial" (font_size 8)))
		(text "q" (rect 18 42 28 60)(font "Arial" (font_size 8)))
		(line (pt 0 48)(pt 16 48))
	)
	(drawing
		(text "DFF" (rect 13 17 46 33)(font "Arial" ))
		(line (pt 128 16)(pt 16 16))
		(line (pt 16 16)(pt 16 64))
		(line (pt 16 64)(pt 128 64))
		(line (pt 128 64)(pt 128 16))
		(line (pt 128 42)(pt 122 48))
		(line (pt 122 48)(pt 128 54))
	)
	(flipy)
)
(symbol
	(rect 776 368 856 408)
	(text "inv1" (rect 29 1 69 24)(font "Arial" (font_size 10)))
	(text "inst213" (rect 8 24 62 40)(font "Arial" ))
	(port
		(pt 0 24)
		(input)
		(text "data" (rect 0 0 36 18)(font "Arial" (font_size 8)))
		(text "data" (rect 4 3 40 21)(font "Arial" (font_size 8))(invisible))
		(line (pt 0 24)(pt 24 24))
	)
	(port
		(pt 80 24)
		(output)
		(text "result" (rect 0 0 43 18)(font "Arial" (font_size 8)))
		(text "result" (rect 77 -1 120 17)(font "Arial" (font_size 8))(invisible))
		(line (pt 80 24)(pt 46 24))
	)
	(drawing
		(line (pt 24 16)(pt 40 24))
		(line (pt 40 24)(pt 24 32))
		(line (pt 24 32)(pt 24 16))
		(circle (rect 40 21 46 27))
	)
)
(symbol
	(rect 840 480 904 528)
	(text "AND2" (rect 39 38 76 53)(font "Arial" (font_size 6)))
	(text "inst179" (rect 32 -1 86 15)(font "Arial" ))
	(port
		(pt 64 32)
		(input)
		(text "IN1" (rect 2 7 30 23)(font "Courier New" (bold))(invisible))
		(text "IN1" (rect 45 29 73 45)(font "Courier New" (bold))(invisible))
		(line (pt 64 32)(pt 50 32))
	)
	(port
		(pt 64 16)
		(input)
		(text "IN2" (rect 2 23 30 39)(font "Courier New" (bold))(invisible))
		(text "IN2" (rect 45 13 73 29)(font "Courier New" (bold))(invisible))
		(line (pt 64 16)(pt 50 16))
	)
	(port
		(pt 0 24)
		(output)
		(text "OUT" (rect 48 15 76 31)(font "Courier New" (bold))(invisible))
		(text "OUT" (rect -1 21 27 37)(font "Courier New" (bold))(invisible))
		(line (pt 22 24)(pt 0 24))
	)
	(drawing
		(line (pt 50 36)(pt 34 36))
		(line (pt 50 11)(pt 33 11))
		(line (pt 50 36)(pt 50 11))
		(arc (pt 33 11)(pt 34 36)(rect 21 11 46 36))
	)
	(rotate180)
)
(symbol
	(rect 1176 480 1240 528)
	(text "AND2" (rect 39 38 76 53)(font "Arial" (font_size 6)))
	(text "inst184" (rect 32 -1 86 15)(font "Arial" ))
	(port
		(pt 64 32)
		(input)
		(text "IN1" (rect 2 7 30 23)(font "Courier New" (bold))(invisible))
		(text "IN1" (rect 45 29 73 45)(font "Courier New" (bold))(invisible))
		(line (pt 64 32)(pt 50 32))
	)
	(port
		(pt 64 16)
		(input)
		(text "IN2" (rect 2 23 30 39)(font "Courier New" (bold))(invisible))
		(text "IN2" (rect 45 13 73 29)(font "Courier New" (bold))(invisible))
		(line (pt 64 16)(pt 50 16))
	)
	(port
		(pt 0 24)
		(output)
		(text "OUT" (rect 48 15 76 31)(font "Courier New" (bold))(invisible))
		(text "OUT" (rect -1 21 27 37)(font "Courier New" (bold))(invisible))
		(line (pt 22 24)(pt 0 24))
	)
	(drawing
		(line (pt 50 36)(pt 34 36))
		(line (pt 50 11)(pt 33 11))
		(line (pt 50 36)(pt 50 11))
		(arc (pt 33 11)(pt 34 36)(rect 21 11 46 36))
	)
	(rotate180)
)
(symbol
	(rect 832 1608 896 1656)
	(text "OR2" (rect 45 38 74 53)(font "Arial" (font_size 6)))
	(text "inst187" (rect 26 -1 80 15)(font "Arial" ))
	(port
		(pt 64 16)
		(input)
		(text "IN2" (rect 2 23 30 39)(font "Courier New" (bold))(invisible))
		(text "IN2" (rect 45 13 73 29)(font "Courier New" (bold))(invisible))
		(line (pt 64 16)(pt 49 16))
	)
	(port
		(pt 64 32)
		(input)
		(text "IN1" (rect 2 7 30 23)(font "Courier New" (bold))(invisible))
		(text "IN1" (rect 45 29 73 45)(font "Courier New" (bold))(invisible))
		(line (pt 64 32)(pt 49 32))
	)
	(port
		(pt 0 24)
		(output)
		(text "OUT" (rect 48 15 76 31)(font "Courier New" (bold))(invisible))
		(text "OUT" (rect -1 21 27 37)(font "Courier New" (bold))(invisible))
		(line (pt 16 24)(pt 0 24))
	)
	(drawing
		(line (pt 50 12)(pt 39 12))
		(line (pt 50 35)(pt 39 35))
		(arc (pt 57 19)(pt 57 29)(rect 45 7 78 40))
		(arc (pt 15 24)(pt 39 35)(rect 7 -28 70 35))
		(arc (pt 39 13)(pt 15 24)(rect 7 12 70 75))
	)
	(rotate180)
)
(symbol
	(rect 936 1504 1064 1600)
	(text "compare5" (rect 25 0 128 23)(font "Arial" (font_size 10)))
	(text "inst83" (rect 91 80 135 96)(font "Arial" ))
	(port
		(pt 128 48)
		(input)
		(text "dataa[4..0]" (rect 0 0 87 18)(font "Arial" (font_size 8)))
		(text "dataa[4..0]" (rect 48 41 135 59)(font "Arial" (font_size 8)))
		(line (pt 128 48)(pt 112 48)(line_width 3))
	)
	(port
		(pt 128 64)
		(input)
		(text "datab[4..0]" (rect 0 0 87 18)(font "Arial" (font_size 8)))
		(text "datab[4..0]" (rect 48 57 135 75)(font "Arial" (font_size 8)))
		(line (pt 128 64)(pt 112 64)(line_width 3))
	)
	(port
		(pt 0 48)
		(output)
		(text "aeb" (rect 0 0 31 18)(font "Arial" (font_size 8)))
		(text "aeb" (rect 16 41 47 59)(font "Arial" (font_size 8)))
		(line (pt 0 48)(pt 16 48))
	)
	(port
		(pt 0 64)
		(output)
		(text "agb" (rect 0 0 31 18)(font "Arial" (font_size 8)))
		(text "agb" (rect 16 57 47 75)(font "Arial" (font_size 8)))
		(line (pt 0 64)(pt 16 64))
	)
	(drawing
		(text "unsigned compare" (rect 3 26 141 42)(font "Arial" ))
		(line (pt 112 16)(pt 112 80))
		(line (pt 112 16)(pt 16 16))
		(line (pt 112 80)(pt 16 80))
		(line (pt 16 16)(pt 16 80))
		(line (pt 128 0)(pt -1 0))
		(line (pt -1 0)(pt -1 98))
		(line (pt 128 98)(pt -1 98))
		(line (pt 128 0)(pt 128 98))
		(line (pt 128 0)(pt 128 0))
		(line (pt 128 0)(pt 128 0))
		(line (pt 128 0)(pt 128 0))
		(line (pt 128 0)(pt 128 0))
	)
	(flipy)
)
(symbol
	(rect 1592 1616 1640 1648)
	(text "WIRE" (rect 1 0 37 15)(font "Arial" (font_size 6)))
	(text "inst" (rect 3 21 28 37)(font "Arial" ))
	(port
		(pt 0 16)
		(input)
		(text "IN" (rect 2 7 20 23)(font "Courier New" (bold))(invisible))
		(text "IN" (rect 2 7 20 23)(font "Courier New" (bold))(invisible))
		(line (pt 0 16)(pt 14 16))
	)
	(port
		(pt 48 16)
		(output)
		(text "OUT" (rect 32 7 60 23)(font "Courier New" (bold))(invisible))
		(text "OUT" (rect 32 7 60 23)(font "Courier New" (bold))(invisible))
		(line (pt 32 16)(pt 48 16))
	)
	(drawing
		(line (pt 14 7)(pt 32 16))
		(line (pt 14 25)(pt 14 7))
		(line (pt 14 25)(pt 32 16))
	)
)
(symbol
	(rect 1592 1656 1640 1688)
	(text "WIRE" (rect 1 0 37 15)(font "Arial" (font_size 6)))
	(text "inst4" (rect 3 21 34 36)(font "Arial" (font_size 6)))
	(port
		(pt 0 16)
		(input)
		(text "IN" (rect 2 7 20 23)(font "Courier New" (bold))(invisible))
		(text "IN" (rect 2 7 20 23)(font "Courier New" (bold))(invisible))
		(line (pt 0 16)(pt 14 16))
	)
	(port
		(pt 48 16)
		(output)
		(text "OUT" (rect 32 7 60 23)(font "Courier New" (bold))(invisible))
		(text "OUT" (rect 32 7 60 23)(font "Courier New" (bold))(invisible))
		(line (pt 32 16)(pt 48 16))
	)
	(drawing
		(line (pt 14 7)(pt 32 16))
		(line (pt 14 25)(pt 14 7))
		(line (pt 14 25)(pt 32 16))
	)
)
(symbol
	(rect 1536 1656 1568 1688)
	(text "GND" (rect 1 8 16 39)(font "Arial" (font_size 6))(vertical))
	(text "inst5" (rect -4 3 11 34)(font "Arial" (font_size 6))(vertical)(invisible))
	(port
		(pt 32 16)
		(output)
		(text "1" (rect 18 0 27 16)(font "Courier New" (bold))(invisible))
		(text "1" (rect 16 18 32 27)(font "Courier New" (bold))(vertical)(invisible))
		(line (pt 24 16)(pt 32 16))
	)
	(drawing
		(line (pt 24 8)(pt 16 16))
		(line (pt 16 16)(pt 24 24))
		(line (pt 24 8)(pt 24 24))
	)
	(rotate270)
)
(symbol
	(rect 904 1712 1016 1760)
	(text "CL_const_buffer_addr" (rect -121 0 112 23)(font "Arial" (font_size 10)))
	(text "inst6" (rect 73 28 104 43)(font "Arial" (font_size 6)))
	(port
		(pt 0 24)
		(output)
		(text "result[5..0]" (rect 0 0 83 18)(font "Arial" (font_size 8)))
		(text "22" (rect 16 15 37 33)(font "Arial" (font_size 8)))
		(line (pt 0 24)(pt 16 24)(line_width 3))
	)
	(drawing
		(text "6" (rect 7 24 16 40)(font "Arial" ))
		(line (pt 6 20)(pt 14 28))
		(line (pt 96 16)(pt 96 32))
		(line (pt 96 16)(pt 16 16))
		(line (pt 96 32)(pt 16 32))
		(line (pt 16 16)(pt 16 32))
		(line (pt 112 0)(pt -2 0))
		(line (pt -2 0)(pt -2 50))
		(line (pt 112 50)(pt -2 50))
		(line (pt 112 0)(pt 112 50))
		(line (pt 112 0)(pt 112 0))
		(line (pt 112 0)(pt 112 0))
		(line (pt 112 0)(pt 112 0))
		(line (pt 112 0)(pt 112 0))
	)
	(flipy)
)
(symbol
	(rect 632 1672 776 1752)
	(text "CL_mux2x6" (rect 1 57 123 80)(font "Arial" (font_size 10)))
	(text "inst7" (rect 105 5 136 20)(font "Arial" (font_size 6)))
	(port
		(pt 144 40)
		(input)
		(text "data1x[5..0]" (rect 0 0 95 18)(font "Arial" (font_size 8)))
		(text "data1x[5..0]" (rect 45 40 140 58)(font "Arial" (font_size 8)))
		(line (pt 144 40)(pt 80 40)(line_width 3))
	)
	(port
		(pt 144 24)
		(input)
		(text "data0x[5..0]" (rect 0 0 95 18)(font "Arial" (font_size 8)))
		(text "data0x[5..0]" (rect 45 24 140 42)(font "Arial" (font_size 8)))
		(line (pt 144 24)(pt 80 24)(line_width 3))
	)
	(port
		(pt 72 0)
		(input)
		(text "sel" (rect 0 0 18 23)(font "Arial" (font_size 8))(vertical))
		(text "sel" (rect 63 12 81 35)(font "Arial" (font_size 8))(vertical))
		(line (pt 72 0)(pt 72 12))
	)
	(port
		(pt 0 32)
		(output)
		(text "result[5..0]" (rect 0 0 83 18)(font "Arial" (font_size 8)))
		(text "result[5..0]" (rect -9 32 74 50)(font "Arial" (font_size 8)))
		(line (pt 0 32)(pt 64 32)(line_width 3))
	)
	(drawing
		(line (pt 80 56)(pt 80 8))
		(line (pt 80 56)(pt 64 48))
		(line (pt 80 8)(pt 64 16))
		(line (pt 64 48)(pt 64 16))
		(line (pt 144 80)(pt -2 80))
		(line (pt -2 80)(pt -2 -2))
		(line (pt 144 -2)(pt -2 -2))
		(line (pt 144 80)(pt 144 -2))
		(line (pt 144 80)(pt 144 80))
		(line (pt 144 80)(pt 144 80))
		(line (pt 144 80)(pt 144 80))
		(line (pt 144 80)(pt 144 80))
	)
	(rotate180)
)
(connector
	(pt 1000 1136)
	(pt 1000 1160)
)
(connector
	(pt 1000 1080)
	(pt 1000 1064)
)
(connector
	(pt 960 1064)
	(pt 1000 1064)
)
(connector
	(pt 1000 1160)
	(pt 832 1160)
)
(connector
	(pt 1392 1736)
	(pt 1376 1736)
)
(connector
	(pt 1376 1832)
	(pt 1392 1832)
)
(connector
	(text "add[31..0]" (rect 1410 1736 1485 1752)(font "Arial" ))
	(pt 1376 1752)
	(pt 1488 1752)
	(bus)
)
(connector
	(pt 1568 1768)
	(pt 1568 1776)
	(bus)
)
(connector
	(text "add[1..0]" (rect 1498 1752 1564 1768)(font "Arial" ))
	(pt 1488 1768)
	(pt 1568 1768)
	(bus)
)
(connector
	(pt 1376 1552)
	(pt 1392 1552)
)
(connector
	(text "vme_add[31..27]" (rect 1066 1552 1191 1568)(font "Arial" ))
	(pt 1064 1568)
	(pt 1152 1568)
	(bus)
)
(connector
	(text "vme_add[31..0]" (rect 1162 1720 1277 1736)(font "Arial" ))
	(pt 1152 1736)
	(pt 1232 1736)
	(bus)
)
(connector
	(text "din[31..0]" (rect 762 1088 831 1104)(font "Arial" ))
	(pt 752 1104)
	(pt 960 1104)
	(bus)
)
(connector
	(pt 832 1064)
	(pt 880 1064)
)
(connector
	(pt 1064 1552)
	(pt 1232 1552)
	(bus)
)
(connector
	(pt 976 1832)
	(pt 1232 1832)
)
(connector
	(pt 1416 1568)
	(pt 1416 1480)
	(bus)
)
(connector
	(pt 1416 1480)
	(pt 1376 1480)
	(bus)
)
(connector
	(pt 1136 1464)
	(pt 1232 1464)
	(bus)
)
(connector
	(pt 976 1392)
	(pt 976 1352)
)
(connector
	(pt 976 1352)
	(pt 944 1352)
)
(connector
	(pt 944 1336)
	(pt 976 1336)
)
(connector
	(pt 976 1336)
	(pt 976 1280)
)
(connector
	(pt 976 1280)
	(pt 1008 1280)
)
(connector
	(pt 1136 1384)
	(pt 1152 1384)
	(bus)
)
(connector
	(pt 1152 1272)
	(pt 1136 1272)
	(bus)
)
(connector
	(pt 1232 1344)
	(pt 1152 1344)
	(bus)
)
(connector
	(pt 1376 1344)
	(pt 1392 1344)
)
(connector
	(pt 1392 1296)
	(pt 1432 1296)
)
(connector
	(pt 1376 1848)
	(pt 1688 1848)
)
(connector
	(text "add[31..2]" (rect 1650 1720 1725 1736)(font "Arial" ))
	(pt 1488 1736)
	(pt 1688 1736)
	(bus)
)
(connector
	(pt 1512 1568)
	(pt 1688 1568)
	(bus)
)
(connector
	(pt 1376 1360)
	(pt 1688 1360)
	(bus)
)
(connector
	(pt 1512 1296)
	(pt 1688 1296)
)
(connector
	(pt 1056 1120)
	(pt 1688 1120)
	(bus)
)
(connector
	(pt 1688 848)
	(pt 1672 848)
)
(connector
	(pt 1672 848)
	(pt 1672 840)
)
(connector
	(pt 1672 952)
	(pt 1688 952)
)
(connector
	(pt 1672 952)
	(pt 1672 936)
)
(connector
	(pt 1672 936)
	(pt 1688 936)
)
(connector
	(pt 910 664)
	(pt 928 664)
)
(connector
	(pt 910 800)
	(pt 928 800)
)
(connector
	(pt 910 784)
	(pt 944 784)
)
(connector
	(pt 910 648)
	(pt 942 648)
)
(connector
	(pt 1040 520)
	(pt 1040 528)
)
(connector
	(pt 1006 656)
	(pt 1040 656)
)
(connector
	(pt 1008 784)
	(pt 1072 784)
)
(connector
	(pt 1006 648)
	(pt 1072 648)
)
(connector
	(pt 1006 512)
	(pt 1072 512)
)
(connector
	(pt 1568 792)
	(pt 1376 792)
)
(connector
	(pt 1376 776)
	(pt 1680 776)
)
(connector
	(pt 928 856)
	(pt 1568 856)
)
(connector
	(pt 904 512)
	(pt 942 512)
)
(connector
	(pt 776 504)
	(pt 840 504)
)
(connector
	(pt 784 656)
	(pt 846 656)
)
(connector
	(pt 1006 520)
	(pt 1040 520)
)
(connector
	(pt 1024 296)
	(pt 1008 296)
)
(connector
	(pt 1016 312)
	(pt 1008 312)
)
(connector
	(pt 1088 288)
	(pt 1096 288)
)
(connector
	(pt 1088 304)
	(pt 1104 304)
)
(connector
	(pt 784 304)
	(pt 768 304)
)
(connector
	(pt 776 320)
	(pt 768 320)
)
(connector
	(pt 848 296)
	(pt 856 296)
)
(connector
	(pt 848 312)
	(pt 864 312)
)
(connector
	(pt 1016 312)
	(pt 1016 360)
)
(connector
	(pt 776 320)
	(pt 776 360)
)
(connector
	(pt 1248 304)
	(pt 1256 304)
)
(connector
	(pt 1256 304)
	(pt 1256 360)
)
(connector
	(pt 1488 296)
	(pt 1496 296)
)
(connector
	(pt 1496 360)
	(pt 1496 296)
)
(connector
	(pt 624 320)
	(pt 608 320)
)
(connector
	(pt 1336 232)
	(pt 1336 280)
)
(connector
	(pt 1328 280)
	(pt 1336 280)
)
(connector
	(pt 1248 288)
	(pt 1264 288)
)
(connector
	(pt 1488 280)
	(pt 1512 280)
)
(connector
	(pt 1096 232)
	(pt 1096 288)
)
(connector
	(pt 904 496)
	(pt 920 496)
)
(connector
	(pt 608 320)
	(pt 608 392)
)
(connector
	(pt 608 392)
	(pt 776 392)
)
(connector
	(pt 920 496)
	(pt 920 392)
)
(connector
	(pt 856 232)
	(pt 856 296)
)
(connector
	(pt 1008 776)
	(pt 1096 776)
)
(connector
	(pt 1376 1464)
	(pt 1536 1464)
)
(connector
	(pt 1096 640)
	(pt 1096 776)
)
(connector
	(pt 1472 624)
	(pt 1488 624)
)
(connector
	(pt 1488 672)
	(pt 1488 624)
)
(connector
	(pt 1512 560)
	(pt 1312 560)
)
(connector
	(pt 1006 504)
	(pt 1176 504)
)
(connector
	(pt 1240 496)
	(pt 1336 496)
)
(connector
	(pt 1336 296)
	(pt 1336 496)
)
(connector
	(pt 1240 512)
	(pt 1312 512)
)
(connector
	(pt 1264 640)
	(pt 1280 640)
)
(connector
	(pt 1280 640)
	(pt 1280 672)
)
(connector
	(text "dout[31..0]" (rect 762 1128 842 1144)(font "Arial" ))
	(pt 752 1120)
	(pt 960 1120)
	(bus)
)
(connector
	(pt 784 696)
	(pt 800 696)
)
(connector
	(pt 800 696)
	(pt 800 712)
)
(connector
	(pt 1688 616)
	(pt 1712 616)
)
(connector
	(pt 1688 600)
	(pt 1712 600)
)
(connector
	(pt 1000 1640)
	(pt 992 1640)
)
(connector
	(pt 816 1576)
	(pt 792 1576)
)
(connector
	(pt 800 1624)
	(pt 792 1624)
)
(connector
	(pt 792 1608)
	(pt 816 1608)
)
(connector
	(pt 896 1832)
	(pt 800 1832)
)
(connector
	(pt 800 1624)
	(pt 800 1832)
)
(connector
	(pt 904 1736)
	(pt 832 1736)
	(bus)
)
(connector
	(pt 832 1736)
	(pt 832 1712)
	(bus)
)
(connector
	(pt 792 1592)
	(pt 832 1592)
)
(connector
	(pt 776 1712)
	(pt 832 1712)
	(bus)
)
(connector
	(pt 824 1176)
	(pt 824 1208)
)
(connector
	(pt 1072 1176)
	(pt 824 1176)
)
(connector
	(pt 816 1344)
	(pt 880 1344)
)
(connector
	(pt 816 1632)
	(pt 832 1632)
)
(connector
	(pt 816 1608)
	(pt 816 1632)
)
(connector
	(pt 896 1640)
	(pt 912 1640)
)
(connector
	(pt 896 1624)
	(pt 904 1624)
)
(connector
	(pt 904 1624)
	(pt 904 1392)
)
(connector
	(pt 672 1600)
	(pt 728 1600)
)
(connector
	(pt 704 1392)
	(pt 704 1672)
)
(connector
	(pt 1392 1736)
	(pt 1392 1832)
)
(connector
	(pt 1376 1568)
	(pt 1416 1568)
	(bus)
)
(connector
	(pt 1416 1568)
	(pt 1432 1568)
	(bus)
)
(connector
	(pt 1152 1272)
	(pt 1152 1344)
	(bus)
)
(connector
	(pt 1152 1344)
	(pt 1152 1384)
	(bus)
)
(connector
	(pt 1392 1296)
	(pt 1392 1344)
)
(connector
	(pt 1392 1344)
	(pt 1392 1552)
)
(connector
	(pt 1392 1552)
	(pt 1392 1736)
)
(connector
	(pt 1488 1736)
	(pt 1488 1752)
	(bus)
)
(connector
	(pt 1488 1752)
	(pt 1488 1768)
	(bus)
)
(connector
	(pt 800 792)
	(pt 832 792)
)
(connector
	(pt 832 792)
	(pt 846 792)
)
(connector
	(pt 832 792)
	(pt 832 1064)
)
(connector
	(pt 832 1064)
	(pt 832 1160)
)
(connector
	(pt 1072 512)
	(pt 1072 648)
)
(connector
	(pt 1072 648)
	(pt 1072 784)
)
(connector
	(pt 1072 784)
	(pt 1072 1176)
)
(connector
	(pt 1040 608)
	(pt 1040 656)
)
(connector
	(pt 1040 656)
	(pt 1040 792)
)
(connector
	(pt 1008 792)
	(pt 1040 792)
)
(connector
	(pt 1040 792)
	(pt 1232 792)
)
(connector
	(pt 928 664)
	(pt 928 800)
)
(connector
	(pt 928 800)
	(pt 928 856)
)
(connector
	(pt 856 232)
	(pt 1096 232)
)
(connector
	(pt 1096 232)
	(pt 1336 232)
)
(connector
	(pt 1336 232)
	(pt 1512 232)
)
(connector
	(pt 856 392)
	(pt 920 392)
)
(connector
	(pt 920 392)
	(pt 1688 392)
)
(connector
	(pt 776 360)
	(pt 1016 360)
)
(connector
	(pt 1016 360)
	(pt 1256 360)
)
(connector
	(pt 1006 640)
	(pt 1096 640)
)
(connector
	(pt 1096 640)
	(pt 1120 640)
)
(connector
	(pt 1256 360)
	(pt 1496 360)
)
(connector
	(pt 1568 608)
	(pt 1568 792)
)
(connector
	(pt 1568 792)
	(pt 1568 856)
)
(connector
	(pt 1512 232)
	(pt 1512 280)
)
(connector
	(pt 1512 280)
	(pt 1512 560)
)
(connector
	(pt 1496 360)
	(pt 1536 360)
)
(connector
	(pt 1536 360)
	(pt 1688 360)
)
(connector
	(pt 1328 296)
	(pt 1336 296)
)
(connector
	(pt 1336 296)
	(pt 1344 296)
)
(connector
	(pt 1264 624)
	(pt 1312 624)
)
(connector
	(pt 1312 624)
	(pt 1328 624)
)
(connector
	(pt 1312 512)
	(pt 1312 560)
)
(connector
	(pt 1312 560)
	(pt 1312 624)
)
(connector
	(pt 1536 360)
	(pt 1536 672)
)
(connector
	(pt 1536 672)
	(pt 1536 1464)
)
(connector
	(pt 1280 672)
	(pt 1488 672)
)
(connector
	(pt 1488 672)
	(pt 1536 672)
)
(connector
	(pt 1472 608)
	(pt 1568 608)
)
(connector
	(pt 1568 608)
	(pt 1624 608)
)
(connector
	(pt 1152 1696)
	(pt 1152 1736)
	(bus)
)
(connector
	(pt 816 1272)
	(pt 816 1344)
)
(connector
	(pt 816 1344)
	(pt 816 1576)
)
(connector
	(pt 704 1392)
	(pt 904 1392)
)
(connector
	(pt 904 1392)
	(pt 976 1392)
)
(connector
	(pt 976 1392)
	(pt 1008 1392)
)
(connector
	(pt 832 1552)
	(pt 936 1552)
)
(connector
	(pt 832 1272)
	(pt 832 1552)
)
(connector
	(pt 832 1552)
	(pt 832 1592)
)
(connector
	(pt 1152 1568)
	(pt 1152 1696)
	(bus)
)
(connector
	(text "or20bin[26..7]" (rect 1072 1624 1160 1639)(font "Arial" (font_size 6)))
	(pt 1064 1640)
	(pt 1080 1640)
	(bus)
)
(connector
	(text "vme_add[26..8]" (rect 1464 1616 1579 1632)(font "Arial" ))
	(pt 1504 1632)
	(pt 1592 1632)
	(bus)
)
(connector
	(text "or20bin[26..8]" (rect 1648 1616 1736 1631)(font "Arial" (font_size 6)))
	(pt 1640 1632)
	(pt 1656 1632)
	(bus)
)
(connector
	(pt 1592 1672)
	(pt 1568 1672)
)
(connector
	(text "or20bin[7]" (rect 1640 1656 1704 1671)(font "Arial" (font_size 6)))
	(pt 1640 1672)
	(pt 1672 1672)
)
(connector
	(text "vme_add[7..2]" (rect 1066 1680 1172 1696)(font "Arial" ))
	(pt 776 1696)
	(pt 1152 1696)
	(bus)
)
(connector
	(pt 592 1704)
	(pt 632 1704)
	(bus)
)
(junction (pt 1392 1736))
(junction (pt 1392 1552))
(junction (pt 1416 1568))
(junction (pt 1152 1344))
(junction (pt 1392 1344))
(junction (pt 1488 1752))
(junction (pt 832 1064))
(junction (pt 832 792))
(junction (pt 1072 648))
(junction (pt 1072 784))
(junction (pt 1040 656))
(junction (pt 1040 792))
(junction (pt 928 800))
(junction (pt 1568 792))
(junction (pt 1016 360))
(junction (pt 1096 232))
(junction (pt 1336 232))
(junction (pt 920 392))
(junction (pt 1256 360))
(junction (pt 1496 360))
(junction (pt 1096 640))
(junction (pt 1512 280))
(junction (pt 1536 360))
(junction (pt 1336 296))
(junction (pt 1312 560))
(junction (pt 1312 624))
(junction (pt 1488 672))
(junction (pt 1536 672))
(junction (pt 1568 608))
(junction (pt 976 1392))
(junction (pt 1152 1696))
(junction (pt 816 1344))
(junction (pt 904 1392))
(junction (pt 832 1552))
(text "Quad Byte transfer LWORD=low" (rect 1664 1864 1936 1882)(font "Arial" (font_size 8)))
(text "If block access VME_A32SB" (rect 560 1760 805 1778)(font "Arial" (font_size 8)))
(text "VME_A32SB" (rect 920 1408 1039 1426)(font "Arial" (font_size 8)))
(text "VME_A342SD" (rect 920 1256 1050 1274)(font "Arial" (font_size 8)))
(text "map address space to 22 data buffer fifo" (rect 560 1776 891 1794)(font "Arial" (font_size 8)))
(rectangle (rect 440 176 1896 1896)(color 0 255 0)(line_width 2))
